%!PS-Adobe-3.0 EPSF-3.0
%%Creator: (MATLAB, The Mathworks, Inc. Version 8.5.0.197613 \(R2015a\). Operating System: Linux)
%%Title: (/home/victor/ampro/AMPRO II/Upslope Walking/figures/Thesis/Upslope/AnkleTrackingTwoSteps.eps)
%%CreationDate: 2016-02-18T16:12:22
%%Pages: (atend)
%%BoundingBox: 0 0 1391 751
%%LanguageLevel: 2
%%EndComments
%%BeginProlog
%%BeginResource: procset (Apache XML Graphics Std ProcSet) 1.2 0
%%Version: 1.2 0
%%Copyright: (Copyright 2001-2003,2010 The Apache Software Foundation. License terms: http://www.apache.org/licenses/LICENSE-2.0)
/bd{bind def}bind def
/ld{load def}bd
/GR/grestore ld
/M/moveto ld
/LJ/setlinejoin ld
/C/curveto ld
/f/fill ld
/LW/setlinewidth ld
/GC/setgray ld
/t/show ld
/N/newpath ld
/CT/concat ld
/cp/closepath ld
/S/stroke ld
/L/lineto ld
/CC/setcmykcolor ld
/A/ashow ld
/GS/gsave ld
/RC/setrgbcolor ld
/RM/rmoveto ld
/ML/setmiterlimit ld
/re {4 2 roll M
1 index 0 rlineto
0 exch rlineto
neg 0 rlineto
cp } bd
/_ctm matrix def
/_tm matrix def
/BT { _ctm currentmatrix pop matrix _tm copy pop 0 0 moveto } bd
/ET { _ctm setmatrix } bd
/iTm { _ctm setmatrix _tm concat } bd
/Tm { _tm astore pop iTm 0 0 moveto } bd
/ux 0.0 def
/uy 0.0 def
/F {
  /Tp exch def
  /Tf exch def
  Tf findfont Tp scalefont setfont
  /cf Tf def  /cs Tp def
} bd
/ULS {currentpoint /uy exch def /ux exch def} bd
/ULE {
  /Tcx currentpoint pop def
  gsave
  newpath
  cf findfont cs scalefont dup
  /FontMatrix get 0 get /Ts exch def /FontInfo get dup
  /UnderlinePosition get Ts mul /To exch def
  /UnderlineThickness get Ts mul /Tt exch def
  ux uy To add moveto  Tcx uy To add lineto
  Tt setlinewidth stroke
  grestore
} bd
/OLE {
  /Tcx currentpoint pop def
  gsave
  newpath
  cf findfont cs scalefont dup
  /FontMatrix get 0 get /Ts exch def /FontInfo get dup
  /UnderlinePosition get Ts mul /To exch def
  /UnderlineThickness get Ts mul /Tt exch def
  ux uy To add cs add moveto Tcx uy To add cs add lineto
  Tt setlinewidth stroke
  grestore
} bd
/SOE {
  /Tcx currentpoint pop def
  gsave
  newpath
  cf findfont cs scalefont dup
  /FontMatrix get 0 get /Ts exch def /FontInfo get dup
  /UnderlinePosition get Ts mul /To exch def
  /UnderlineThickness get Ts mul /Tt exch def
  ux uy To add cs 10 mul 26 idiv add moveto Tcx uy To add cs 10 mul 26 idiv add lineto
  Tt setlinewidth stroke
  grestore
} bd
/QT {
/Y22 exch store
/X22 exch store
/Y21 exch store
/X21 exch store
currentpoint
/Y21 load 2 mul add 3 div exch
/X21 load 2 mul add 3 div exch
/X21 load 2 mul /X22 load add 3 div
/Y21 load 2 mul /Y22 load add 3 div
/X22 load /Y22 load curveto
} bd
/SSPD {
dup length /d exch dict def
{
/v exch def
/k exch def
currentpagedevice k known {
/cpdv currentpagedevice k get def
v cpdv ne {
/upd false def
/nullv v type /nulltype eq def
/nullcpdv cpdv type /nulltype eq def
nullv nullcpdv or
{
/upd true def
} {
/sametype v type cpdv type eq def
sametype {
v type /arraytype eq {
/vlen v length def
/cpdvlen cpdv length def
vlen cpdvlen eq {
0 1 vlen 1 sub {
/i exch def
/obj v i get def
/cpdobj cpdv i get def
obj cpdobj ne {
/upd true def
exit
} if
} for
} {
/upd true def
} ifelse
} {
v type /dicttype eq {
v {
/dv exch def
/dk exch def
/cpddv cpdv dk get def
dv cpddv ne {
/upd true def
exit
} if
} forall
} {
/upd true def
} ifelse
} ifelse
} if
} ifelse
upd true eq {
d k v put
} if
} if
} if
} forall
d length 0 gt {
d setpagedevice
} if
} bd
%%EndResource
%%BeginResource: procset (Apache XML Graphics EPS ProcSet) 1.0 0
%%Version: 1.0 0
%%Copyright: (Copyright 2002-2003 The Apache Software Foundation. License terms: http://www.apache.org/licenses/LICENSE-2.0)
/BeginEPSF { %def
/b4_Inc_state save def         % Save state for cleanup
/dict_count countdictstack def % Count objects on dict stack
/op_count count 1 sub def      % Count objects on operand stack
userdict begin                 % Push userdict on dict stack
/showpage { } def              % Redefine showpage, { } = null proc
0 setgray 0 setlinecap         % Prepare graphics state
1 setlinewidth 0 setlinejoin
10 setmiterlimit [ ] 0 setdash newpath
/languagelevel where           % If level not equal to 1 then
{pop languagelevel             % set strokeadjust and
1 ne                           % overprint to their defaults.
{false setstrokeadjust false setoverprint
} if
} if
} bd
/EndEPSF { %def
count op_count sub {pop} repeat            % Clean up stacks
countdictstack dict_count sub {end} repeat
b4_Inc_state restore
} bd
%%EndResource
%FOPBeginFontDict
%%IncludeResource: font Courier-Bold
%%IncludeResource: font Helvetica
%%IncludeResource: font Courier-BoldOblique
%%IncludeResource: font Courier-Oblique
%%IncludeResource: font Times-Roman
%%IncludeResource: font Helvetica-BoldOblique
%%IncludeResource: font Helvetica-Bold
%%IncludeResource: font Helvetica-Oblique
%%IncludeResource: font Times-BoldItalic
%%IncludeResource: font Courier
%%IncludeResource: font Times-Italic
%%IncludeResource: font Times-Bold
%%IncludeResource: font Symbol
%%IncludeResource: font ZapfDingbats
%FOPEndFontDict
%%BeginResource: encoding WinAnsiEncoding
/WinAnsiEncoding [
/.notdef /.notdef /.notdef /.notdef /.notdef
/.notdef /.notdef /.notdef /.notdef /.notdef
/.notdef /.notdef /.notdef /.notdef /.notdef
/.notdef /.notdef /.notdef /.notdef /.notdef
/.notdef /.notdef /.notdef /.notdef /.notdef
/.notdef /.notdef /.notdef /.notdef /.notdef
/.notdef /.notdef /space /exclam /quotedbl
/numbersign /dollar /percent /ampersand /quotesingle
/parenleft /parenright /asterisk /plus /comma
/hyphen /period /slash /zero /one
/two /three /four /five /six
/seven /eight /nine /colon /semicolon
/less /equal /greater /question /at
/A /B /C /D /E
/F /G /H /I /J
/K /L /M /N /O
/P /Q /R /S /T
/U /V /W /X /Y
/Z /bracketleft /backslash /bracketright /asciicircum
/underscore /quoteleft /a /b /c
/d /e /f /g /h
/i /j /k /l /m
/n /o /p /q /r
/s /t /u /v /w
/x /y /z /braceleft /bar
/braceright /asciitilde /bullet /Euro /bullet
/quotesinglbase /florin /quotedblbase /ellipsis /dagger
/daggerdbl /circumflex /perthousand /Scaron /guilsinglleft
/OE /bullet /Zcaron /bullet /bullet
/quoteleft /quoteright /quotedblleft /quotedblright /bullet
/endash /emdash /asciitilde /trademark /scaron
/guilsinglright /oe /bullet /zcaron /Ydieresis
/space /exclamdown /cent /sterling /currency
/yen /brokenbar /section /dieresis /copyright
/ordfeminine /guillemotleft /logicalnot /sfthyphen /registered
/macron /degree /plusminus /twosuperior /threesuperior
/acute /mu /paragraph /middot /cedilla
/onesuperior /ordmasculine /guillemotright /onequarter /onehalf
/threequarters /questiondown /Agrave /Aacute /Acircumflex
/Atilde /Adieresis /Aring /AE /Ccedilla
/Egrave /Eacute /Ecircumflex /Edieresis /Igrave
/Iacute /Icircumflex /Idieresis /Eth /Ntilde
/Ograve /Oacute /Ocircumflex /Otilde /Odieresis
/multiply /Oslash /Ugrave /Uacute /Ucircumflex
/Udieresis /Yacute /Thorn /germandbls /agrave
/aacute /acircumflex /atilde /adieresis /aring
/ae /ccedilla /egrave /eacute /ecircumflex
/edieresis /igrave /iacute /icircumflex /idieresis
/eth /ntilde /ograve /oacute /ocircumflex
/otilde /odieresis /divide /oslash /ugrave
/uacute /ucircumflex /udieresis /yacute /thorn
/ydieresis
] def
%%EndResource
%FOPBeginFontReencode
/Courier-Bold findfont
dup length dict begin
  {1 index /FID ne {def} {pop pop} ifelse} forall
  /Encoding WinAnsiEncoding def
  currentdict
end
/Courier-Bold exch definefont pop
/Helvetica findfont
dup length dict begin
  {1 index /FID ne {def} {pop pop} ifelse} forall
  /Encoding WinAnsiEncoding def
  currentdict
end
/Helvetica exch definefont pop
/Courier-BoldOblique findfont
dup length dict begin
  {1 index /FID ne {def} {pop pop} ifelse} forall
  /Encoding WinAnsiEncoding def
  currentdict
end
/Courier-BoldOblique exch definefont pop
/Courier-Oblique findfont
dup length dict begin
  {1 index /FID ne {def} {pop pop} ifelse} forall
  /Encoding WinAnsiEncoding def
  currentdict
end
/Courier-Oblique exch definefont pop
/Times-Roman findfont
dup length dict begin
  {1 index /FID ne {def} {pop pop} ifelse} forall
  /Encoding WinAnsiEncoding def
  currentdict
end
/Times-Roman exch definefont pop
/Helvetica-BoldOblique findfont
dup length dict begin
  {1 index /FID ne {def} {pop pop} ifelse} forall
  /Encoding WinAnsiEncoding def
  currentdict
end
/Helvetica-BoldOblique exch definefont pop
/Helvetica-Bold findfont
dup length dict begin
  {1 index /FID ne {def} {pop pop} ifelse} forall
  /Encoding WinAnsiEncoding def
  currentdict
end
/Helvetica-Bold exch definefont pop
/Helvetica-Oblique findfont
dup length dict begin
  {1 index /FID ne {def} {pop pop} ifelse} forall
  /Encoding WinAnsiEncoding def
  currentdict
end
/Helvetica-Oblique exch definefont pop
/Times-BoldItalic findfont
dup length dict begin
  {1 index /FID ne {def} {pop pop} ifelse} forall
  /Encoding WinAnsiEncoding def
  currentdict
end
/Times-BoldItalic exch definefont pop
/Courier findfont
dup length dict begin
  {1 index /FID ne {def} {pop pop} ifelse} forall
  /Encoding WinAnsiEncoding def
  currentdict
end
/Courier exch definefont pop
/Times-Italic findfont
dup length dict begin
  {1 index /FID ne {def} {pop pop} ifelse} forall
  /Encoding WinAnsiEncoding def
  currentdict
end
/Times-Italic exch definefont pop
/Times-Bold findfont
dup length dict begin
  {1 index /FID ne {def} {pop pop} ifelse} forall
  /Encoding WinAnsiEncoding def
  currentdict
end
/Times-Bold exch definefont pop
%FOPEndFontReencode
%%EndProlog
%%Page: 1 1
%%PageBoundingBox: 0 0 1391 751
%%BeginPageSetup
[1 0 0 -1 0 751] CT
%%EndPageSetup
GS
[0.75 0 0 0.75 0 0.25] CT
N
0 0 M
1855 0 L
1855 1001 L
0 1001 L
0 0 L
cp
clip
1 GC
N
0 0 1855 1001 re
f
GR
GS
[0.75 0 0 0.75 0 0.25] CT
1 GC
N
0 0 1855 1001 re
f
GR
GS
[0.75 0 0 0.75 0 0.25] CT
1 GC
N
241 721 M
1679 721 L
1679 30 L
241 30 L
cp
f
GR
GS
[0.75 0 0 0.75 0 0.25] CT
0.873 GC
2 setlinecap
10.0 ML
N
241 721 M
241 30 L
S
GR
GS
[0.75 0 0 0.75 0 0.25] CT
0.873 GC
2 setlinecap
10.0 ML
N
465.626 721 M
465.626 30 L
S
GR
GS
[0.75 0 0 0.75 0 0.25] CT
0.873 GC
2 setlinecap
10.0 ML
N
690.252 721 M
690.252 30 L
S
GR
GS
[0.75 0 0 0.75 0 0.25] CT
0.873 GC
2 setlinecap
10.0 ML
N
914.878 721 M
914.878 30 L
S
GR
GS
[0.75 0 0 0.75 0 0.25] CT
0.873 GC
2 setlinecap
10.0 ML
N
1139.504 721 M
1139.504 30 L
S
GR
GS
[0.75 0 0 0.75 0 0.25] CT
0.873 GC
2 setlinecap
10.0 ML
N
1364.13 721 M
1364.13 30 L
S
GR
GS
[0.75 0 0 0.75 0 0.25] CT
0.873 GC
2 setlinecap
10.0 ML
N
1588.756 721 M
1588.756 30 L
S
GR
GS
[0.75 0 0 0.75 0 0.25] CT
0.873 GC
2 setlinecap
10.0 ML
N
1679 721 M
241 721 L
S
GR
GS
[0.75 0 0 0.75 0 0.25] CT
0.873 GC
2 setlinecap
10.0 ML
N
1679 605.833 M
241 605.833 L
S
GR
GS
[0.75 0 0 0.75 0 0.25] CT
0.873 GC
2 setlinecap
10.0 ML
N
1679 490.667 M
241 490.667 L
S
GR
GS
[0.75 0 0 0.75 0 0.25] CT
0.873 GC
2 setlinecap
10.0 ML
N
1679 375.5 M
241 375.5 L
S
GR
GS
[0.75 0 0 0.75 0 0.25] CT
0.873 GC
2 setlinecap
10.0 ML
N
1679 260.333 M
241 260.333 L
S
GR
GS
[0.75 0 0 0.75 0 0.25] CT
0.873 GC
2 setlinecap
10.0 ML
N
1679 145.167 M
241 145.167 L
S
GR
GS
[0.75 0 0 0.75 0 0.25] CT
0.873 GC
2 setlinecap
10.0 ML
N
1679 30 M
241 30 L
S
GR
GS
[0.75 0 0 0.75 720.0005 599.25002] CT
0.149 GC
/Helvetica 59 F
GS
[1 0 0 1 0 0] CT
-121 55 moveto 
1 -1 scale
(Time \(s\)) t 
GR
GR
GS
[0.75 0 0 0.75 0 0.25] CT
0.149 GC
2 setlinecap
10.0 ML
N
241 721 M
1679 721 L
S
GR
GS
[0.75 0 0 0.75 0 0.25] CT
0.149 GC
2 setlinecap
10.0 ML
N
241 30 M
1679 30 L
S
GR
GS
[0.75 0 0 0.75 0 0.25] CT
0.149 GC
2 setlinecap
10.0 ML
N
241 721 M
241 706.62 L
S
GR
GS
[0.75 0 0 0.75 0 0.25] CT
0.149 GC
2 setlinecap
10.0 ML
N
465.626 721 M
465.626 706.62 L
S
GR
GS
[0.75 0 0 0.75 0 0.25] CT
0.149 GC
2 setlinecap
10.0 ML
N
690.252 721 M
690.252 706.62 L
S
GR
GS
[0.75 0 0 0.75 0 0.25] CT
0.149 GC
2 setlinecap
10.0 ML
N
914.878 721 M
914.878 706.62 L
S
GR
GS
[0.75 0 0 0.75 0 0.25] CT
0.149 GC
2 setlinecap
10.0 ML
N
1139.504 721 M
1139.504 706.62 L
S
GR
GS
[0.75 0 0 0.75 0 0.25] CT
0.149 GC
2 setlinecap
10.0 ML
N
1364.13 721 M
1364.13 706.62 L
S
GR
GS
[0.75 0 0 0.75 0 0.25] CT
0.149 GC
2 setlinecap
10.0 ML
N
1588.756 721 M
1588.756 706.62 L
S
GR
GS
[0.75 0 0 0.75 0 0.25] CT
0.149 GC
2 setlinecap
10.0 ML
N
241 30 M
241 44.38 L
S
GR
GS
[0.75 0 0 0.75 0 0.25] CT
0.149 GC
2 setlinecap
10.0 ML
N
465.626 30 M
465.626 44.38 L
S
GR
GS
[0.75 0 0 0.75 0 0.25] CT
0.149 GC
2 setlinecap
10.0 ML
N
690.252 30 M
690.252 44.38 L
S
GR
GS
[0.75 0 0 0.75 0 0.25] CT
0.149 GC
2 setlinecap
10.0 ML
N
914.878 30 M
914.878 44.38 L
S
GR
GS
[0.75 0 0 0.75 0 0.25] CT
0.149 GC
2 setlinecap
10.0 ML
N
1139.504 30 M
1139.504 44.38 L
S
GR
GS
[0.75 0 0 0.75 0 0.25] CT
0.149 GC
2 setlinecap
10.0 ML
N
1364.13 30 M
1364.13 44.38 L
S
GR
GS
[0.75 0 0 0.75 0 0.25] CT
0.149 GC
2 setlinecap
10.0 ML
N
1588.756 30 M
1588.756 44.38 L
S
GR
GS
[0.75 0 0 0.75 180.75 550.99998] CT
0.149 GC
/Helvetica 53 F
GS
[1 0 0 1 0 0] CT
-17 50 moveto 
1 -1 scale
(0) t 
GR
GR
GS
[0.75 0 0 0.75 349.21946 550.99998] CT
0.149 GC
/Helvetica 53 F
GS
[1 0 0 1 0 0] CT
-17 50 moveto 
1 -1 scale
(1) t 
GR
GR
GS
[0.75 0 0 0.75 517.68892 550.99998] CT
0.149 GC
/Helvetica 53 F
GS
[1 0 0 1 0 0] CT
-17 50 moveto 
1 -1 scale
(2) t 
GR
GR
GS
[0.75 0 0 0.75 686.1584 550.99998] CT
0.149 GC
/Helvetica 53 F
GS
[1 0 0 1 0 0] CT
-17 50 moveto 
1 -1 scale
(3) t 
GR
GR
GS
[0.75 0 0 0.75 854.62784 550.99998] CT
0.149 GC
/Helvetica 53 F
GS
[1 0 0 1 0 0] CT
-17 50 moveto 
1 -1 scale
(4) t 
GR
GR
GS
[0.75 0 0 0.75 1023.09732 550.99998] CT
0.149 GC
/Helvetica 53 F
GS
[1 0 0 1 0 0] CT
-17 50 moveto 
1 -1 scale
(5) t 
GR
GR
GS
[0.75 0 0 0.75 1191.5668 550.99998] CT
0.149 GC
/Helvetica 53 F
GS
[1 0 0 1 0 0] CT
-17 50 moveto 
1 -1 scale
(6) t 
GR
GR
GS
[0 -0.75 0.75 0 104 281.87473] CT
0.149 GC
/Helvetica 59 F
GS
[1 0 0 1 0 0] CT
-255 -14 moveto 
1 -1 scale
(Ankle angle \(rad\)) t 
GR
GR
GS
[0.75 0 0 0.75 0 0.25] CT
0.149 GC
2 setlinecap
10.0 ML
N
241 721 M
241 30 L
S
GR
GS
[0.75 0 0 0.75 0 0.25] CT
0.149 GC
2 setlinecap
10.0 ML
N
1679 721 M
1679 30 L
S
GR
GS
[0.75 0 0 0.75 0 0.25] CT
0.149 GC
2 setlinecap
10.0 ML
N
241 721 M
255.38 721 L
S
GR
GS
[0.75 0 0 0.75 0 0.25] CT
0.149 GC
2 setlinecap
10.0 ML
N
241 605.833 M
255.38 605.833 L
S
GR
GS
[0.75 0 0 0.75 0 0.25] CT
0.149 GC
2 setlinecap
10.0 ML
N
241 490.667 M
255.38 490.667 L
S
GR
GS
[0.75 0 0 0.75 0 0.25] CT
0.149 GC
2 setlinecap
10.0 ML
N
241 375.5 M
255.38 375.5 L
S
GR
GS
[0.75 0 0 0.75 0 0.25] CT
0.149 GC
2 setlinecap
10.0 ML
N
241 260.333 M
255.38 260.333 L
S
GR
GS
[0.75 0 0 0.75 0 0.25] CT
0.149 GC
2 setlinecap
10.0 ML
N
241 145.167 M
255.38 145.167 L
S
GR
GS
[0.75 0 0 0.75 0 0.25] CT
0.149 GC
2 setlinecap
10.0 ML
N
241 30 M
255.38 30 L
S
GR
GS
[0.75 0 0 0.75 0 0.25] CT
0.149 GC
2 setlinecap
10.0 ML
N
1679 721 M
1664.62 721 L
S
GR
GS
[0.75 0 0 0.75 0 0.25] CT
0.149 GC
2 setlinecap
10.0 ML
N
1679 605.833 M
1664.62 605.833 L
S
GR
GS
[0.75 0 0 0.75 0 0.25] CT
0.149 GC
2 setlinecap
10.0 ML
N
1679 490.667 M
1664.62 490.667 L
S
GR
GS
[0.75 0 0 0.75 0 0.25] CT
0.149 GC
2 setlinecap
10.0 ML
N
1679 375.5 M
1664.62 375.5 L
S
GR
GS
[0.75 0 0 0.75 0 0.25] CT
0.149 GC
2 setlinecap
10.0 ML
N
1679 260.333 M
1664.62 260.333 L
S
GR
GS
[0.75 0 0 0.75 0 0.25] CT
0.149 GC
2 setlinecap
10.0 ML
N
1679 145.167 M
1664.62 145.167 L
S
GR
GS
[0.75 0 0 0.75 0 0.25] CT
0.149 GC
2 setlinecap
10.0 ML
N
1679 30 M
1664.62 30 L
S
GR
GS
[0.75 0 0 0.75 170.75 541] CT
0.149 GC
/Helvetica 53 F
GS
[1 0 0 1 0 0] CT
-34 18.5 moveto 
1 -1 scale
(0) t 
GR
GR
GS
[0.75 0 0 0.75 170.75 454.62498] CT
0.149 GC
/Helvetica 53 F
GS
[1 0 0 1 0 0] CT
-85 18.5 moveto 
1 -1 scale
(0.1) t 
GR
GR
GS
[0.75 0 0 0.75 170.75 368.24999] CT
0.149 GC
/Helvetica 53 F
GS
[1 0 0 1 0 0] CT
-85 18.5 moveto 
1 -1 scale
(0.2) t 
GR
GR
GS
[0.75 0 0 0.75 170.75 281.875] CT
0.149 GC
/Helvetica 53 F
GS
[1 0 0 1 0 0] CT
-85 18.5 moveto 
1 -1 scale
(0.3) t 
GR
GR
GS
[0.75 0 0 0.75 170.75 195.49998] CT
0.149 GC
/Helvetica 53 F
GS
[1 0 0 1 0 0] CT
-85 18.5 moveto 
1 -1 scale
(0.4) t 
GR
GR
GS
[0.75 0 0 0.75 170.75 109.125] CT
0.149 GC
/Helvetica 53 F
GS
[1 0 0 1 0 0] CT
-85 18.5 moveto 
1 -1 scale
(0.5) t 
GR
GR
GS
[0.75 0 0 0.75 170.75 22.74998] CT
0.149 GC
/Helvetica 53 F
GS
[1 0 0 1 0 0] CT
-85 18.5 moveto 
1 -1 scale
(0.6) t 
GR
GR
GS
[0.75 0 0 0.75 0 0.25] CT
0 0 1 RC
2 LJ
6.667 LW
N
241 560.656 M
241.843 571.834 L
242.852 577.028 L
244.003 581.303 L
245.154 584.766 L
246.277 587.138 L
247.344 589.085 L
248.606 590.781 L
249.592 592.098 L
250.741 593.308 L
251.892 594.399 L
252.987 595.255 L
254.138 595.794 L
255.235 596.205 L
256.357 596.602 L
257.452 597.022 L
258.604 597.397 L
259.698 597.707 L
260.821 597.967 L
261.916 598.228 L
263.123 598.563 L
264.247 598.899 L
265.285 599.168 L
266.465 599.403 L
267.588 599.61 L
268.711 599.835 L
270.256 600.18 L
270.957 600.414 L
272.052 600.697 L
273.203 600.944 L
274.299 601.072 L
275.421 601.143 L
276.601 601.182 L
277.669 601.205 L
278.792 601.227 L
279.887 601.24 L
281.066 601.244 L
282.216 601.244 L
283.311 601.244 L
284.434 601.244 L
285.558 601.244 L
286.709 601.244 L
287.776 601.244 L
288.928 601.244 L
290.079 601.244 L
291.174 601.244 L
292.324 601.244 L
293.504 601.244 L
294.515 601.244 L
295.638 601.244 L
S
GR
GS
[0.75 0 0 0.75 0 0.25] CT
0 0 1 RC
2 LJ
6.667 LW
N
295.638 601.244 M
296.873 601.244 L
297.856 601.244 L
299.151 601.244 L
300.131 601.244 L
301.226 601.244 L
302.321 601.244 L
303.5 601.244 L
304.651 601.244 L
305.746 601.244 L
306.897 601.244 L
308.02 601.244 L
309.564 601.244 L
310.267 601.244 L
311.362 601.244 L
312.542 601.244 L
313.608 601.244 L
314.731 601.244 L
315.91 601.244 L
317.005 601.244 L
318.157 601.231 L
319.251 601.209 L
320.403 601.187 L
321.526 601.165 L
322.622 601.125 L
323.716 601.081 L
324.868 601.015 L
326.609 600.926 L
327.45 600.798 L
328.265 600.71 L
329.388 600.608 L
331.41 600.476 L
332.223 600.414 L
332.954 600.365 L
333.825 600.304 L
335.004 600.228 L
336.099 600.14 L
337.194 600.043 L
338.289 599.906 L
339.468 599.707 L
340.535 599.429 L
341.658 599.067 L
342.837 598.559 L
343.961 598.082 L
345.085 597.592 L
346.179 597.115 L
347.33 596.589 L
348.425 596.108 L
349.576 595.653 L
350.699 595.176 L
S
GR
GS
[0.75 0 0 0.75 0 0.25] CT
0 0 1 RC
2 LJ
6.667 LW
N
350.699 595.176 M
351.822 594.624 L
352.974 594.164 L
354.181 593.816 L
355.248 593.453 L
356.288 593.113 L
357.467 592.795 L
358.562 592.583 L
359.685 592.446 L
360.808 592.367 L
361.903 592.296 L
362.946 592.212 L
364.122 592.098 L
365.301 591.934 L
366.48 591.722 L
367.602 591.395 L
368.614 590.967 L
369.765 590.53 L
370.804 590.11 L
372.011 589.62 L
373.106 589.059 L
374.257 588.454 L
375.381 587.862 L
376.588 587.01 L
377.655 585.95 L
378.778 584.51 L
380.017 582.787 L
381.024 580.76 L
382.147 578.675 L
383.691 575.92 L
384.393 574.418 L
385.516 573.49 L
386.639 573.808 L
387.762 575.014 L
388.942 576.9 L
390.008 579.254 L
391.077 581.891 L
392.284 584.898 L
393.351 587.606 L
394.393 589.607 L
395.597 590.702 L
396.636 591.029 L
397.843 591.038 L
399.106 591.139 L
400.202 591.25 L
401.212 591.316 L
402.392 591.347 L
403.487 591.351 L
404.526 591.351 L
405.676 591.351 L
S
GR
GS
[0.75 0 0 0.75 0 0.25] CT
0 0 1 RC
2 LJ
6.667 LW
N
405.676 591.351 M
406.856 591.351 L
407.98 591.342 L
409.102 591.307 L
410.225 591.263 L
411.348 591.219 L
412.499 591.157 L
413.595 591.055 L
414.69 590.887 L
415.842 590.622 L
416.965 590.198 L
418.087 589.62 L
419.182 588.834 L
420.362 587.919 L
421.457 586.908 L
422.607 585.724 L
423.675 584.382 L
424.826 582.832 L
425.949 581.149 L
427.072 579.294 L
428.196 577.214 L
429.319 575.005 L
430.469 572.514 L
431.537 570.187 L
432.632 567.749 L
433.67 565.342 L
434.933 563.116 L
436.086 561.031 L
437.181 559.11 L
438.332 557.365 L
440.101 555.709 L
440.943 553.7 L
441.644 552.596 L
442.796 550.9 L
443.891 549.226 L
445.042 547.468 L
446.25 545.635 L
447.318 543.643 L
448.469 541.585 L
449.479 539.496 L
450.658 537.067 L
451.753 534.828 L
452.904 532.231 L
453.999 529.881 L
455.151 527.289 L
456.245 524.948 L
457.398 522.399 L
458.547 520.151 L
459.644 517.718 L
460.794 515.456 L
S
GR
GS
[0.75 0 0 0.75 0 0.25] CT
0 0 1 RC
2 LJ
6.667 LW
N
460.794 515.456 M
461.889 513.328 L
463.012 511.097 L
464.107 508.84 L
465.258 506.619 L
466.381 504.384 L
467.505 502.043 L
468.657 499.676 L
469.752 497.265 L
471.015 494.562 L
471.998 492.322 L
473.121 489.849 L
474.244 487.402 L
475.339 485.031 L
476.518 482.743 L
477.584 480.477 L
478.764 478.295 L
479.86 476.162 L
481.011 473.945 L
482.078 472.037 L
483.229 469.802 L
484.324 467.669 L
485.475 465.443 L
486.571 463.288 L
487.665 461 L
488.872 458.633 L
490.107 455.894 L
491.091 453.717 L
492.129 451.443 L
493.337 448.934 L
494.433 446.65 L
495.555 444.27 L
497.296 440.578 L
497.97 439.125 L
498.981 437.12 L
500.047 434.695 L
501.227 432.124 L
502.322 429.722 L
503.417 427.12 L
504.568 424.431 L
505.692 421.525 L
506.842 418.839 L
507.938 415.999 L
509.088 413.115 L
510.156 410.231 L
511.335 407.184 L
512.542 404.415 L
513.554 401.469 L
514.705 398.457 L
515.8 395.29 L
S
GR
GS
[0.75 0 0 0.75 0 0.25] CT
0 0 1 RC
2 LJ
6.667 LW
N
515.8 395.29 M
516.951 392.084 L
518.047 388.793 L
519.253 385.264 L
520.292 382.941 L
521.415 380.848 L
522.51 379.178 L
523.661 377.456 L
524.813 375.804 L
525.908 374.046 L
527.031 372.28 L
528.155 370.266 L
529.39 368.256 L
530.373 366.251 L
531.524 364.003 L
532.646 361.918 L
533.77 359.701 L
535.062 357.458 L
536.016 355.179 L
537.14 352.926 L
538.262 350.687 L
539.385 348.47 L
540.48 346.297 L
541.716 343.978 L
542.783 342.181 L
543.793 340.237 L
545 338.418 L
546.124 336.704 L
547.275 335.021 L
548.343 333.498 L
549.494 331.943 L
550.561 330.472 L
551.74 328.975 L
553.593 327.641 L
554.351 325.994 L
555.025 325.172 L
556.232 323.914 L
557.552 322.602 L
558.478 321.286 L
559.602 320.053 L
560.753 318.883 L
561.848 317.739 L
562.971 316.719 L
564.094 315.844 L
565.133 315.027 L
566.284 314.365 L
567.435 313.685 L
568.559 313.168 L
569.822 312.748 L
570.862 312.258 L
S
GR
GS
[0.75 0 0 0.75 0 0.25] CT
0 0 1 RC
2 LJ
6.667 LW
N
570.862 312.258 M
571.956 311.799 L
573.052 311.503 L
574.147 311.331 L
575.298 311.282 L
576.477 311.282 L
577.572 311.242 L
578.723 311.097 L
579.987 310.938 L
580.969 310.783 L
582.092 310.677 L
583.216 310.642 L
584.311 310.637 L
585.434 310.637 L
586.642 310.637 L
587.68 310.637 L
588.803 310.655 L
589.927 310.686 L
591.049 310.757 L
592.172 310.902 L
593.211 311.145 L
594.391 311.552 L
595.542 312.148 L
596.665 312.797 L
597.789 312.868 L
598.911 310.094 L
600.034 305.576 L
601.186 300.099 L
602.281 294.888 L
603.403 289.292 L
604.527 283.493 L
605.678 277.548 L
606.801 271.559 L
607.896 265.513 L
609.105 259.418 L
610.789 250.028 L
611.491 246.226 L
612.389 241.818 L
613.456 236.933 L
614.635 232.791 L
615.73 228.749 L
616.853 225.552 L
618.005 222.5 L
619.1 220.146 L
620.251 218.021 L
621.346 216.14 L
622.497 214.581 L
623.62 213.468 L
624.715 212.788 L
625.866 212.355 L
S
GR
GS
[0.75 0 0 0.75 0 0.25] CT
0 0 1 RC
2 LJ
6.667 LW
N
625.866 212.355 M
626.99 212.306 L
628.141 212.54 L
629.208 212.92 L
630.358 213.411 L
631.51 214.192 L
632.717 215.451 L
633.728 216.763 L
634.823 218.419 L
635.946 220.203 L
637.154 222.173 L
638.221 224.35 L
639.344 226.696 L
640.496 229.35 L
641.59 232.322 L
642.713 235.595 L
643.809 239.15 L
644.931 242.918 L
646.167 247.087 L
647.121 251.071 L
648.357 255.426 L
649.452 259.953 L
650.688 264.727 L
651.698 269.634 L
652.85 274.624 L
654.061 279.642 L
655.096 284.822 L
656.191 290.1 L
657.229 295.06 L
658.352 300.139 L
659.504 305.359 L
660.684 310.063 L
661.75 315.239 L
662.93 320.182 L
664.025 324.753 L
665.148 329.377 L
667.451 333.895 L
668.293 341.77 L
669.163 345.113 L
669.894 348.103 L
671.045 351.924 L
671.831 355.417 L
673.123 359.18 L
674.161 362.674 L
675.312 366.26 L
676.463 369.731 L
677.558 373.242 L
678.625 376.33 L
679.749 379.439 L
680.871 382.455 L
S
GR
GS
[0.75 0 0 0.75 0 0.25] CT
0 0 1 RC
2 LJ
6.667 LW
N
680.871 382.455 M
682.107 385.375 L
683.174 388.263 L
684.269 391.068 L
685.42 393.757 L
686.515 396.377 L
687.638 399.084 L
688.733 401.442 L
689.884 403.951 L
691.035 406.424 L
692.131 408.995 L
693.422 411.278 L
694.406 413.654 L
695.529 416.083 L
696.624 418.141 L
697.747 420.235 L
698.927 422.063 L
700.021 423.861 L
701.2 425.552 L
702.267 427.31 L
703.364 428.83 L
704.796 430.623 L
706.003 432.292 L
706.932 433.688 L
708.081 434.788 L
709.091 435.689 L
710.385 436.528 L
711.367 437.159 L
712.467 437.627 L
713.865 437.932 L
714.875 438.175 L
716.252 438.387 L
717.292 438.612 L
718.386 438.793 L
719.199 438.917 L
720.552 439.005 L
721.559 439.032 L
722.625 439.036 L
724.48 439.036 L
725.488 439.036 L
726.36 439.036 L
727.37 439.036 L
728.465 439.036 L
729.308 439.036 L
730.514 439.036 L
731.584 439.036 L
732.761 439.036 L
734.053 439.036 L
735.008 439.036 L
736.327 439.036 L
S
GR
GS
[0.75 0 0 0.75 0 0.25] CT
0 0 1 RC
2 LJ
6.667 LW
N
736.327 439.036 M
737.31 439.036 L
738.659 439.036 L
739.613 439.036 L
740.736 439.036 L
741.718 439.036 L
742.926 439.036 L
744.189 439.036 L
745.201 439.036 L
746.409 439.036 L
747.305 439.036 L
748.485 439.036 L
749.552 439.036 L
750.731 439.036 L
751.801 439.036 L
752.979 439.036 L
754.185 439.036 L
755.14 439.036 L
756.375 439.036 L
757.389 439.036 L
758.678 439.036 L
759.633 439.036 L
761.317 439.036 L
762.328 439.036 L
763.31 439.036 L
764.405 439.036 L
765.248 439.036 L
766.568 439.036 L
767.607 439.036 L
768.842 439.036 L
769.74 439.036 L
770.892 439.036 L
771.987 439.036 L
773.167 439.036 L
774.373 439.036 L
775.412 439.036 L
776.62 439.036 L
777.63 439.036 L
778.865 439.036 L
780.44 439.036 L
781.476 439.036 L
782.516 439.036 L
783.61 439.036 L
784.649 439.036 L
785.604 439.036 L
786.841 439.036 L
787.739 439.036 L
789.002 439.036 L
789.984 439.036 L
791.163 439.036 L
S
GR
GS
[0.75 0 0 0.75 0 0.25] CT
0 0 1 RC
2 LJ
6.667 LW
N
791.163 439.036 M
792.287 439.036 L
793.411 439.036 L
794.73 439.036 L
795.601 439.036 L
796.864 439.036 L
797.846 439.036 L
799.025 439.036 L
800.15 439.036 L
801.216 439.036 L
802.339 439.036 L
803.519 439.036 L
804.697 439.036 L
805.708 439.036 L
807.034 439.036 L
808.208 439.036 L
809.218 439.036 L
810.174 439.036 L
811.352 439.036 L
812.56 439.036 L
813.542 439.036 L
814.835 439.036 L
815.791 439.036 L
817.024 439.036 L
818.092 439.036 L
819.27 439.036 L
820.284 439.036 L
821.405 439.036 L
822.556 439.036 L
823.65 439.036 L
824.914 439.036 L
825.953 439.036 L
827.132 439.036 L
828.144 439.036 L
829.631 439.036 L
830.698 439.036 L
831.737 439.036 L
832.777 439.036 L
833.786 439.036 L
835.135 439.036 L
836.258 439.036 L
837.942 439.036 L
839.122 439.036 L
840.216 439.036 L
841.313 439.036 L
842.324 439.036 L
843.389 439.036 L
844.456 439.036 L
845.552 439.036 L
846.534 439.036 L
S
GR
GS
[0.75 0 0 0.75 0 0.25] CT
0 0 1 RC
2 LJ
6.667 LW
N
846.534 439.036 M
847.657 439.036 L
848.837 439.036 L
849.96 439.036 L
851.027 439.036 L
852.346 439.036 L
853.582 439.036 L
854.732 439.036 L
855.885 439.036 L
857.232 439.036 L
858.243 439.036 L
859.366 439.036 L
860.404 439.036 L
861.499 439.036 L
862.651 439.036 L
863.745 439.036 L
864.757 439.045 L
865.599 439.054 L
866.526 439.067 L
867.593 439.08 L
868.717 439.098 L
869.811 439.125 L
871.018 439.142 L
872.113 439.156 L
873.237 439.169 L
874.612 439.186 L
875.821 439.204 L
876.859 439.226 L
877.87 439.253 L
878.768 439.288 L
880.228 439.354 L
881.21 439.421 L
882.251 439.5 L
883.458 439.628 L
884.636 439.827 L
885.759 440.074 L
886.826 440.423 L
887.95 440.829 L
889.053 441.267 L
890.224 441.753 L
891.291 442.278 L
892.415 442.91 L
894.183 443.515 L
895.389 444.469 L
896.628 445.016 L
897.693 445.573 L
898.816 446.151 L
899.939 446.743 L
901.005 447.41 L
902.185 448.099 L
S
GR
GS
[0.75 0 0 0.75 0 0.25] CT
0 0 1 RC
2 LJ
6.667 LW
N
902.185 448.099 M
903.282 448.846 L
904.403 449.539 L
905.47 450.201 L
906.508 450.97 L
907.856 451.791 L
908.869 452.781 L
910.02 453.633 L
911.033 454.636 L
912.153 455.563 L
913.192 456.53 L
914.343 457.476 L
915.383 458.443 L
916.591 459.476 L
917.656 460.474 L
918.78 461.459 L
920.155 462.586 L
921.251 463.592 L
922.374 464.608 L
923.385 465.624 L
924.62 466.675 L
925.659 467.784 L
926.754 468.813 L
927.877 469.935 L
928.943 471.176 L
930.096 472.373 L
931.19 473.751 L
932.313 475.049 L
933.38 476.471 L
934.448 477.893 L
935.57 479.43 L
936.751 481.118 L
937.874 482.73 L
939.052 484.571 L
940.175 486.404 L
941.242 488.334 L
942.562 490.216 L
943.628 492.495 L
944.752 494.853 L
945.79 497.154 L
946.915 499.544 L
947.981 502.057 L
949.048 504.464 L
950.792 506.849 L
951.828 510.536 L
956.124 512.939 L
958.147 522.165 L
960.841 526.842 L
962.946 533.101 L
965.924 537.963 L
S
GR
GS
[0.75 0 0 0.75 0 0.25] CT
0 0 1 RC
2 LJ
6.667 LW
N
965.924 537.963 M
969.685 547.115 L
971.259 553.678 L
972.298 557.33 L
973.42 559.856 L
974.458 562.489 L
975.553 564.776 L
976.706 567.113 L
977.857 569.582 L
978.924 571.936 L
980.047 573.976 L
981.141 576.021 L
982.237 577.991 L
983.332 579.789 L
984.426 581.533 L
985.438 583.119 L
986.533 584.563 L
988.05 586.396 L
989.115 587.822 L
990.153 589.032 L
991.164 590.123 L
992.485 591.223 L
993.607 592.323 L
995.545 593.294 L
996.274 595.074 L
997.37 595.666 L
998.551 595.825 L
999.675 595.799 L
1000.797 595.746 L
1001.892 595.715 L
1003.014 595.693 L
1004.782 595.684 L
1005.569 595.675 L
1006.354 595.671 L
1008.123 595.671 L
1008.855 595.671 L
1010.034 595.662 L
1010.875 595.648 L
1012.026 595.631 L
1013.121 595.618 L
1014.245 595.604 L
1015.367 595.591 L
1016.491 595.573 L
1017.614 595.547 L
1018.793 595.52 L
1020.001 595.485 L
1020.984 595.454 L
1022.107 595.419 L
1023.23 595.388 L
1024.381 595.348 L
S
GR
GS
[0.75 0 0 0.75 0 0.25] CT
0 0 1 RC
2 LJ
6.667 LW
N
1024.381 595.348 M
1025.475 595.313 L
1026.599 595.269 L
1027.722 595.224 L
1028.901 595.176 L
1030.08 595.127 L
1031.092 595.083 L
1032.496 595.043 L
1033.394 595.008 L
1034.517 594.968 L
1035.64 594.933 L
1036.763 594.898 L
1037.943 594.871 L
1038.981 594.84 L
1040.245 594.814 L
1041.2 594.778 L
1042.379 594.747 L
1043.503 594.703 L
1044.626 594.659 L
1045.749 594.597 L
1046.872 594.522 L
1048.051 594.43 L
1049.118 594.319 L
1050.241 594.187 L
1051.364 594.014 L
1052.487 593.802 L
1053.61 593.555 L
1054.93 593.303 L
1055.857 593.078 L
1056.98 592.919 L
1058.159 592.826 L
1059.169 592.769 L
1060.434 592.742 L
1061.416 592.725 L
1062.568 592.707 L
1064.42 592.689 L
1065.122 592.65 L
1065.909 592.632 L
1067.088 592.592 L
1068.155 592.552 L
1069.278 592.499 L
1070.458 592.433 L
1071.524 592.345 L
1072.703 592.212 L
1073.77 592.036 L
1074.922 591.766 L
1076.017 591.386 L
1077.168 590.949 L
1078.404 590.534 L
1079.386 590.123 L
S
GR
GS
[0.75 0 0 0.75 0 0.25] CT
0 0 1 RC
2 LJ
6.667 LW
N
1079.386 590.123 M
1080.566 589.611 L
1081.689 589.019 L
1083.008 588.317 L
1083.934 587.685 L
1085.086 586.762 L
1086.181 585.746 L
1087.304 584.594 L
1088.456 583.251 L
1089.523 581.798 L
1090.645 580.279 L
1091.74 578.711 L
1092.919 577.055 L
1093.959 575.407 L
1095.109 573.813 L
1096.233 572.236 L
1097.356 570.704 L
1098.48 569.37 L
1099.603 568.239 L
1100.95 567.334 L
1101.877 566.72 L
1103.028 566.503 L
1104.095 566.658 L
1105.274 566.958 L
1106.341 567.44 L
1107.436 568.535 L
1108.587 570.474 L
1109.739 573.376 L
1110.862 577.094 L
1111.985 581.277 L
1113.164 586.484 L
1114.287 591.943 L
1115.353 597.309 L
1116.533 603.108 L
1117.601 608.028 L
1118.78 612.661 L
1119.846 616.468 L
1121.448 620.077 L
1122.15 621.22 L
1123.385 621.958 L
1124.34 621.914 L
1125.463 621.565 L
1126.586 620.929 L
1127.765 620.041 L
1128.917 618.95 L
1130.039 617.413 L
1131.134 615.642 L
1132.257 613.385 L
1133.325 611.12 L
1134.476 608.585 L
S
GR
GS
[0.75 0 0 0.75 0 0.25] CT
0 0 1 RC
2 LJ
6.667 LW
N
1134.476 608.585 M
1135.571 605.926 L
1136.694 603.174 L
1137.874 600.454 L
1139.024 597.813 L
1140.092 595.291 L
1141.355 592.932 L
1142.338 590.848 L
1143.461 589.015 L
1144.584 587.526 L
1146.016 586.219 L
1146.858 585.512 L
1147.953 585.022 L
1149.189 584.868 L
1150.284 584.912 L
1151.407 585.018 L
1152.446 585.128 L
1153.541 585.163 L
1154.692 585.137 L
1155.759 585.044 L
1156.967 584.863 L
1158.033 584.558 L
1159.156 584.015 L
1160.252 583.26 L
1161.431 582.403 L
1162.498 581.423 L
1163.677 580.318 L
1164.744 579.17 L
1165.895 577.836 L
1166.99 576.472 L
1168.394 574.855 L
1169.378 573.61 L
1170.388 572.285 L
1171.623 570.991 L
1172.69 569.816 L
1173.758 568.76 L
1174.88 567.784 L
1176.004 566.87 L
1177.969 566.066 L
1178.786 565.174 L
1179.513 564.724 L
1180.468 564.229 L
1181.732 563.694 L
1182.77 563.125 L
1183.95 562.537 L
1185.045 561.928 L
1186.252 561.124 L
1187.291 560.267 L
1188.386 559.278 L
1189.509 558.196 L
S
GR
GS
[0.75 0 0 0.75 0 0.25] CT
0 0 1 RC
2 LJ
6.667 LW
N
1189.509 558.196 M
1190.857 556.915 L
1191.841 555.449 L
1192.907 553.854 L
1194.114 552.158 L
1195.321 550.272 L
1196.22 548.523 L
1197.399 546.412 L
1198.466 544.398 L
1199.589 542.195 L
1200.768 539.81 L
1201.891 537.544 L
1203.015 534.995 L
1204.082 532.593 L
1205.205 530.005 L
1206.384 527.222 L
1207.451 524.669 L
1208.574 521.962 L
1209.697 519.233 L
1210.82 516.481 L
1212.032 513.553 L
1213.292 510.885 L
1214.275 507.997 L
1215.342 505.108 L
1216.548 501.946 L
1217.616 499.005 L
1218.682 495.887 L
1219.806 492.733 L
1220.928 489.584 L
1222.108 486.47 L
1223.203 483.405 L
1224.411 480.349 L
1225.449 477.324 L
1226.628 474.144 L
1227.697 471.26 L
1228.791 468.115 L
1229.914 464.904 L
1231.037 461.632 L
1232.132 458.279 L
1233.311 454.887 L
1234.968 450.042 L
1235.894 447.582 L
1236.765 444.27 L
1237.748 441.103 L
1238.899 437.398 L
1240.051 433.834 L
1241.117 430.397 L
1242.24 426.524 L
1243.391 422.783 L
1244.627 419.029 L
S
GR
GS
[0.75 0 0 0.75 0 0.25] CT
0 0 1 RC
2 LJ
6.667 LW
N
1244.627 419.029 M
1245.609 415.288 L
1246.845 411.561 L
1247.856 408.094 L
1249.035 404.318 L
1250.102 400.921 L
1251.225 397.335 L
1252.464 393.682 L
1253.499 390.167 L
1254.708 387.327 L
1255.718 385.048 L
1256.897 383.096 L
1257.964 381.497 L
1259.228 379.96 L
1260.267 378.436 L
1261.389 376.944 L
1262.598 375.429 L
1263.636 373.839 L
1264.843 372.24 L
1265.883 370.663 L
1267.089 368.989 L
1268.128 367.527 L
1269.252 366.048 L
1270.376 364.617 L
1271.498 363.173 L
1272.677 361.821 L
1273.744 360.585 L
1274.927 359.494 L
1275.991 358.456 L
1277.197 357.484 L
1278.237 356.724 L
1279.359 356.119 L
1280.483 355.633 L
1281.606 355.338 L
1282.814 355.245 L
1283.796 355.263 L
1285.172 355.293 L
1286.098 355.333 L
1287.222 355.386 L
1288.428 355.475 L
1289.496 355.572 L
1291.294 355.704 L
1291.998 355.89 L
1292.922 356.022 L
1293.904 356.181 L
1295.027 356.371 L
1296.15 356.614 L
1297.358 356.963 L
1298.396 357.405 L
1299.548 357.921 L
S
GR
GS
[0.75 0 0 0.75 0 0.25] CT
0 0 1 RC
2 LJ
6.667 LW
N
1299.548 357.921 M
1300.698 358.416 L
1301.822 358.902 L
1302.945 359.454 L
1304.152 360.13 L
1305.22 360.779 L
1306.287 361.499 L
1307.607 362.214 L
1308.533 362.74 L
1309.656 363.287 L
1310.779 363.711 L
1311.901 363.941 L
1313.054 364.029 L
1314.149 364.06 L
1315.36 364.1 L
1316.394 364.175 L
1317.518 363.817 L
1318.641 360.554 L
1319.764 355.382 L
1320.887 349.455 L
1322.01 343.36 L
1323.105 337.177 L
1324.257 330.923 L
1325.408 324.558 L
1326.812 317.006 L
1327.71 310.938 L
1328.75 304.542 L
1329.844 297.785 L
1331.079 290.997 L
1332.09 284.456 L
1333.329 278.352 L
1334.336 272.809 L
1335.572 267.841 L
1336.583 263.283 L
1337.822 258.901 L
1338.83 255.368 L
1339.952 252.299 L
1341.076 249.278 L
1342.564 246.16 L
1343.377 244.234 L
1344.444 242.065 L
1345.567 240.007 L
1346.691 238.316 L
1348.376 236.527 L
1349.33 235.573 L
1350.088 234.871 L
1351.183 234.146 L
1352.362 233.625 L
1353.43 233.307 L
1354.553 233.228 L
S
GR
GS
[0.75 0 0 0.75 0 0.25] CT
0 0 1 RC
2 LJ
6.667 LW
N
1354.553 233.228 M
1355.76 233.396 L
1356.884 233.674 L
1357.951 234.018 L
1359.046 234.451 L
1360.225 235.202 L
1361.292 236.213 L
1362.499 237.393 L
1363.538 238.607 L
1364.689 240.047 L
1365.84 241.553 L
1366.963 243.165 L
1368.114 244.976 L
1369.182 246.924 L
1370.362 248.973 L
1371.736 251.217 L
1372.551 253.747 L
1373.674 256.525 L
1374.797 259.48 L
1376.004 262.775 L
1377.156 265.884 L
1378.223 269.285 L
1379.29 272.73 L
1380.498 276.161 L
1381.536 279.545 L
1382.748 283.1 L
1383.782 286.368 L
1384.934 289.822 L
1386.028 293.302 L
1387.152 296.897 L
1388.247 300.625 L
1389.398 304.525 L
1390.605 308.544 L
1391.673 312.607 L
1392.712 316.745 L
1394.228 320.941 L
1395.013 325.11 L
1396.165 329.222 L
1397.204 333.263 L
1398.467 337.234 L
1399.506 341.196 L
1400.797 345.122 L
1401.752 349.013 L
1402.932 353.059 L
1404.926 356.671 L
1406.077 362.276 L
1407.116 365.739 L
1408.1 368.715 L
1409.11 371.193 L
1409.952 373.481 L
S
GR
GS
[0.75 0 0 0.75 0 0.25] CT
0 0 1 RC
2 LJ
6.667 LW
N
1409.952 373.481 M
1410.991 375.362 L
1412.088 377.354 L
1413.211 379.024 L
1414.304 380.318 L
1415.455 381.395 L
1416.859 382.327 L
1417.843 383.14 L
1418.826 383.67 L
1420.033 384.173 L
1421.1 384.575 L
1422.167 384.858 L
1423.458 385.074 L
1424.44 385.264 L
1425.565 385.459 L
1426.717 385.71 L
1427.838 385.989 L
1428.905 386.214 L
1430.056 386.386 L
1431.207 386.488 L
1432.276 386.514 L
1433.454 386.514 L
1434.549 386.514 L
1435.672 386.514 L
1436.823 386.514 L
1437.918 386.514 L
1439.357 386.514 L
1440.254 386.514 L
1441.429 386.514 L
1442.41 386.514 L
1443.646 386.514 L
1444.657 386.514 L
1445.809 386.519 L
1446.959 386.528 L
1447.999 386.541 L
1449.151 386.558 L
1450.273 386.581 L
1451.48 386.603 L
1452.52 386.634 L
1453.671 386.66 L
1454.737 386.695 L
1455.889 386.726 L
1457.069 386.762 L
1458.106 386.788 L
1459.287 386.81 L
1460.355 386.832 L
1462.319 386.854 L
1463.329 386.876 L
1464.255 386.894 L
1465.295 386.912 L
S
GR
GS
[0.75 0 0 0.75 0 0.25] CT
0 0 1 RC
2 LJ
6.667 LW
N
1465.295 386.912 M
1466.247 386.929 L
1467.177 386.943 L
1468.355 386.969 L
1469.478 386.991 L
1470.461 387.013 L
1471.725 387.044 L
1472.735 387.075 L
1473.859 387.115 L
1474.953 387.159 L
1476.078 387.216 L
1477.285 387.287 L
1478.322 387.367 L
1479.501 387.468 L
1480.57 387.574 L
1481.749 387.68 L
1482.816 387.773 L
1483.967 387.853 L
1485.178 387.905 L
1486.212 387.928 L
1487.393 387.932 L
1488.544 387.932 L
1489.588 387.932 L
1490.705 387.932 L
1491.828 387.932 L
1492.923 387.932 L
1494.076 387.932 L
1495.199 387.932 L
1496.294 387.932 L
1497.501 387.932 L
1498.54 387.932 L
1499.691 387.932 L
1500.815 387.932 L
1501.937 387.941 L
1503.061 387.945 L
1504.211 387.945 L
1505.305 387.945 L
1506.401 387.945 L
1507.834 387.945 L
1508.761 387.945 L
1509.798 387.945 L
1510.922 387.945 L
1512.073 387.945 L
1513.251 387.945 L
1514.377 387.945 L
1515.414 387.945 L
1516.538 387.945 L
1518.421 387.945 L
1519.373 387.945 L
1520.328 387.945 L
S
GR
GS
[0.75 0 0 0.75 0 0.25] CT
0 0 1 RC
2 LJ
6.667 LW
N
1520.328 387.945 M
1521.255 387.945 L
1522.239 387.945 L
1523.248 387.945 L
1524.483 387.945 L
1525.523 387.945 L
1526.645 387.945 L
1527.826 387.945 L
1528.893 387.945 L
1530.409 387.945 L
1531.251 387.945 L
1532.346 387.945 L
1533.469 387.945 L
1534.569 387.945 L
1535.66 387.945 L
1536.781 387.945 L
1537.933 387.945 L
1539.028 387.945 L
1540.151 387.945 L
1541.246 387.945 L
1542.483 387.945 L
1543.581 387.945 L
1544.813 387.945 L
1545.822 387.945 L
1546.946 387.945 L
1548.096 387.945 L
1549.194 387.945 L
1550.428 387.945 L
1551.467 387.945 L
1552.982 387.945 L
1554.106 387.945 L
1555.272 387.945 L
1556.465 387.95 L
1557.532 387.95 L
1558.71 387.954 L
1559.777 387.958 L
1560.844 387.958 L
1561.828 387.963 L
1562.979 387.967 L
1564.017 387.972 L
1565.144 387.976 L
1566.068 387.981 L
1567.19 387.989 L
1568.314 388.003 L
1569.438 388.02 L
1570.672 388.047 L
1571.712 388.078 L
1572.862 388.122 L
1573.817 388.162 L
1575.896 388.241 L
S
GR
GS
[0.75 0 0 0.75 0 0.25] CT
0 0 1 RC
2 LJ
6.667 LW
N
1575.896 388.241 M
1577.047 388.285 L
1578.113 388.338 L
1579.292 388.405 L
1580.471 388.48 L
1581.538 388.577 L
1582.746 388.705 L
1583.757 388.895 L
1584.912 389.147 L
1586.031 389.544 L
1587.154 389.981 L
1588.221 390.476 L
1589.372 391.015 L
1590.525 391.531 L
1591.618 392.101 L
1592.714 392.547 L
1593.752 392.98 L
1594.82 393.426 L
1595.943 393.987 L
1597.038 394.442 L
1598.498 395.149 L
1599.594 395.763 L
1600.66 396.328 L
1601.67 396.951 L
1602.766 397.64 L
1603.947 398.386 L
1605.124 399.102 L
1606.164 399.821 L
1607.286 400.515 L
1608.353 401.389 L
1609.504 402.339 L
1610.629 403.359 L
1611.751 404.379 L
1612.874 405.453 L
1613.996 406.561 L
1615.177 407.745 L
1616.243 408.999 L
1617.395 410.284 L
1618.546 411.671 L
1619.669 413.076 L
1620.99 414.78 L
1621.999 416.198 L
1623.094 417.572 L
1624.106 419.153 L
1625.229 420.641 L
1626.352 422.505 L
1627.587 424.263 L
1628.598 426.1 L
1629.664 427.915 L
1630.845 429.81 L
S
GR
GS
[0.75 0 0 0.75 0 0.25] CT
0 0 1 RC
2 LJ
6.667 LW
N
1630.845 429.81 M
1632.614 433.153 L
1633.821 435.379 L
1634.859 437.437 L
1635.954 439.615 L
1637.189 441.859 L
1638.229 444.177 L
1639.38 446.514 L
1640.475 448.907 L
1641.683 451.332 L
1643.086 453.805 L
1644.153 456.968 L
1645.305 459.551 L
1646.399 462.056 L
1647.522 464.719 L
1648.645 467.444 L
1649.768 470.213 L
1650.836 473.057 L
1651.96 475.809 L
1653.026 478.821 L
1654.262 482.089 L
1655.356 485.3 L
1656.395 488.458 L
1657.547 491.682 L
1658.531 495.176 L
1659.653 498.36 L
1660.69 501.951 L
1661.842 505.63 L
1663.021 509.335 L
1664.031 513.072 L
1665.466 516.826 L
1666.616 521.207 L
1667.739 525.279 L
1668.918 529.205 L
1670.013 533.375 L
1671.108 537.204 L
1672.203 541.519 L
1673.186 545.26 L
1674.253 549.292 L
1675.292 553.17 L
1676.415 557.564 L
1679 562.056 L
S
GR
GS
[0.75 0 0 0.75 0 0.25] CT
1 0 0 RC
[24 24] 0 setdash
2 LJ
6.667 LW
N
241 560.656 M
241.843 560.656 L
242.852 560.656 L
244.003 560.656 L
245.154 560.656 L
246.277 560.656 L
247.344 560.656 L
248.606 560.656 L
249.592 560.656 L
250.741 560.656 L
251.892 560.656 L
252.987 560.656 L
254.138 560.656 L
255.235 560.656 L
256.357 560.656 L
257.452 560.656 L
258.604 560.656 L
259.698 560.656 L
260.821 560.656 L
261.916 560.656 L
263.123 560.656 L
264.247 560.656 L
265.285 560.656 L
266.465 560.656 L
267.588 560.656 L
268.711 560.656 L
270.256 560.656 L
270.957 560.656 L
272.052 560.656 L
273.203 560.656 L
274.299 560.656 L
275.421 560.656 L
276.601 560.656 L
277.669 560.656 L
278.792 560.656 L
279.887 560.656 L
281.066 560.656 L
282.216 560.656 L
283.311 560.656 L
284.434 560.656 L
285.558 560.656 L
286.709 560.656 L
287.776 560.656 L
288.928 560.656 L
290.079 560.656 L
291.174 560.656 L
292.324 560.656 L
293.504 560.656 L
294.515 560.656 L
295.638 560.656 L
296.873 560.656 L
297.856 560.656 L
299.151 560.656 L
300.131 560.656 L
301.226 560.656 L
302.321 560.656 L
303.5 560.656 L
304.651 560.656 L
305.746 560.656 L
306.897 560.656 L
308.02 560.656 L
309.564 560.656 L
310.267 560.656 L
311.362 560.656 L
312.542 560.656 L
313.608 560.656 L
314.731 560.656 L
315.91 560.656 L
317.005 560.656 L
318.157 560.656 L
319.251 560.656 L
320.403 560.656 L
321.526 560.656 L
322.622 560.656 L
323.716 560.656 L
324.868 560.656 L
326.609 560.656 L
327.45 560.656 L
328.265 560.656 L
329.388 560.656 L
331.41 560.656 L
332.223 560.656 L
332.954 560.656 L
333.825 560.656 L
335.004 560.656 L
336.099 560.656 L
337.194 560.656 L
338.289 560.656 L
339.468 560.656 L
340.535 560.656 L
341.658 560.656 L
342.837 560.656 L
343.961 561.513 L
345.085 562.71 L
346.179 563.816 L
347.33 564.956 L
348.425 566.013 L
349.576 567.07 L
350.699 568.209 L
351.822 569.575 L
352.974 570.829 L
354.181 571.909 L
355.248 573.116 L
356.288 574.352 L
357.467 575.642 L
358.562 576.83 L
359.685 577.946 L
360.808 578.917 L
361.903 579.997 L
362.946 581.151 L
364.122 582.416 L
365.301 583.871 L
366.48 585.346 L
367.602 586.981 L
368.614 588.842 L
369.765 590.774 L
370.804 592.573 L
372.011 594.526 L
373.106 596.492 L
374.257 598.37 L
375.381 600.015 L
376.588 601.41 L
377.655 602.189 L
378.778 602.293 L
380.017 601.873 L
381.024 601.558 L
382.147 602.376 L
383.691 607.584 L
384.393 614.78 L
385.516 626.168 L
386.639 638.848 L
387.762 651.954 L
388.942 665.857 L
390.008 677.799 L
391.077 686.583 L
392.284 691.838 L
393.351 692.755 L
394.393 689.074 L
395.597 682.091 L
396.636 682.091 L
397.843 666.333 L
399.106 659.743 L
400.202 654.156 L
401.212 649.342 L
402.392 644.704 L
403.487 640.439 L
404.526 636.545 L
405.676 632.987 L
406.856 629.589 L
407.98 626.785 L
409.102 623.928 L
410.225 621.433 L
411.348 619.249 L
412.499 617.021 L
413.595 615.054 L
414.69 613.278 L
415.842 611.489 L
416.965 609.653 L
418.087 607.956 L
419.182 606.093 L
420.362 604.309 L
421.457 602.555 L
422.607 600.749 L
423.675 598.892 L
424.826 596.864 L
425.949 594.692 L
427.072 592.332 L
428.196 589.707 L
429.319 586.843 L
430.469 583.709 L
431.537 580.71 L
432.632 577.594 L
433.67 574.564 L
434.933 571.689 L
436.086 569.01 L
437.181 566.502 L
438.332 564.154 L
440.101 561.902 L
440.943 559.214 L
441.644 557.774 L
442.796 555.576 L
443.891 553.452 L
445.042 551.294 L
446.25 549.159 L
447.318 546.896 L
448.469 544.582 L
449.479 542.292 L
450.658 539.699 L
451.753 537.322 L
452.904 534.56 L
453.999 532.035 L
455.151 529.278 L
456.245 526.801 L
457.398 524.126 L
458.547 521.756 L
459.644 519.169 L
460.794 516.727 L
461.889 514.454 L
463.012 512.117 L
464.107 509.804 L
465.258 507.565 L
466.381 505.33 L
467.505 502.992 L
468.657 500.624 L
469.752 498.213 L
471.015 495.514 L
471.998 493.277 L
473.121 490.811 L
474.244 488.371 L
475.339 486.003 L
476.518 483.722 L
477.584 481.459 L
478.764 479.279 L
479.86 477.148 L
481.011 474.931 L
482.078 473.023 L
483.229 470.786 L
484.324 468.653 L
485.475 466.427 L
486.571 464.272 L
487.665 461.984 L
488.872 459.619 L
490.107 456.883 L
491.091 454.712 L
492.129 452.446 L
493.337 449.949 L
494.433 447.681 L
495.555 445.318 L
497.296 441.648 L
497.97 440.202 L
498.981 438.203 L
500.047 435.781 L
501.227 433.211 L
502.322 430.808 L
503.417 428.207 L
504.568 425.519 L
505.692 422.617 L
506.842 419.937 L
507.938 417.101 L
509.088 414.224 L
510.156 411.349 L
511.335 408.308 L
512.542 405.543 L
513.554 402.602 L
514.705 399.592 L
515.8 396.425 L
516.951 393.221 L
518.047 390.951 L
519.253 390.951 L
520.292 390.951 L
521.415 390.951 L
522.51 390.951 L
523.661 390.951 L
524.813 390.951 L
525.908 390.951 L
527.031 390.951 L
528.155 390.951 L
529.39 390.951 L
530.373 390.951 L
531.524 390.951 L
532.646 390.951 L
533.77 390.951 L
535.062 390.951 L
536.016 390.951 L
537.14 390.951 L
538.262 390.951 L
539.385 390.951 L
540.48 390.951 L
541.716 390.951 L
542.783 390.951 L
543.793 390.951 L
545 390.951 L
546.124 390.951 L
547.275 390.951 L
548.343 390.951 L
549.494 390.951 L
550.561 390.951 L
551.74 390.951 L
553.593 390.951 L
554.351 390.951 L
555.025 390.951 L
556.232 390.951 L
557.552 390.951 L
558.478 390.951 L
559.602 390.951 L
560.753 390.951 L
561.848 390.951 L
562.971 390.951 L
564.094 390.951 L
565.133 390.951 L
566.284 390.951 L
567.435 390.951 L
568.559 390.951 L
569.822 390.951 L
570.862 390.951 L
571.956 390.951 L
573.052 390.951 L
574.147 390.951 L
575.298 390.951 L
576.477 390.953 L
577.572 390.953 L
578.723 390.953 L
579.987 390.953 L
580.969 390.953 L
582.092 390.953 L
583.216 390.953 L
584.311 390.953 L
585.434 390.953 L
586.642 390.953 L
587.68 390.953 L
588.803 390.953 L
589.927 390.953 L
591.049 390.953 L
592.172 390.953 L
593.211 390.953 L
594.391 390.953 L
595.542 390.953 L
596.665 384.037 L
597.789 367.406 L
598.911 351.461 L
600.034 334.768 L
601.186 320.952 L
602.281 309.441 L
603.403 296.679 L
604.527 286.834 L
605.678 275.889 L
606.801 265.023 L
607.896 254.887 L
609.105 246.924 L
610.789 240.467 L
611.491 233.984 L
612.389 228.518 L
613.456 223.563 L
614.635 219.583 L
615.73 215.737 L
616.853 212.479 L
618.005 210.018 L
619.1 207.818 L
620.251 205.939 L
621.346 204.519 L
622.497 203.718 L
623.62 203.156 L
624.715 203.019 L
625.866 203.367 L
626.99 203.985 L
628.141 204.244 L
629.208 206.53 L
630.358 209.658 L
631.51 210.884 L
632.717 212.706 L
633.728 215.493 L
634.823 218.836 L
635.946 222.953 L
637.154 227.593 L
638.221 232.063 L
639.344 234.55 L
640.496 238.095 L
641.59 242.948 L
642.713 248.266 L
643.809 254.135 L
644.931 259.536 L
646.167 265.239 L
647.121 271.976 L
648.357 278.53 L
649.452 284.224 L
650.688 289.677 L
651.698 295.74 L
652.85 302.036 L
654.061 308.371 L
655.096 315.288 L
656.191 321.091 L
657.229 326.776 L
658.352 332.635 L
659.504 338.868 L
660.684 344.491 L
661.75 350.063 L
662.93 355.486 L
664.025 360.662 L
665.148 365.724 L
667.451 370.56 L
668.293 373.495 L
669.163 373.495 L
669.894 384.097 L
671.045 388.165 L
671.831 392.123 L
673.123 396.06 L
674.161 399.719 L
675.312 403.32 L
676.463 406.584 L
677.558 409.8 L
678.625 412.753 L
679.749 415.681 L
680.871 418.368 L
682.107 421.142 L
683.174 423.804 L
684.269 426.607 L
685.42 429.178 L
686.515 431.551 L
687.638 433.932 L
688.733 436.441 L
689.884 438.21 L
691.035 440.566 L
692.131 442.687 L
693.422 444.466 L
694.406 446.624 L
695.529 448.156 L
696.624 450.125 L
697.747 451.953 L
698.927 453.501 L
700.021 454.375 L
701.2 454.375 L
702.267 453.271 L
703.364 457.516 L
704.796 458.95 L
706.003 460.294 L
706.932 461.781 L
708.081 463.465 L
709.091 465.427 L
710.385 467.358 L
711.367 469.346 L
712.467 471.219 L
713.865 473.028 L
714.875 474.575 L
716.252 476.08 L
717.292 477.36 L
718.386 478.408 L
719.199 479.423 L
720.552 480.535 L
721.559 481.624 L
722.625 482.802 L
724.48 484.043 L
725.488 484.769 L
726.36 484.769 L
727.37 487.612 L
728.465 488.609 L
729.308 489.542 L
730.514 490.355 L
731.584 491.047 L
732.761 491.657 L
734.053 492.136 L
735.008 492.526 L
736.327 492.9 L
737.31 493.157 L
738.659 493.483 L
739.613 493.807 L
740.736 494.009 L
741.718 494.031 L
742.926 494.127 L
744.189 494.041 L
745.201 493.927 L
746.409 493.783 L
747.305 493.666 L
748.485 493.582 L
749.552 493.565 L
750.731 493.587 L
751.801 493.546 L
752.979 493.442 L
754.185 493.368 L
755.14 493.314 L
756.375 493.3 L
757.389 493.401 L
758.678 493.497 L
759.633 493.575 L
761.317 493.724 L
762.328 493.999 L
763.31 494.305 L
764.405 494.601 L
765.248 495.151 L
766.568 495.703 L
767.607 495.977 L
768.842 496.293 L
769.74 496.608 L
770.892 496.918 L
771.987 497.194 L
773.167 497.41 L
774.373 497.569 L
775.412 497.684 L
776.62 497.763 L
777.63 497.808 L
778.865 497.83 L
780.44 497.835 L
781.476 497.826 L
782.516 497.805 L
783.61 497.77 L
784.649 497.72 L
785.604 497.663 L
786.841 497.584 L
787.739 497.501 L
789.002 497.414 L
789.984 497.314 L
791.163 497.214 L
792.287 497.12 L
793.411 497.041 L
794.73 496.959 L
795.601 496.865 L
796.864 496.778 L
797.846 496.642 L
799.025 496.501 L
800.15 496.334 L
801.216 496.148 L
802.339 495.955 L
803.519 495.742 L
804.697 495.456 L
805.708 495.195 L
807.034 494.899 L
808.208 494.607 L
809.218 494.293 L
810.174 494.052 L
811.352 493.847 L
812.56 493.501 L
813.542 493.121 L
814.835 492.665 L
815.791 492.302 L
817.024 491.897 L
818.092 491.535 L
819.27 491.133 L
820.284 490.708 L
821.405 490.278 L
822.556 489.856 L
823.65 489.438 L
824.914 489.025 L
825.953 488.653 L
827.132 488.299 L
828.144 487.974 L
829.631 487.647 L
830.698 487.35 L
831.737 487.065 L
832.777 486.794 L
833.786 486.637 L
835.135 486.488 L
836.258 486.19 L
837.942 486.059 L
839.122 485.865 L
840.216 485.763 L
841.313 485.693 L
842.324 485.693 L
843.389 485.651 L
844.456 485.672 L
845.552 485.734 L
846.534 485.991 L
847.657 486.255 L
848.837 486.55 L
849.96 486.91 L
851.027 487.303 L
852.346 487.542 L
853.582 487.991 L
854.732 488.371 L
855.885 488.73 L
857.232 489.199 L
858.243 490.003 L
859.366 490.654 L
860.404 491.375 L
861.499 492.21 L
862.651 492.21 L
863.745 493.932 L
864.757 495.203 L
865.599 495.203 L
866.526 496.597 L
867.593 496.597 L
868.717 498.369 L
869.811 498.369 L
871.018 499.905 L
872.113 499.905 L
873.237 501.488 L
874.612 501.488 L
875.821 502.463 L
876.859 503.466 L
877.87 504.786 L
878.768 504.786 L
880.228 504.786 L
881.21 506.776 L
882.251 506.776 L
883.458 510.631 L
884.636 512.871 L
885.759 516.614 L
886.826 518.98 L
887.95 521.391 L
889.053 523.882 L
890.224 526.346 L
891.291 528.636 L
892.415 530.764 L
894.183 532.797 L
895.389 535.797 L
896.628 537.7 L
897.693 539.403 L
898.816 541.093 L
899.939 542.944 L
901.005 544.945 L
902.185 546.879 L
903.282 549.208 L
904.403 551.796 L
905.47 554.552 L
906.508 557.701 L
907.856 560.927 L
908.869 564.191 L
910.02 567.657 L
911.033 570.636 L
912.153 573.619 L
913.192 576.347 L
914.343 578.824 L
915.383 581.028 L
916.591 582.785 L
917.656 584.665 L
918.78 584.665 L
920.155 587.237 L
921.251 590.93 L
922.374 593.472 L
923.385 596.331 L
924.62 608.759 L
925.659 612.263 L
926.754 615.649 L
927.877 618.626 L
928.943 621.679 L
930.096 621.679 L
931.19 627.659 L
932.313 630.21 L
933.38 633.042 L
934.448 633.042 L
935.57 637.289 L
936.751 640.592 L
937.874 643.915 L
939.052 647.565 L
940.175 653.38 L
941.242 656.697 L
942.562 656.697 L
943.628 663.437 L
944.752 666.447 L
945.79 669.122 L
946.915 671.763 L
947.981 674.971 L
949.048 674.971 L
950.792 681.858 L
951.828 683.565 L
956.124 684.56 L
958.147 696.78 L
960.841 706.59 L
962.946 710.468 L
965.924 714.288 L
968.134 721.069 L
S
GR
GS
[0.75 0 0 0.75 0 0.25] CT
1 0 0 RC
[24 24] 0 setdash
2 LJ
6.667 LW
N
994.283 721.069 M
995.545 593.294 L
996.274 593.294 L
997.37 593.294 L
998.551 593.294 L
999.675 593.294 L
1000.797 593.294 L
1001.892 593.294 L
1003.014 593.294 L
1004.782 593.294 L
1005.569 593.294 L
1006.354 593.294 L
1008.123 593.294 L
1008.855 593.294 L
1010.034 593.294 L
1010.875 593.294 L
1012.026 593.294 L
1013.121 593.294 L
1014.245 593.294 L
1015.367 593.294 L
1016.491 593.294 L
1017.614 593.294 L
1018.793 593.294 L
1020.001 593.294 L
1020.984 593.294 L
1022.107 593.294 L
1023.23 593.294 L
1024.381 593.294 L
1025.475 593.294 L
1026.599 593.294 L
1027.722 593.294 L
1028.901 593.294 L
1030.08 593.294 L
1031.092 593.294 L
1032.496 593.294 L
1033.394 593.294 L
1034.517 593.294 L
1035.64 593.294 L
1036.763 593.294 L
1037.943 593.294 L
1038.981 593.294 L
1040.245 593.294 L
1041.2 593.294 L
1042.379 593.294 L
1043.503 593.294 L
1044.626 593.294 L
1045.749 593.294 L
1046.872 593.294 L
1048.051 593.303 L
1049.118 593.34 L
1050.241 593.384 L
1051.364 593.442 L
1052.487 593.512 L
1053.61 593.594 L
1054.93 593.678 L
1055.857 593.753 L
1056.98 593.805 L
1058.159 593.835 L
1059.169 593.855 L
1060.434 593.863 L
1061.416 593.867 L
1062.568 593.871 L
1064.42 593.872 L
1065.122 593.878 L
1065.909 593.879 L
1067.088 593.882 L
1068.155 593.884 L
1069.278 593.891 L
1070.458 593.903 L
1071.524 593.925 L
1072.703 593.963 L
1073.77 594.018 L
1074.922 594.104 L
1076.017 594.228 L
1077.168 594.372 L
1078.404 594.508 L
1079.386 594.645 L
1080.566 594.819 L
1081.689 595.018 L
1083.008 595.26 L
1083.934 595.479 L
1085.086 595.803 L
1086.181 596.167 L
1087.304 596.592 L
1088.456 597.105 L
1089.523 597.687 L
1090.645 598.344 L
1091.74 599.094 L
1092.919 599.969 L
1093.959 600.978 L
1095.109 602.138 L
1096.233 603.511 L
1097.356 605.181 L
1098.48 607.151 L
1099.603 609.534 L
1100.95 612.564 L
1101.877 615.931 L
1103.028 620.269 L
1104.095 624.957 L
1105.274 631.657 L
1106.341 639.368 L
1107.436 648.668 L
1108.587 658.061 L
1109.739 666.661 L
1110.862 674.515 L
1111.985 682.149 L
1113.164 689.638 L
1114.287 694.264 L
1115.353 698.798 L
1116.533 703.049 L
1117.601 705.988 L
1118.78 706.971 L
1119.846 705.788 L
1121.448 701.019 L
1122.15 697.132 L
1123.385 697.132 L
1124.34 683.802 L
1125.463 677.512 L
1126.586 671.822 L
1127.765 666.164 L
1128.917 661.052 L
1130.039 655.305 L
1131.134 649.929 L
1132.257 644.067 L
1133.325 638.391 L
1134.476 632.663 L
1135.571 627.051 L
1136.694 621.598 L
1137.874 616.427 L
1139.024 611.591 L
1140.092 607.136 L
1141.355 603.157 L
1142.338 599.735 L
1143.461 596.824 L
1144.584 594.448 L
1146.016 592.302 L
1146.858 591.098 L
1147.953 590.116 L
1149.189 589.479 L
1150.284 589.016 L
1151.407 588.677 L
1152.446 588.347 L
1153.541 587.953 L
1154.692 587.45 L
1155.759 586.906 L
1156.967 586.231 L
1158.033 585.477 L
1159.156 584.505 L
1160.252 583.405 L
1161.431 582.301 L
1162.498 581.163 L
1163.677 579.927 L
1164.744 578.659 L
1165.895 577.198 L
1166.99 575.723 L
1168.394 574.015 L
1169.378 572.725 L
1170.388 571.364 L
1171.623 570.041 L
1172.69 568.831 L
1173.758 567.731 L
1174.88 566.686 L
1176.004 565.683 L
1177.969 564.761 L
1178.786 563.662 L
1179.513 563.098 L
1180.468 562.481 L
1181.732 561.847 L
1182.77 561.215 L
1183.95 560.572 L
1185.045 559.9 L
1186.252 559.005 L
1187.291 558.032 L
1188.386 556.874 L
1189.509 555.587 L
1190.857 554.111 L
1191.841 552.482 L
1192.907 550.745 L
1194.114 548.901 L
1195.321 546.841 L
1196.22 544.945 L
1197.399 542.692 L
1198.466 540.573 L
1199.589 538.281 L
1200.768 535.811 L
1201.891 533.454 L
1203.015 530.806 L
1204.082 528.301 L
1205.205 525.626 L
1206.384 522.79 L
1207.451 520.222 L
1208.574 517.519 L
1209.697 514.789 L
1210.82 512.036 L
1212.032 509.11 L
1213.292 506.442 L
1214.275 503.554 L
1215.342 500.665 L
1216.548 497.501 L
1217.616 494.559 L
1218.682 491.443 L
1219.806 488.29 L
1220.928 485.143 L
1222.108 482.032 L
1223.203 478.969 L
1224.411 475.912 L
1225.449 472.887 L
1226.628 469.707 L
1227.697 466.823 L
1228.791 463.679 L
1229.914 460.468 L
1231.037 457.195 L
1232.132 453.843 L
1233.311 450.451 L
1234.968 445.606 L
1235.894 443.146 L
1236.765 439.833 L
1237.748 436.667 L
1238.899 432.961 L
1240.051 429.397 L
1241.117 425.961 L
1242.24 422.088 L
1243.391 418.349 L
1244.627 414.597 L
1245.609 410.863 L
1246.845 407.142 L
1247.856 403.682 L
1249.035 399.91 L
1250.102 396.516 L
1251.225 392.929 L
1252.464 390.951 L
1253.499 390.951 L
1254.708 390.951 L
1255.718 390.951 L
1256.897 390.951 L
1257.964 390.951 L
1259.228 390.951 L
1260.267 390.951 L
1261.389 390.951 L
1262.598 390.951 L
1263.636 390.951 L
1264.843 390.951 L
1265.883 390.951 L
1267.089 390.951 L
1268.128 390.951 L
1269.252 390.951 L
1270.376 390.951 L
1271.498 390.951 L
1272.677 390.951 L
1273.744 390.951 L
1274.927 390.951 L
1275.991 390.951 L
1277.197 390.951 L
1278.237 390.951 L
1279.359 390.951 L
1280.483 390.951 L
1281.606 390.951 L
1282.814 390.951 L
1283.796 390.951 L
1285.172 390.951 L
1286.098 390.951 L
1287.222 390.951 L
1288.428 390.951 L
1289.496 390.951 L
1291.294 390.951 L
1291.998 390.951 L
1292.922 390.951 L
1293.904 390.951 L
1295.027 390.951 L
1296.15 390.951 L
1297.358 390.951 L
1298.396 390.951 L
1299.548 390.951 L
1300.698 390.951 L
1301.822 390.951 L
1302.945 390.951 L
1304.152 390.951 L
1305.22 390.951 L
1306.287 390.951 L
1307.607 390.951 L
1308.533 390.951 L
1309.656 390.951 L
1310.779 390.951 L
1311.901 390.951 L
1313.054 390.951 L
1314.149 390.951 L
1315.36 390.951 L
1316.394 390.953 L
1317.518 378.313 L
1318.641 366.057 L
1319.764 354.198 L
1320.887 342.744 L
1322.01 331.705 L
1323.105 321.09 L
1324.257 310.906 L
1325.408 301.16 L
1326.812 291.86 L
1327.71 283.011 L
1328.75 274.618 L
1329.844 266.686 L
1331.079 259.219 L
1332.09 252.218 L
1333.329 245.687 L
1334.336 239.626 L
1335.572 234.038 L
1336.583 228.92 L
1337.822 224.274 L
1338.83 220.097 L
1339.952 216.386 L
1341.076 213.14 L
1342.564 210.353 L
1343.377 208.023 L
1344.444 206.143 L
1345.567 204.708 L
1346.691 203.711 L
1348.376 203.145 L
1349.33 203.003 L
1350.088 203.276 L
1351.183 203.955 L
1352.362 205.03 L
1353.43 206.491 L
1354.553 208.328 L
1355.76 210.529 L
1356.884 213.083 L
1357.951 215.977 L
1359.046 219.199 L
1360.225 222.735 L
1361.292 226.572 L
1362.499 230.697 L
1363.538 235.095 L
1364.689 239.752 L
1365.84 244.653 L
1366.963 249.783 L
1368.114 255.127 L
1369.182 260.669 L
1370.362 266.395 L
1371.736 272.288 L
1372.551 278.333 L
1373.674 284.515 L
1374.797 290.816 L
1376.004 297.223 L
1377.156 303.718 L
1378.223 310.287 L
1379.29 316.914 L
1380.498 323.584 L
1381.536 330.281 L
1382.748 336.991 L
1383.782 343.699 L
1384.934 350.39 L
1386.028 357.051 L
1387.152 363.667 L
1388.247 370.225 L
1389.398 376.713 L
1390.605 383.116 L
1391.673 389.424 L
1392.712 395.625 L
1394.228 401.707 L
1395.013 407.659 L
1396.165 413.471 L
1397.204 419.135 L
1398.467 424.639 L
1399.506 429.977 L
1400.797 435.139 L
1401.752 440.12 L
1402.932 444.911 L
1404.926 449.508 L
1406.077 480.935 L
1407.116 481.745 L
1408.1 482.561 L
1409.11 483.354 L
1409.952 483.964 L
1410.991 483.964 L
1412.088 485.456 L
1413.211 486.029 L
1414.304 486.029 L
1415.455 486.841 L
1416.859 486.841 L
1417.843 487.463 L
1418.826 487.463 L
1420.033 488.203 L
1421.1 488.843 L
1422.167 489.168 L
1423.458 489.168 L
1424.44 488.274 L
1425.565 489.756 L
1426.717 489.756 L
1427.838 489.644 L
1428.905 489.644 L
1430.056 489.211 L
1431.207 489.114 L
1432.276 488.862 L
1433.454 488.751 L
1434.549 488.751 L
1435.672 488.032 L
1436.823 488.032 L
1437.918 486.86 L
1439.357 486.86 L
1440.254 485.661 L
1441.429 485.303 L
1442.41 485.14 L
1443.646 485.355 L
1444.657 485.355 L
1445.809 486.551 L
1446.959 488.036 L
1447.999 488.609 L
1449.151 489.29 L
1450.273 490.057 L
1451.48 490.971 L
1452.52 490.971 L
1453.671 491.989 L
1454.737 492.842 L
1455.889 494.056 L
1457.069 494.056 L
1458.106 495.019 L
1459.287 495.349 L
1460.355 495.349 L
1462.319 495.937 L
1463.329 496.151 L
1464.255 496.333 L
1465.295 496.543 L
1466.247 496.711 L
1467.177 496.908 L
1468.355 497.16 L
1469.478 497.314 L
1470.461 497.314 L
1471.725 497.598 L
1472.735 497.598 L
1473.859 497.703 L
1474.953 497.767 L
1476.078 497.826 L
1477.285 497.834 L
1478.322 497.835 L
1479.501 497.833 L
1480.57 497.833 L
1481.749 497.816 L
1482.816 497.816 L
1483.967 497.802 L
1485.178 497.796 L
1486.212 497.786 L
1487.393 497.778 L
1488.544 497.767 L
1489.588 497.762 L
1490.705 497.762 L
1491.828 497.743 L
1492.923 497.725 L
1494.076 497.666 L
1495.199 497.666 L
1496.294 497.505 L
1497.501 497.307 L
1498.54 497.171 L
1499.691 497.171 L
1500.815 496.916 L
1501.937 496.722 L
1503.061 496.532 L
1504.211 496.144 L
1505.305 496.144 L
1506.401 495.773 L
1507.834 495.587 L
1508.761 495.411 L
1509.798 495.208 L
1510.922 495.208 L
1512.073 494.778 L
1513.251 494.778 L
1514.377 494.408 L
1515.414 494.23 L
1516.538 494.007 L
1518.421 493.783 L
1519.373 493.486 L
1520.328 493.174 L
1521.255 492.779 L
1522.239 492.361 L
1523.248 491.944 L
1524.483 491.551 L
1525.523 491.131 L
1526.645 490.77 L
1527.826 490.77 L
1528.893 490.262 L
1530.409 489.939 L
1531.251 489.315 L
1532.346 488.889 L
1533.469 488.506 L
1534.569 488.133 L
1535.66 488.133 L
1536.781 487.668 L
1537.933 487.354 L
1539.028 487.045 L
1540.151 486.751 L
1541.246 486.504 L
1542.483 486.206 L
1543.581 486.034 L
1544.813 485.89 L
1545.822 485.779 L
1546.946 485.779 L
1548.096 485.675 L
1549.194 485.65 L
1550.428 485.679 L
1551.467 485.854 L
1552.982 486.058 L
1554.106 486.3 L
1555.272 486.566 L
1556.465 486.848 L
1557.532 487.115 L
1558.71 487.388 L
1559.777 487.669 L
1560.844 488.003 L
1561.828 488.382 L
1562.979 488.774 L
1564.017 489.199 L
1565.144 489.603 L
1566.068 490.113 L
1567.19 490.113 L
1568.314 491.353 L
1569.438 492.068 L
1570.672 492.894 L
1571.712 493.708 L
1572.862 493.708 L
1573.817 494.95 L
1575.896 496.807 L
1577.047 497.605 L
1578.113 498.41 L
1579.292 499.276 L
1580.471 500.193 L
1581.538 501.102 L
1582.746 502.035 L
1583.757 503.104 L
1584.912 504.283 L
1586.031 505.457 L
1587.154 506.714 L
1588.221 507.813 L
1589.372 509.038 L
1590.525 510.247 L
1591.618 511.425 L
1592.714 512.699 L
1593.752 512.699 L
1594.82 514.568 L
1595.943 515.613 L
1597.038 516.854 L
1598.498 518.677 L
1599.594 520.258 L
1600.66 521.667 L
1601.67 523.219 L
1602.766 523.219 L
1603.947 525.991 L
1605.124 527.984 L
1606.164 530.685 L
1607.286 532.782 L
1608.353 535.053 L
1609.504 535.053 L
1610.629 538.812 L
1611.751 542.708 L
1612.874 542.708 L
1613.996 546.332 L
1615.177 548.493 L
1616.243 551.019 L
1617.395 553.561 L
1618.546 556.23 L
1619.669 560.102 L
1620.99 562.938 L
1621.999 565.346 L
1623.094 567.84 L
1624.106 570.816 L
1625.229 570.816 L
1626.352 575.568 L
1627.587 582.104 L
1628.598 583.904 L
1629.664 583.904 L
1630.845 590.271 L
1632.614 597.49 L
1633.821 610.458 L
1634.859 614.636 L
1635.954 618.624 L
1637.189 622.493 L
1638.229 626.538 L
1639.38 630.4 L
1640.475 634.151 L
1641.683 638.033 L
1643.086 642.145 L
1644.153 645.998 L
1645.305 649.915 L
1646.399 653.804 L
1647.522 658.079 L
1648.645 662.795 L
1649.768 667.626 L
1650.836 673.113 L
1651.96 678.266 L
1653.026 683.407 L
1654.262 688.694 L
1655.356 694.17 L
1656.395 699.63 L
1657.547 704.982 L
1658.531 710.169 L
1659.653 715.196 L
1660.69 719.951 L
1660.955 721.069 L
S
GR
GS
[0.75 0 0 0.75 0 0.25] CT
1 0 0 RC
[24 24] 0 setdash
2 LJ
6.667 LW
N
1677.263 721.069 M
1679 562.056 L
S
GR
GS
[0.75 0 0 0.75 378.5625 664.12502] CT
/Helvetica 48 F
GS
[1 0 0 1 0 0] CT
0 16.5 moveto 
1 -1 scale
(Actual) t 
GR
GR
GS
[0.75 0 0 0.75 0 0.25] CT
0 0 1 RC
2 setlinecap
10.0 ML
6.667 LW
N
460.962 885.167 M
500.769 885.167 L
S
GR
GS
[0.75 0 0 0.75 922.5 664.12502] CT
/Helvetica 48 F
GS
[1 0 0 1 0 0] CT
0 16.5 moveto 
1 -1 scale
(Desired) t 
GR
GR
GS
[0.75 0 0 0.75 0 0.25] CT
1 0 0 RC
[24 24] 0 setdash
2 LJ
6.667 LW
N
1186 885.167 M
1226 885.167 L
S
GR
%%Trailer
%%Pages: 1
%%EOF
