%!PS-Adobe-3.0 EPSF-3.0
%%Creator: (MATLAB, The Mathworks, Inc. Version 8.5.0.197613 \(R2015a\). Operating System: Linux)
%%Title: (/home/victor/ampro/AMPRO II/Upslope Walking/figures/Thesis/Upslope/AnkleTracking.eps)
%%CreationDate: 2016-02-19T15:19:36
%%Pages: (atend)
%%BoundingBox: 0 0 1391 751
%%LanguageLevel: 2
%%EndComments
%%BeginProlog
%%BeginResource: procset (Apache XML Graphics Std ProcSet) 1.2 0
%%Version: 1.2 0
%%Copyright: (Copyright 2001-2003,2010 The Apache Software Foundation. License terms: http://www.apache.org/licenses/LICENSE-2.0)
/bd{bind def}bind def
/ld{load def}bd
/GR/grestore ld
/M/moveto ld
/LJ/setlinejoin ld
/C/curveto ld
/f/fill ld
/LW/setlinewidth ld
/GC/setgray ld
/t/show ld
/N/newpath ld
/CT/concat ld
/cp/closepath ld
/S/stroke ld
/L/lineto ld
/CC/setcmykcolor ld
/A/ashow ld
/GS/gsave ld
/RC/setrgbcolor ld
/RM/rmoveto ld
/ML/setmiterlimit ld
/re {4 2 roll M
1 index 0 rlineto
0 exch rlineto
neg 0 rlineto
cp } bd
/_ctm matrix def
/_tm matrix def
/BT { _ctm currentmatrix pop matrix _tm copy pop 0 0 moveto } bd
/ET { _ctm setmatrix } bd
/iTm { _ctm setmatrix _tm concat } bd
/Tm { _tm astore pop iTm 0 0 moveto } bd
/ux 0.0 def
/uy 0.0 def
/F {
  /Tp exch def
  /Tf exch def
  Tf findfont Tp scalefont setfont
  /cf Tf def  /cs Tp def
} bd
/ULS {currentpoint /uy exch def /ux exch def} bd
/ULE {
  /Tcx currentpoint pop def
  gsave
  newpath
  cf findfont cs scalefont dup
  /FontMatrix get 0 get /Ts exch def /FontInfo get dup
  /UnderlinePosition get Ts mul /To exch def
  /UnderlineThickness get Ts mul /Tt exch def
  ux uy To add moveto  Tcx uy To add lineto
  Tt setlinewidth stroke
  grestore
} bd
/OLE {
  /Tcx currentpoint pop def
  gsave
  newpath
  cf findfont cs scalefont dup
  /FontMatrix get 0 get /Ts exch def /FontInfo get dup
  /UnderlinePosition get Ts mul /To exch def
  /UnderlineThickness get Ts mul /Tt exch def
  ux uy To add cs add moveto Tcx uy To add cs add lineto
  Tt setlinewidth stroke
  grestore
} bd
/SOE {
  /Tcx currentpoint pop def
  gsave
  newpath
  cf findfont cs scalefont dup
  /FontMatrix get 0 get /Ts exch def /FontInfo get dup
  /UnderlinePosition get Ts mul /To exch def
  /UnderlineThickness get Ts mul /Tt exch def
  ux uy To add cs 10 mul 26 idiv add moveto Tcx uy To add cs 10 mul 26 idiv add lineto
  Tt setlinewidth stroke
  grestore
} bd
/QT {
/Y22 exch store
/X22 exch store
/Y21 exch store
/X21 exch store
currentpoint
/Y21 load 2 mul add 3 div exch
/X21 load 2 mul add 3 div exch
/X21 load 2 mul /X22 load add 3 div
/Y21 load 2 mul /Y22 load add 3 div
/X22 load /Y22 load curveto
} bd
/SSPD {
dup length /d exch dict def
{
/v exch def
/k exch def
currentpagedevice k known {
/cpdv currentpagedevice k get def
v cpdv ne {
/upd false def
/nullv v type /nulltype eq def
/nullcpdv cpdv type /nulltype eq def
nullv nullcpdv or
{
/upd true def
} {
/sametype v type cpdv type eq def
sametype {
v type /arraytype eq {
/vlen v length def
/cpdvlen cpdv length def
vlen cpdvlen eq {
0 1 vlen 1 sub {
/i exch def
/obj v i get def
/cpdobj cpdv i get def
obj cpdobj ne {
/upd true def
exit
} if
} for
} {
/upd true def
} ifelse
} {
v type /dicttype eq {
v {
/dv exch def
/dk exch def
/cpddv cpdv dk get def
dv cpddv ne {
/upd true def
exit
} if
} forall
} {
/upd true def
} ifelse
} ifelse
} if
} ifelse
upd true eq {
d k v put
} if
} if
} if
} forall
d length 0 gt {
d setpagedevice
} if
} bd
%%EndResource
%%BeginResource: procset (Apache XML Graphics EPS ProcSet) 1.0 0
%%Version: 1.0 0
%%Copyright: (Copyright 2002-2003 The Apache Software Foundation. License terms: http://www.apache.org/licenses/LICENSE-2.0)
/BeginEPSF { %def
/b4_Inc_state save def         % Save state for cleanup
/dict_count countdictstack def % Count objects on dict stack
/op_count count 1 sub def      % Count objects on operand stack
userdict begin                 % Push userdict on dict stack
/showpage { } def              % Redefine showpage, { } = null proc
0 setgray 0 setlinecap         % Prepare graphics state
1 setlinewidth 0 setlinejoin
10 setmiterlimit [ ] 0 setdash newpath
/languagelevel where           % If level not equal to 1 then
{pop languagelevel             % set strokeadjust and
1 ne                           % overprint to their defaults.
{false setstrokeadjust false setoverprint
} if
} if
} bd
/EndEPSF { %def
count op_count sub {pop} repeat            % Clean up stacks
countdictstack dict_count sub {end} repeat
b4_Inc_state restore
} bd
%%EndResource
%FOPBeginFontDict
%%IncludeResource: font Courier-Bold
%%IncludeResource: font Helvetica
%%IncludeResource: font Courier-BoldOblique
%%IncludeResource: font Courier-Oblique
%%IncludeResource: font Times-Roman
%%IncludeResource: font Helvetica-BoldOblique
%%IncludeResource: font Helvetica-Bold
%%IncludeResource: font Helvetica-Oblique
%%IncludeResource: font Times-BoldItalic
%%IncludeResource: font Courier
%%IncludeResource: font Times-Italic
%%IncludeResource: font Times-Bold
%%IncludeResource: font Symbol
%%IncludeResource: font ZapfDingbats
%FOPEndFontDict
%%BeginResource: encoding WinAnsiEncoding
/WinAnsiEncoding [
/.notdef /.notdef /.notdef /.notdef /.notdef
/.notdef /.notdef /.notdef /.notdef /.notdef
/.notdef /.notdef /.notdef /.notdef /.notdef
/.notdef /.notdef /.notdef /.notdef /.notdef
/.notdef /.notdef /.notdef /.notdef /.notdef
/.notdef /.notdef /.notdef /.notdef /.notdef
/.notdef /.notdef /space /exclam /quotedbl
/numbersign /dollar /percent /ampersand /quotesingle
/parenleft /parenright /asterisk /plus /comma
/hyphen /period /slash /zero /one
/two /three /four /five /six
/seven /eight /nine /colon /semicolon
/less /equal /greater /question /at
/A /B /C /D /E
/F /G /H /I /J
/K /L /M /N /O
/P /Q /R /S /T
/U /V /W /X /Y
/Z /bracketleft /backslash /bracketright /asciicircum
/underscore /quoteleft /a /b /c
/d /e /f /g /h
/i /j /k /l /m
/n /o /p /q /r
/s /t /u /v /w
/x /y /z /braceleft /bar
/braceright /asciitilde /bullet /Euro /bullet
/quotesinglbase /florin /quotedblbase /ellipsis /dagger
/daggerdbl /circumflex /perthousand /Scaron /guilsinglleft
/OE /bullet /Zcaron /bullet /bullet
/quoteleft /quoteright /quotedblleft /quotedblright /bullet
/endash /emdash /asciitilde /trademark /scaron
/guilsinglright /oe /bullet /zcaron /Ydieresis
/space /exclamdown /cent /sterling /currency
/yen /brokenbar /section /dieresis /copyright
/ordfeminine /guillemotleft /logicalnot /sfthyphen /registered
/macron /degree /plusminus /twosuperior /threesuperior
/acute /mu /paragraph /middot /cedilla
/onesuperior /ordmasculine /guillemotright /onequarter /onehalf
/threequarters /questiondown /Agrave /Aacute /Acircumflex
/Atilde /Adieresis /Aring /AE /Ccedilla
/Egrave /Eacute /Ecircumflex /Edieresis /Igrave
/Iacute /Icircumflex /Idieresis /Eth /Ntilde
/Ograve /Oacute /Ocircumflex /Otilde /Odieresis
/multiply /Oslash /Ugrave /Uacute /Ucircumflex
/Udieresis /Yacute /Thorn /germandbls /agrave
/aacute /acircumflex /atilde /adieresis /aring
/ae /ccedilla /egrave /eacute /ecircumflex
/edieresis /igrave /iacute /icircumflex /idieresis
/eth /ntilde /ograve /oacute /ocircumflex
/otilde /odieresis /divide /oslash /ugrave
/uacute /ucircumflex /udieresis /yacute /thorn
/ydieresis
] def
%%EndResource
%FOPBeginFontReencode
/Courier-Bold findfont
dup length dict begin
  {1 index /FID ne {def} {pop pop} ifelse} forall
  /Encoding WinAnsiEncoding def
  currentdict
end
/Courier-Bold exch definefont pop
/Helvetica findfont
dup length dict begin
  {1 index /FID ne {def} {pop pop} ifelse} forall
  /Encoding WinAnsiEncoding def
  currentdict
end
/Helvetica exch definefont pop
/Courier-BoldOblique findfont
dup length dict begin
  {1 index /FID ne {def} {pop pop} ifelse} forall
  /Encoding WinAnsiEncoding def
  currentdict
end
/Courier-BoldOblique exch definefont pop
/Courier-Oblique findfont
dup length dict begin
  {1 index /FID ne {def} {pop pop} ifelse} forall
  /Encoding WinAnsiEncoding def
  currentdict
end
/Courier-Oblique exch definefont pop
/Times-Roman findfont
dup length dict begin
  {1 index /FID ne {def} {pop pop} ifelse} forall
  /Encoding WinAnsiEncoding def
  currentdict
end
/Times-Roman exch definefont pop
/Helvetica-BoldOblique findfont
dup length dict begin
  {1 index /FID ne {def} {pop pop} ifelse} forall
  /Encoding WinAnsiEncoding def
  currentdict
end
/Helvetica-BoldOblique exch definefont pop
/Helvetica-Bold findfont
dup length dict begin
  {1 index /FID ne {def} {pop pop} ifelse} forall
  /Encoding WinAnsiEncoding def
  currentdict
end
/Helvetica-Bold exch definefont pop
/Helvetica-Oblique findfont
dup length dict begin
  {1 index /FID ne {def} {pop pop} ifelse} forall
  /Encoding WinAnsiEncoding def
  currentdict
end
/Helvetica-Oblique exch definefont pop
/Times-BoldItalic findfont
dup length dict begin
  {1 index /FID ne {def} {pop pop} ifelse} forall
  /Encoding WinAnsiEncoding def
  currentdict
end
/Times-BoldItalic exch definefont pop
/Courier findfont
dup length dict begin
  {1 index /FID ne {def} {pop pop} ifelse} forall
  /Encoding WinAnsiEncoding def
  currentdict
end
/Courier exch definefont pop
/Times-Italic findfont
dup length dict begin
  {1 index /FID ne {def} {pop pop} ifelse} forall
  /Encoding WinAnsiEncoding def
  currentdict
end
/Times-Italic exch definefont pop
/Times-Bold findfont
dup length dict begin
  {1 index /FID ne {def} {pop pop} ifelse} forall
  /Encoding WinAnsiEncoding def
  currentdict
end
/Times-Bold exch definefont pop
%FOPEndFontReencode
%%EndProlog
%%Page: 1 1
%%PageBoundingBox: 0 0 1391 751
%%BeginPageSetup
[1 0 0 -1 0 751] CT
%%EndPageSetup
GS
[0.75 0 0 0.75 0 0.25] CT
N
0 0 M
1855 0 L
1855 1001 L
0 1001 L
0 0 L
cp
clip
1 GC
N
0 0 1855 1001 re
f
GR
GS
[0.75 0 0 0.75 0 0.25] CT
1 GC
N
0 0 1855 1001 re
f
GR
GS
[0.75 0 0 0.75 0 0.25] CT
1 GC
N
241 721 M
1679 721 L
1679 30 L
241 30 L
cp
f
GR
GS
[0.75 0 0 0.75 0 0.25] CT
0.873 GC
2 setlinecap
10.0 ML
N
241 721 M
241 30 L
S
GR
GS
[0.75 0 0 0.75 0 0.25] CT
0.873 GC
2 setlinecap
10.0 ML
N
455.044 721 M
455.044 30 L
S
GR
GS
[0.75 0 0 0.75 0 0.25] CT
0.873 GC
2 setlinecap
10.0 ML
N
669.089 721 M
669.089 30 L
S
GR
GS
[0.75 0 0 0.75 0 0.25] CT
0.873 GC
2 setlinecap
10.0 ML
N
883.133 721 M
883.133 30 L
S
GR
GS
[0.75 0 0 0.75 0 0.25] CT
0.873 GC
2 setlinecap
10.0 ML
N
1097.177 721 M
1097.177 30 L
S
GR
GS
[0.75 0 0 0.75 0 0.25] CT
0.873 GC
2 setlinecap
10.0 ML
N
1311.221 721 M
1311.221 30 L
S
GR
GS
[0.75 0 0 0.75 0 0.25] CT
0.873 GC
2 setlinecap
10.0 ML
N
1525.266 721 M
1525.266 30 L
S
GR
GS
[0.75 0 0 0.75 0 0.25] CT
0.873 GC
2 setlinecap
10.0 ML
N
1679 721 M
241 721 L
S
GR
GS
[0.75 0 0 0.75 0 0.25] CT
0.873 GC
2 setlinecap
10.0 ML
N
1679 622.286 M
241 622.286 L
S
GR
GS
[0.75 0 0 0.75 0 0.25] CT
0.873 GC
2 setlinecap
10.0 ML
N
1679 523.571 M
241 523.571 L
S
GR
GS
[0.75 0 0 0.75 0 0.25] CT
0.873 GC
2 setlinecap
10.0 ML
N
1679 424.857 M
241 424.857 L
S
GR
GS
[0.75 0 0 0.75 0 0.25] CT
0.873 GC
2 setlinecap
10.0 ML
N
1679 326.143 M
241 326.143 L
S
GR
GS
[0.75 0 0 0.75 0 0.25] CT
0.873 GC
2 setlinecap
10.0 ML
N
1679 227.429 M
241 227.429 L
S
GR
GS
[0.75 0 0 0.75 0 0.25] CT
0.873 GC
2 setlinecap
10.0 ML
N
1679 128.714 M
241 128.714 L
S
GR
GS
[0.75 0 0 0.75 0 0.25] CT
0.873 GC
2 setlinecap
10.0 ML
N
1679 30 M
241 30 L
S
GR
GS
[0.75 0 0 0.75 720.0005 599.25002] CT
0.149 GC
/Helvetica 59 F
GS
[1 0 0 1 0 0] CT
-121 55 moveto 
1 -1 scale
(Time \(s\)) t 
GR
GR
GS
[0.75 0 0 0.75 0 0.25] CT
0.149 GC
2 setlinecap
10.0 ML
N
241 721 M
1679 721 L
S
GR
GS
[0.75 0 0 0.75 0 0.25] CT
0.149 GC
2 setlinecap
10.0 ML
N
241 30 M
1679 30 L
S
GR
GS
[0.75 0 0 0.75 0 0.25] CT
0.149 GC
2 setlinecap
10.0 ML
N
241 721 M
241 706.62 L
S
GR
GS
[0.75 0 0 0.75 0 0.25] CT
0.149 GC
2 setlinecap
10.0 ML
N
455.044 721 M
455.044 706.62 L
S
GR
GS
[0.75 0 0 0.75 0 0.25] CT
0.149 GC
2 setlinecap
10.0 ML
N
669.089 721 M
669.089 706.62 L
S
GR
GS
[0.75 0 0 0.75 0 0.25] CT
0.149 GC
2 setlinecap
10.0 ML
N
883.133 721 M
883.133 706.62 L
S
GR
GS
[0.75 0 0 0.75 0 0.25] CT
0.149 GC
2 setlinecap
10.0 ML
N
1097.177 721 M
1097.177 706.62 L
S
GR
GS
[0.75 0 0 0.75 0 0.25] CT
0.149 GC
2 setlinecap
10.0 ML
N
1311.221 721 M
1311.221 706.62 L
S
GR
GS
[0.75 0 0 0.75 0 0.25] CT
0.149 GC
2 setlinecap
10.0 ML
N
1525.266 721 M
1525.266 706.62 L
S
GR
GS
[0.75 0 0 0.75 0 0.25] CT
0.149 GC
2 setlinecap
10.0 ML
N
241 30 M
241 44.38 L
S
GR
GS
[0.75 0 0 0.75 0 0.25] CT
0.149 GC
2 setlinecap
10.0 ML
N
455.044 30 M
455.044 44.38 L
S
GR
GS
[0.75 0 0 0.75 0 0.25] CT
0.149 GC
2 setlinecap
10.0 ML
N
669.089 30 M
669.089 44.38 L
S
GR
GS
[0.75 0 0 0.75 0 0.25] CT
0.149 GC
2 setlinecap
10.0 ML
N
883.133 30 M
883.133 44.38 L
S
GR
GS
[0.75 0 0 0.75 0 0.25] CT
0.149 GC
2 setlinecap
10.0 ML
N
1097.177 30 M
1097.177 44.38 L
S
GR
GS
[0.75 0 0 0.75 0 0.25] CT
0.149 GC
2 setlinecap
10.0 ML
N
1311.221 30 M
1311.221 44.38 L
S
GR
GS
[0.75 0 0 0.75 0 0.25] CT
0.149 GC
2 setlinecap
10.0 ML
N
1525.266 30 M
1525.266 44.38 L
S
GR
GS
[0.75 0 0 0.75 180.75 550.99998] CT
0.149 GC
/Helvetica 53 F
GS
[1 0 0 1 0 0] CT
-17 50 moveto 
1 -1 scale
(0) t 
GR
GR
GS
[0.75 0 0 0.75 341.28323 550.99998] CT
0.149 GC
/Helvetica 53 F
GS
[1 0 0 1 0 0] CT
-42.5 50 moveto 
1 -1 scale
(0.5) t 
GR
GR
GS
[0.75 0 0 0.75 501.81647 550.99998] CT
0.149 GC
/Helvetica 53 F
GS
[1 0 0 1 0 0] CT
-17 50 moveto 
1 -1 scale
(1) t 
GR
GR
GS
[0.75 0 0 0.75 662.34966 550.99998] CT
0.149 GC
/Helvetica 53 F
GS
[1 0 0 1 0 0] CT
-42.5 50 moveto 
1 -1 scale
(1.5) t 
GR
GR
GS
[0.75 0 0 0.75 822.88293 550.99998] CT
0.149 GC
/Helvetica 53 F
GS
[1 0 0 1 0 0] CT
-17 50 moveto 
1 -1 scale
(2) t 
GR
GR
GS
[0.75 0 0 0.75 983.41608 550.99998] CT
0.149 GC
/Helvetica 53 F
GS
[1 0 0 1 0 0] CT
-42.5 50 moveto 
1 -1 scale
(2.5) t 
GR
GR
GS
[0.75 0 0 0.75 1143.94931 550.99998] CT
0.149 GC
/Helvetica 53 F
GS
[1 0 0 1 0 0] CT
-17 50 moveto 
1 -1 scale
(3) t 
GR
GR
GS
[0 -0.75 0.75 0 89.75 281.87473] CT
0.149 GC
/Helvetica 59 F
GS
[1 0 0 1 0 0] CT
-255 -14 moveto 
1 -1 scale
(Ankle angle \(rad\)) t 
GR
GR
GS
[0.75 0 0 0.75 0 0.25] CT
0.149 GC
2 setlinecap
10.0 ML
N
241 721 M
241 30 L
S
GR
GS
[0.75 0 0 0.75 0 0.25] CT
0.149 GC
2 setlinecap
10.0 ML
N
1679 721 M
1679 30 L
S
GR
GS
[0.75 0 0 0.75 0 0.25] CT
0.149 GC
2 setlinecap
10.0 ML
N
241 721 M
255.38 721 L
S
GR
GS
[0.75 0 0 0.75 0 0.25] CT
0.149 GC
2 setlinecap
10.0 ML
N
241 622.286 M
255.38 622.286 L
S
GR
GS
[0.75 0 0 0.75 0 0.25] CT
0.149 GC
2 setlinecap
10.0 ML
N
241 523.571 M
255.38 523.571 L
S
GR
GS
[0.75 0 0 0.75 0 0.25] CT
0.149 GC
2 setlinecap
10.0 ML
N
241 424.857 M
255.38 424.857 L
S
GR
GS
[0.75 0 0 0.75 0 0.25] CT
0.149 GC
2 setlinecap
10.0 ML
N
241 326.143 M
255.38 326.143 L
S
GR
GS
[0.75 0 0 0.75 0 0.25] CT
0.149 GC
2 setlinecap
10.0 ML
N
241 227.429 M
255.38 227.429 L
S
GR
GS
[0.75 0 0 0.75 0 0.25] CT
0.149 GC
2 setlinecap
10.0 ML
N
241 128.714 M
255.38 128.714 L
S
GR
GS
[0.75 0 0 0.75 0 0.25] CT
0.149 GC
2 setlinecap
10.0 ML
N
241 30 M
255.38 30 L
S
GR
GS
[0.75 0 0 0.75 0 0.25] CT
0.149 GC
2 setlinecap
10.0 ML
N
1679 721 M
1664.62 721 L
S
GR
GS
[0.75 0 0 0.75 0 0.25] CT
0.149 GC
2 setlinecap
10.0 ML
N
1679 622.286 M
1664.62 622.286 L
S
GR
GS
[0.75 0 0 0.75 0 0.25] CT
0.149 GC
2 setlinecap
10.0 ML
N
1679 523.571 M
1664.62 523.571 L
S
GR
GS
[0.75 0 0 0.75 0 0.25] CT
0.149 GC
2 setlinecap
10.0 ML
N
1679 424.857 M
1664.62 424.857 L
S
GR
GS
[0.75 0 0 0.75 0 0.25] CT
0.149 GC
2 setlinecap
10.0 ML
N
1679 326.143 M
1664.62 326.143 L
S
GR
GS
[0.75 0 0 0.75 0 0.25] CT
0.149 GC
2 setlinecap
10.0 ML
N
1679 227.429 M
1664.62 227.429 L
S
GR
GS
[0.75 0 0 0.75 0 0.25] CT
0.149 GC
2 setlinecap
10.0 ML
N
1679 128.714 M
1664.62 128.714 L
S
GR
GS
[0.75 0 0 0.75 0 0.25] CT
0.149 GC
2 setlinecap
10.0 ML
N
1679 30 M
1664.62 30 L
S
GR
GS
[0.75 0 0 0.75 170.75 541] CT
0.149 GC
/Helvetica 53 F
GS
[1 0 0 1 0 0] CT
-104 18.5 moveto 
1 -1 scale
(-0.1) t 
GR
GR
GS
[0.75 0 0 0.75 170.75 466.96428] CT
0.149 GC
/Helvetica 53 F
GS
[1 0 0 1 0 0] CT
-34 18.5 moveto 
1 -1 scale
(0) t 
GR
GR
GS
[0.75 0 0 0.75 170.75 392.92856] CT
0.149 GC
/Helvetica 53 F
GS
[1 0 0 1 0 0] CT
-85 18.5 moveto 
1 -1 scale
(0.1) t 
GR
GR
GS
[0.75 0 0 0.75 170.75 318.89286] CT
0.149 GC
/Helvetica 53 F
GS
[1 0 0 1 0 0] CT
-85 18.5 moveto 
1 -1 scale
(0.2) t 
GR
GR
GS
[0.75 0 0 0.75 170.75 244.85714] CT
0.149 GC
/Helvetica 53 F
GS
[1 0 0 1 0 0] CT
-85 18.5 moveto 
1 -1 scale
(0.3) t 
GR
GR
GS
[0.75 0 0 0.75 170.75 170.82142] CT
0.149 GC
/Helvetica 53 F
GS
[1 0 0 1 0 0] CT
-85 18.5 moveto 
1 -1 scale
(0.4) t 
GR
GR
GS
[0.75 0 0 0.75 170.75 96.78571] CT
0.149 GC
/Helvetica 53 F
GS
[1 0 0 1 0 0] CT
-85 18.5 moveto 
1 -1 scale
(0.5) t 
GR
GR
GS
[0.75 0 0 0.75 170.75 22.74998] CT
0.149 GC
/Helvetica 53 F
GS
[1 0 0 1 0 0] CT
-85 18.5 moveto 
1 -1 scale
(0.6) t 
GR
GR
GS
[0.75 0 0 0.75 0 0.25] CT
0 0 1 RC
2 LJ
6.667 LW
N
241 484.848 M
242.606 494.429 L
244.529 498.881 L
246.723 502.546 L
248.916 505.514 L
251.056 507.547 L
253.09 509.216 L
255.496 510.67 L
257.374 511.798 L
259.565 512.835 L
261.758 513.77 L
263.844 514.505 L
266.039 514.966 L
268.128 515.319 L
270.267 515.659 L
272.354 516.019 L
274.549 516.341 L
276.634 516.606 L
278.774 516.829 L
280.861 517.052 L
283.162 517.34 L
285.303 517.628 L
287.282 517.859 L
289.531 518.059 L
291.671 518.237 L
293.812 518.43 L
296.755 518.726 L
298.092 518.926 L
300.179 519.169 L
302.372 519.38 L
304.46 519.49 L
306.599 519.551 L
308.847 519.585 L
310.882 519.604 L
313.023 519.623 L
315.11 519.634 L
317.357 519.638 L
319.55 519.638 L
321.637 519.638 L
323.777 519.638 L
325.918 519.638 L
328.112 519.638 L
330.144 519.638 L
332.34 519.638 L
334.533 519.638 L
336.621 519.638 L
338.813 519.638 L
341.061 519.638 L
342.987 519.638 L
345.128 519.638 L
S
GR
GS
[0.75 0 0 0.75 0 0.25] CT
0 0 1 RC
2 LJ
6.667 LW
N
345.128 519.638 M
347.482 519.638 L
349.356 519.638 L
351.823 519.638 L
353.691 519.638 L
355.777 519.638 L
357.865 519.638 L
360.111 519.638 L
362.305 519.638 L
364.392 519.638 L
366.585 519.638 L
368.726 519.638 L
371.669 519.638 L
373.007 519.638 L
375.094 519.638 L
377.343 519.638 L
379.376 519.638 L
381.515 519.638 L
383.762 519.638 L
385.85 519.638 L
388.044 519.627 L
390.13 519.608 L
392.325 519.589 L
394.465 519.57 L
396.553 519.536 L
398.639 519.498 L
400.835 519.441 L
404.152 519.365 L
405.756 519.256 L
407.308 519.18 L
409.449 519.093 L
413.301 518.979 L
414.852 518.926 L
416.244 518.885 L
417.904 518.832 L
420.152 518.767 L
422.238 518.692 L
424.325 518.608 L
426.411 518.491 L
428.659 518.321 L
430.692 518.082 L
432.833 517.772 L
435.079 517.336 L
437.221 516.927 L
439.363 516.507 L
441.449 516.098 L
443.643 515.648 L
445.729 515.235 L
447.922 514.845 L
450.062 514.436 L
S
GR
GS
[0.75 0 0 0.75 0 0.25] CT
0 0 1 RC
2 LJ
6.667 LW
N
450.062 514.436 M
452.203 513.963 L
454.398 513.57 L
456.699 513.271 L
458.732 512.96 L
460.714 512.669 L
462.961 512.396 L
465.047 512.214 L
467.187 512.097 L
469.329 512.029 L
471.416 511.968 L
473.402 511.896 L
475.643 511.798 L
477.89 511.658 L
480.137 511.476 L
482.276 511.196 L
484.205 510.829 L
486.398 510.454 L
488.378 510.094 L
490.678 509.674 L
492.766 509.193 L
494.96 508.675 L
497.1 508.167 L
499.402 507.437 L
501.435 506.528 L
503.575 505.294 L
505.936 503.818 L
507.856 502.08 L
509.996 500.293 L
512.939 497.931 L
514.276 496.644 L
516.417 495.849 L
518.557 496.122 L
520.697 497.155 L
522.945 498.771 L
524.978 500.789 L
527.014 503.049 L
529.314 505.627 L
531.347 507.948 L
533.333 509.663 L
535.628 510.602 L
537.608 510.882 L
539.908 510.889 L
542.317 510.976 L
544.404 511.071 L
546.33 511.128 L
548.577 511.154 L
550.664 511.158 L
552.644 511.158 L
554.838 511.158 L
S
GR
GS
[0.75 0 0 0.75 0 0.25] CT
0 0 1 RC
2 LJ
6.667 LW
N
554.838 511.158 M
557.085 511.158 L
559.227 511.151 L
561.367 511.12 L
563.507 511.082 L
565.647 511.045 L
567.84 510.992 L
569.93 510.904 L
572.015 510.761 L
574.211 510.533 L
576.351 510.17 L
578.49 509.674 L
580.577 509 L
582.825 508.217 L
584.912 507.35 L
587.104 506.335 L
589.138 505.184 L
591.333 503.856 L
593.473 502.413 L
595.613 500.823 L
597.755 499.04 L
599.895 497.147 L
602.088 495.012 L
604.122 493.017 L
606.209 490.928 L
608.188 488.864 L
610.595 486.956 L
612.791 485.17 L
614.878 483.523 L
617.072 482.028 L
620.443 480.608 L
622.048 478.885 L
623.385 477.939 L
625.58 476.485 L
627.667 475.051 L
629.86 473.544 L
632.162 471.973 L
634.197 470.266 L
636.391 468.501 L
638.315 466.711 L
640.562 464.629 L
642.649 462.709 L
644.843 460.483 L
646.93 458.469 L
649.125 456.247 L
651.211 454.241 L
653.407 452.057 L
655.599 450.13 L
657.687 448.044 L
659.88 446.106 L
S
GR
GS
[0.75 0 0 0.75 0 0.25] CT
0 0 1 RC
2 LJ
6.667 LW
N
659.88 446.106 M
661.966 444.281 L
664.108 442.369 L
666.194 440.435 L
668.388 438.53 L
670.528 436.615 L
672.669 434.609 L
674.865 432.579 L
676.951 430.513 L
679.359 428.196 L
681.232 426.276 L
683.372 424.156 L
685.512 422.059 L
687.599 420.026 L
689.846 418.065 L
691.879 416.123 L
694.127 414.253 L
696.215 412.425 L
698.408 410.524 L
700.442 408.889 L
702.636 406.973 L
704.722 405.145 L
706.917 403.237 L
709.005 401.39 L
711.09 399.429 L
713.391 397.399 L
715.745 395.052 L
717.62 393.186 L
719.598 391.236 L
721.901 389.086 L
723.988 387.129 L
726.127 385.089 L
729.445 381.924 L
730.729 380.678 L
732.655 378.96 L
734.688 376.881 L
736.936 374.678 L
739.022 372.619 L
741.111 370.389 L
743.305 368.083 L
745.445 365.592 L
747.638 363.291 L
749.725 360.857 L
751.919 358.385 L
753.953 355.913 L
756.2 353.3 L
758.501 350.927 L
760.429 348.402 L
762.622 345.82 L
764.71 343.106 L
S
GR
GS
[0.75 0 0 0.75 0 0.25] CT
0 0 1 RC
2 LJ
6.667 LW
N
764.71 343.106 M
766.903 340.357 L
768.991 337.537 L
771.291 334.512 L
773.27 332.521 L
775.411 330.727 L
777.498 329.296 L
779.691 327.819 L
781.887 326.403 L
783.973 324.897 L
786.114 323.383 L
788.255 321.656 L
790.608 319.934 L
792.482 318.215 L
794.675 316.288 L
796.815 314.501 L
798.956 312.601 L
801.418 310.678 L
803.236 308.724 L
805.379 306.794 L
807.518 304.875 L
809.658 302.974 L
811.744 301.112 L
814.1 299.124 L
816.133 297.583 L
818.059 295.918 L
820.359 294.358 L
822.501 292.889 L
824.694 291.447 L
826.729 290.141 L
828.923 288.808 L
830.956 287.548 L
833.204 286.264 L
836.735 285.121 L
838.179 283.709 L
839.464 283.005 L
841.765 281.926 L
844.28 280.802 L
846.045 279.673 L
848.187 278.617 L
850.38 277.614 L
852.467 276.634 L
854.607 275.759 L
856.747 275.01 L
858.727 274.309 L
860.921 273.741 L
863.115 273.158 L
865.256 272.715 L
867.663 272.356 L
869.645 271.936 L
S
GR
GS
[0.75 0 0 0.75 0 0.25] CT
0 0 1 RC
2 LJ
6.667 LW
N
869.645 271.936 M
871.732 271.542 L
873.82 271.288 L
875.906 271.141 L
878.099 271.099 L
880.346 271.099 L
882.433 271.065 L
884.628 270.94 L
887.036 270.804 L
888.908 270.671 L
891.049 270.58 L
893.19 270.55 L
895.276 270.546 L
897.417 270.546 L
899.718 270.546 L
901.697 270.546 L
903.838 270.561 L
905.979 270.588 L
908.118 270.648 L
910.258 270.773 L
912.238 270.982 L
914.487 271.33 L
916.681 271.841 L
918.821 272.397 L
920.962 272.458 L
923.101 270.081 L
925.242 266.208 L
927.436 261.514 L
929.523 257.047 L
931.662 252.25 L
933.804 247.28 L
935.997 242.184 L
938.139 237.051 L
940.224 231.868 L
942.529 226.644 L
945.738 218.596 L
947.075 215.336 L
948.787 211.558 L
950.821 207.371 L
953.068 203.82 L
955.154 200.357 L
957.295 197.616 L
959.49 195 L
961.577 192.982 L
963.771 191.161 L
965.858 189.549 L
968.051 188.212 L
970.192 187.258 L
972.279 186.675 L
974.472 186.304 L
S
GR
GS
[0.75 0 0 0.75 0 0.25] CT
0 0 1 RC
2 LJ
6.667 LW
N
974.472 186.304 M
976.613 186.263 L
978.807 186.463 L
980.84 186.789 L
983.033 187.209 L
985.228 187.879 L
987.528 188.958 L
989.455 190.082 L
991.541 191.502 L
993.683 193.031 L
995.984 194.72 L
998.017 196.586 L
1000.157 198.596 L
1002.352 200.871 L
1004.439 203.419 L
1006.578 206.224 L
1008.667 209.272 L
1010.806 212.501 L
1013.161 216.075 L
1014.979 219.489 L
1017.334 223.222 L
1019.422 227.102 L
1021.776 231.194 L
1023.702 235.4 L
1025.897 239.678 L
1028.205 243.979 L
1030.177 248.419 L
1032.264 252.943 L
1034.243 257.194 L
1036.383 261.548 L
1038.579 266.022 L
1040.826 270.054 L
1042.859 274.491 L
1045.108 278.727 L
1047.194 282.645 L
1049.335 286.609 L
1053.723 290.481 L
1055.328 297.231 L
1056.987 300.097 L
1058.379 302.66 L
1060.573 305.934 L
1062.07 308.929 L
1064.532 312.154 L
1066.512 315.149 L
1068.705 318.223 L
1070.899 321.198 L
1072.986 324.208 L
1075.019 326.854 L
1077.16 329.519 L
1079.3 332.105 L
S
GR
GS
[0.75 0 0 0.75 0 0.25] CT
0 0 1 RC
2 LJ
6.667 LW
N
1079.3 332.105 M
1081.654 334.607 L
1083.688 337.083 L
1085.776 339.487 L
1087.969 341.792 L
1090.055 344.037 L
1092.196 346.358 L
1094.283 348.379 L
1096.477 350.529 L
1098.671 352.649 L
1100.758 354.853 L
1103.218 356.81 L
1105.095 358.846 L
1107.234 360.929 L
1109.321 362.693 L
1111.461 364.487 L
1113.709 366.054 L
1115.796 367.595 L
1118.042 369.045 L
1120.076 370.552 L
1122.165 371.854 L
1124.894 373.391 L
1127.195 374.822 L
1128.965 376.018 L
1131.155 376.961 L
1133.081 377.733 L
1135.546 378.452 L
1137.417 378.994 L
1139.515 379.395 L
1142.179 379.656 L
1144.104 379.864 L
1146.727 380.046 L
1148.71 380.239 L
1150.795 380.394 L
1152.344 380.5 L
1154.924 380.576 L
1156.841 380.599 L
1158.873 380.603 L
1162.409 380.603 L
1164.33 380.603 L
1165.991 380.603 L
1167.915 380.603 L
1170.004 380.603 L
1171.61 380.603 L
1173.909 380.603 L
1175.948 380.603 L
1178.191 380.603 L
1180.653 380.603 L
1182.473 380.603 L
1184.987 380.603 L
S
GR
GS
[0.75 0 0 0.75 0 0.25] CT
0 0 1 RC
2 LJ
6.667 LW
N
1184.987 380.603 M
1186.859 380.603 L
1189.431 380.603 L
1191.248 380.603 L
1193.388 380.603 L
1195.261 380.603 L
1197.562 380.603 L
1199.97 380.603 L
1201.899 380.603 L
1204.2 380.603 L
1205.909 380.603 L
1208.158 380.603 L
1210.19 380.603 L
1212.438 380.603 L
1214.477 380.603 L
1216.721 380.603 L
1219.021 380.603 L
1220.839 380.603 L
1223.193 380.603 L
1225.126 380.603 L
1227.583 380.603 L
1229.402 380.603 L
1232.612 380.603 L
1234.538 380.603 L
1236.41 380.603 L
1238.496 380.603 L
1240.104 380.603 L
1242.619 380.603 L
1244.6 380.603 L
1246.954 380.603 L
1248.664 380.603 L
1250.86 380.603 L
1252.946 380.603 L
1255.196 380.603 L
1257.494 380.603 L
1259.474 380.603 L
1261.776 380.603 L
1263.7 380.603 L
1266.055 380.603 L
1269.055 380.603 L
1271.031 380.603 L
1273.013 380.603 L
1275.098 380.603 L
1277.078 380.603 L
1278.898 380.603 L
1281.256 380.603 L
1282.966 380.603 L
1285.374 380.603 L
1287.246 380.603 L
1289.492 380.603 L
S
GR
GS
[0.75 0 0 0.75 0 0.25] CT
0 0 1 RC
2 LJ
6.667 LW
N
1289.492 380.603 M
1291.633 380.603 L
1293.777 380.603 L
1296.29 380.603 L
1297.95 380.603 L
1300.356 380.603 L
1302.228 380.603 L
1304.476 380.603 L
1306.619 380.603 L
1308.651 380.603 L
1310.79 380.603 L
1313.041 380.603 L
1315.285 380.603 L
1317.211 380.603 L
1319.739 380.603 L
1321.977 380.603 L
1323.901 380.603 L
1325.723 380.603 L
1327.967 380.603 L
1330.269 380.603 L
1332.141 380.603 L
1334.605 380.603 L
1336.427 380.603 L
1338.777 380.603 L
1340.812 380.603 L
1343.058 380.603 L
1344.99 380.603 L
1347.126 380.603 L
1349.32 380.603 L
1351.406 380.603 L
1353.814 380.603 L
1355.795 380.603 L
1358.04 380.603 L
1359.97 380.603 L
1362.804 380.603 L
1364.837 380.603 L
1366.817 380.603 L
1368.8 380.603 L
1370.723 380.603 L
1373.293 380.603 L
1375.433 380.603 L
1378.642 380.603 L
1380.891 380.603 L
1382.977 380.603 L
1385.067 380.603 L
1386.994 380.603 L
1389.024 380.603 L
1391.057 380.603 L
1393.146 380.603 L
1395.016 380.603 L
S
GR
GS
[0.75 0 0 0.75 0 0.25] CT
0 0 1 RC
2 LJ
6.667 LW
N
1395.016 380.603 M
1397.157 380.603 L
1399.406 380.603 L
1401.547 380.603 L
1403.58 380.603 L
1406.094 380.603 L
1408.449 380.603 L
1410.641 380.603 L
1412.839 380.603 L
1415.405 380.603 L
1417.332 380.603 L
1419.471 380.603 L
1421.451 380.603 L
1423.537 380.603 L
1425.733 380.603 L
1427.818 380.603 L
1429.747 380.61 L
1431.351 380.618 L
1433.117 380.629 L
1435.151 380.64 L
1437.292 380.656 L
1439.378 380.678 L
1441.679 380.693 L
1443.765 380.705 L
1445.908 380.716 L
1448.528 380.731 L
1450.831 380.746 L
1452.81 380.765 L
1454.736 380.788 L
1456.448 380.818 L
1459.232 380.875 L
1461.102 380.932 L
1463.086 381 L
1465.386 381.11 L
1467.631 381.28 L
1469.772 381.492 L
1471.805 381.791 L
1473.947 382.14 L
1476.049 382.514 L
1478.281 382.931 L
1480.314 383.381 L
1482.456 383.923 L
1485.826 384.441 L
1488.125 385.259 L
1490.485 385.728 L
1492.516 386.205 L
1494.656 386.701 L
1496.795 387.208 L
1498.828 387.78 L
1501.075 388.371 L
S
GR
GS
[0.75 0 0 0.75 0 0.25] CT
0 0 1 RC
2 LJ
6.667 LW
N
1501.075 388.371 M
1503.166 389.01 L
1505.302 389.605 L
1507.336 390.173 L
1509.315 390.831 L
1511.885 391.535 L
1513.814 392.383 L
1516.009 393.114 L
1517.938 393.973 L
1520.073 394.768 L
1522.053 395.597 L
1524.246 396.408 L
1526.228 397.237 L
1528.53 398.122 L
1530.561 398.978 L
1532.702 399.822 L
1535.324 400.788 L
1537.412 401.651 L
1539.551 402.521 L
1541.479 403.392 L
1543.832 404.293 L
1545.812 405.243 L
1547.9 406.125 L
1550.039 407.087 L
1552.071 408.151 L
1554.269 409.177 L
1556.354 410.358 L
1558.494 411.471 L
1560.526 412.69 L
1562.562 413.909 L
1564.701 415.226 L
1566.951 416.672 L
1569.092 418.054 L
1571.337 419.633 L
1573.477 421.204 L
1575.51 422.858 L
1578.025 424.471 L
1580.057 426.424 L
1582.2 428.446 L
1584.178 430.418 L
1586.321 432.466 L
1588.353 434.62 L
1590.388 436.683 L
1593.71 438.727 L
1595.685 441.888 L
1603.872 443.948 L
1607.728 451.856 L
1612.862 455.865 L
1616.874 461.229 L
1622.549 465.397 L
S
GR
GS
[0.75 0 0 0.75 0 0.25] CT
0 0 1 RC
2 LJ
6.667 LW
N
1622.549 465.397 M
1629.717 473.241 L
1632.716 478.867 L
1634.696 481.997 L
1636.834 484.163 L
1638.813 486.419 L
1640.9 488.38 L
1643.096 490.382 L
1645.291 492.499 L
1647.323 494.516 L
1649.464 496.265 L
1651.549 498.018 L
1653.638 499.707 L
1655.724 501.247 L
1657.809 502.743 L
1659.738 504.102 L
1661.824 505.34 L
1664.716 506.911 L
1666.746 508.133 L
1668.725 509.171 L
1670.652 510.106 L
1673.168 511.048 L
1675.307 511.991 L
1679 512.824 L
S
GR
GS
[0.75 0 0 0.75 0 0.25] CT
1 0 0 RC
[24 24] 0 setdash
2 LJ
6.667 LW
N
241 484.848 M
242.606 484.848 L
244.529 484.848 L
246.723 484.848 L
248.916 484.848 L
251.056 484.848 L
253.09 484.848 L
255.496 484.848 L
257.374 484.848 L
259.565 484.848 L
261.758 484.848 L
263.844 484.848 L
266.039 484.848 L
268.128 484.848 L
270.267 484.848 L
272.354 484.848 L
274.549 484.848 L
276.634 484.848 L
278.774 484.848 L
280.861 484.848 L
283.162 484.848 L
285.303 484.848 L
287.282 484.848 L
289.531 484.848 L
291.671 484.848 L
293.812 484.848 L
296.755 484.848 L
298.092 484.848 L
300.179 484.848 L
302.372 484.848 L
304.46 484.848 L
306.599 484.848 L
308.847 484.848 L
310.882 484.848 L
313.023 484.848 L
315.11 484.848 L
317.357 484.848 L
319.55 484.848 L
321.637 484.848 L
323.777 484.848 L
325.918 484.848 L
328.112 484.848 L
330.144 484.848 L
332.34 484.848 L
334.533 484.848 L
336.621 484.848 L
338.813 484.848 L
341.061 484.848 L
342.987 484.848 L
345.128 484.848 L
347.482 484.848 L
349.356 484.848 L
351.823 484.848 L
353.691 484.848 L
355.777 484.848 L
357.865 484.848 L
360.111 484.848 L
362.305 484.848 L
364.392 484.848 L
366.585 484.848 L
368.726 484.848 L
371.669 484.848 L
373.007 484.848 L
375.094 484.848 L
377.343 484.848 L
379.376 484.848 L
381.515 484.848 L
383.762 484.848 L
385.85 484.848 L
388.044 484.848 L
390.13 484.848 L
392.325 484.848 L
394.465 484.848 L
396.553 484.848 L
398.639 484.848 L
400.835 484.848 L
404.152 484.848 L
405.756 484.848 L
407.308 484.848 L
409.449 484.848 L
413.301 484.848 L
414.852 484.848 L
416.244 484.848 L
417.904 484.848 L
420.152 484.848 L
422.238 484.848 L
424.325 484.848 L
426.411 484.848 L
428.659 484.848 L
430.692 484.848 L
432.833 484.848 L
435.079 484.848 L
437.221 485.582 L
439.363 486.609 L
441.449 487.557 L
443.643 488.534 L
445.729 489.44 L
447.922 490.346 L
450.062 491.322 L
452.203 492.493 L
454.398 493.568 L
456.699 494.494 L
458.732 495.528 L
460.714 496.587 L
462.961 497.693 L
465.047 498.712 L
467.187 499.668 L
469.329 500.501 L
471.416 501.426 L
473.402 502.415 L
475.643 503.499 L
477.89 504.746 L
480.137 506.011 L
482.276 507.412 L
484.205 509.007 L
486.398 510.663 L
488.378 512.206 L
490.678 513.879 L
492.766 515.564 L
494.96 517.174 L
497.1 518.584 L
499.402 519.78 L
501.435 520.448 L
503.575 520.536 L
505.936 520.177 L
507.856 519.906 L
509.996 520.608 L
512.939 525.072 L
514.276 531.24 L
516.417 541.001 L
518.557 551.869 L
520.697 563.104 L
522.945 575.02 L
524.978 585.256 L
527.014 592.785 L
529.314 597.29 L
531.347 598.075 L
533.333 594.921 L
535.628 588.935 L
537.608 588.935 L
539.908 575.428 L
542.317 569.78 L
544.404 564.991 L
546.33 560.865 L
548.577 556.889 L
550.664 553.233 L
552.644 549.896 L
554.838 546.846 L
557.085 543.934 L
559.227 541.53 L
561.367 539.081 L
563.507 536.942 L
565.647 535.071 L
567.84 533.161 L
569.93 531.474 L
572.015 529.952 L
574.211 528.419 L
576.351 526.845 L
578.49 525.391 L
580.577 523.794 L
582.825 522.265 L
584.912 520.762 L
587.104 519.213 L
589.138 517.622 L
591.333 515.884 L
593.473 514.022 L
595.613 511.999 L
597.755 509.749 L
599.895 507.294 L
602.088 504.608 L
604.122 502.037 L
606.209 499.366 L
608.188 496.769 L
610.595 494.304 L
612.791 492.009 L
614.878 489.859 L
617.072 487.847 L
620.443 485.916 L
622.048 483.612 L
623.385 482.378 L
625.58 480.493 L
627.667 478.673 L
629.86 476.824 L
632.162 474.993 L
634.197 473.053 L
636.391 471.07 L
638.315 469.108 L
640.562 466.885 L
642.649 464.847 L
644.843 462.48 L
646.93 460.316 L
649.125 457.952 L
651.211 455.83 L
653.407 453.537 L
655.599 451.505 L
657.687 449.287 L
659.88 447.195 L
661.966 445.246 L
664.108 443.243 L
666.194 441.261 L
668.388 439.341 L
670.528 437.426 L
672.669 435.421 L
674.865 433.392 L
676.951 431.325 L
679.359 429.012 L
681.232 427.095 L
683.372 424.981 L
685.512 422.889 L
687.599 420.86 L
689.846 418.905 L
691.879 416.965 L
694.127 415.096 L
696.215 413.27 L
698.408 411.369 L
700.442 409.734 L
702.636 407.817 L
704.722 405.988 L
706.917 404.08 L
709.005 402.233 L
711.09 400.272 L
713.391 398.245 L
715.745 395.899 L
717.62 394.039 L
719.598 392.097 L
721.901 389.956 L
723.988 388.012 L
726.127 385.987 L
729.445 382.841 L
730.729 381.602 L
732.655 379.889 L
734.688 377.812 L
736.936 375.609 L
739.022 373.55 L
741.111 371.32 L
743.305 369.016 L
745.445 366.529 L
747.638 364.231 L
749.725 361.801 L
751.919 359.335 L
753.953 356.87 L
756.2 354.264 L
758.501 351.894 L
760.429 349.373 L
762.622 346.793 L
764.71 344.079 L
766.903 341.332 L
768.991 339.387 L
771.291 339.387 L
773.27 339.387 L
775.411 339.387 L
777.498 339.387 L
779.691 339.387 L
781.887 339.387 L
783.973 339.387 L
786.114 339.387 L
788.255 339.387 L
790.608 339.387 L
792.482 339.387 L
794.675 339.387 L
796.815 339.387 L
798.956 339.387 L
801.418 339.387 L
803.236 339.387 L
805.379 339.387 L
807.518 339.387 L
809.658 339.387 L
811.744 339.387 L
814.1 339.387 L
816.133 339.387 L
818.059 339.387 L
820.359 339.387 L
822.501 339.387 L
824.694 339.387 L
826.729 339.387 L
828.923 339.387 L
830.956 339.387 L
833.204 339.387 L
836.735 339.387 L
838.179 339.387 L
839.464 339.387 L
841.765 339.387 L
844.28 339.387 L
846.045 339.387 L
848.187 339.387 L
850.38 339.387 L
852.467 339.387 L
854.607 339.387 L
856.747 339.387 L
858.727 339.387 L
860.921 339.387 L
863.115 339.387 L
865.256 339.387 L
867.663 339.387 L
869.645 339.387 L
871.732 339.387 L
873.82 339.387 L
875.906 339.387 L
878.099 339.387 L
880.346 339.389 L
882.433 339.389 L
884.628 339.389 L
887.036 339.389 L
888.908 339.389 L
891.049 339.389 L
893.19 339.389 L
895.276 339.389 L
897.417 339.389 L
899.718 339.389 L
901.697 339.389 L
903.838 339.389 L
905.979 339.389 L
908.118 339.389 L
910.258 339.389 L
912.238 339.389 L
914.487 339.389 L
916.681 339.389 L
918.821 333.461 L
920.962 319.205 L
923.101 305.538 L
925.242 291.229 L
927.436 279.387 L
929.523 269.521 L
931.662 258.582 L
933.804 250.143 L
935.997 240.762 L
938.139 231.448 L
940.224 222.76 L
942.529 215.935 L
945.738 210.401 L
947.075 204.843 L
948.787 200.159 L
950.821 195.912 L
953.068 192.5 L
955.154 189.203 L
957.295 186.411 L
959.49 184.302 L
961.577 182.415 L
963.771 180.805 L
965.858 179.588 L
968.051 178.902 L
970.192 178.419 L
972.279 178.302 L
974.472 178.6 L
976.613 179.13 L
978.807 179.352 L
980.84 181.312 L
983.033 183.992 L
985.228 185.043 L
987.528 186.605 L
989.455 188.994 L
991.541 191.859 L
993.683 195.388 L
995.984 199.365 L
998.017 203.197 L
1000.157 205.329 L
1002.352 208.367 L
1004.439 212.526 L
1006.578 217.085 L
1008.667 222.116 L
1010.806 226.745 L
1013.161 231.634 L
1014.979 237.408 L
1017.334 243.026 L
1019.422 247.907 L
1021.776 252.58 L
1023.702 257.777 L
1025.897 263.173 L
1028.205 268.604 L
1030.177 274.532 L
1032.264 279.506 L
1034.243 284.379 L
1036.383 289.401 L
1038.579 294.744 L
1040.826 299.564 L
1042.859 304.339 L
1045.108 308.988 L
1047.194 313.424 L
1049.335 317.764 L
1053.723 321.909 L
1055.328 324.424 L
1056.987 324.424 L
1058.379 333.511 L
1060.573 336.999 L
1062.07 340.391 L
1064.532 343.766 L
1066.512 346.902 L
1068.705 349.989 L
1070.899 352.786 L
1072.986 355.543 L
1075.019 358.074 L
1077.16 360.584 L
1079.3 362.887 L
1081.654 365.265 L
1083.688 367.547 L
1085.776 369.949 L
1087.969 372.153 L
1090.055 374.187 L
1092.196 376.228 L
1094.283 378.378 L
1096.477 379.894 L
1098.671 381.914 L
1100.758 383.732 L
1103.218 385.257 L
1105.095 387.107 L
1107.234 388.42 L
1109.321 390.107 L
1111.461 391.674 L
1113.709 393.001 L
1115.796 393.75 L
1118.042 393.75 L
1120.076 392.803 L
1122.165 396.443 L
1124.894 397.671 L
1127.195 398.823 L
1128.965 400.098 L
1131.155 401.541 L
1133.081 403.223 L
1135.546 404.878 L
1137.417 406.582 L
1139.515 408.188 L
1142.179 409.739 L
1144.104 411.064 L
1146.727 412.355 L
1148.71 413.451 L
1150.795 414.35 L
1152.344 415.22 L
1154.924 416.173 L
1156.841 417.106 L
1158.873 418.116 L
1162.409 419.179 L
1164.33 419.802 L
1165.991 419.802 L
1167.915 422.239 L
1170.004 423.094 L
1171.61 423.893 L
1173.909 424.59 L
1175.948 425.183 L
1178.191 425.706 L
1180.653 426.116 L
1182.473 426.451 L
1184.987 426.771 L
1186.859 426.992 L
1189.431 427.271 L
1191.248 427.549 L
1193.388 427.722 L
1195.261 427.741 L
1197.562 427.823 L
1199.97 427.749 L
1201.899 427.652 L
1204.2 427.528 L
1205.909 427.428 L
1208.158 427.356 L
1210.19 427.342 L
1212.438 427.361 L
1214.477 427.325 L
1216.721 427.236 L
1219.021 427.172 L
1220.839 427.127 L
1223.193 427.114 L
1225.126 427.201 L
1227.583 427.283 L
1229.402 427.35 L
1232.612 427.478 L
1234.538 427.713 L
1236.41 427.975 L
1238.496 428.23 L
1240.104 428.7 L
1242.619 429.174 L
1244.6 429.409 L
1246.954 429.68 L
1248.664 429.95 L
1250.86 430.215 L
1252.946 430.452 L
1255.196 430.637 L
1257.494 430.774 L
1259.474 430.872 L
1261.776 430.94 L
1263.7 430.978 L
1266.055 430.997 L
1269.055 431.001 L
1271.031 430.994 L
1273.013 430.976 L
1275.098 430.945 L
1277.078 430.903 L
1278.898 430.854 L
1281.256 430.786 L
1282.966 430.715 L
1285.374 430.64 L
1287.246 430.555 L
1289.492 430.469 L
1291.633 430.389 L
1293.777 430.321 L
1296.29 430.251 L
1297.95 430.17 L
1300.356 430.095 L
1302.228 429.979 L
1304.476 429.858 L
1306.619 429.715 L
1308.651 429.555 L
1310.79 429.39 L
1313.041 429.207 L
1315.285 428.962 L
1317.211 428.738 L
1319.739 428.485 L
1321.977 428.235 L
1323.901 427.966 L
1325.723 427.759 L
1327.967 427.583 L
1330.269 427.287 L
1332.141 426.961 L
1334.605 426.57 L
1336.427 426.259 L
1338.777 425.912 L
1340.812 425.601 L
1343.058 425.257 L
1344.99 424.892 L
1347.126 424.524 L
1349.32 424.162 L
1351.406 423.804 L
1353.814 423.45 L
1355.795 423.131 L
1358.04 422.828 L
1359.97 422.549 L
1362.804 422.269 L
1364.837 422.015 L
1366.817 421.77 L
1368.8 421.537 L
1370.723 421.403 L
1373.293 421.276 L
1375.433 421.02 L
1378.642 420.908 L
1380.891 420.742 L
1382.977 420.654 L
1385.067 420.594 L
1386.994 420.594 L
1389.024 420.558 L
1391.057 420.576 L
1393.146 420.629 L
1395.016 420.849 L
1397.157 421.076 L
1399.406 421.329 L
1401.547 421.637 L
1403.58 421.974 L
1406.094 422.179 L
1408.449 422.564 L
1410.641 422.89 L
1412.839 423.197 L
1415.405 423.6 L
1417.332 424.288 L
1419.471 424.846 L
1421.451 425.464 L
1423.537 426.18 L
1425.733 426.18 L
1427.818 427.656 L
1429.747 428.745 L
1431.351 428.745 L
1433.117 429.941 L
1435.151 429.941 L
1437.292 431.459 L
1439.378 431.459 L
1441.679 432.776 L
1443.765 432.776 L
1445.908 434.132 L
1448.528 434.132 L
1450.831 434.968 L
1452.81 435.828 L
1454.736 436.959 L
1456.448 436.959 L
1459.232 436.959 L
1461.102 438.665 L
1463.086 438.665 L
1465.386 441.97 L
1467.631 443.889 L
1469.772 447.097 L
1471.805 449.126 L
1473.947 451.193 L
1476.049 453.327 L
1478.281 455.44 L
1480.314 457.403 L
1482.456 459.226 L
1485.826 460.969 L
1488.125 463.54 L
1490.485 465.171 L
1492.516 466.631 L
1494.656 468.08 L
1496.795 469.667 L
1498.828 471.382 L
1501.075 473.039 L
1503.166 475.036 L
1505.302 477.254 L
1507.336 479.616 L
1509.315 482.315 L
1511.885 485.081 L
1513.814 487.878 L
1516.009 490.849 L
1517.938 493.403 L
1520.073 495.959 L
1522.053 498.297 L
1524.246 500.421 L
1526.228 502.309 L
1528.53 503.816 L
1530.561 505.427 L
1532.702 505.427 L
1535.324 507.631 L
1537.412 510.797 L
1539.551 512.976 L
1541.479 515.427 L
1543.832 526.079 L
1545.812 529.082 L
1547.9 531.985 L
1550.039 534.537 L
1552.071 537.153 L
1554.269 537.153 L
1556.354 542.279 L
1558.494 544.465 L
1560.526 546.893 L
1562.562 546.893 L
1564.701 550.533 L
1566.951 553.364 L
1569.092 556.213 L
1571.337 559.342 L
1573.477 564.326 L
1575.51 567.169 L
1578.025 567.169 L
1580.057 572.946 L
1582.2 575.526 L
1584.178 577.819 L
1586.321 580.082 L
1588.353 582.833 L
1590.388 582.833 L
1593.71 588.735 L
1595.685 590.198 L
1603.872 591.052 L
1607.728 601.525 L
1612.862 609.934 L
1616.874 613.258 L
1622.549 616.532 L
1629.717 626.424 L
1632.716 641.285 L
1634.696 644.303 L
1636.834 646.724 L
1638.813 648.875 L
1640.9 650.742 L
1643.096 652.444 L
1645.291 654.474 L
1647.323 656.519 L
1649.464 657.651 L
1651.549 659.472 L
1653.638 661.642 L
1655.724 664.488 L
1657.809 666.977 L
1659.738 669.55 L
1661.824 669.55 L
1664.716 672.946 L
1666.746 668.187 L
1668.725 670.401 L
1670.652 673.515 L
1673.168 677.049 L
1675.307 680.964 L
1679 512.824 L
S
GR
GS
[0.75 0 0 0.75 378.5625 664.12502] CT
/Helvetica 48 F
GS
[1 0 0 1 0 0] CT
0 16.5 moveto 
1 -1 scale
(Actual) t 
GR
GR
GS
[0.75 0 0 0.75 0 0.25] CT
0 0 1 RC
2 setlinecap
10.0 ML
6.667 LW
N
460.962 885.167 M
500.769 885.167 L
S
GR
GS
[0.75 0 0 0.75 922.5 664.12502] CT
/Helvetica 48 F
GS
[1 0 0 1 0 0] CT
0 16.5 moveto 
1 -1 scale
(Desired) t 
GR
GR
GS
[0.75 0 0 0.75 0 0.25] CT
1 0 0 RC
[24 24] 0 setdash
2 LJ
6.667 LW
N
1186 885.167 M
1226 885.167 L
S
GR
%%Trailer
%%Pages: 1
%%EOF
