%!PS-Adobe-3.0 EPSF-3.0
%%Creator: (MATLAB, The Mathworks, Inc. Version 8.5.0.197613 \(R2015a\). Operating System: Linux)
%%Title: (/home/victor/ampro/AMPRO II/Upslope Walking/figures/Thesis/Upslope/KneeTrackingTwoSteps.eps)
%%CreationDate: 2016-02-18T16:12:32
%%Pages: (atend)
%%BoundingBox: 0 0 1391 751
%%LanguageLevel: 2
%%EndComments
%%BeginProlog
%%BeginResource: procset (Apache XML Graphics Std ProcSet) 1.2 0
%%Version: 1.2 0
%%Copyright: (Copyright 2001-2003,2010 The Apache Software Foundation. License terms: http://www.apache.org/licenses/LICENSE-2.0)
/bd{bind def}bind def
/ld{load def}bd
/GR/grestore ld
/M/moveto ld
/LJ/setlinejoin ld
/C/curveto ld
/f/fill ld
/LW/setlinewidth ld
/GC/setgray ld
/t/show ld
/N/newpath ld
/CT/concat ld
/cp/closepath ld
/S/stroke ld
/L/lineto ld
/CC/setcmykcolor ld
/A/ashow ld
/GS/gsave ld
/RC/setrgbcolor ld
/RM/rmoveto ld
/ML/setmiterlimit ld
/re {4 2 roll M
1 index 0 rlineto
0 exch rlineto
neg 0 rlineto
cp } bd
/_ctm matrix def
/_tm matrix def
/BT { _ctm currentmatrix pop matrix _tm copy pop 0 0 moveto } bd
/ET { _ctm setmatrix } bd
/iTm { _ctm setmatrix _tm concat } bd
/Tm { _tm astore pop iTm 0 0 moveto } bd
/ux 0.0 def
/uy 0.0 def
/F {
  /Tp exch def
  /Tf exch def
  Tf findfont Tp scalefont setfont
  /cf Tf def  /cs Tp def
} bd
/ULS {currentpoint /uy exch def /ux exch def} bd
/ULE {
  /Tcx currentpoint pop def
  gsave
  newpath
  cf findfont cs scalefont dup
  /FontMatrix get 0 get /Ts exch def /FontInfo get dup
  /UnderlinePosition get Ts mul /To exch def
  /UnderlineThickness get Ts mul /Tt exch def
  ux uy To add moveto  Tcx uy To add lineto
  Tt setlinewidth stroke
  grestore
} bd
/OLE {
  /Tcx currentpoint pop def
  gsave
  newpath
  cf findfont cs scalefont dup
  /FontMatrix get 0 get /Ts exch def /FontInfo get dup
  /UnderlinePosition get Ts mul /To exch def
  /UnderlineThickness get Ts mul /Tt exch def
  ux uy To add cs add moveto Tcx uy To add cs add lineto
  Tt setlinewidth stroke
  grestore
} bd
/SOE {
  /Tcx currentpoint pop def
  gsave
  newpath
  cf findfont cs scalefont dup
  /FontMatrix get 0 get /Ts exch def /FontInfo get dup
  /UnderlinePosition get Ts mul /To exch def
  /UnderlineThickness get Ts mul /Tt exch def
  ux uy To add cs 10 mul 26 idiv add moveto Tcx uy To add cs 10 mul 26 idiv add lineto
  Tt setlinewidth stroke
  grestore
} bd
/QT {
/Y22 exch store
/X22 exch store
/Y21 exch store
/X21 exch store
currentpoint
/Y21 load 2 mul add 3 div exch
/X21 load 2 mul add 3 div exch
/X21 load 2 mul /X22 load add 3 div
/Y21 load 2 mul /Y22 load add 3 div
/X22 load /Y22 load curveto
} bd
/SSPD {
dup length /d exch dict def
{
/v exch def
/k exch def
currentpagedevice k known {
/cpdv currentpagedevice k get def
v cpdv ne {
/upd false def
/nullv v type /nulltype eq def
/nullcpdv cpdv type /nulltype eq def
nullv nullcpdv or
{
/upd true def
} {
/sametype v type cpdv type eq def
sametype {
v type /arraytype eq {
/vlen v length def
/cpdvlen cpdv length def
vlen cpdvlen eq {
0 1 vlen 1 sub {
/i exch def
/obj v i get def
/cpdobj cpdv i get def
obj cpdobj ne {
/upd true def
exit
} if
} for
} {
/upd true def
} ifelse
} {
v type /dicttype eq {
v {
/dv exch def
/dk exch def
/cpddv cpdv dk get def
dv cpddv ne {
/upd true def
exit
} if
} forall
} {
/upd true def
} ifelse
} ifelse
} if
} ifelse
upd true eq {
d k v put
} if
} if
} if
} forall
d length 0 gt {
d setpagedevice
} if
} bd
%%EndResource
%%BeginResource: procset (Apache XML Graphics EPS ProcSet) 1.0 0
%%Version: 1.0 0
%%Copyright: (Copyright 2002-2003 The Apache Software Foundation. License terms: http://www.apache.org/licenses/LICENSE-2.0)
/BeginEPSF { %def
/b4_Inc_state save def         % Save state for cleanup
/dict_count countdictstack def % Count objects on dict stack
/op_count count 1 sub def      % Count objects on operand stack
userdict begin                 % Push userdict on dict stack
/showpage { } def              % Redefine showpage, { } = null proc
0 setgray 0 setlinecap         % Prepare graphics state
1 setlinewidth 0 setlinejoin
10 setmiterlimit [ ] 0 setdash newpath
/languagelevel where           % If level not equal to 1 then
{pop languagelevel             % set strokeadjust and
1 ne                           % overprint to their defaults.
{false setstrokeadjust false setoverprint
} if
} if
} bd
/EndEPSF { %def
count op_count sub {pop} repeat            % Clean up stacks
countdictstack dict_count sub {end} repeat
b4_Inc_state restore
} bd
%%EndResource
%FOPBeginFontDict
%%IncludeResource: font Courier-Bold
%%IncludeResource: font Helvetica
%%IncludeResource: font Courier-BoldOblique
%%IncludeResource: font Courier-Oblique
%%IncludeResource: font Times-Roman
%%IncludeResource: font Helvetica-BoldOblique
%%IncludeResource: font Helvetica-Bold
%%IncludeResource: font Helvetica-Oblique
%%IncludeResource: font Times-BoldItalic
%%IncludeResource: font Courier
%%IncludeResource: font Times-Italic
%%IncludeResource: font Times-Bold
%%IncludeResource: font Symbol
%%IncludeResource: font ZapfDingbats
%FOPEndFontDict
%%BeginResource: encoding WinAnsiEncoding
/WinAnsiEncoding [
/.notdef /.notdef /.notdef /.notdef /.notdef
/.notdef /.notdef /.notdef /.notdef /.notdef
/.notdef /.notdef /.notdef /.notdef /.notdef
/.notdef /.notdef /.notdef /.notdef /.notdef
/.notdef /.notdef /.notdef /.notdef /.notdef
/.notdef /.notdef /.notdef /.notdef /.notdef
/.notdef /.notdef /space /exclam /quotedbl
/numbersign /dollar /percent /ampersand /quotesingle
/parenleft /parenright /asterisk /plus /comma
/hyphen /period /slash /zero /one
/two /three /four /five /six
/seven /eight /nine /colon /semicolon
/less /equal /greater /question /at
/A /B /C /D /E
/F /G /H /I /J
/K /L /M /N /O
/P /Q /R /S /T
/U /V /W /X /Y
/Z /bracketleft /backslash /bracketright /asciicircum
/underscore /quoteleft /a /b /c
/d /e /f /g /h
/i /j /k /l /m
/n /o /p /q /r
/s /t /u /v /w
/x /y /z /braceleft /bar
/braceright /asciitilde /bullet /Euro /bullet
/quotesinglbase /florin /quotedblbase /ellipsis /dagger
/daggerdbl /circumflex /perthousand /Scaron /guilsinglleft
/OE /bullet /Zcaron /bullet /bullet
/quoteleft /quoteright /quotedblleft /quotedblright /bullet
/endash /emdash /asciitilde /trademark /scaron
/guilsinglright /oe /bullet /zcaron /Ydieresis
/space /exclamdown /cent /sterling /currency
/yen /brokenbar /section /dieresis /copyright
/ordfeminine /guillemotleft /logicalnot /sfthyphen /registered
/macron /degree /plusminus /twosuperior /threesuperior
/acute /mu /paragraph /middot /cedilla
/onesuperior /ordmasculine /guillemotright /onequarter /onehalf
/threequarters /questiondown /Agrave /Aacute /Acircumflex
/Atilde /Adieresis /Aring /AE /Ccedilla
/Egrave /Eacute /Ecircumflex /Edieresis /Igrave
/Iacute /Icircumflex /Idieresis /Eth /Ntilde
/Ograve /Oacute /Ocircumflex /Otilde /Odieresis
/multiply /Oslash /Ugrave /Uacute /Ucircumflex
/Udieresis /Yacute /Thorn /germandbls /agrave
/aacute /acircumflex /atilde /adieresis /aring
/ae /ccedilla /egrave /eacute /ecircumflex
/edieresis /igrave /iacute /icircumflex /idieresis
/eth /ntilde /ograve /oacute /ocircumflex
/otilde /odieresis /divide /oslash /ugrave
/uacute /ucircumflex /udieresis /yacute /thorn
/ydieresis
] def
%%EndResource
%FOPBeginFontReencode
/Courier-Bold findfont
dup length dict begin
  {1 index /FID ne {def} {pop pop} ifelse} forall
  /Encoding WinAnsiEncoding def
  currentdict
end
/Courier-Bold exch definefont pop
/Helvetica findfont
dup length dict begin
  {1 index /FID ne {def} {pop pop} ifelse} forall
  /Encoding WinAnsiEncoding def
  currentdict
end
/Helvetica exch definefont pop
/Courier-BoldOblique findfont
dup length dict begin
  {1 index /FID ne {def} {pop pop} ifelse} forall
  /Encoding WinAnsiEncoding def
  currentdict
end
/Courier-BoldOblique exch definefont pop
/Courier-Oblique findfont
dup length dict begin
  {1 index /FID ne {def} {pop pop} ifelse} forall
  /Encoding WinAnsiEncoding def
  currentdict
end
/Courier-Oblique exch definefont pop
/Times-Roman findfont
dup length dict begin
  {1 index /FID ne {def} {pop pop} ifelse} forall
  /Encoding WinAnsiEncoding def
  currentdict
end
/Times-Roman exch definefont pop
/Helvetica-BoldOblique findfont
dup length dict begin
  {1 index /FID ne {def} {pop pop} ifelse} forall
  /Encoding WinAnsiEncoding def
  currentdict
end
/Helvetica-BoldOblique exch definefont pop
/Helvetica-Bold findfont
dup length dict begin
  {1 index /FID ne {def} {pop pop} ifelse} forall
  /Encoding WinAnsiEncoding def
  currentdict
end
/Helvetica-Bold exch definefont pop
/Helvetica-Oblique findfont
dup length dict begin
  {1 index /FID ne {def} {pop pop} ifelse} forall
  /Encoding WinAnsiEncoding def
  currentdict
end
/Helvetica-Oblique exch definefont pop
/Times-BoldItalic findfont
dup length dict begin
  {1 index /FID ne {def} {pop pop} ifelse} forall
  /Encoding WinAnsiEncoding def
  currentdict
end
/Times-BoldItalic exch definefont pop
/Courier findfont
dup length dict begin
  {1 index /FID ne {def} {pop pop} ifelse} forall
  /Encoding WinAnsiEncoding def
  currentdict
end
/Courier exch definefont pop
/Times-Italic findfont
dup length dict begin
  {1 index /FID ne {def} {pop pop} ifelse} forall
  /Encoding WinAnsiEncoding def
  currentdict
end
/Times-Italic exch definefont pop
/Times-Bold findfont
dup length dict begin
  {1 index /FID ne {def} {pop pop} ifelse} forall
  /Encoding WinAnsiEncoding def
  currentdict
end
/Times-Bold exch definefont pop
%FOPEndFontReencode
%%EndProlog
%%Page: 1 1
%%PageBoundingBox: 0 0 1391 751
%%BeginPageSetup
[1 0 0 -1 0 751] CT
%%EndPageSetup
GS
[0.75 0 0 0.75 0 0.25] CT
N
0 0 M
1855 0 L
1855 1001 L
0 1001 L
0 0 L
cp
clip
1 GC
N
0 0 1855 1001 re
f
GR
GS
[0.75 0 0 0.75 0 0.25] CT
1 GC
N
0 0 1855 1001 re
f
GR
GS
[0.75 0 0 0.75 0 0.25] CT
1 GC
N
241 721 M
1679 721 L
1679 30 L
241 30 L
cp
f
GR
GS
[0.75 0 0 0.75 0 0.25] CT
0.873 GC
2 setlinecap
10.0 ML
N
241 721 M
241 30 L
S
GR
GS
[0.75 0 0 0.75 0 0.25] CT
0.873 GC
2 setlinecap
10.0 ML
N
465.626 721 M
465.626 30 L
S
GR
GS
[0.75 0 0 0.75 0 0.25] CT
0.873 GC
2 setlinecap
10.0 ML
N
690.252 721 M
690.252 30 L
S
GR
GS
[0.75 0 0 0.75 0 0.25] CT
0.873 GC
2 setlinecap
10.0 ML
N
914.878 721 M
914.878 30 L
S
GR
GS
[0.75 0 0 0.75 0 0.25] CT
0.873 GC
2 setlinecap
10.0 ML
N
1139.504 721 M
1139.504 30 L
S
GR
GS
[0.75 0 0 0.75 0 0.25] CT
0.873 GC
2 setlinecap
10.0 ML
N
1364.13 721 M
1364.13 30 L
S
GR
GS
[0.75 0 0 0.75 0 0.25] CT
0.873 GC
2 setlinecap
10.0 ML
N
1588.756 721 M
1588.756 30 L
S
GR
GS
[0.75 0 0 0.75 0 0.25] CT
0.873 GC
2 setlinecap
10.0 ML
N
1679 721 M
241 721 L
S
GR
GS
[0.75 0 0 0.75 0 0.25] CT
0.873 GC
2 setlinecap
10.0 ML
N
1679 605.833 M
241 605.833 L
S
GR
GS
[0.75 0 0 0.75 0 0.25] CT
0.873 GC
2 setlinecap
10.0 ML
N
1679 490.667 M
241 490.667 L
S
GR
GS
[0.75 0 0 0.75 0 0.25] CT
0.873 GC
2 setlinecap
10.0 ML
N
1679 375.5 M
241 375.5 L
S
GR
GS
[0.75 0 0 0.75 0 0.25] CT
0.873 GC
2 setlinecap
10.0 ML
N
1679 260.333 M
241 260.333 L
S
GR
GS
[0.75 0 0 0.75 0 0.25] CT
0.873 GC
2 setlinecap
10.0 ML
N
1679 145.167 M
241 145.167 L
S
GR
GS
[0.75 0 0 0.75 0 0.25] CT
0.873 GC
2 setlinecap
10.0 ML
N
1679 30 M
241 30 L
S
GR
GS
[0.75 0 0 0.75 720.0005 599.25002] CT
0.149 GC
/Helvetica 59 F
GS
[1 0 0 1 0 0] CT
-121 55 moveto 
1 -1 scale
(Time \(s\)) t 
GR
GR
GS
[0.75 0 0 0.75 0 0.25] CT
0.149 GC
2 setlinecap
10.0 ML
N
241 721 M
1679 721 L
S
GR
GS
[0.75 0 0 0.75 0 0.25] CT
0.149 GC
2 setlinecap
10.0 ML
N
241 30 M
1679 30 L
S
GR
GS
[0.75 0 0 0.75 0 0.25] CT
0.149 GC
2 setlinecap
10.0 ML
N
241 721 M
241 706.62 L
S
GR
GS
[0.75 0 0 0.75 0 0.25] CT
0.149 GC
2 setlinecap
10.0 ML
N
465.626 721 M
465.626 706.62 L
S
GR
GS
[0.75 0 0 0.75 0 0.25] CT
0.149 GC
2 setlinecap
10.0 ML
N
690.252 721 M
690.252 706.62 L
S
GR
GS
[0.75 0 0 0.75 0 0.25] CT
0.149 GC
2 setlinecap
10.0 ML
N
914.878 721 M
914.878 706.62 L
S
GR
GS
[0.75 0 0 0.75 0 0.25] CT
0.149 GC
2 setlinecap
10.0 ML
N
1139.504 721 M
1139.504 706.62 L
S
GR
GS
[0.75 0 0 0.75 0 0.25] CT
0.149 GC
2 setlinecap
10.0 ML
N
1364.13 721 M
1364.13 706.62 L
S
GR
GS
[0.75 0 0 0.75 0 0.25] CT
0.149 GC
2 setlinecap
10.0 ML
N
1588.756 721 M
1588.756 706.62 L
S
GR
GS
[0.75 0 0 0.75 0 0.25] CT
0.149 GC
2 setlinecap
10.0 ML
N
241 30 M
241 44.38 L
S
GR
GS
[0.75 0 0 0.75 0 0.25] CT
0.149 GC
2 setlinecap
10.0 ML
N
465.626 30 M
465.626 44.38 L
S
GR
GS
[0.75 0 0 0.75 0 0.25] CT
0.149 GC
2 setlinecap
10.0 ML
N
690.252 30 M
690.252 44.38 L
S
GR
GS
[0.75 0 0 0.75 0 0.25] CT
0.149 GC
2 setlinecap
10.0 ML
N
914.878 30 M
914.878 44.38 L
S
GR
GS
[0.75 0 0 0.75 0 0.25] CT
0.149 GC
2 setlinecap
10.0 ML
N
1139.504 30 M
1139.504 44.38 L
S
GR
GS
[0.75 0 0 0.75 0 0.25] CT
0.149 GC
2 setlinecap
10.0 ML
N
1364.13 30 M
1364.13 44.38 L
S
GR
GS
[0.75 0 0 0.75 0 0.25] CT
0.149 GC
2 setlinecap
10.0 ML
N
1588.756 30 M
1588.756 44.38 L
S
GR
GS
[0.75 0 0 0.75 180.75 550.99998] CT
0.149 GC
/Helvetica 53 F
GS
[1 0 0 1 0 0] CT
-17 50 moveto 
1 -1 scale
(0) t 
GR
GR
GS
[0.75 0 0 0.75 349.21946 550.99998] CT
0.149 GC
/Helvetica 53 F
GS
[1 0 0 1 0 0] CT
-17 50 moveto 
1 -1 scale
(1) t 
GR
GR
GS
[0.75 0 0 0.75 517.68892 550.99998] CT
0.149 GC
/Helvetica 53 F
GS
[1 0 0 1 0 0] CT
-17 50 moveto 
1 -1 scale
(2) t 
GR
GR
GS
[0.75 0 0 0.75 686.1584 550.99998] CT
0.149 GC
/Helvetica 53 F
GS
[1 0 0 1 0 0] CT
-17 50 moveto 
1 -1 scale
(3) t 
GR
GR
GS
[0.75 0 0 0.75 854.62784 550.99998] CT
0.149 GC
/Helvetica 53 F
GS
[1 0 0 1 0 0] CT
-17 50 moveto 
1 -1 scale
(4) t 
GR
GR
GS
[0.75 0 0 0.75 1023.09732 550.99998] CT
0.149 GC
/Helvetica 53 F
GS
[1 0 0 1 0 0] CT
-17 50 moveto 
1 -1 scale
(5) t 
GR
GR
GS
[0.75 0 0 0.75 1191.5668 550.99998] CT
0.149 GC
/Helvetica 53 F
GS
[1 0 0 1 0 0] CT
-17 50 moveto 
1 -1 scale
(6) t 
GR
GR
GS
[0 -0.75 0.75 0 104 281.87473] CT
0.149 GC
/Helvetica 59 F
GS
[1 0 0 1 0 0] CT
-247 -14 moveto 
1 -1 scale
(Knee angle \(rad\)) t 
GR
GR
GS
[0.75 0 0 0.75 0 0.25] CT
0.149 GC
2 setlinecap
10.0 ML
N
241 721 M
241 30 L
S
GR
GS
[0.75 0 0 0.75 0 0.25] CT
0.149 GC
2 setlinecap
10.0 ML
N
1679 721 M
1679 30 L
S
GR
GS
[0.75 0 0 0.75 0 0.25] CT
0.149 GC
2 setlinecap
10.0 ML
N
241 721 M
255.38 721 L
S
GR
GS
[0.75 0 0 0.75 0 0.25] CT
0.149 GC
2 setlinecap
10.0 ML
N
241 605.833 M
255.38 605.833 L
S
GR
GS
[0.75 0 0 0.75 0 0.25] CT
0.149 GC
2 setlinecap
10.0 ML
N
241 490.667 M
255.38 490.667 L
S
GR
GS
[0.75 0 0 0.75 0 0.25] CT
0.149 GC
2 setlinecap
10.0 ML
N
241 375.5 M
255.38 375.5 L
S
GR
GS
[0.75 0 0 0.75 0 0.25] CT
0.149 GC
2 setlinecap
10.0 ML
N
241 260.333 M
255.38 260.333 L
S
GR
GS
[0.75 0 0 0.75 0 0.25] CT
0.149 GC
2 setlinecap
10.0 ML
N
241 145.167 M
255.38 145.167 L
S
GR
GS
[0.75 0 0 0.75 0 0.25] CT
0.149 GC
2 setlinecap
10.0 ML
N
241 30 M
255.38 30 L
S
GR
GS
[0.75 0 0 0.75 0 0.25] CT
0.149 GC
2 setlinecap
10.0 ML
N
1679 721 M
1664.62 721 L
S
GR
GS
[0.75 0 0 0.75 0 0.25] CT
0.149 GC
2 setlinecap
10.0 ML
N
1679 605.833 M
1664.62 605.833 L
S
GR
GS
[0.75 0 0 0.75 0 0.25] CT
0.149 GC
2 setlinecap
10.0 ML
N
1679 490.667 M
1664.62 490.667 L
S
GR
GS
[0.75 0 0 0.75 0 0.25] CT
0.149 GC
2 setlinecap
10.0 ML
N
1679 375.5 M
1664.62 375.5 L
S
GR
GS
[0.75 0 0 0.75 0 0.25] CT
0.149 GC
2 setlinecap
10.0 ML
N
1679 260.333 M
1664.62 260.333 L
S
GR
GS
[0.75 0 0 0.75 0 0.25] CT
0.149 GC
2 setlinecap
10.0 ML
N
1679 145.167 M
1664.62 145.167 L
S
GR
GS
[0.75 0 0 0.75 0 0.25] CT
0.149 GC
2 setlinecap
10.0 ML
N
1679 30 M
1664.62 30 L
S
GR
GS
[0.75 0 0 0.75 170.75 541] CT
0.149 GC
/Helvetica 53 F
GS
[1 0 0 1 0 0] CT
-34 18.5 moveto 
1 -1 scale
(0) t 
GR
GR
GS
[0.75 0 0 0.75 170.75 454.62498] CT
0.149 GC
/Helvetica 53 F
GS
[1 0 0 1 0 0] CT
-85 18.5 moveto 
1 -1 scale
(0.2) t 
GR
GR
GS
[0.75 0 0 0.75 170.75 368.24999] CT
0.149 GC
/Helvetica 53 F
GS
[1 0 0 1 0 0] CT
-85 18.5 moveto 
1 -1 scale
(0.4) t 
GR
GR
GS
[0.75 0 0 0.75 170.75 281.875] CT
0.149 GC
/Helvetica 53 F
GS
[1 0 0 1 0 0] CT
-85 18.5 moveto 
1 -1 scale
(0.6) t 
GR
GR
GS
[0.75 0 0 0.75 170.75 195.49998] CT
0.149 GC
/Helvetica 53 F
GS
[1 0 0 1 0 0] CT
-85 18.5 moveto 
1 -1 scale
(0.8) t 
GR
GR
GS
[0.75 0 0 0.75 170.75 109.125] CT
0.149 GC
/Helvetica 53 F
GS
[1 0 0 1 0 0] CT
-34 18.5 moveto 
1 -1 scale
(1) t 
GR
GR
GS
[0.75 0 0 0.75 170.75 22.74998] CT
0.149 GC
/Helvetica 53 F
GS
[1 0 0 1 0 0] CT
-85 18.5 moveto 
1 -1 scale
(1.2) t 
GR
GR
GS
[0.75 0 0 0.75 0 0.25] CT
0 0 1 RC
2 LJ
6.667 LW
N
241 466.559 M
241.843 471.863 L
242.852 474.431 L
244.003 476.467 L
245.154 478.205 L
246.277 479.749 L
247.344 481.144 L
248.606 482.478 L
249.592 483.545 L
250.741 484.607 L
251.892 485.57 L
252.987 486.455 L
254.138 487.288 L
255.235 488.056 L
256.357 488.756 L
257.452 489.419 L
258.604 490.079 L
259.698 490.616 L
260.821 491.133 L
261.916 491.616 L
263.123 492.086 L
264.247 492.513 L
265.285 492.941 L
266.465 493.328 L
267.588 493.685 L
268.711 493.983 L
270.256 494.286 L
270.957 494.491 L
272.052 494.803 L
273.203 495.118 L
274.299 495.392 L
275.421 495.684 L
276.601 495.927 L
277.669 496.112 L
278.792 496.3 L
279.887 496.488 L
281.066 496.697 L
282.216 496.878 L
283.311 497.024 L
284.434 497.166 L
285.558 497.338 L
286.709 497.556 L
287.776 497.775 L
288.928 497.983 L
290.079 498.175 L
291.174 498.409 L
292.324 498.68 L
293.504 498.928 L
294.515 499.135 L
295.638 499.341 L
S
GR
GS
[0.75 0 0 0.75 0 0.25] CT
0 0 1 RC
2 LJ
6.667 LW
N
295.638 499.341 M
296.873 499.555 L
297.856 499.718 L
299.151 499.846 L
300.131 499.939 L
301.226 500.05 L
302.321 500.198 L
303.5 500.396 L
304.651 500.626 L
305.746 500.849 L
306.897 501.054 L
308.02 501.258 L
309.564 501.481 L
310.267 501.595 L
311.362 501.684 L
312.542 501.739 L
313.608 501.776 L
314.731 501.812 L
315.91 501.852 L
317.005 501.898 L
318.157 501.955 L
319.251 502.039 L
320.403 502.15 L
321.526 502.282 L
322.622 502.423 L
323.716 502.543 L
324.868 502.631 L
326.609 502.695 L
327.45 502.757 L
328.265 502.797 L
329.388 502.854 L
331.41 502.962 L
332.223 503.048 L
332.954 503.11 L
333.825 503.21 L
335.004 503.322 L
336.099 503.424 L
337.194 503.508 L
338.289 503.583 L
339.468 503.665 L
340.535 503.751 L
341.658 503.868 L
342.837 504.018 L
343.961 504.177 L
345.085 504.334 L
346.179 504.455 L
347.33 504.548 L
348.425 504.641 L
349.576 504.762 L
350.699 504.908 L
S
GR
GS
[0.75 0 0 0.75 0 0.25] CT
0 0 1 RC
2 LJ
6.667 LW
N
350.699 504.908 M
351.822 505.107 L
352.974 505.341 L
354.181 505.592 L
355.248 505.906 L
356.288 506.264 L
357.467 506.681 L
358.562 507.154 L
359.685 507.666 L
360.808 508.158 L
361.903 508.73 L
362.946 509.344 L
364.122 510.007 L
365.301 510.758 L
366.48 511.497 L
367.602 512.259 L
368.614 513.123 L
369.765 514.099 L
370.804 515.081 L
372.011 516.239 L
373.106 517.526 L
374.257 518.972 L
375.381 520.607 L
376.588 522.455 L
377.655 524.487 L
378.778 526.699 L
380.017 529.23 L
381.024 531.73 L
382.147 534.623 L
383.691 538.737 L
384.393 541.716 L
385.516 545.73 L
386.639 550.65 L
387.762 556.332 L
388.942 563.114 L
390.008 570.311 L
391.077 577.815 L
392.284 586.356 L
393.351 595.413 L
394.393 604.621 L
395.597 613.392 L
396.636 621.369 L
397.843 628.482 L
399.106 635.131 L
400.202 640.791 L
401.212 645.638 L
402.392 650.275 L
403.487 654.515 L
404.526 658.382 L
405.676 661.915 L
S
GR
GS
[0.75 0 0 0.75 0 0.25] CT
0 0 1 RC
2 LJ
6.667 LW
N
405.676 661.915 M
406.856 665.29 L
407.98 668.065 L
409.102 670.868 L
410.225 673.301 L
411.348 675.426 L
412.499 677.576 L
413.595 679.429 L
414.69 681.026 L
415.842 682.539 L
416.965 683.941 L
418.087 685.052 L
419.182 686.12 L
420.362 686.984 L
421.457 687.721 L
422.607 688.34 L
423.675 688.85 L
424.826 689.325 L
425.949 689.81 L
427.072 690.312 L
428.196 690.853 L
429.319 691.504 L
430.469 692.142 L
431.537 692.809 L
432.632 693.483 L
433.67 694.101 L
434.933 694.746 L
436.086 695.336 L
437.181 695.919 L
438.332 696.517 L
440.101 697.109 L
440.943 697.782 L
441.644 698.116 L
442.796 698.615 L
443.891 699.061 L
445.042 699.458 L
446.25 699.759 L
447.318 700.028 L
448.469 700.282 L
449.479 700.481 L
450.658 700.644 L
451.753 700.781 L
452.904 700.945 L
453.999 701.119 L
455.151 701.283 L
456.245 701.417 L
457.398 701.543 L
458.547 701.665 L
459.644 701.817 L
460.794 701.996 L
S
GR
GS
[0.75 0 0 0.75 0 0.25] CT
0 0 1 RC
2 LJ
6.667 LW
N
460.794 701.996 M
461.889 702.139 L
463.012 702.245 L
464.107 702.301 L
465.258 702.318 L
466.381 702.318 L
467.505 702.316 L
468.657 702.316 L
469.752 702.316 L
471.015 702.312 L
471.998 702.309 L
473.121 702.303 L
474.244 702.296 L
475.339 702.292 L
476.518 702.285 L
477.584 702.283 L
478.764 702.281 L
479.86 702.278 L
481.011 702.278 L
482.078 702.278 L
483.229 702.281 L
484.324 702.281 L
485.475 702.281 L
486.571 702.281 L
487.665 702.281 L
488.872 702.278 L
490.107 702.276 L
491.091 702.27 L
492.129 702.261 L
493.337 702.25 L
494.433 702.234 L
495.555 702.217 L
497.296 702.195 L
497.97 702.188 L
498.981 702.181 L
500.047 702.179 L
501.227 702.179 L
502.322 702.179 L
503.417 702.179 L
504.568 702.177 L
505.692 702.172 L
506.842 702.168 L
507.938 702.164 L
509.088 702.157 L
510.156 702.148 L
511.335 702.142 L
512.542 702.137 L
513.554 702.133 L
514.705 702.13 L
515.8 702.13 L
S
GR
GS
[0.75 0 0 0.75 0 0.25] CT
0 0 1 RC
2 LJ
6.667 LW
N
515.8 702.13 M
516.951 702.128 L
518.047 702.124 L
519.253 702.119 L
520.292 702.117 L
521.415 702.119 L
522.51 702.126 L
523.661 702.135 L
524.813 702.155 L
525.908 702.19 L
527.031 702.239 L
528.155 702.301 L
529.39 702.378 L
530.373 702.466 L
531.524 702.601 L
532.646 702.784 L
533.77 703.045 L
535.062 703.29 L
536.016 703.52 L
537.14 703.787 L
538.262 704.118 L
539.385 704.482 L
540.48 704.875 L
541.716 705.28 L
542.783 705.56 L
543.793 705.918 L
545 706.282 L
546.124 706.638 L
547.275 707.02 L
548.343 707.371 L
549.494 707.784 L
550.561 708.192 L
551.74 708.59 L
553.593 708.963 L
554.351 709.427 L
555.025 709.678 L
556.232 710.083 L
557.552 710.478 L
558.478 710.864 L
559.602 711.18 L
560.753 711.469 L
561.848 711.801 L
562.971 712.096 L
564.094 712.434 L
565.133 712.794 L
566.284 713.176 L
567.435 713.642 L
568.559 714.106 L
569.822 714.526 L
570.862 714.881 L
S
GR
GS
[0.75 0 0 0.75 0 0.25] CT
0 0 1 RC
2 LJ
6.667 LW
N
570.862 714.881 M
571.956 715.259 L
573.052 715.612 L
574.147 715.943 L
575.298 716.259 L
576.477 716.542 L
577.572 716.719 L
578.723 716.873 L
579.987 717.006 L
580.969 717.127 L
582.092 717.22 L
583.216 717.275 L
584.311 717.308 L
585.434 717.324 L
586.642 717.326 L
587.68 717.324 L
588.803 717.319 L
589.927 717.31 L
591.049 717.299 L
592.172 717.284 L
593.211 717.268 L
594.391 717.255 L
595.542 717.24 L
596.665 717.215 L
597.789 716.884 L
598.911 714.78 L
600.034 711.145 L
601.186 707.024 L
602.281 702.53 L
603.403 698.047 L
604.527 693.2 L
605.678 688.262 L
606.801 683.216 L
607.896 677.976 L
609.105 672.513 L
610.789 663.609 L
611.491 659.749 L
612.389 654.65 L
613.456 648.871 L
614.635 642.659 L
615.73 636.286 L
616.853 629.74 L
618.005 623.038 L
619.1 616.226 L
620.251 609.345 L
621.346 602.373 L
622.497 594.913 L
623.62 587.653 L
624.715 580.65 L
625.866 573.246 L
S
GR
GS
[0.75 0 0 0.75 0 0.25] CT
0 0 1 RC
2 LJ
6.667 LW
N
625.866 573.246 M
626.99 565.753 L
628.141 558.137 L
629.208 550.427 L
630.358 543.122 L
631.51 534.943 L
632.717 526.554 L
633.728 518.853 L
634.823 510.7 L
635.946 502.949 L
637.154 494.326 L
638.221 485.972 L
639.344 477.487 L
640.496 469.348 L
641.59 460.378 L
642.713 451.869 L
643.809 443.332 L
644.931 435.17 L
646.167 425.688 L
647.121 417.888 L
648.357 408.745 L
649.452 399.968 L
650.688 391.179 L
651.698 382.423 L
652.85 373.651 L
654.061 364.915 L
655.096 356.674 L
656.191 347.598 L
657.229 339.379 L
658.352 330.742 L
659.504 322.178 L
660.684 313.716 L
661.75 305.256 L
662.93 296.394 L
664.025 288.447 L
665.148 280.238 L
667.451 272.271 L
668.293 258.939 L
669.163 253.498 L
669.894 248.607 L
671.045 242.404 L
671.831 238.102 L
673.123 234.094 L
674.161 231.121 L
675.312 228.218 L
676.463 225.364 L
677.558 222.421 L
678.625 219.83 L
679.749 217.22 L
680.871 214.771 L
S
GR
GS
[0.75 0 0 0.75 0 0.25] CT
0 0 1 RC
2 LJ
6.667 LW
N
680.871 214.771 M
682.107 212.468 L
683.174 210.282 L
684.269 208.199 L
685.42 206.185 L
686.515 204.211 L
687.638 202.188 L
688.733 200.422 L
689.884 198.657 L
691.035 196.972 L
692.131 195.285 L
693.422 193.837 L
694.406 192.366 L
695.529 190.88 L
696.624 189.548 L
697.747 188.188 L
698.927 186.909 L
700.021 185.529 L
701.2 184.237 L
702.267 182.923 L
703.364 181.748 L
704.796 180.56 L
706.003 179.401 L
706.932 178.273 L
708.081 177.199 L
709.091 176.203 L
710.385 175.15 L
711.367 174.24 L
712.467 173.304 L
713.865 172.407 L
714.875 171.526 L
716.252 170.698 L
717.292 169.81 L
718.386 169.04 L
719.199 168.401 L
720.552 167.611 L
721.559 166.922 L
722.625 166.248 L
724.48 165.16 L
725.488 164.57 L
726.36 164.075 L
727.37 163.598 L
728.465 163.035 L
729.308 162.485 L
730.514 161.907 L
731.584 161.364 L
732.761 160.862 L
734.053 160.368 L
735.008 159.836 L
736.327 159.297 L
S
GR
GS
[0.75 0 0 0.75 0 0.25] CT
0 0 1 RC
2 LJ
6.667 LW
N
736.327 159.297 M
737.31 158.791 L
738.659 158.338 L
739.613 157.897 L
740.736 157.515 L
741.718 157.091 L
742.926 156.671 L
744.189 156.251 L
745.201 155.889 L
746.409 155.551 L
747.305 155.24 L
748.485 154.92 L
749.552 154.544 L
750.731 154.162 L
751.801 153.789 L
752.979 153.456 L
754.185 153.18 L
755.14 152.886 L
756.375 152.572 L
757.389 152.285 L
758.678 152.003 L
759.633 151.727 L
761.317 151.442 L
762.328 151.097 L
763.31 150.81 L
764.405 150.567 L
765.248 150.386 L
766.568 150.221 L
767.607 150.033 L
768.842 149.839 L
769.74 149.693 L
770.892 149.552 L
771.987 149.386 L
773.167 149.156 L
774.373 148.922 L
775.412 148.717 L
776.62 148.571 L
777.63 148.45 L
778.865 148.321 L
780.44 148.209 L
781.476 148.074 L
782.516 148.021 L
783.61 147.984 L
784.649 147.951 L
785.604 147.926 L
786.841 147.906 L
787.739 147.9 L
789.002 147.893 L
789.984 147.886 L
791.163 147.878 L
S
GR
GS
[0.75 0 0 0.75 0 0.25] CT
0 0 1 RC
2 LJ
6.667 LW
N
791.163 147.878 M
792.287 147.902 L
793.411 148.335 L
794.73 149.088 L
795.601 149.927 L
796.864 150.784 L
797.846 151.629 L
799.025 152.528 L
800.15 153.586 L
801.216 154.639 L
802.339 155.812 L
803.519 157.095 L
804.697 158.528 L
805.708 160.092 L
807.034 161.763 L
808.208 163.607 L
809.218 165.447 L
810.174 167.304 L
811.352 169.384 L
812.56 171.588 L
813.542 173.765 L
814.835 176.157 L
815.791 178.683 L
817.024 181.386 L
818.092 184.443 L
819.27 187.51 L
820.284 190.5 L
821.405 193.697 L
822.556 196.928 L
823.65 200.168 L
824.914 203.436 L
825.953 206.742 L
827.132 210.079 L
828.144 213.464 L
829.631 217.635 L
830.698 220.656 L
831.737 224.45 L
832.777 227.738 L
833.786 231.446 L
835.135 235.355 L
836.258 238.857 L
837.942 242.426 L
839.122 247.578 L
840.216 250.709 L
841.313 253.589 L
842.324 256.53 L
843.389 258.959 L
844.456 261.631 L
845.552 264.283 L
846.534 266.922 L
S
GR
GS
[0.75 0 0 0.75 0 0.25] CT
0 0 1 RC
2 LJ
6.667 LW
N
846.534 266.922 M
847.657 269.546 L
848.837 272.165 L
849.96 275.19 L
851.027 277.785 L
852.346 280.744 L
853.582 283.522 L
854.732 286.636 L
855.885 289.191 L
857.232 291.728 L
858.243 294.614 L
859.366 296.849 L
860.404 299.336 L
861.499 301.718 L
862.651 304.236 L
863.745 306.895 L
864.757 309.304 L
865.599 311.203 L
866.526 313.228 L
867.593 315.5 L
868.717 317.998 L
869.811 320.48 L
871.018 322.94 L
872.113 325.343 L
873.237 327.84 L
874.612 330.19 L
875.821 332.632 L
876.859 335.397 L
877.87 337.464 L
878.768 339.303 L
880.228 342.073 L
881.21 344.162 L
882.251 346.246 L
883.458 348.567 L
884.636 351.118 L
885.759 353.331 L
886.826 355.667 L
887.95 357.895 L
889.053 360.254 L
890.224 362.729 L
891.291 364.957 L
892.415 367.272 L
894.183 369.546 L
895.389 373.097 L
896.628 375.268 L
897.693 377.598 L
898.816 379.68 L
899.939 381.727 L
901.005 383.639 L
902.185 385.514 L
S
GR
GS
[0.75 0 0 0.75 0 0.25] CT
0 0 1 RC
2 LJ
6.667 LW
N
902.185 385.514 M
903.282 387.57 L
904.403 389.505 L
905.47 391.327 L
906.508 393.237 L
907.856 395.151 L
908.869 397.251 L
910.02 398.969 L
911.033 400.88 L
912.153 402.697 L
913.192 404.534 L
914.343 406.361 L
915.383 408.063 L
916.591 409.814 L
917.656 411.537 L
918.78 413.242 L
920.155 415.187 L
921.251 416.865 L
922.374 418.526 L
923.385 420.098 L
924.62 421.737 L
925.659 423.451 L
926.754 424.999 L
927.877 426.544 L
928.943 428.174 L
930.096 429.72 L
931.19 431.431 L
932.313 432.968 L
933.38 434.585 L
934.448 436.113 L
935.57 437.716 L
936.751 439.39 L
937.874 440.976 L
939.052 442.559 L
940.175 444.133 L
941.242 445.728 L
942.562 447.316 L
943.628 449.073 L
944.752 450.648 L
945.79 452.119 L
946.915 453.574 L
947.981 455.078 L
949.048 456.478 L
950.792 457.907 L
951.828 460.011 L
956.124 461.279 L
958.147 465.651 L
960.841 467.402 L
962.946 469.478 L
965.924 470.988 L
S
GR
GS
[0.75 0 0 0.75 0 0.25] CT
0 0 1 RC
2 LJ
6.667 LW
N
965.924 470.988 M
969.685 473.418 L
971.259 475.118 L
972.298 476.041 L
973.42 476.648 L
974.458 477.286 L
975.553 477.85 L
976.706 478.472 L
977.857 479.071 L
978.924 479.665 L
980.047 480.184 L
981.141 480.718 L
982.237 481.239 L
983.332 481.727 L
984.426 482.218 L
985.438 482.617 L
986.533 483.03 L
988.05 483.593 L
989.115 484.097 L
990.153 484.556 L
991.164 484.976 L
992.485 485.398 L
993.607 485.89 L
995.545 486.347 L
996.274 487.173 L
997.37 487.498 L
998.551 487.615 L
999.675 487.61 L
1000.797 487.566 L
1001.892 487.531 L
1003.014 487.509 L
1004.782 487.502 L
1005.569 487.502 L
1006.354 487.502 L
1008.123 487.502 L
1008.855 487.502 L
1010.034 487.502 L
1010.875 487.502 L
1012.026 487.502 L
1013.121 487.502 L
1014.245 487.502 L
1015.367 487.502 L
1016.491 487.502 L
1017.614 487.504 L
1018.793 487.504 L
1020.001 487.504 L
1020.984 487.504 L
1022.107 487.504 L
1023.23 487.504 L
1024.381 487.504 L
S
GR
GS
[0.75 0 0 0.75 0 0.25] CT
0 0 1 RC
2 LJ
6.667 LW
N
1024.381 487.504 M
1025.475 487.506 L
1026.599 487.506 L
1027.722 487.509 L
1028.901 487.509 L
1030.08 487.509 L
1031.092 487.509 L
1032.496 487.509 L
1033.394 487.509 L
1034.517 487.509 L
1035.64 487.509 L
1036.763 487.509 L
1037.943 487.506 L
1038.981 487.504 L
1040.245 487.504 L
1041.2 487.502 L
1042.379 487.5 L
1043.503 487.5 L
1044.626 487.5 L
1045.749 487.5 L
1046.872 487.5 L
1048.051 487.5 L
1049.118 487.5 L
1050.241 487.5 L
1051.364 487.502 L
1052.487 487.502 L
1053.61 487.502 L
1054.93 487.502 L
1055.857 487.502 L
1056.98 487.502 L
1058.159 487.5 L
1059.169 487.5 L
1060.434 487.498 L
1061.416 487.493 L
1062.568 487.487 L
1064.42 487.473 L
1065.122 487.451 L
1065.909 487.436 L
1067.088 487.407 L
1068.155 487.374 L
1069.278 487.341 L
1070.458 487.312 L
1071.524 487.29 L
1072.703 487.27 L
1073.77 487.259 L
1074.922 487.248 L
1076.017 487.239 L
1077.168 487.233 L
1078.404 487.226 L
1079.386 487.224 L
S
GR
GS
[0.75 0 0 0.75 0 0.25] CT
0 0 1 RC
2 LJ
6.667 LW
N
1079.386 487.224 M
1080.566 487.226 L
1081.689 487.226 L
1083.008 487.235 L
1083.934 487.244 L
1085.086 487.264 L
1086.181 487.294 L
1087.304 487.345 L
1088.456 487.429 L
1089.523 487.559 L
1090.645 487.774 L
1091.74 488.118 L
1092.919 488.602 L
1093.959 489.297 L
1095.109 490.245 L
1096.233 491.479 L
1097.356 493.104 L
1098.48 495.165 L
1099.603 497.654 L
1100.95 500.661 L
1101.877 503.695 L
1103.028 507.401 L
1104.095 511.109 L
1105.274 515.658 L
1106.341 520.218 L
1107.436 525.527 L
1108.587 531.359 L
1109.739 537.712 L
1110.862 544.609 L
1111.985 552.017 L
1113.164 560.676 L
1114.287 568.527 L
1115.353 576.635 L
1116.533 585.831 L
1117.601 594.757 L
1118.78 603.753 L
1119.846 612.553 L
1121.448 623.301 L
1122.15 628.68 L
1123.385 636.085 L
1124.34 641.769 L
1125.463 647.678 L
1126.586 652.704 L
1127.765 657.446 L
1128.917 661.443 L
1130.039 665.625 L
1131.134 669.207 L
1132.257 672.789 L
1133.325 676.176 L
1134.476 679.348 L
S
GR
GS
[0.75 0 0 0.75 0 0.25] CT
0 0 1 RC
2 LJ
6.667 LW
N
1134.476 679.348 M
1135.571 682.28 L
1136.694 684.963 L
1137.874 687.397 L
1139.024 689.576 L
1140.092 691.495 L
1141.355 693.105 L
1142.338 694.432 L
1143.461 695.503 L
1144.584 696.385 L
1146.016 697.217 L
1146.858 697.712 L
1147.953 698.2 L
1149.189 698.679 L
1150.284 699.182 L
1151.407 699.624 L
1152.446 700.061 L
1153.541 700.488 L
1154.692 700.96 L
1155.759 701.408 L
1156.967 701.899 L
1158.033 702.345 L
1159.156 702.771 L
1160.252 703.113 L
1161.431 703.358 L
1162.498 703.515 L
1163.677 703.645 L
1164.744 703.765 L
1165.895 703.891 L
1166.99 704.001 L
1168.394 704.091 L
1169.378 704.136 L
1170.388 704.171 L
1171.623 704.2 L
1172.69 704.235 L
1173.758 704.279 L
1174.88 704.348 L
1176.004 704.436 L
1177.969 704.553 L
1178.786 704.758 L
1179.513 704.871 L
1180.468 704.992 L
1181.732 705.092 L
1182.77 705.154 L
1183.95 705.209 L
1185.045 705.271 L
1186.252 705.361 L
1187.291 705.476 L
1188.386 705.644 L
1189.509 705.847 L
S
GR
GS
[0.75 0 0 0.75 0 0.25] CT
0 0 1 RC
2 LJ
6.667 LW
N
1189.509 705.847 M
1190.857 706.041 L
1191.841 706.203 L
1192.907 706.344 L
1194.114 706.492 L
1195.321 706.664 L
1196.22 706.81 L
1197.399 706.951 L
1198.466 707.055 L
1199.589 707.143 L
1200.768 707.227 L
1201.891 707.318 L
1203.015 707.417 L
1204.082 707.519 L
1205.205 707.605 L
1206.384 707.658 L
1207.451 707.673 L
1208.574 707.669 L
1209.697 707.669 L
1210.82 707.671 L
1212.032 707.669 L
1213.292 707.669 L
1214.275 707.669 L
1215.342 707.669 L
1216.548 707.671 L
1217.616 707.671 L
1218.682 707.669 L
1219.806 707.669 L
1220.928 707.667 L
1222.108 707.664 L
1223.203 707.662 L
1224.411 707.662 L
1225.449 707.662 L
1226.628 707.662 L
1227.697 707.662 L
1228.791 707.662 L
1229.914 707.662 L
1231.037 707.662 L
1232.132 707.662 L
1233.311 707.662 L
1234.968 707.662 L
1235.894 707.662 L
1236.765 707.662 L
1237.748 707.662 L
1238.899 707.662 L
1240.051 707.662 L
1241.117 707.662 L
1242.24 707.662 L
1243.391 707.66 L
1244.627 707.658 L
S
GR
GS
[0.75 0 0 0.75 0 0.25] CT
0 0 1 RC
2 LJ
6.667 LW
N
1244.627 707.658 M
1245.609 707.651 L
1246.845 707.645 L
1247.856 707.638 L
1249.035 707.634 L
1250.102 707.631 L
1251.225 707.631 L
1252.464 707.629 L
1253.499 707.629 L
1254.708 707.629 L
1255.718 707.636 L
1256.897 707.642 L
1257.964 707.651 L
1259.228 707.664 L
1260.267 707.682 L
1261.389 707.702 L
1262.598 707.722 L
1263.636 707.746 L
1264.843 707.779 L
1265.883 707.815 L
1267.089 707.843 L
1268.128 707.868 L
1269.252 707.894 L
1270.376 707.921 L
1271.498 707.945 L
1272.677 707.96 L
1273.744 707.967 L
1274.927 707.967 L
1275.991 707.969 L
1277.197 707.969 L
1278.237 707.969 L
1279.359 707.969 L
1280.483 707.967 L
1281.606 707.965 L
1282.814 707.963 L
1283.796 707.958 L
1285.172 707.954 L
1286.098 707.94 L
1287.222 707.923 L
1288.428 707.905 L
1289.496 707.89 L
1291.294 707.874 L
1291.998 707.857 L
1292.922 707.846 L
1293.904 707.828 L
1295.027 707.81 L
1296.15 707.793 L
1297.358 707.775 L
1298.396 707.762 L
1299.548 707.751 L
S
GR
GS
[0.75 0 0 0.75 0 0.25] CT
0 0 1 RC
2 LJ
6.667 LW
N
1299.548 707.751 M
1300.698 707.742 L
1301.822 707.733 L
1302.945 707.726 L
1304.152 707.722 L
1305.22 707.717 L
1306.287 707.713 L
1307.607 707.706 L
1308.533 707.7 L
1309.656 707.693 L
1310.779 707.693 L
1311.901 707.717 L
1313.054 707.733 L
1314.149 707.731 L
1315.36 707.722 L
1316.394 707.717 L
1317.518 707.424 L
1318.641 705.293 L
1319.764 701.947 L
1320.887 698.096 L
1322.01 694.247 L
1323.105 690.089 L
1324.257 685.816 L
1325.408 681.461 L
1326.812 676.157 L
1327.71 672.113 L
1328.75 667.792 L
1329.844 663.39 L
1331.079 658.634 L
1332.09 653.74 L
1333.329 648.48 L
1334.336 643.631 L
1335.572 638.172 L
1336.583 633.112 L
1337.822 627.331 L
1338.83 621.958 L
1339.952 616.201 L
1341.076 610.349 L
1342.564 602.861 L
1343.377 597.952 L
1344.444 592.04 L
1345.567 585.674 L
1346.691 579.188 L
1348.376 570.638 L
1349.33 564.276 L
1350.088 559.183 L
1351.183 552.285 L
1352.362 544.867 L
1353.43 538.048 L
1354.553 530.782 L
S
GR
GS
[0.75 0 0 0.75 0 0.25] CT
0 0 1 RC
2 LJ
6.667 LW
N
1354.553 530.782 M
1355.76 523.04 L
1356.884 515.918 L
1357.951 508.309 L
1359.046 500.648 L
1360.225 492.915 L
1361.292 485.069 L
1362.499 476.723 L
1363.538 469.089 L
1364.689 461.007 L
1365.84 452.865 L
1366.963 444.637 L
1368.114 436.327 L
1369.182 427.995 L
1370.362 419.683 L
1371.736 411.378 L
1372.551 402.96 L
1373.674 394.487 L
1374.797 386.009 L
1376.004 377.101 L
1377.156 369.093 L
1378.223 360.795 L
1379.29 352.726 L
1380.498 344.939 L
1381.536 337.376 L
1382.748 329.611 L
1383.782 322.774 L
1384.934 315.745 L
1386.028 308.8 L
1387.152 301.895 L
1388.247 295.363 L
1389.398 288.208 L
1390.605 281.479 L
1391.673 274.996 L
1392.712 269.842 L
1394.228 265.063 L
1395.013 261.053 L
1396.165 257.303 L
1397.204 253.809 L
1398.467 250.031 L
1399.506 246.571 L
1400.797 243.419 L
1401.752 240.217 L
1402.932 236.958 L
1404.926 233.937 L
1406.077 229.708 L
1407.116 227.045 L
1408.1 224.62 L
1409.11 222.297 L
1409.952 220.047 L
S
GR
GS
[0.75 0 0 0.75 0 0.25] CT
0 0 1 RC
2 LJ
6.667 LW
N
1409.952 220.047 M
1410.991 217.978 L
1412.088 215.535 L
1413.211 213.329 L
1414.304 211.315 L
1415.455 209.253 L
1416.859 207.234 L
1417.843 205.068 L
1418.826 203.341 L
1420.033 201.475 L
1421.1 199.66 L
1422.167 197.902 L
1423.458 196.116 L
1424.44 194.546 L
1425.565 192.938 L
1426.717 191.372 L
1427.838 189.773 L
1428.905 188.376 L
1430.056 186.936 L
1431.207 185.556 L
1432.276 184.219 L
1433.454 182.87 L
1434.549 181.678 L
1435.672 180.487 L
1436.823 179.348 L
1437.918 178.253 L
1439.357 177.221 L
1440.254 176.104 L
1441.429 175.221 L
1442.41 174.273 L
1443.646 173.26 L
1444.657 172.458 L
1445.809 171.608 L
1446.959 170.775 L
1447.999 169.972 L
1449.151 169.208 L
1450.273 168.457 L
1451.48 167.699 L
1452.52 166.955 L
1453.671 166.24 L
1454.737 165.599 L
1455.889 164.943 L
1457.069 164.329 L
1458.106 163.751 L
1459.287 163.181 L
1460.355 162.609 L
1462.319 161.83 L
1463.329 161.194 L
1464.255 160.787 L
1465.295 160.403 L
S
GR
GS
[0.75 0 0 0.75 0 0.25] CT
0 0 1 RC
2 LJ
6.667 LW
N
1465.295 160.403 M
1466.247 159.922 L
1467.177 159.482 L
1468.355 158.999 L
1469.478 158.561 L
1470.461 158.148 L
1471.725 157.705 L
1472.735 157.256 L
1473.859 156.819 L
1474.953 156.366 L
1476.078 155.982 L
1477.285 155.582 L
1478.322 155.249 L
1479.501 154.893 L
1480.57 154.487 L
1481.749 154.078 L
1482.816 153.685 L
1483.967 153.33 L
1485.178 153.008 L
1486.212 152.683 L
1487.393 152.367 L
1488.544 152.018 L
1489.588 151.731 L
1490.705 151.429 L
1491.828 151.126 L
1492.923 150.795 L
1494.076 150.488 L
1495.199 150.256 L
1496.294 150.011 L
1497.501 149.783 L
1498.54 149.651 L
1499.691 150.15 L
1500.815 151.133 L
1501.937 152.283 L
1503.061 153.489 L
1504.211 154.622 L
1505.305 155.673 L
1506.401 156.801 L
1507.834 158.102 L
1508.761 159.224 L
1509.798 160.35 L
1510.922 161.673 L
1512.073 163.086 L
1513.251 164.539 L
1514.377 166.171 L
1515.414 167.737 L
1516.538 169.514 L
1518.421 171.447 L
1519.373 174.669 L
1520.328 176.546 L
S
GR
GS
[0.75 0 0 0.75 0 0.25] CT
0 0 1 RC
2 LJ
6.667 LW
N
1520.328 176.546 M
1521.255 178.626 L
1522.239 180.77 L
1523.248 183.4 L
1524.483 186.275 L
1525.523 188.941 L
1526.645 191.812 L
1527.826 194.751 L
1528.893 197.73 L
1530.409 201.325 L
1531.251 204.087 L
1532.346 206.919 L
1533.469 210.176 L
1534.569 213.568 L
1535.66 217.083 L
1536.781 220.703 L
1537.933 224.34 L
1539.028 228.18 L
1540.151 231.715 L
1541.246 235.474 L
1542.483 239.252 L
1543.581 243.077 L
1544.813 247.16 L
1545.822 250.749 L
1546.946 254.362 L
1548.096 257.835 L
1549.194 261.187 L
1550.428 264.438 L
1551.467 267.596 L
1552.982 270.672 L
1554.106 274.404 L
1555.272 277.31 L
1556.465 280.26 L
1557.532 283.105 L
1558.71 285.472 L
1559.777 288.281 L
1560.844 290.522 L
1561.828 292.843 L
1562.979 294.99 L
1564.017 297.326 L
1565.144 299.618 L
1566.068 301.78 L
1567.19 303.911 L
1568.314 306.128 L
1569.438 308.312 L
1570.672 310.474 L
1571.712 312.616 L
1572.862 314.725 L
1573.817 316.704 L
1575.896 320.264 L
S
GR
GS
[0.75 0 0 0.75 0 0.25] CT
0 0 1 RC
2 LJ
6.667 LW
N
1575.896 320.264 M
1577.047 322.161 L
1578.113 324.124 L
1579.292 326.158 L
1580.471 327.999 L
1581.538 330.029 L
1582.746 331.959 L
1583.757 333.891 L
1584.912 335.73 L
1586.031 337.769 L
1587.154 339.61 L
1588.221 341.545 L
1589.372 343.572 L
1590.525 345.392 L
1591.618 347.386 L
1592.714 349.175 L
1593.752 350.943 L
1594.82 352.615 L
1595.943 354.541 L
1597.038 356.188 L
1598.498 358.571 L
1599.594 360.419 L
1600.66 362.192 L
1601.67 364.081 L
1602.766 365.801 L
1603.947 367.832 L
1605.124 369.807 L
1606.164 371.805 L
1607.286 373.744 L
1608.353 375.815 L
1609.504 377.907 L
1610.629 380.051 L
1611.751 382.222 L
1612.874 384.419 L
1613.996 386.625 L
1615.177 388.831 L
1616.243 391.024 L
1617.395 393.21 L
1618.546 395.509 L
1619.669 397.697 L
1620.99 400.228 L
1621.999 402.35 L
1623.094 404.336 L
1624.106 406.57 L
1625.229 408.604 L
1626.352 411.115 L
1627.587 413.412 L
1628.598 415.726 L
1629.664 417.934 L
1630.845 420.14 L
S
GR
GS
[0.75 0 0 0.75 0 0.25] CT
0 0 1 RC
2 LJ
6.667 LW
N
1630.845 420.14 M
1632.614 423.839 L
1633.821 426.251 L
1634.859 428.426 L
1635.954 430.698 L
1637.189 432.97 L
1638.229 435.227 L
1639.38 437.478 L
1640.475 439.701 L
1641.683 441.914 L
1643.086 444.111 L
1644.153 446.964 L
1645.305 449.036 L
1646.399 451.209 L
1647.522 453.265 L
1648.645 455.424 L
1649.768 457.566 L
1650.836 459.708 L
1651.96 461.727 L
1653.026 463.836 L
1654.262 466.031 L
1655.356 468.093 L
1656.395 470.14 L
1657.547 471.967 L
1658.531 474.069 L
1659.653 475.745 L
1660.69 477.702 L
1661.842 479.641 L
1663.021 481.557 L
1664.031 483.439 L
1665.466 485.281 L
1666.616 487.48 L
1667.739 489.297 L
1668.918 491.097 L
1670.013 492.981 L
1671.108 494.672 L
1672.203 496.534 L
1673.186 498.111 L
1674.253 499.76 L
1675.292 501.302 L
1676.415 502.987 L
1679 504.647 L
S
GR
GS
[0.75 0 0 0.75 0 0.25] CT
1 0 0 RC
[24 24] 0 setdash
2 LJ
6.667 LW
N
241 466.559 M
241.843 466.559 L
242.852 466.559 L
244.003 466.559 L
245.154 466.559 L
246.277 466.559 L
247.344 466.559 L
248.606 466.559 L
249.592 466.559 L
250.741 466.559 L
251.892 466.559 L
252.987 466.559 L
254.138 466.559 L
255.235 466.559 L
256.357 466.559 L
257.452 466.559 L
258.604 466.559 L
259.698 466.559 L
260.821 466.559 L
261.916 466.559 L
263.123 466.559 L
264.247 466.559 L
265.285 466.559 L
266.465 466.559 L
267.588 466.559 L
268.711 466.559 L
270.256 466.559 L
270.957 466.559 L
272.052 466.559 L
273.203 466.559 L
274.299 466.559 L
275.421 466.559 L
276.601 466.559 L
277.669 466.559 L
278.792 466.559 L
279.887 466.559 L
281.066 466.559 L
282.216 466.559 L
283.311 466.559 L
284.434 466.559 L
285.558 466.559 L
286.709 466.559 L
287.776 466.559 L
288.928 466.559 L
290.079 466.559 L
291.174 466.559 L
292.324 466.559 L
293.504 466.559 L
294.515 466.559 L
295.638 466.559 L
296.873 466.559 L
297.856 466.559 L
299.151 466.559 L
300.131 466.559 L
301.226 466.559 L
302.321 466.559 L
303.5 466.559 L
304.651 466.559 L
305.746 466.559 L
306.897 466.559 L
308.02 466.559 L
309.564 466.559 L
310.267 466.559 L
311.362 466.559 L
312.542 466.559 L
313.608 466.559 L
314.731 466.559 L
315.91 466.559 L
317.005 466.559 L
318.157 466.559 L
319.251 466.559 L
320.403 466.559 L
321.526 466.559 L
322.622 466.559 L
323.716 466.559 L
324.868 466.559 L
326.609 466.559 L
327.45 466.559 L
328.265 466.559 L
329.388 466.559 L
331.41 466.559 L
332.223 466.559 L
332.954 466.559 L
333.825 466.559 L
335.004 466.559 L
336.099 466.559 L
337.194 466.559 L
338.289 466.559 L
339.468 466.559 L
340.535 466.559 L
341.658 466.559 L
342.837 466.559 L
343.961 467.007 L
345.085 467.635 L
346.179 468.216 L
347.33 468.818 L
348.425 469.378 L
349.576 469.942 L
350.699 470.554 L
351.822 471.296 L
352.974 471.987 L
354.181 472.589 L
355.248 473.271 L
356.288 473.982 L
357.467 474.739 L
358.562 475.452 L
359.685 476.135 L
360.808 476.744 L
361.903 477.435 L
362.946 478.195 L
364.122 479.054 L
365.301 480.081 L
366.48 481.172 L
367.602 482.448 L
368.614 484.005 L
369.765 485.768 L
370.804 487.583 L
372.011 489.805 L
373.106 492.424 L
374.257 495.5 L
375.381 499.059 L
376.588 503.71 L
377.655 509.521 L
378.778 517.066 L
380.017 526.797 L
381.024 538.285 L
382.147 552.287 L
383.691 574.018 L
384.393 589.711 L
385.516 608.036 L
386.639 625.36 L
387.762 641.771 L
388.942 658.447 L
390.008 672.828 L
391.077 684.333 L
392.284 693.426 L
393.351 699.569 L
394.393 702.582 L
395.597 703.217 L
396.636 703.217 L
397.843 703.238 L
399.106 703.243 L
400.202 703.247 L
401.212 703.249 L
402.392 703.25 L
403.487 703.252 L
404.526 703.253 L
405.676 703.253 L
406.856 703.254 L
407.98 703.254 L
409.102 703.255 L
410.225 703.255 L
411.348 703.255 L
412.499 703.256 L
413.595 703.256 L
414.69 703.256 L
415.842 703.256 L
416.965 703.256 L
418.087 703.256 L
419.182 703.256 L
420.362 703.256 L
421.457 703.257 L
422.607 703.257 L
423.675 703.257 L
424.826 703.257 L
425.949 703.257 L
427.072 703.257 L
428.196 703.257 L
429.319 703.257 L
430.469 703.257 L
431.537 703.257 L
432.632 703.257 L
433.67 703.257 L
434.933 703.257 L
436.086 703.257 L
437.181 703.257 L
438.332 703.257 L
440.101 703.257 L
440.943 703.257 L
441.644 703.257 L
442.796 703.257 L
443.891 703.257 L
445.042 703.257 L
446.25 703.257 L
447.318 703.257 L
448.469 703.257 L
449.479 703.257 L
450.658 703.257 L
451.753 703.257 L
452.904 703.257 L
453.999 703.257 L
455.151 703.257 L
456.245 703.257 L
457.398 703.257 L
458.547 703.257 L
459.644 703.257 L
460.794 703.257 L
461.889 703.257 L
463.012 703.257 L
464.107 703.257 L
465.258 703.257 L
466.381 703.257 L
467.505 703.257 L
468.657 703.257 L
469.752 703.257 L
471.015 703.257 L
471.998 703.257 L
473.121 703.257 L
474.244 703.257 L
475.339 703.257 L
476.518 703.257 L
477.584 703.257 L
478.764 703.257 L
479.86 703.257 L
481.011 703.257 L
482.078 703.257 L
483.229 703.257 L
484.324 703.257 L
485.475 703.257 L
486.571 703.257 L
487.665 703.257 L
488.872 703.257 L
490.107 703.257 L
491.091 703.257 L
492.129 703.257 L
493.337 703.257 L
494.433 703.257 L
495.555 703.257 L
497.296 703.257 L
497.97 703.257 L
498.981 703.257 L
500.047 703.257 L
501.227 703.257 L
502.322 703.257 L
503.417 703.257 L
504.568 703.257 L
505.692 703.257 L
506.842 703.257 L
507.938 703.257 L
509.088 703.257 L
510.156 703.257 L
511.335 703.257 L
512.542 703.257 L
513.554 703.257 L
514.705 703.257 L
515.8 703.257 L
516.951 703.257 L
518.047 703.257 L
519.253 703.257 L
520.292 703.257 L
521.415 703.257 L
522.51 703.257 L
523.661 703.257 L
524.813 703.257 L
525.908 703.257 L
527.031 703.257 L
528.155 703.257 L
529.39 703.257 L
530.373 703.257 L
531.524 703.257 L
532.646 703.257 L
533.77 703.257 L
535.062 703.257 L
536.016 703.257 L
537.14 703.257 L
538.262 703.257 L
539.385 703.257 L
540.48 703.257 L
541.716 703.257 L
542.783 703.257 L
543.793 703.257 L
545 703.257 L
546.124 703.257 L
547.275 703.257 L
548.343 703.257 L
549.494 703.257 L
550.561 703.257 L
551.74 703.257 L
553.593 703.257 L
554.351 703.257 L
555.025 703.257 L
556.232 703.257 L
557.552 703.257 L
558.478 703.257 L
559.602 703.257 L
560.753 703.257 L
561.848 703.257 L
562.971 703.257 L
564.094 703.257 L
565.133 703.257 L
566.284 703.257 L
567.435 703.257 L
568.559 703.257 L
569.822 703.257 L
570.862 703.257 L
571.956 703.257 L
573.052 703.257 L
574.147 703.257 L
575.298 703.257 L
576.477 703.26 L
577.572 703.26 L
578.723 703.26 L
579.987 703.26 L
580.969 703.26 L
582.092 703.26 L
583.216 703.26 L
584.311 703.26 L
585.434 703.26 L
586.642 703.26 L
587.68 703.26 L
588.803 703.26 L
589.927 703.26 L
591.049 703.26 L
592.172 703.26 L
593.211 703.26 L
594.391 703.26 L
595.542 703.26 L
596.665 700.66 L
597.789 693.816 L
598.911 686.39 L
600.034 677.577 L
601.186 669.354 L
602.281 661.757 L
603.403 652.409 L
604.527 644.42 L
605.678 634.592 L
606.801 623.638 L
607.896 612.071 L
609.105 601.821 L
610.789 592.549 L
611.491 582.129 L
612.389 572.22 L
613.456 562.044 L
614.635 552.753 L
615.73 542.444 L
616.853 532.219 L
618.005 523.105 L
619.1 513.32 L
620.251 502.806 L
621.346 492.107 L
622.497 483.456 L
623.62 473.173 L
624.715 460.618 L
625.866 449.823 L
626.99 440.681 L
628.141 437.759 L
629.208 419.404 L
630.358 402.263 L
631.51 396.648 L
632.717 389.018 L
633.728 378.553 L
634.823 367.356 L
635.946 354.994 L
637.154 342.414 L
638.221 331.305 L
639.344 325.468 L
640.496 317.507 L
641.59 307.197 L
642.713 296.549 L
643.809 285.462 L
644.931 275.782 L
646.167 266.028 L
647.121 255.048 L
648.357 244.859 L
649.452 236.357 L
650.688 228.494 L
651.698 220.042 L
652.85 211.568 L
654.061 203.325 L
655.096 194.633 L
656.191 187.569 L
657.229 180.844 L
658.352 174.104 L
659.504 167.137 L
660.684 161.029 L
661.75 155.135 L
662.93 149.548 L
664.025 144.35 L
665.148 139.392 L
667.451 134.771 L
668.293 132.022 L
669.163 132.022 L
669.894 127.892 L
671.045 127.892 L
671.831 127.892 L
673.123 127.892 L
674.161 127.892 L
675.312 127.892 L
676.463 127.892 L
677.558 127.892 L
678.625 127.892 L
679.749 127.892 L
680.871 127.892 L
682.107 127.892 L
683.174 127.892 L
684.269 127.892 L
685.42 127.892 L
686.515 127.892 L
687.638 127.892 L
688.733 127.892 L
689.884 127.892 L
691.035 127.892 L
692.131 127.892 L
693.422 127.892 L
694.406 127.892 L
695.529 127.892 L
696.624 127.892 L
697.747 127.892 L
698.927 127.892 L
700.021 127.892 L
701.2 127.892 L
702.267 127.892 L
703.364 127.892 L
704.796 127.892 L
706.003 127.892 L
706.932 127.892 L
708.081 127.892 L
709.091 127.892 L
710.385 127.892 L
711.367 127.892 L
712.467 127.892 L
713.865 127.892 L
714.875 127.892 L
716.252 127.892 L
717.292 127.892 L
718.386 127.892 L
719.199 127.892 L
720.552 127.892 L
721.559 127.892 L
722.625 127.892 L
724.48 127.892 L
725.488 127.892 L
726.36 127.892 L
727.37 127.892 L
728.465 127.892 L
729.308 127.892 L
730.514 127.892 L
731.584 127.892 L
732.761 127.892 L
734.053 127.892 L
735.008 127.892 L
736.327 127.892 L
737.31 127.892 L
738.659 127.892 L
739.613 127.892 L
740.736 127.892 L
741.718 127.892 L
742.926 127.892 L
744.189 127.892 L
745.201 127.892 L
746.409 127.892 L
747.305 127.892 L
748.485 127.892 L
749.552 127.892 L
750.731 127.892 L
751.801 127.892 L
752.979 127.892 L
754.185 127.892 L
755.14 127.892 L
756.375 127.892 L
757.389 127.892 L
758.678 127.892 L
759.633 127.892 L
761.317 127.892 L
762.328 127.892 L
763.31 127.892 L
764.405 127.892 L
765.248 127.892 L
766.568 127.892 L
767.607 127.892 L
768.842 127.892 L
769.74 127.892 L
770.892 127.892 L
771.987 127.892 L
773.167 127.892 L
774.373 127.892 L
775.412 127.892 L
776.62 127.892 L
777.63 127.892 L
778.865 127.892 L
780.44 127.892 L
781.476 127.892 L
782.516 127.892 L
783.61 127.892 L
784.649 127.892 L
785.604 127.892 L
786.841 127.892 L
787.739 127.892 L
789.002 127.892 L
789.984 127.892 L
791.163 129.37 L
792.287 130.712 L
793.411 131.8 L
794.73 132.881 L
795.601 134.085 L
796.864 135.155 L
797.846 136.77 L
799.025 138.387 L
800.15 140.234 L
801.216 142.226 L
802.339 144.215 L
803.519 146.351 L
804.697 149.132 L
805.708 151.607 L
807.034 154.342 L
808.208 156.991 L
809.218 159.794 L
810.174 161.93 L
811.352 163.726 L
812.56 166.743 L
813.542 170.04 L
814.835 173.992 L
815.791 177.138 L
817.024 180.671 L
818.092 183.861 L
819.27 187.436 L
820.284 191.285 L
821.405 195.257 L
822.556 199.261 L
823.65 203.354 L
824.914 207.54 L
825.953 211.477 L
827.132 215.389 L
828.144 219.172 L
829.631 223.183 L
830.698 227.071 L
831.737 231.095 L
832.777 235.257 L
833.786 237.868 L
835.135 240.514 L
836.258 246.586 L
837.942 249.734 L
839.122 255.486 L
840.216 259.605 L
841.313 263.781 L
842.324 263.781 L
843.389 270.702 L
844.456 274.803 L
845.552 279.227 L
846.534 288.127 L
847.657 293.906 L
848.837 298.929 L
849.96 303.983 L
851.027 308.683 L
852.346 311.253 L
853.582 315.632 L
854.732 318.994 L
855.885 321.938 L
857.232 325.514 L
858.243 331.073 L
859.366 335.17 L
860.404 339.367 L
861.499 343.872 L
862.651 343.872 L
863.745 352.222 L
864.757 357.755 L
865.599 357.755 L
866.526 363.354 L
867.593 363.354 L
868.717 369.89 L
869.811 369.89 L
871.018 375.136 L
872.113 375.136 L
873.237 380.195 L
874.612 380.195 L
875.821 383.162 L
876.859 386.107 L
877.87 389.83 L
878.768 389.83 L
880.228 389.83 L
881.21 395.16 L
882.251 395.16 L
883.458 404.659 L
884.636 409.76 L
885.759 417.718 L
886.826 422.434 L
887.95 427.022 L
889.053 431.551 L
890.224 435.845 L
891.291 439.683 L
892.415 443.126 L
894.183 446.315 L
895.389 450.854 L
896.628 453.636 L
897.693 456.068 L
898.816 458.428 L
899.939 460.956 L
901.005 463.624 L
902.185 466.142 L
903.282 469.102 L
904.403 472.298 L
905.47 475.604 L
906.508 479.266 L
907.856 482.896 L
908.869 486.451 L
910.02 490.105 L
911.033 493.155 L
912.153 496.125 L
913.192 498.773 L
914.343 501.126 L
915.383 503.176 L
916.591 504.784 L
917.656 506.479 L
918.78 506.479 L
920.155 508.755 L
921.251 511.945 L
922.374 514.086 L
923.385 516.445 L
924.62 526.136 L
925.659 528.715 L
926.754 531.147 L
927.877 533.24 L
928.943 535.342 L
930.096 535.342 L
931.19 539.339 L
932.313 540.996 L
933.38 542.804 L
934.448 542.804 L
935.57 545.454 L
936.751 547.467 L
937.874 549.45 L
939.052 551.582 L
940.175 554.88 L
941.242 556.71 L
942.562 556.71 L
943.628 560.318 L
944.752 561.883 L
945.79 563.251 L
946.915 564.58 L
947.981 566.168 L
949.048 566.168 L
950.792 569.478 L
951.828 570.278 L
956.124 570.741 L
958.147 576.215 L
960.841 580.343 L
962.946 581.913 L
965.924 583.426 L
969.685 587.804 L
971.259 593.869 L
972.298 595.029 L
973.42 595.943 L
974.458 596.744 L
975.553 597.429 L
976.706 598.046 L
977.857 598.773 L
978.924 599.495 L
980.047 599.891 L
981.141 600.521 L
982.237 601.261 L
983.332 602.217 L
984.426 603.036 L
985.438 603.87 L
986.533 603.87 L
988.05 604.947 L
989.115 603.43 L
990.153 604.142 L
991.164 605.125 L
992.485 606.215 L
993.607 607.391 L
995.545 486.347 L
996.274 486.347 L
997.37 486.347 L
998.551 486.347 L
999.675 486.347 L
1000.797 486.347 L
1001.892 486.347 L
1003.014 486.347 L
1004.782 486.347 L
1005.569 486.347 L
1006.354 486.347 L
1008.123 486.347 L
1008.855 486.347 L
1010.034 486.347 L
1010.875 486.347 L
1012.026 486.347 L
1013.121 486.347 L
1014.245 486.347 L
1015.367 486.347 L
1016.491 486.347 L
1017.614 486.347 L
1018.793 486.347 L
1020.001 486.347 L
1020.984 486.347 L
1022.107 486.347 L
1023.23 486.347 L
1024.381 486.347 L
1025.475 486.347 L
1026.599 486.347 L
1027.722 486.347 L
1028.901 486.347 L
1030.08 486.347 L
1031.092 486.347 L
1032.496 486.347 L
1033.394 486.347 L
1034.517 486.347 L
1035.64 486.347 L
1036.763 486.347 L
1037.943 486.347 L
1038.981 486.347 L
1040.245 486.347 L
1041.2 486.347 L
1042.379 486.347 L
1043.503 486.347 L
1044.626 486.347 L
1045.749 486.347 L
1046.872 486.347 L
1048.051 486.351 L
1049.118 486.368 L
1050.241 486.388 L
1051.364 486.415 L
1052.487 486.448 L
1053.61 486.486 L
1054.93 486.525 L
1055.857 486.56 L
1056.98 486.585 L
1058.159 486.599 L
1059.169 486.608 L
1060.434 486.612 L
1061.416 486.614 L
1062.568 486.616 L
1064.42 486.617 L
1065.122 486.619 L
1065.909 486.62 L
1067.088 486.621 L
1068.155 486.622 L
1069.278 486.626 L
1070.458 486.632 L
1071.524 486.642 L
1072.703 486.66 L
1073.77 486.687 L
1074.922 486.729 L
1076.017 486.79 L
1077.168 486.863 L
1078.404 486.935 L
1079.386 487.009 L
1080.566 487.105 L
1081.689 487.221 L
1083.008 487.37 L
1083.934 487.513 L
1085.086 487.742 L
1086.181 488.025 L
1087.304 488.393 L
1088.456 488.897 L
1089.523 489.554 L
1090.645 490.41 L
1091.74 491.54 L
1092.919 493.068 L
1093.959 495.101 L
1095.109 497.789 L
1096.233 501.417 L
1097.356 506.414 L
1098.48 512.972 L
1099.603 521.241 L
1100.95 531.482 L
1101.877 542.071 L
1103.028 554.388 L
1104.095 566.212 L
1105.274 580.953 L
1106.341 595.492 L
1107.436 610.651 L
1108.587 624.507 L
1109.739 636.456 L
1110.862 647.004 L
1111.985 657.093 L
1113.164 667.02 L
1114.287 673.297 L
1115.353 679.737 L
1116.533 686.465 L
1117.601 692.574 L
1118.78 697.291 L
1119.846 700.669 L
1121.448 702.804 L
1122.15 703.144 L
1123.385 703.144 L
1124.34 703.214 L
1125.463 703.225 L
1126.586 703.233 L
1127.765 703.238 L
1128.917 703.242 L
1130.039 703.246 L
1131.134 703.249 L
1132.257 703.251 L
1133.325 703.252 L
1134.476 703.253 L
1135.571 703.254 L
1136.694 703.255 L
1137.874 703.256 L
1139.024 703.256 L
1140.092 703.256 L
1141.355 703.256 L
1142.338 703.257 L
1143.461 703.257 L
1144.584 703.257 L
1146.016 703.257 L
1146.858 703.257 L
1147.953 703.257 L
1149.189 703.257 L
1150.284 703.257 L
1151.407 703.257 L
1152.446 703.257 L
1153.541 703.257 L
1154.692 703.257 L
1155.759 703.257 L
1156.967 703.257 L
1158.033 703.257 L
1159.156 703.257 L
1160.252 703.257 L
1161.431 703.257 L
1162.498 703.257 L
1163.677 703.257 L
1164.744 703.257 L
1165.895 703.257 L
1166.99 703.257 L
1168.394 703.257 L
1169.378 703.257 L
1170.388 703.257 L
1171.623 703.257 L
1172.69 703.257 L
1173.758 703.257 L
1174.88 703.257 L
1176.004 703.257 L
1177.969 703.257 L
1178.786 703.257 L
1179.513 703.257 L
1180.468 703.257 L
1181.732 703.257 L
1182.77 703.257 L
1183.95 703.257 L
1185.045 703.257 L
1186.252 703.257 L
1187.291 703.257 L
1188.386 703.257 L
1189.509 703.257 L
1190.857 703.257 L
1191.841 703.257 L
1192.907 703.257 L
1194.114 703.257 L
1195.321 703.257 L
1196.22 703.257 L
1197.399 703.257 L
1198.466 703.257 L
1199.589 703.257 L
1200.768 703.257 L
1201.891 703.257 L
1203.015 703.257 L
1204.082 703.257 L
1205.205 703.257 L
1206.384 703.257 L
1207.451 703.257 L
1208.574 703.257 L
1209.697 703.257 L
1210.82 703.257 L
1212.032 703.257 L
1213.292 703.257 L
1214.275 703.257 L
1215.342 703.257 L
1216.548 703.257 L
1217.616 703.257 L
1218.682 703.257 L
1219.806 703.257 L
1220.928 703.257 L
1222.108 703.257 L
1223.203 703.257 L
1224.411 703.257 L
1225.449 703.257 L
1226.628 703.257 L
1227.697 703.257 L
1228.791 703.257 L
1229.914 703.257 L
1231.037 703.257 L
1232.132 703.257 L
1233.311 703.257 L
1234.968 703.257 L
1235.894 703.257 L
1236.765 703.257 L
1237.748 703.257 L
1238.899 703.257 L
1240.051 703.257 L
1241.117 703.257 L
1242.24 703.257 L
1243.391 703.257 L
1244.627 703.257 L
1245.609 703.257 L
1246.845 703.257 L
1247.856 703.257 L
1249.035 703.257 L
1250.102 703.257 L
1251.225 703.257 L
1252.464 703.257 L
1253.499 703.257 L
1254.708 703.257 L
1255.718 703.257 L
1256.897 703.257 L
1257.964 703.257 L
1259.228 703.257 L
1260.267 703.257 L
1261.389 703.257 L
1262.598 703.257 L
1263.636 703.257 L
1264.843 703.257 L
1265.883 703.257 L
1267.089 703.257 L
1268.128 703.257 L
1269.252 703.257 L
1270.376 703.257 L
1271.498 703.257 L
1272.677 703.257 L
1273.744 703.257 L
1274.927 703.257 L
1275.991 703.257 L
1277.197 703.257 L
1278.237 703.257 L
1279.359 703.257 L
1280.483 703.257 L
1281.606 703.257 L
1282.814 703.257 L
1283.796 703.257 L
1285.172 703.257 L
1286.098 703.257 L
1287.222 703.257 L
1288.428 703.257 L
1289.496 703.257 L
1291.294 703.257 L
1291.998 703.257 L
1292.922 703.257 L
1293.904 703.257 L
1295.027 703.257 L
1296.15 703.257 L
1297.358 703.257 L
1298.396 703.257 L
1299.548 703.257 L
1300.698 703.257 L
1301.822 703.257 L
1302.945 703.257 L
1304.152 703.257 L
1305.22 703.257 L
1306.287 703.257 L
1307.607 703.257 L
1308.533 703.257 L
1309.656 703.257 L
1310.779 703.257 L
1311.901 703.257 L
1313.054 703.257 L
1314.149 703.257 L
1315.36 703.257 L
1316.394 703.26 L
1317.518 698.401 L
1318.641 693.222 L
1319.764 687.73 L
1320.887 681.93 L
1322.01 675.831 L
1323.105 669.44 L
1324.257 662.764 L
1325.408 655.812 L
1326.812 648.591 L
1327.71 641.11 L
1328.75 633.378 L
1329.844 625.403 L
1331.079 617.195 L
1332.09 608.763 L
1333.329 600.117 L
1334.336 591.267 L
1335.572 582.221 L
1336.583 572.992 L
1337.822 563.588 L
1338.83 554.02 L
1339.952 544.298 L
1341.076 534.435 L
1342.564 524.439 L
1343.377 514.322 L
1344.444 504.095 L
1345.567 493.769 L
1346.691 483.356 L
1348.376 472.865 L
1349.33 462.309 L
1350.088 451.699 L
1351.183 441.046 L
1352.362 430.36 L
1353.43 419.655 L
1354.553 408.94 L
1355.76 398.227 L
1356.884 387.527 L
1357.951 376.851 L
1359.046 366.21 L
1360.225 355.616 L
1361.292 345.079 L
1362.499 334.609 L
1363.538 324.218 L
1364.689 313.917 L
1365.84 303.714 L
1366.963 293.622 L
1368.114 283.65 L
1369.182 273.807 L
1370.362 264.105 L
1371.736 254.552 L
1372.551 245.158 L
1373.674 235.931 L
1374.797 226.883 L
1376.004 218.02 L
1377.156 209.351 L
1378.223 200.886 L
1379.29 192.632 L
1380.498 184.597 L
1381.536 176.788 L
1382.748 169.213 L
1383.782 161.88 L
1384.934 154.794 L
1386.028 147.963 L
1387.152 141.392 L
1388.247 135.088 L
1389.398 129.056 L
1390.605 127.892 L
1391.673 127.892 L
1392.712 127.892 L
1394.228 127.892 L
1395.013 127.892 L
1396.165 127.892 L
1397.204 127.892 L
1398.467 127.892 L
1399.506 127.892 L
1400.797 127.892 L
1401.752 127.892 L
1402.932 127.892 L
1404.926 127.892 L
1406.077 127.892 L
1407.116 127.892 L
1408.1 127.892 L
1409.11 127.892 L
1409.952 127.892 L
1410.991 127.892 L
1412.088 127.892 L
1413.211 127.892 L
1414.304 127.892 L
1415.455 127.892 L
1416.859 127.892 L
1417.843 127.892 L
1418.826 127.892 L
1420.033 127.892 L
1421.1 127.892 L
1422.167 127.892 L
1423.458 127.892 L
1424.44 127.892 L
1425.565 127.892 L
1426.717 127.892 L
1427.838 127.892 L
1428.905 127.892 L
1430.056 127.892 L
1431.207 127.892 L
1432.276 127.892 L
1433.454 127.892 L
1434.549 127.892 L
1435.672 127.892 L
1436.823 127.892 L
1437.918 127.892 L
1439.357 127.892 L
1440.254 127.892 L
1441.429 127.892 L
1442.41 127.892 L
1443.646 127.892 L
1444.657 127.892 L
1445.809 127.892 L
1446.959 127.892 L
1447.999 127.892 L
1449.151 127.892 L
1450.273 127.892 L
1451.48 127.892 L
1452.52 127.892 L
1453.671 127.892 L
1454.737 127.892 L
1455.889 127.892 L
1457.069 127.892 L
1458.106 127.892 L
1459.287 127.892 L
1460.355 127.892 L
1462.319 127.892 L
1463.329 127.892 L
1464.255 127.892 L
1465.295 127.892 L
1466.247 127.892 L
1467.177 127.892 L
1468.355 127.892 L
1469.478 127.892 L
1470.461 127.892 L
1471.725 127.892 L
1472.735 127.892 L
1473.859 127.892 L
1474.953 127.892 L
1476.078 127.892 L
1477.285 127.892 L
1478.322 127.892 L
1479.501 127.892 L
1480.57 127.892 L
1481.749 127.892 L
1482.816 127.892 L
1483.967 127.892 L
1485.178 127.892 L
1486.212 127.892 L
1487.393 127.892 L
1488.544 127.892 L
1489.588 127.892 L
1490.705 127.892 L
1491.828 127.892 L
1492.923 127.892 L
1494.076 127.892 L
1495.199 127.892 L
1496.294 127.892 L
1497.501 127.944 L
1498.54 129.987 L
1499.691 129.987 L
1500.815 133.429 L
1501.937 135.831 L
1503.061 138.043 L
1504.211 142.266 L
1505.305 142.266 L
1506.401 146.048 L
1507.834 147.873 L
1508.761 149.568 L
1509.798 151.481 L
1510.922 151.481 L
1512.073 155.45 L
1513.251 155.45 L
1514.377 158.771 L
1515.414 160.353 L
1516.538 162.321 L
1518.421 164.284 L
1519.373 166.872 L
1520.328 169.583 L
1521.255 173.001 L
1522.239 176.624 L
1523.248 180.261 L
1524.483 183.717 L
1525.523 187.451 L
1526.645 190.718 L
1527.826 190.718 L
1528.893 195.408 L
1530.409 198.461 L
1531.251 204.588 L
1532.346 208.961 L
1533.469 213.085 L
1534.569 217.29 L
1535.66 217.29 L
1536.781 222.92 L
1537.933 227.025 L
1539.028 231.384 L
1540.151 235.943 L
1541.246 240.223 L
1542.483 246.225 L
1543.581 250.387 L
1544.813 254.655 L
1545.822 258.889 L
1546.946 258.889 L
1548.096 265.316 L
1549.194 270.054 L
1550.428 275.485 L
1551.467 284.13 L
1552.982 289.769 L
1554.106 294.736 L
1555.272 299.178 L
1556.465 303.174 L
1557.532 306.526 L
1558.71 309.617 L
1559.777 312.541 L
1560.844 315.745 L
1561.828 319.081 L
1562.979 322.284 L
1564.017 325.51 L
1565.144 328.384 L
1566.068 331.788 L
1567.19 331.788 L
1568.314 339.246 L
1569.438 343.13 L
1570.672 347.323 L
1571.712 351.196 L
1572.862 351.196 L
1573.817 356.69 L
1575.896 364.159 L
1577.047 367.142 L
1578.113 370.038 L
1579.292 373.031 L
1580.471 376.078 L
1581.538 378.99 L
1582.746 381.872 L
1583.757 385.056 L
1584.912 388.43 L
1586.031 391.664 L
1587.154 394.999 L
1588.221 397.814 L
1589.372 400.853 L
1590.525 403.756 L
1591.618 406.5 L
1592.714 409.377 L
1593.752 409.377 L
1594.82 413.449 L
1595.943 415.654 L
1597.038 418.208 L
1598.498 421.843 L
1599.594 424.892 L
1600.66 427.534 L
1601.67 430.365 L
1602.766 430.365 L
1603.947 435.238 L
1605.124 438.604 L
1606.164 443.001 L
1607.286 446.293 L
1608.353 449.746 L
1609.504 449.746 L
1610.629 455.231 L
1611.751 460.636 L
1612.874 460.636 L
1613.996 465.436 L
1615.177 468.202 L
1616.243 471.348 L
1617.395 474.428 L
1618.546 477.57 L
1619.669 481.979 L
1620.99 485.099 L
1621.999 487.682 L
1623.094 490.296 L
1624.106 493.336 L
1625.229 493.336 L
1626.352 498.024 L
1627.587 504.164 L
1628.598 505.796 L
1629.664 505.796 L
1630.845 511.382 L
1632.614 517.387 L
1633.821 527.394 L
1634.859 530.425 L
1635.954 533.239 L
1637.189 535.896 L
1638.229 538.602 L
1639.38 541.118 L
1640.475 543.503 L
1641.683 545.912 L
1643.086 548.399 L
1644.153 550.672 L
1645.305 552.928 L
1646.399 555.116 L
1647.522 557.462 L
1648.645 559.98 L
1649.768 562.489 L
1650.836 565.252 L
1651.96 567.768 L
1653.026 570.204 L
1654.262 572.636 L
1655.356 575.078 L
1656.395 577.438 L
1657.547 579.682 L
1658.531 581.793 L
1659.653 583.781 L
1660.69 585.61 L
1661.842 587.433 L
1663.021 589.343 L
1664.031 591.197 L
1665.466 592.934 L
1666.616 594.695 L
1667.739 596.463 L
1668.918 598.263 L
1670.013 600.013 L
1671.108 601.896 L
1672.203 603.73 L
1673.186 605.522 L
1674.253 607.243 L
1675.292 608.882 L
1676.415 609.692 L
1679 504.647 L
S
GR
GS
[0.75 0 0 0.75 378.5625 664.12502] CT
/Helvetica 48 F
GS
[1 0 0 1 0 0] CT
0 16.5 moveto 
1 -1 scale
(Actual) t 
GR
GR
GS
[0.75 0 0 0.75 0 0.25] CT
0 0 1 RC
2 setlinecap
10.0 ML
6.667 LW
N
460.962 885.167 M
500.769 885.167 L
S
GR
GS
[0.75 0 0 0.75 922.5 664.12502] CT
/Helvetica 48 F
GS
[1 0 0 1 0 0] CT
0 16.5 moveto 
1 -1 scale
(Desired) t 
GR
GR
GS
[0.75 0 0 0.75 0 0.25] CT
1 0 0 RC
[24 24] 0 setdash
2 LJ
6.667 LW
N
1186 885.167 M
1226 885.167 L
S
GR
%%Trailer
%%Pages: 1
%%EOF
