%!PS-Adobe-3.0 EPSF-3.0
%%Creator: (MATLAB, The Mathworks, Inc. Version 8.5.0.197613 \(R2015a\). Operating System: Linux)
%%Title: (/home/victor/ampro/AMPRO II/Upslope Walking/figures/Thesis/Upslope/KneeTracking.eps)
%%CreationDate: 2016-02-19T15:20:32
%%Pages: (atend)
%%BoundingBox: 0 0 1391 751
%%LanguageLevel: 2
%%EndComments
%%BeginProlog
%%BeginResource: procset (Apache XML Graphics Std ProcSet) 1.2 0
%%Version: 1.2 0
%%Copyright: (Copyright 2001-2003,2010 The Apache Software Foundation. License terms: http://www.apache.org/licenses/LICENSE-2.0)
/bd{bind def}bind def
/ld{load def}bd
/GR/grestore ld
/M/moveto ld
/LJ/setlinejoin ld
/C/curveto ld
/f/fill ld
/LW/setlinewidth ld
/GC/setgray ld
/t/show ld
/N/newpath ld
/CT/concat ld
/cp/closepath ld
/S/stroke ld
/L/lineto ld
/CC/setcmykcolor ld
/A/ashow ld
/GS/gsave ld
/RC/setrgbcolor ld
/RM/rmoveto ld
/ML/setmiterlimit ld
/re {4 2 roll M
1 index 0 rlineto
0 exch rlineto
neg 0 rlineto
cp } bd
/_ctm matrix def
/_tm matrix def
/BT { _ctm currentmatrix pop matrix _tm copy pop 0 0 moveto } bd
/ET { _ctm setmatrix } bd
/iTm { _ctm setmatrix _tm concat } bd
/Tm { _tm astore pop iTm 0 0 moveto } bd
/ux 0.0 def
/uy 0.0 def
/F {
  /Tp exch def
  /Tf exch def
  Tf findfont Tp scalefont setfont
  /cf Tf def  /cs Tp def
} bd
/ULS {currentpoint /uy exch def /ux exch def} bd
/ULE {
  /Tcx currentpoint pop def
  gsave
  newpath
  cf findfont cs scalefont dup
  /FontMatrix get 0 get /Ts exch def /FontInfo get dup
  /UnderlinePosition get Ts mul /To exch def
  /UnderlineThickness get Ts mul /Tt exch def
  ux uy To add moveto  Tcx uy To add lineto
  Tt setlinewidth stroke
  grestore
} bd
/OLE {
  /Tcx currentpoint pop def
  gsave
  newpath
  cf findfont cs scalefont dup
  /FontMatrix get 0 get /Ts exch def /FontInfo get dup
  /UnderlinePosition get Ts mul /To exch def
  /UnderlineThickness get Ts mul /Tt exch def
  ux uy To add cs add moveto Tcx uy To add cs add lineto
  Tt setlinewidth stroke
  grestore
} bd
/SOE {
  /Tcx currentpoint pop def
  gsave
  newpath
  cf findfont cs scalefont dup
  /FontMatrix get 0 get /Ts exch def /FontInfo get dup
  /UnderlinePosition get Ts mul /To exch def
  /UnderlineThickness get Ts mul /Tt exch def
  ux uy To add cs 10 mul 26 idiv add moveto Tcx uy To add cs 10 mul 26 idiv add lineto
  Tt setlinewidth stroke
  grestore
} bd
/QT {
/Y22 exch store
/X22 exch store
/Y21 exch store
/X21 exch store
currentpoint
/Y21 load 2 mul add 3 div exch
/X21 load 2 mul add 3 div exch
/X21 load 2 mul /X22 load add 3 div
/Y21 load 2 mul /Y22 load add 3 div
/X22 load /Y22 load curveto
} bd
/SSPD {
dup length /d exch dict def
{
/v exch def
/k exch def
currentpagedevice k known {
/cpdv currentpagedevice k get def
v cpdv ne {
/upd false def
/nullv v type /nulltype eq def
/nullcpdv cpdv type /nulltype eq def
nullv nullcpdv or
{
/upd true def
} {
/sametype v type cpdv type eq def
sametype {
v type /arraytype eq {
/vlen v length def
/cpdvlen cpdv length def
vlen cpdvlen eq {
0 1 vlen 1 sub {
/i exch def
/obj v i get def
/cpdobj cpdv i get def
obj cpdobj ne {
/upd true def
exit
} if
} for
} {
/upd true def
} ifelse
} {
v type /dicttype eq {
v {
/dv exch def
/dk exch def
/cpddv cpdv dk get def
dv cpddv ne {
/upd true def
exit
} if
} forall
} {
/upd true def
} ifelse
} ifelse
} if
} ifelse
upd true eq {
d k v put
} if
} if
} if
} forall
d length 0 gt {
d setpagedevice
} if
} bd
%%EndResource
%%BeginResource: procset (Apache XML Graphics EPS ProcSet) 1.0 0
%%Version: 1.0 0
%%Copyright: (Copyright 2002-2003 The Apache Software Foundation. License terms: http://www.apache.org/licenses/LICENSE-2.0)
/BeginEPSF { %def
/b4_Inc_state save def         % Save state for cleanup
/dict_count countdictstack def % Count objects on dict stack
/op_count count 1 sub def      % Count objects on operand stack
userdict begin                 % Push userdict on dict stack
/showpage { } def              % Redefine showpage, { } = null proc
0 setgray 0 setlinecap         % Prepare graphics state
1 setlinewidth 0 setlinejoin
10 setmiterlimit [ ] 0 setdash newpath
/languagelevel where           % If level not equal to 1 then
{pop languagelevel             % set strokeadjust and
1 ne                           % overprint to their defaults.
{false setstrokeadjust false setoverprint
} if
} if
} bd
/EndEPSF { %def
count op_count sub {pop} repeat            % Clean up stacks
countdictstack dict_count sub {end} repeat
b4_Inc_state restore
} bd
%%EndResource
%FOPBeginFontDict
%%IncludeResource: font Courier-Bold
%%IncludeResource: font Helvetica
%%IncludeResource: font Courier-BoldOblique
%%IncludeResource: font Courier-Oblique
%%IncludeResource: font Times-Roman
%%IncludeResource: font Helvetica-BoldOblique
%%IncludeResource: font Helvetica-Bold
%%IncludeResource: font Helvetica-Oblique
%%IncludeResource: font Times-BoldItalic
%%IncludeResource: font Courier
%%IncludeResource: font Times-Italic
%%IncludeResource: font Times-Bold
%%IncludeResource: font Symbol
%%IncludeResource: font ZapfDingbats
%FOPEndFontDict
%%BeginResource: encoding WinAnsiEncoding
/WinAnsiEncoding [
/.notdef /.notdef /.notdef /.notdef /.notdef
/.notdef /.notdef /.notdef /.notdef /.notdef
/.notdef /.notdef /.notdef /.notdef /.notdef
/.notdef /.notdef /.notdef /.notdef /.notdef
/.notdef /.notdef /.notdef /.notdef /.notdef
/.notdef /.notdef /.notdef /.notdef /.notdef
/.notdef /.notdef /space /exclam /quotedbl
/numbersign /dollar /percent /ampersand /quotesingle
/parenleft /parenright /asterisk /plus /comma
/hyphen /period /slash /zero /one
/two /three /four /five /six
/seven /eight /nine /colon /semicolon
/less /equal /greater /question /at
/A /B /C /D /E
/F /G /H /I /J
/K /L /M /N /O
/P /Q /R /S /T
/U /V /W /X /Y
/Z /bracketleft /backslash /bracketright /asciicircum
/underscore /quoteleft /a /b /c
/d /e /f /g /h
/i /j /k /l /m
/n /o /p /q /r
/s /t /u /v /w
/x /y /z /braceleft /bar
/braceright /asciitilde /bullet /Euro /bullet
/quotesinglbase /florin /quotedblbase /ellipsis /dagger
/daggerdbl /circumflex /perthousand /Scaron /guilsinglleft
/OE /bullet /Zcaron /bullet /bullet
/quoteleft /quoteright /quotedblleft /quotedblright /bullet
/endash /emdash /asciitilde /trademark /scaron
/guilsinglright /oe /bullet /zcaron /Ydieresis
/space /exclamdown /cent /sterling /currency
/yen /brokenbar /section /dieresis /copyright
/ordfeminine /guillemotleft /logicalnot /sfthyphen /registered
/macron /degree /plusminus /twosuperior /threesuperior
/acute /mu /paragraph /middot /cedilla
/onesuperior /ordmasculine /guillemotright /onequarter /onehalf
/threequarters /questiondown /Agrave /Aacute /Acircumflex
/Atilde /Adieresis /Aring /AE /Ccedilla
/Egrave /Eacute /Ecircumflex /Edieresis /Igrave
/Iacute /Icircumflex /Idieresis /Eth /Ntilde
/Ograve /Oacute /Ocircumflex /Otilde /Odieresis
/multiply /Oslash /Ugrave /Uacute /Ucircumflex
/Udieresis /Yacute /Thorn /germandbls /agrave
/aacute /acircumflex /atilde /adieresis /aring
/ae /ccedilla /egrave /eacute /ecircumflex
/edieresis /igrave /iacute /icircumflex /idieresis
/eth /ntilde /ograve /oacute /ocircumflex
/otilde /odieresis /divide /oslash /ugrave
/uacute /ucircumflex /udieresis /yacute /thorn
/ydieresis
] def
%%EndResource
%FOPBeginFontReencode
/Courier-Bold findfont
dup length dict begin
  {1 index /FID ne {def} {pop pop} ifelse} forall
  /Encoding WinAnsiEncoding def
  currentdict
end
/Courier-Bold exch definefont pop
/Helvetica findfont
dup length dict begin
  {1 index /FID ne {def} {pop pop} ifelse} forall
  /Encoding WinAnsiEncoding def
  currentdict
end
/Helvetica exch definefont pop
/Courier-BoldOblique findfont
dup length dict begin
  {1 index /FID ne {def} {pop pop} ifelse} forall
  /Encoding WinAnsiEncoding def
  currentdict
end
/Courier-BoldOblique exch definefont pop
/Courier-Oblique findfont
dup length dict begin
  {1 index /FID ne {def} {pop pop} ifelse} forall
  /Encoding WinAnsiEncoding def
  currentdict
end
/Courier-Oblique exch definefont pop
/Times-Roman findfont
dup length dict begin
  {1 index /FID ne {def} {pop pop} ifelse} forall
  /Encoding WinAnsiEncoding def
  currentdict
end
/Times-Roman exch definefont pop
/Helvetica-BoldOblique findfont
dup length dict begin
  {1 index /FID ne {def} {pop pop} ifelse} forall
  /Encoding WinAnsiEncoding def
  currentdict
end
/Helvetica-BoldOblique exch definefont pop
/Helvetica-Bold findfont
dup length dict begin
  {1 index /FID ne {def} {pop pop} ifelse} forall
  /Encoding WinAnsiEncoding def
  currentdict
end
/Helvetica-Bold exch definefont pop
/Helvetica-Oblique findfont
dup length dict begin
  {1 index /FID ne {def} {pop pop} ifelse} forall
  /Encoding WinAnsiEncoding def
  currentdict
end
/Helvetica-Oblique exch definefont pop
/Times-BoldItalic findfont
dup length dict begin
  {1 index /FID ne {def} {pop pop} ifelse} forall
  /Encoding WinAnsiEncoding def
  currentdict
end
/Times-BoldItalic exch definefont pop
/Courier findfont
dup length dict begin
  {1 index /FID ne {def} {pop pop} ifelse} forall
  /Encoding WinAnsiEncoding def
  currentdict
end
/Courier exch definefont pop
/Times-Italic findfont
dup length dict begin
  {1 index /FID ne {def} {pop pop} ifelse} forall
  /Encoding WinAnsiEncoding def
  currentdict
end
/Times-Italic exch definefont pop
/Times-Bold findfont
dup length dict begin
  {1 index /FID ne {def} {pop pop} ifelse} forall
  /Encoding WinAnsiEncoding def
  currentdict
end
/Times-Bold exch definefont pop
%FOPEndFontReencode
%%EndProlog
%%Page: 1 1
%%PageBoundingBox: 0 0 1391 751
%%BeginPageSetup
[1 0 0 -1 0 751] CT
%%EndPageSetup
GS
[0.75 0 0 0.75 0 0.25] CT
N
0 0 M
1855 0 L
1855 1001 L
0 1001 L
0 0 L
cp
clip
1 GC
N
0 0 1855 1001 re
f
GR
GS
[0.75 0 0 0.75 0 0.25] CT
1 GC
N
0 0 1855 1001 re
f
GR
GS
[0.75 0 0 0.75 0 0.25] CT
1 GC
N
241 721 M
1679 721 L
1679 30 L
241 30 L
cp
f
GR
GS
[0.75 0 0 0.75 0 0.25] CT
0.873 GC
2 setlinecap
10.0 ML
N
241 721 M
241 30 L
S
GR
GS
[0.75 0 0 0.75 0 0.25] CT
0.873 GC
2 setlinecap
10.0 ML
N
455.044 721 M
455.044 30 L
S
GR
GS
[0.75 0 0 0.75 0 0.25] CT
0.873 GC
2 setlinecap
10.0 ML
N
669.089 721 M
669.089 30 L
S
GR
GS
[0.75 0 0 0.75 0 0.25] CT
0.873 GC
2 setlinecap
10.0 ML
N
883.133 721 M
883.133 30 L
S
GR
GS
[0.75 0 0 0.75 0 0.25] CT
0.873 GC
2 setlinecap
10.0 ML
N
1097.177 721 M
1097.177 30 L
S
GR
GS
[0.75 0 0 0.75 0 0.25] CT
0.873 GC
2 setlinecap
10.0 ML
N
1311.221 721 M
1311.221 30 L
S
GR
GS
[0.75 0 0 0.75 0 0.25] CT
0.873 GC
2 setlinecap
10.0 ML
N
1525.266 721 M
1525.266 30 L
S
GR
GS
[0.75 0 0 0.75 0 0.25] CT
0.873 GC
2 setlinecap
10.0 ML
N
1679 721 M
241 721 L
S
GR
GS
[0.75 0 0 0.75 0 0.25] CT
0.873 GC
2 setlinecap
10.0 ML
N
1679 605.833 M
241 605.833 L
S
GR
GS
[0.75 0 0 0.75 0 0.25] CT
0.873 GC
2 setlinecap
10.0 ML
N
1679 490.667 M
241 490.667 L
S
GR
GS
[0.75 0 0 0.75 0 0.25] CT
0.873 GC
2 setlinecap
10.0 ML
N
1679 375.5 M
241 375.5 L
S
GR
GS
[0.75 0 0 0.75 0 0.25] CT
0.873 GC
2 setlinecap
10.0 ML
N
1679 260.333 M
241 260.333 L
S
GR
GS
[0.75 0 0 0.75 0 0.25] CT
0.873 GC
2 setlinecap
10.0 ML
N
1679 145.167 M
241 145.167 L
S
GR
GS
[0.75 0 0 0.75 0 0.25] CT
0.873 GC
2 setlinecap
10.0 ML
N
1679 30 M
241 30 L
S
GR
GS
[0.75 0 0 0.75 720.0005 599.25002] CT
0.149 GC
/Helvetica 59 F
GS
[1 0 0 1 0 0] CT
-121 55 moveto 
1 -1 scale
(Time \(s\)) t 
GR
GR
GS
[0.75 0 0 0.75 0 0.25] CT
0.149 GC
2 setlinecap
10.0 ML
N
241 721 M
1679 721 L
S
GR
GS
[0.75 0 0 0.75 0 0.25] CT
0.149 GC
2 setlinecap
10.0 ML
N
241 30 M
1679 30 L
S
GR
GS
[0.75 0 0 0.75 0 0.25] CT
0.149 GC
2 setlinecap
10.0 ML
N
241 721 M
241 706.62 L
S
GR
GS
[0.75 0 0 0.75 0 0.25] CT
0.149 GC
2 setlinecap
10.0 ML
N
455.044 721 M
455.044 706.62 L
S
GR
GS
[0.75 0 0 0.75 0 0.25] CT
0.149 GC
2 setlinecap
10.0 ML
N
669.089 721 M
669.089 706.62 L
S
GR
GS
[0.75 0 0 0.75 0 0.25] CT
0.149 GC
2 setlinecap
10.0 ML
N
883.133 721 M
883.133 706.62 L
S
GR
GS
[0.75 0 0 0.75 0 0.25] CT
0.149 GC
2 setlinecap
10.0 ML
N
1097.177 721 M
1097.177 706.62 L
S
GR
GS
[0.75 0 0 0.75 0 0.25] CT
0.149 GC
2 setlinecap
10.0 ML
N
1311.221 721 M
1311.221 706.62 L
S
GR
GS
[0.75 0 0 0.75 0 0.25] CT
0.149 GC
2 setlinecap
10.0 ML
N
1525.266 721 M
1525.266 706.62 L
S
GR
GS
[0.75 0 0 0.75 0 0.25] CT
0.149 GC
2 setlinecap
10.0 ML
N
241 30 M
241 44.38 L
S
GR
GS
[0.75 0 0 0.75 0 0.25] CT
0.149 GC
2 setlinecap
10.0 ML
N
455.044 30 M
455.044 44.38 L
S
GR
GS
[0.75 0 0 0.75 0 0.25] CT
0.149 GC
2 setlinecap
10.0 ML
N
669.089 30 M
669.089 44.38 L
S
GR
GS
[0.75 0 0 0.75 0 0.25] CT
0.149 GC
2 setlinecap
10.0 ML
N
883.133 30 M
883.133 44.38 L
S
GR
GS
[0.75 0 0 0.75 0 0.25] CT
0.149 GC
2 setlinecap
10.0 ML
N
1097.177 30 M
1097.177 44.38 L
S
GR
GS
[0.75 0 0 0.75 0 0.25] CT
0.149 GC
2 setlinecap
10.0 ML
N
1311.221 30 M
1311.221 44.38 L
S
GR
GS
[0.75 0 0 0.75 0 0.25] CT
0.149 GC
2 setlinecap
10.0 ML
N
1525.266 30 M
1525.266 44.38 L
S
GR
GS
[0.75 0 0 0.75 180.75 550.99998] CT
0.149 GC
/Helvetica 53 F
GS
[1 0 0 1 0 0] CT
-17 50 moveto 
1 -1 scale
(0) t 
GR
GR
GS
[0.75 0 0 0.75 341.28323 550.99998] CT
0.149 GC
/Helvetica 53 F
GS
[1 0 0 1 0 0] CT
-42.5 50 moveto 
1 -1 scale
(0.5) t 
GR
GR
GS
[0.75 0 0 0.75 501.81647 550.99998] CT
0.149 GC
/Helvetica 53 F
GS
[1 0 0 1 0 0] CT
-17 50 moveto 
1 -1 scale
(1) t 
GR
GR
GS
[0.75 0 0 0.75 662.34966 550.99998] CT
0.149 GC
/Helvetica 53 F
GS
[1 0 0 1 0 0] CT
-42.5 50 moveto 
1 -1 scale
(1.5) t 
GR
GR
GS
[0.75 0 0 0.75 822.88293 550.99998] CT
0.149 GC
/Helvetica 53 F
GS
[1 0 0 1 0 0] CT
-17 50 moveto 
1 -1 scale
(2) t 
GR
GR
GS
[0.75 0 0 0.75 983.41608 550.99998] CT
0.149 GC
/Helvetica 53 F
GS
[1 0 0 1 0 0] CT
-42.5 50 moveto 
1 -1 scale
(2.5) t 
GR
GR
GS
[0.75 0 0 0.75 1143.94931 550.99998] CT
0.149 GC
/Helvetica 53 F
GS
[1 0 0 1 0 0] CT
-17 50 moveto 
1 -1 scale
(3) t 
GR
GR
GS
[0 -0.75 0.75 0 104 281.87473] CT
0.149 GC
/Helvetica 59 F
GS
[1 0 0 1 0 0] CT
-247 -14 moveto 
1 -1 scale
(Knee angle \(rad\)) t 
GR
GR
GS
[0.75 0 0 0.75 0 0.25] CT
0.149 GC
2 setlinecap
10.0 ML
N
241 721 M
241 30 L
S
GR
GS
[0.75 0 0 0.75 0 0.25] CT
0.149 GC
2 setlinecap
10.0 ML
N
1679 721 M
1679 30 L
S
GR
GS
[0.75 0 0 0.75 0 0.25] CT
0.149 GC
2 setlinecap
10.0 ML
N
241 721 M
255.38 721 L
S
GR
GS
[0.75 0 0 0.75 0 0.25] CT
0.149 GC
2 setlinecap
10.0 ML
N
241 605.833 M
255.38 605.833 L
S
GR
GS
[0.75 0 0 0.75 0 0.25] CT
0.149 GC
2 setlinecap
10.0 ML
N
241 490.667 M
255.38 490.667 L
S
GR
GS
[0.75 0 0 0.75 0 0.25] CT
0.149 GC
2 setlinecap
10.0 ML
N
241 375.5 M
255.38 375.5 L
S
GR
GS
[0.75 0 0 0.75 0 0.25] CT
0.149 GC
2 setlinecap
10.0 ML
N
241 260.333 M
255.38 260.333 L
S
GR
GS
[0.75 0 0 0.75 0 0.25] CT
0.149 GC
2 setlinecap
10.0 ML
N
241 145.167 M
255.38 145.167 L
S
GR
GS
[0.75 0 0 0.75 0 0.25] CT
0.149 GC
2 setlinecap
10.0 ML
N
241 30 M
255.38 30 L
S
GR
GS
[0.75 0 0 0.75 0 0.25] CT
0.149 GC
2 setlinecap
10.0 ML
N
1679 721 M
1664.62 721 L
S
GR
GS
[0.75 0 0 0.75 0 0.25] CT
0.149 GC
2 setlinecap
10.0 ML
N
1679 605.833 M
1664.62 605.833 L
S
GR
GS
[0.75 0 0 0.75 0 0.25] CT
0.149 GC
2 setlinecap
10.0 ML
N
1679 490.667 M
1664.62 490.667 L
S
GR
GS
[0.75 0 0 0.75 0 0.25] CT
0.149 GC
2 setlinecap
10.0 ML
N
1679 375.5 M
1664.62 375.5 L
S
GR
GS
[0.75 0 0 0.75 0 0.25] CT
0.149 GC
2 setlinecap
10.0 ML
N
1679 260.333 M
1664.62 260.333 L
S
GR
GS
[0.75 0 0 0.75 0 0.25] CT
0.149 GC
2 setlinecap
10.0 ML
N
1679 145.167 M
1664.62 145.167 L
S
GR
GS
[0.75 0 0 0.75 0 0.25] CT
0.149 GC
2 setlinecap
10.0 ML
N
1679 30 M
1664.62 30 L
S
GR
GS
[0.75 0 0 0.75 170.75 541] CT
0.149 GC
/Helvetica 53 F
GS
[1 0 0 1 0 0] CT
-34 18.5 moveto 
1 -1 scale
(0) t 
GR
GR
GS
[0.75 0 0 0.75 170.75 454.62498] CT
0.149 GC
/Helvetica 53 F
GS
[1 0 0 1 0 0] CT
-85 18.5 moveto 
1 -1 scale
(0.2) t 
GR
GR
GS
[0.75 0 0 0.75 170.75 368.24999] CT
0.149 GC
/Helvetica 53 F
GS
[1 0 0 1 0 0] CT
-85 18.5 moveto 
1 -1 scale
(0.4) t 
GR
GR
GS
[0.75 0 0 0.75 170.75 281.875] CT
0.149 GC
/Helvetica 53 F
GS
[1 0 0 1 0 0] CT
-85 18.5 moveto 
1 -1 scale
(0.6) t 
GR
GR
GS
[0.75 0 0 0.75 170.75 195.49998] CT
0.149 GC
/Helvetica 53 F
GS
[1 0 0 1 0 0] CT
-85 18.5 moveto 
1 -1 scale
(0.8) t 
GR
GR
GS
[0.75 0 0 0.75 170.75 109.125] CT
0.149 GC
/Helvetica 53 F
GS
[1 0 0 1 0 0] CT
-34 18.5 moveto 
1 -1 scale
(1) t 
GR
GR
GS
[0.75 0 0 0.75 170.75 22.74998] CT
0.149 GC
/Helvetica 53 F
GS
[1 0 0 1 0 0] CT
-85 18.5 moveto 
1 -1 scale
(1.2) t 
GR
GR
GS
[0.75 0 0 0.75 0 0.25] CT
0 0 1 RC
2 LJ
6.667 LW
N
241 426.25 M
242.606 431.555 L
244.529 434.123 L
246.723 436.159 L
248.916 437.897 L
251.056 439.44 L
253.09 440.836 L
255.496 442.17 L
257.374 443.236 L
259.565 444.299 L
261.758 445.261 L
263.844 446.147 L
266.039 446.98 L
268.128 447.748 L
270.267 448.448 L
272.354 449.111 L
274.549 449.771 L
276.634 450.307 L
278.774 450.824 L
280.861 451.308 L
283.162 451.778 L
285.303 452.204 L
287.282 452.633 L
289.531 453.019 L
291.671 453.377 L
293.812 453.675 L
296.755 453.978 L
298.092 454.183 L
300.179 454.494 L
302.372 454.81 L
304.46 455.084 L
306.599 455.375 L
308.847 455.618 L
310.882 455.804 L
313.023 455.992 L
315.11 456.179 L
317.357 456.389 L
319.55 456.57 L
321.637 456.716 L
323.777 456.857 L
325.918 457.029 L
328.112 457.248 L
330.144 457.467 L
332.34 457.674 L
334.533 457.866 L
336.621 458.1 L
338.813 458.372 L
341.061 458.619 L
342.987 458.827 L
345.128 459.032 L
S
GR
GS
[0.75 0 0 0.75 0 0.25] CT
0 0 1 RC
2 LJ
6.667 LW
N
345.128 459.032 M
347.482 459.247 L
349.356 459.41 L
351.823 459.538 L
353.691 459.631 L
355.777 459.741 L
357.865 459.889 L
360.111 460.088 L
362.305 460.318 L
364.392 460.541 L
366.585 460.746 L
368.726 460.949 L
371.669 461.172 L
373.007 461.287 L
375.094 461.375 L
377.343 461.431 L
379.376 461.468 L
381.515 461.503 L
383.762 461.543 L
385.85 461.59 L
388.044 461.647 L
390.13 461.731 L
392.325 461.841 L
394.465 461.974 L
396.553 462.115 L
398.639 462.234 L
400.835 462.323 L
404.152 462.387 L
405.756 462.449 L
407.308 462.488 L
409.449 462.546 L
413.301 462.654 L
414.852 462.74 L
416.244 462.802 L
417.904 462.901 L
420.152 463.014 L
422.238 463.116 L
424.325 463.199 L
426.411 463.275 L
428.659 463.356 L
430.692 463.442 L
432.833 463.559 L
435.079 463.71 L
437.221 463.869 L
439.363 464.025 L
441.449 464.147 L
443.643 464.24 L
445.729 464.332 L
447.922 464.454 L
450.062 464.599 L
S
GR
GS
[0.75 0 0 0.75 0 0.25] CT
0 0 1 RC
2 LJ
6.667 LW
N
450.062 464.599 M
452.203 464.798 L
454.398 465.032 L
456.699 465.284 L
458.732 465.598 L
460.714 465.955 L
462.961 466.373 L
465.047 466.845 L
467.187 467.358 L
469.329 467.85 L
471.416 468.422 L
473.402 469.036 L
475.643 469.698 L
477.89 470.449 L
480.137 471.189 L
482.276 471.951 L
484.205 472.814 L
486.398 473.79 L
488.378 474.773 L
490.678 475.93 L
492.766 477.218 L
494.96 478.664 L
497.1 480.298 L
499.402 482.147 L
501.435 484.178 L
503.575 486.391 L
505.936 488.922 L
507.856 491.421 L
509.996 494.314 L
512.939 498.428 L
514.276 501.407 L
516.417 505.422 L
518.557 510.342 L
520.697 516.024 L
522.945 522.806 L
524.978 530.003 L
527.014 537.506 L
529.314 546.048 L
531.347 555.104 L
533.333 564.313 L
535.628 573.084 L
537.608 581.06 L
539.908 588.173 L
542.317 594.823 L
544.404 600.482 L
546.33 605.33 L
548.577 609.967 L
550.664 614.207 L
552.644 618.074 L
554.838 621.607 L
S
GR
GS
[0.75 0 0 0.75 0 0.25] CT
0 0 1 RC
2 LJ
6.667 LW
N
554.838 621.607 M
557.085 624.981 L
559.227 627.757 L
561.367 630.559 L
563.507 632.993 L
565.647 635.117 L
567.84 637.268 L
569.93 639.121 L
572.015 640.718 L
574.211 642.23 L
576.351 643.632 L
578.49 644.743 L
580.577 645.812 L
582.825 646.675 L
584.912 647.413 L
587.104 648.031 L
589.138 648.542 L
591.333 649.016 L
593.473 649.502 L
595.613 650.003 L
597.755 650.544 L
599.895 651.196 L
602.088 651.834 L
604.122 652.501 L
606.209 653.174 L
608.188 653.793 L
610.595 654.438 L
612.791 655.027 L
614.878 655.61 L
617.072 656.209 L
620.443 656.8 L
622.048 657.474 L
623.385 657.807 L
625.58 658.307 L
627.667 658.753 L
629.86 659.15 L
632.162 659.45 L
634.197 659.72 L
636.391 659.974 L
638.315 660.173 L
640.562 660.336 L
642.649 660.473 L
644.843 660.636 L
646.93 660.811 L
649.125 660.974 L
651.211 661.109 L
653.407 661.235 L
655.599 661.356 L
657.687 661.509 L
659.88 661.687 L
S
GR
GS
[0.75 0 0 0.75 0 0.25] CT
0 0 1 RC
2 LJ
6.667 LW
N
659.88 661.687 M
661.966 661.831 L
664.108 661.937 L
666.194 661.992 L
668.388 662.01 L
670.528 662.01 L
672.669 662.008 L
674.865 662.008 L
676.951 662.008 L
679.359 662.003 L
681.232 662.001 L
683.372 661.994 L
685.512 661.988 L
687.599 661.983 L
689.846 661.977 L
691.879 661.975 L
694.127 661.972 L
696.215 661.97 L
698.408 661.97 L
700.442 661.97 L
702.636 661.972 L
704.722 661.972 L
706.917 661.972 L
709.005 661.972 L
711.09 661.972 L
713.391 661.97 L
715.745 661.968 L
717.62 661.961 L
719.598 661.952 L
721.901 661.941 L
723.988 661.926 L
726.127 661.908 L
729.445 661.886 L
730.729 661.88 L
732.655 661.873 L
734.688 661.871 L
736.936 661.871 L
739.022 661.871 L
741.111 661.871 L
743.305 661.869 L
745.445 661.864 L
747.638 661.86 L
749.725 661.855 L
751.919 661.849 L
753.953 661.84 L
756.2 661.833 L
758.501 661.829 L
760.429 661.824 L
762.622 661.822 L
764.71 661.822 L
S
GR
GS
[0.75 0 0 0.75 0 0.25] CT
0 0 1 RC
2 LJ
6.667 LW
N
764.71 661.822 M
766.903 661.82 L
768.991 661.816 L
771.291 661.811 L
773.27 661.809 L
775.411 661.811 L
777.498 661.818 L
779.691 661.827 L
781.887 661.846 L
783.973 661.882 L
786.114 661.93 L
788.255 661.992 L
790.608 662.069 L
792.482 662.158 L
794.675 662.293 L
796.815 662.476 L
798.956 662.736 L
801.418 662.982 L
803.236 663.211 L
805.379 663.478 L
807.518 663.81 L
809.658 664.174 L
811.744 664.567 L
814.1 664.971 L
816.133 665.252 L
818.059 665.609 L
820.359 665.974 L
822.501 666.329 L
824.694 666.711 L
826.729 667.062 L
828.923 667.475 L
830.956 667.884 L
833.204 668.281 L
836.735 668.655 L
838.179 669.118 L
839.464 669.37 L
841.765 669.774 L
844.28 670.169 L
846.045 670.556 L
848.187 670.872 L
850.38 671.161 L
852.467 671.492 L
854.607 671.788 L
856.747 672.126 L
858.727 672.486 L
860.921 672.868 L
863.115 673.334 L
865.256 673.798 L
867.663 674.217 L
869.645 674.573 L
S
GR
GS
[0.75 0 0 0.75 0 0.25] CT
0 0 1 RC
2 LJ
6.667 LW
N
869.645 674.573 M
871.732 674.95 L
873.82 675.304 L
875.906 675.635 L
878.099 675.951 L
880.346 676.233 L
882.433 676.41 L
884.628 676.565 L
887.036 676.697 L
888.908 676.819 L
891.049 676.911 L
893.19 676.967 L
895.276 677 L
897.417 677.015 L
899.718 677.017 L
901.697 677.015 L
903.838 677.011 L
905.979 677.002 L
908.118 676.991 L
910.258 676.975 L
912.238 676.96 L
914.487 676.947 L
916.681 676.931 L
918.821 676.907 L
920.962 676.576 L
923.101 674.471 L
925.242 670.836 L
927.436 666.716 L
929.523 662.222 L
931.662 657.739 L
933.804 652.892 L
935.997 647.954 L
938.139 642.908 L
940.224 637.668 L
942.529 632.205 L
945.738 623.301 L
947.075 619.441 L
948.787 614.342 L
950.821 608.563 L
953.068 602.351 L
955.154 595.977 L
957.295 589.432 L
959.49 582.73 L
961.577 575.917 L
963.771 569.036 L
965.858 562.065 L
968.051 554.605 L
970.192 547.344 L
972.279 540.342 L
974.472 532.937 L
S
GR
GS
[0.75 0 0 0.75 0 0.25] CT
0 0 1 RC
2 LJ
6.667 LW
N
974.472 532.937 M
976.613 525.445 L
978.807 517.828 L
980.84 510.119 L
983.033 502.814 L
985.228 494.634 L
987.528 486.245 L
989.455 478.545 L
991.541 470.392 L
993.683 462.641 L
995.984 454.017 L
998.017 445.663 L
1000.157 437.179 L
1002.352 429.039 L
1004.439 420.069 L
1006.578 411.561 L
1008.667 403.023 L
1010.806 394.862 L
1013.161 385.379 L
1014.979 377.579 L
1017.334 368.437 L
1019.422 359.659 L
1021.776 350.87 L
1023.702 342.114 L
1025.897 333.343 L
1028.205 324.607 L
1030.177 316.366 L
1032.264 307.29 L
1034.243 299.07 L
1036.383 290.434 L
1038.579 281.87 L
1040.826 273.408 L
1042.859 264.948 L
1045.108 256.086 L
1047.194 248.138 L
1049.335 239.93 L
1053.723 231.962 L
1055.328 218.631 L
1056.987 213.19 L
1058.379 208.298 L
1060.573 202.095 L
1062.07 197.794 L
1064.532 193.785 L
1066.512 190.813 L
1068.705 187.909 L
1070.899 185.056 L
1072.986 182.112 L
1075.019 179.522 L
1077.16 176.912 L
1079.3 174.463 L
S
GR
GS
[0.75 0 0 0.75 0 0.25] CT
0 0 1 RC
2 LJ
6.667 LW
N
1079.3 174.463 M
1081.654 172.16 L
1083.688 169.973 L
1085.776 167.891 L
1087.969 165.877 L
1090.055 163.903 L
1092.196 161.88 L
1094.283 160.113 L
1096.477 158.349 L
1098.671 156.664 L
1100.758 154.977 L
1103.218 153.528 L
1105.095 152.058 L
1107.234 150.571 L
1109.321 149.24 L
1111.461 147.879 L
1113.709 146.601 L
1115.796 145.221 L
1118.042 143.929 L
1120.076 142.615 L
1122.165 141.44 L
1124.894 140.252 L
1127.195 139.093 L
1128.965 137.964 L
1131.155 136.891 L
1133.081 135.895 L
1135.546 134.842 L
1137.417 133.932 L
1139.515 132.996 L
1142.179 132.099 L
1144.104 131.218 L
1146.727 130.39 L
1148.71 129.502 L
1150.795 128.731 L
1152.344 128.093 L
1154.924 127.303 L
1156.841 126.614 L
1158.873 125.94 L
1162.409 124.851 L
1164.33 124.262 L
1165.991 123.767 L
1167.915 123.29 L
1170.004 122.727 L
1171.61 122.177 L
1173.909 121.599 L
1175.948 121.055 L
1178.191 120.554 L
1180.653 120.059 L
1182.473 119.527 L
1184.987 118.988 L
S
GR
GS
[0.75 0 0 0.75 0 0.25] CT
0 0 1 RC
2 LJ
6.667 LW
N
1184.987 118.988 M
1186.859 118.483 L
1189.431 118.03 L
1191.248 117.588 L
1193.388 117.206 L
1195.261 116.782 L
1197.562 116.363 L
1199.97 115.943 L
1201.899 115.581 L
1204.2 115.243 L
1205.909 114.932 L
1208.158 114.612 L
1210.19 114.236 L
1212.438 113.854 L
1214.477 113.481 L
1216.721 113.147 L
1219.021 112.871 L
1220.839 112.578 L
1223.193 112.264 L
1225.126 111.977 L
1227.583 111.694 L
1229.402 111.418 L
1232.612 111.133 L
1234.538 110.789 L
1236.41 110.502 L
1238.496 110.259 L
1240.104 110.078 L
1242.619 109.912 L
1244.6 109.725 L
1246.954 109.53 L
1248.664 109.385 L
1250.86 109.243 L
1252.946 109.078 L
1255.196 108.848 L
1257.494 108.614 L
1259.474 108.408 L
1261.776 108.263 L
1263.7 108.141 L
1266.055 108.013 L
1269.055 107.901 L
1271.031 107.766 L
1273.013 107.713 L
1275.098 107.675 L
1277.078 107.642 L
1278.898 107.618 L
1281.256 107.598 L
1282.966 107.591 L
1285.374 107.585 L
1287.246 107.578 L
1289.492 107.569 L
S
GR
GS
[0.75 0 0 0.75 0 0.25] CT
0 0 1 RC
2 LJ
6.667 LW
N
1289.492 107.569 M
1291.633 107.594 L
1293.777 108.026 L
1296.29 108.779 L
1297.95 109.619 L
1300.356 110.475 L
1302.228 111.321 L
1304.476 112.22 L
1306.619 113.278 L
1308.651 114.331 L
1310.79 115.504 L
1313.041 116.787 L
1315.285 118.22 L
1317.211 119.783 L
1319.739 121.455 L
1321.977 123.299 L
1323.901 125.138 L
1325.723 126.996 L
1327.967 129.076 L
1330.269 131.28 L
1332.141 133.457 L
1334.605 135.849 L
1336.427 138.375 L
1338.777 141.078 L
1340.812 144.134 L
1343.058 147.202 L
1344.99 150.192 L
1347.126 153.389 L
1349.32 156.62 L
1351.406 159.859 L
1353.814 163.128 L
1355.795 166.434 L
1358.04 169.77 L
1359.97 173.156 L
1362.804 177.327 L
1364.837 180.348 L
1366.817 184.142 L
1368.8 187.43 L
1370.723 191.138 L
1373.293 195.046 L
1375.433 198.549 L
1378.642 202.117 L
1380.891 207.269 L
1382.977 210.401 L
1385.067 213.28 L
1386.994 216.222 L
1389.024 218.651 L
1391.057 221.323 L
1393.146 223.975 L
1395.016 226.614 L
S
GR
GS
[0.75 0 0 0.75 0 0.25] CT
0 0 1 RC
2 LJ
6.667 LW
N
1395.016 226.614 M
1397.157 229.237 L
1399.406 231.856 L
1401.547 234.882 L
1403.58 237.477 L
1406.094 240.436 L
1408.449 243.214 L
1410.641 246.327 L
1412.839 248.882 L
1415.405 251.42 L
1417.332 254.306 L
1419.471 256.541 L
1421.451 259.027 L
1423.537 261.41 L
1425.733 263.927 L
1427.818 266.586 L
1429.747 268.996 L
1431.351 270.895 L
1433.117 272.92 L
1435.151 275.192 L
1437.292 277.69 L
1439.378 280.172 L
1441.679 282.632 L
1443.765 285.034 L
1445.908 287.532 L
1448.528 289.882 L
1450.831 292.324 L
1452.81 295.089 L
1454.736 297.156 L
1456.448 298.995 L
1459.232 301.764 L
1461.102 303.853 L
1463.086 305.938 L
1465.386 308.259 L
1467.631 310.81 L
1469.772 313.022 L
1471.805 315.359 L
1473.947 317.587 L
1476.049 319.945 L
1478.281 322.421 L
1480.314 324.649 L
1482.456 326.963 L
1485.826 329.238 L
1488.125 332.789 L
1490.485 334.959 L
1492.516 337.289 L
1494.656 339.372 L
1496.795 341.419 L
1498.828 343.331 L
1501.075 345.206 L
S
GR
GS
[0.75 0 0 0.75 0 0.25] CT
0 0 1 RC
2 LJ
6.667 LW
N
1501.075 345.206 M
1503.166 347.262 L
1505.302 349.196 L
1507.336 351.018 L
1509.315 352.928 L
1511.885 354.843 L
1513.814 356.943 L
1516.009 358.661 L
1517.938 360.571 L
1520.073 362.389 L
1522.053 364.226 L
1524.246 366.052 L
1526.228 367.755 L
1528.53 369.506 L
1530.561 371.228 L
1532.702 372.933 L
1535.324 374.879 L
1537.412 376.557 L
1539.551 378.218 L
1541.479 379.79 L
1543.832 381.429 L
1545.812 383.142 L
1547.9 384.69 L
1550.039 386.236 L
1552.071 387.866 L
1554.269 389.412 L
1556.354 391.123 L
1558.494 392.66 L
1560.526 394.276 L
1562.562 395.805 L
1564.701 397.408 L
1566.951 399.082 L
1569.092 400.667 L
1571.337 402.251 L
1573.477 403.825 L
1575.51 405.419 L
1578.025 407.007 L
1580.057 408.765 L
1582.2 410.34 L
1584.178 411.81 L
1586.321 413.266 L
1588.353 414.769 L
1590.388 416.169 L
1593.71 417.598 L
1595.685 419.703 L
1603.872 420.97 L
1607.728 425.343 L
1612.862 427.094 L
1616.874 429.17 L
1622.549 430.68 L
S
GR
GS
[0.75 0 0 0.75 0 0.25] CT
0 0 1 RC
2 LJ
6.667 LW
N
1622.549 430.68 M
1629.717 433.109 L
1632.716 434.81 L
1634.696 435.733 L
1636.834 436.34 L
1638.813 436.978 L
1640.9 437.541 L
1643.096 438.164 L
1645.291 438.762 L
1647.323 439.357 L
1649.464 439.875 L
1651.549 440.41 L
1653.638 440.931 L
1655.724 441.419 L
1657.809 441.909 L
1659.738 442.309 L
1661.824 442.722 L
1664.716 443.285 L
1666.746 443.789 L
1668.725 444.248 L
1670.652 444.667 L
1673.168 445.089 L
1675.307 445.582 L
1679 446.039 L
S
GR
GS
[0.75 0 0 0.75 0 0.25] CT
1 0 0 RC
[24 24] 0 setdash
2 LJ
6.667 LW
N
241 426.25 M
242.606 426.25 L
244.529 426.25 L
246.723 426.25 L
248.916 426.25 L
251.056 426.25 L
253.09 426.25 L
255.496 426.25 L
257.374 426.25 L
259.565 426.25 L
261.758 426.25 L
263.844 426.25 L
266.039 426.25 L
268.128 426.25 L
270.267 426.25 L
272.354 426.25 L
274.549 426.25 L
276.634 426.25 L
278.774 426.25 L
280.861 426.25 L
283.162 426.25 L
285.303 426.25 L
287.282 426.25 L
289.531 426.25 L
291.671 426.25 L
293.812 426.25 L
296.755 426.25 L
298.092 426.25 L
300.179 426.25 L
302.372 426.25 L
304.46 426.25 L
306.599 426.25 L
308.847 426.25 L
310.882 426.25 L
313.023 426.25 L
315.11 426.25 L
317.357 426.25 L
319.55 426.25 L
321.637 426.25 L
323.777 426.25 L
325.918 426.25 L
328.112 426.25 L
330.144 426.25 L
332.34 426.25 L
334.533 426.25 L
336.621 426.25 L
338.813 426.25 L
341.061 426.25 L
342.987 426.25 L
345.128 426.25 L
347.482 426.25 L
349.356 426.25 L
351.823 426.25 L
353.691 426.25 L
355.777 426.25 L
357.865 426.25 L
360.111 426.25 L
362.305 426.25 L
364.392 426.25 L
366.585 426.25 L
368.726 426.25 L
371.669 426.25 L
373.007 426.25 L
375.094 426.25 L
377.343 426.25 L
379.376 426.25 L
381.515 426.25 L
383.762 426.25 L
385.85 426.25 L
388.044 426.25 L
390.13 426.25 L
392.325 426.25 L
394.465 426.25 L
396.553 426.25 L
398.639 426.25 L
400.835 426.25 L
404.152 426.25 L
405.756 426.25 L
407.308 426.25 L
409.449 426.25 L
413.301 426.25 L
414.852 426.25 L
416.244 426.25 L
417.904 426.25 L
420.152 426.25 L
422.238 426.25 L
424.325 426.25 L
426.411 426.25 L
428.659 426.25 L
430.692 426.25 L
432.833 426.25 L
435.079 426.25 L
437.221 426.699 L
439.363 427.327 L
441.449 427.908 L
443.643 428.51 L
445.729 429.07 L
447.922 429.634 L
450.062 430.246 L
452.203 430.988 L
454.398 431.678 L
456.699 432.28 L
458.732 432.963 L
460.714 433.674 L
462.961 434.431 L
465.047 435.143 L
467.187 435.827 L
469.329 436.435 L
471.416 437.127 L
473.402 437.887 L
475.643 438.745 L
477.89 439.773 L
480.137 440.863 L
482.276 442.14 L
484.205 443.697 L
486.398 445.46 L
488.378 447.275 L
490.678 449.497 L
492.766 452.116 L
494.96 455.192 L
497.1 458.75 L
499.402 463.402 L
501.435 469.212 L
503.575 476.758 L
505.936 486.489 L
507.856 497.976 L
509.996 511.979 L
512.939 533.709 L
514.276 549.402 L
516.417 567.728 L
518.557 585.052 L
520.697 601.463 L
522.945 618.139 L
524.978 632.519 L
527.014 644.024 L
529.314 653.117 L
531.347 659.261 L
533.333 662.273 L
535.628 662.909 L
537.608 662.909 L
539.908 662.93 L
542.317 662.935 L
544.404 662.938 L
546.33 662.94 L
548.577 662.942 L
550.664 662.943 L
552.644 662.944 L
554.838 662.945 L
557.085 662.946 L
559.227 662.946 L
561.367 662.946 L
563.507 662.947 L
565.647 662.947 L
567.84 662.947 L
569.93 662.947 L
572.015 662.948 L
574.211 662.948 L
576.351 662.948 L
578.49 662.948 L
580.577 662.948 L
582.825 662.948 L
584.912 662.948 L
587.104 662.948 L
589.138 662.948 L
591.333 662.948 L
593.473 662.948 L
595.613 662.949 L
597.755 662.949 L
599.895 662.949 L
602.088 662.949 L
604.122 662.949 L
606.209 662.949 L
608.188 662.949 L
610.595 662.949 L
612.791 662.949 L
614.878 662.949 L
617.072 662.949 L
620.443 662.949 L
622.048 662.949 L
623.385 662.949 L
625.58 662.949 L
627.667 662.949 L
629.86 662.949 L
632.162 662.949 L
634.197 662.949 L
636.391 662.949 L
638.315 662.949 L
640.562 662.949 L
642.649 662.949 L
644.843 662.949 L
646.93 662.949 L
649.125 662.949 L
651.211 662.949 L
653.407 662.949 L
655.599 662.949 L
657.687 662.949 L
659.88 662.949 L
661.966 662.949 L
664.108 662.949 L
666.194 662.949 L
668.388 662.949 L
670.528 662.949 L
672.669 662.949 L
674.865 662.949 L
676.951 662.949 L
679.359 662.949 L
681.232 662.949 L
683.372 662.949 L
685.512 662.949 L
687.599 662.949 L
689.846 662.949 L
691.879 662.949 L
694.127 662.949 L
696.215 662.949 L
698.408 662.949 L
700.442 662.949 L
702.636 662.949 L
704.722 662.949 L
706.917 662.949 L
709.005 662.949 L
711.09 662.949 L
713.391 662.949 L
715.745 662.949 L
717.62 662.949 L
719.598 662.949 L
721.901 662.949 L
723.988 662.949 L
726.127 662.949 L
729.445 662.949 L
730.729 662.949 L
732.655 662.949 L
734.688 662.949 L
736.936 662.949 L
739.022 662.949 L
741.111 662.949 L
743.305 662.949 L
745.445 662.949 L
747.638 662.949 L
749.725 662.949 L
751.919 662.949 L
753.953 662.949 L
756.2 662.949 L
758.501 662.949 L
760.429 662.949 L
762.622 662.949 L
764.71 662.949 L
766.903 662.949 L
768.991 662.949 L
771.291 662.949 L
773.27 662.949 L
775.411 662.949 L
777.498 662.949 L
779.691 662.949 L
781.887 662.949 L
783.973 662.949 L
786.114 662.949 L
788.255 662.949 L
790.608 662.949 L
792.482 662.949 L
794.675 662.949 L
796.815 662.949 L
798.956 662.949 L
801.418 662.949 L
803.236 662.949 L
805.379 662.949 L
807.518 662.949 L
809.658 662.949 L
811.744 662.949 L
814.1 662.949 L
816.133 662.949 L
818.059 662.949 L
820.359 662.949 L
822.501 662.949 L
824.694 662.949 L
826.729 662.949 L
828.923 662.949 L
830.956 662.949 L
833.204 662.949 L
836.735 662.949 L
838.179 662.949 L
839.464 662.949 L
841.765 662.949 L
844.28 662.949 L
846.045 662.949 L
848.187 662.949 L
850.38 662.949 L
852.467 662.949 L
854.607 662.949 L
856.747 662.949 L
858.727 662.949 L
860.921 662.949 L
863.115 662.949 L
865.256 662.949 L
867.663 662.949 L
869.645 662.949 L
871.732 662.949 L
873.82 662.949 L
875.906 662.949 L
878.099 662.949 L
880.346 662.952 L
882.433 662.952 L
884.628 662.952 L
887.036 662.952 L
888.908 662.952 L
891.049 662.952 L
893.19 662.952 L
895.276 662.952 L
897.417 662.952 L
899.718 662.952 L
901.697 662.952 L
903.838 662.952 L
905.979 662.952 L
908.118 662.952 L
910.258 662.952 L
912.238 662.952 L
914.487 662.952 L
916.681 662.952 L
918.821 660.351 L
920.962 653.507 L
923.101 646.081 L
925.242 637.268 L
927.436 629.045 L
929.523 621.448 L
931.662 612.101 L
933.804 604.112 L
935.997 594.283 L
938.139 583.33 L
940.224 571.763 L
942.529 561.513 L
945.738 552.241 L
947.075 541.821 L
948.787 531.912 L
950.821 521.736 L
953.068 512.445 L
955.154 502.135 L
957.295 491.911 L
959.49 482.797 L
961.577 473.011 L
963.771 462.498 L
965.858 451.799 L
968.051 443.148 L
970.192 432.865 L
972.279 420.31 L
974.472 409.514 L
976.613 400.373 L
978.807 397.45 L
980.84 379.096 L
983.033 361.955 L
985.228 356.34 L
987.528 348.71 L
989.455 338.245 L
991.541 327.048 L
993.683 314.685 L
995.984 302.106 L
998.017 290.997 L
1000.157 285.159 L
1002.352 277.199 L
1004.439 266.888 L
1006.578 256.241 L
1008.667 245.154 L
1010.806 235.474 L
1013.161 225.719 L
1014.979 214.739 L
1017.334 204.55 L
1019.422 196.048 L
1021.776 188.185 L
1023.702 179.734 L
1025.897 171.259 L
1028.205 163.017 L
1030.177 154.324 L
1032.264 147.261 L
1034.243 140.535 L
1036.383 133.795 L
1038.579 126.829 L
1040.826 120.721 L
1042.859 114.827 L
1045.108 109.239 L
1047.194 104.042 L
1049.335 99.084 L
1053.723 94.463 L
1055.328 91.714 L
1056.987 91.714 L
1058.379 87.583 L
1060.573 87.583 L
1062.07 87.583 L
1064.532 87.583 L
1066.512 87.583 L
1068.705 87.583 L
1070.899 87.583 L
1072.986 87.583 L
1075.019 87.583 L
1077.16 87.583 L
1079.3 87.583 L
1081.654 87.583 L
1083.688 87.583 L
1085.776 87.583 L
1087.969 87.583 L
1090.055 87.583 L
1092.196 87.583 L
1094.283 87.583 L
1096.477 87.583 L
1098.671 87.583 L
1100.758 87.583 L
1103.218 87.583 L
1105.095 87.583 L
1107.234 87.583 L
1109.321 87.583 L
1111.461 87.583 L
1113.709 87.583 L
1115.796 87.583 L
1118.042 87.583 L
1120.076 87.583 L
1122.165 87.583 L
1124.894 87.583 L
1127.195 87.583 L
1128.965 87.583 L
1131.155 87.583 L
1133.081 87.583 L
1135.546 87.583 L
1137.417 87.583 L
1139.515 87.583 L
1142.179 87.583 L
1144.104 87.583 L
1146.727 87.583 L
1148.71 87.583 L
1150.795 87.583 L
1152.344 87.583 L
1154.924 87.583 L
1156.841 87.583 L
1158.873 87.583 L
1162.409 87.583 L
1164.33 87.583 L
1165.991 87.583 L
1167.915 87.583 L
1170.004 87.583 L
1171.61 87.583 L
1173.909 87.583 L
1175.948 87.583 L
1178.191 87.583 L
1180.653 87.583 L
1182.473 87.583 L
1184.987 87.583 L
1186.859 87.583 L
1189.431 87.583 L
1191.248 87.583 L
1193.388 87.583 L
1195.261 87.583 L
1197.562 87.583 L
1199.97 87.583 L
1201.899 87.583 L
1204.2 87.583 L
1205.909 87.583 L
1208.158 87.583 L
1210.19 87.583 L
1212.438 87.583 L
1214.477 87.583 L
1216.721 87.583 L
1219.021 87.583 L
1220.839 87.583 L
1223.193 87.583 L
1225.126 87.583 L
1227.583 87.583 L
1229.402 87.583 L
1232.612 87.583 L
1234.538 87.583 L
1236.41 87.583 L
1238.496 87.583 L
1240.104 87.583 L
1242.619 87.583 L
1244.6 87.583 L
1246.954 87.583 L
1248.664 87.583 L
1250.86 87.583 L
1252.946 87.583 L
1255.196 87.583 L
1257.494 87.583 L
1259.474 87.583 L
1261.776 87.583 L
1263.7 87.583 L
1266.055 87.583 L
1269.055 87.583 L
1271.031 87.583 L
1273.013 87.583 L
1275.098 87.583 L
1277.078 87.583 L
1278.898 87.583 L
1281.256 87.583 L
1282.966 87.583 L
1285.374 87.583 L
1287.246 87.583 L
1289.492 89.061 L
1291.633 90.404 L
1293.777 91.492 L
1296.29 92.573 L
1297.95 93.777 L
1300.356 94.846 L
1302.228 96.462 L
1304.476 98.078 L
1306.619 99.925 L
1308.651 101.918 L
1310.79 103.907 L
1313.041 106.043 L
1315.285 108.823 L
1317.211 111.299 L
1319.739 114.034 L
1321.977 116.683 L
1323.901 119.486 L
1325.723 121.622 L
1327.967 123.418 L
1330.269 126.435 L
1332.141 129.732 L
1334.605 133.684 L
1336.427 136.83 L
1338.777 140.363 L
1340.812 143.553 L
1343.058 147.128 L
1344.99 150.976 L
1347.126 154.949 L
1349.32 158.953 L
1351.406 163.046 L
1353.814 167.232 L
1355.795 171.169 L
1358.04 175.081 L
1359.97 178.864 L
1362.804 182.874 L
1364.837 186.762 L
1366.817 190.786 L
1368.8 194.949 L
1370.723 197.559 L
1373.293 200.206 L
1375.433 206.278 L
1378.642 209.426 L
1380.891 215.178 L
1382.977 219.296 L
1385.067 223.473 L
1386.994 223.473 L
1389.024 230.394 L
1391.057 234.494 L
1393.146 238.919 L
1395.016 247.819 L
1397.157 253.598 L
1399.406 258.621 L
1401.547 263.675 L
1403.58 268.375 L
1406.094 270.945 L
1408.449 275.324 L
1410.641 278.686 L
1412.839 281.63 L
1415.405 285.206 L
1417.332 290.765 L
1419.471 294.862 L
1421.451 299.058 L
1423.537 303.564 L
1425.733 303.564 L
1427.818 311.914 L
1429.747 317.447 L
1431.351 317.447 L
1433.117 323.045 L
1435.151 323.045 L
1437.292 329.582 L
1439.378 329.582 L
1441.679 334.827 L
1443.765 334.827 L
1445.908 339.886 L
1448.528 339.886 L
1450.831 342.854 L
1452.81 345.798 L
1454.736 349.522 L
1456.448 349.522 L
1459.232 349.522 L
1461.102 354.851 L
1463.086 354.851 L
1465.386 364.351 L
1467.631 369.452 L
1469.772 377.41 L
1471.805 382.126 L
1473.947 386.713 L
1476.049 391.243 L
1478.281 395.537 L
1480.314 399.374 L
1482.456 402.818 L
1485.826 406.007 L
1488.125 410.545 L
1490.485 413.328 L
1492.516 415.76 L
1494.656 418.119 L
1496.795 420.648 L
1498.828 423.316 L
1501.075 425.834 L
1503.166 428.793 L
1505.302 431.99 L
1507.336 435.296 L
1509.315 438.957 L
1511.885 442.587 L
1513.814 446.143 L
1516.009 449.797 L
1517.938 452.846 L
1520.073 455.817 L
1522.053 458.465 L
1524.246 460.817 L
1526.228 462.867 L
1528.53 464.476 L
1530.561 466.17 L
1532.702 466.17 L
1535.324 468.447 L
1537.412 471.636 L
1539.551 473.778 L
1541.479 476.137 L
1543.832 485.828 L
1545.812 488.406 L
1547.9 490.839 L
1550.039 492.932 L
1552.071 495.034 L
1554.269 495.034 L
1556.354 499.03 L
1558.494 500.687 L
1560.526 502.496 L
1562.562 502.496 L
1564.701 505.146 L
1566.951 507.158 L
1569.092 509.142 L
1571.337 511.273 L
1573.477 514.572 L
1575.51 516.402 L
1578.025 516.402 L
1580.057 520.01 L
1582.2 521.575 L
1584.178 522.943 L
1586.321 524.272 L
1588.353 525.86 L
1590.388 525.86 L
1593.71 529.169 L
1595.685 529.969 L
1603.872 530.433 L
1607.728 535.907 L
1612.862 540.035 L
1616.874 541.604 L
1622.549 543.117 L
1629.717 547.496 L
1632.716 553.56 L
1634.696 554.721 L
1636.834 555.635 L
1638.813 556.435 L
1640.9 557.12 L
1643.096 557.738 L
1645.291 558.464 L
1647.323 559.187 L
1649.464 559.582 L
1651.549 560.212 L
1653.638 560.953 L
1655.724 561.908 L
1657.809 562.728 L
1659.738 563.561 L
1661.824 563.561 L
1664.716 564.638 L
1666.746 563.122 L
1668.725 563.834 L
1670.652 564.816 L
1673.168 565.906 L
1675.307 567.082 L
1679 446.039 L
S
GR
GS
[0.75 0 0 0.75 378.5625 664.12502] CT
/Helvetica 48 F
GS
[1 0 0 1 0 0] CT
0 16.5 moveto 
1 -1 scale
(Actual) t 
GR
GR
GS
[0.75 0 0 0.75 0 0.25] CT
0 0 1 RC
2 setlinecap
10.0 ML
6.667 LW
N
460.962 885.167 M
500.769 885.167 L
S
GR
GS
[0.75 0 0 0.75 922.5 664.12502] CT
/Helvetica 48 F
GS
[1 0 0 1 0 0] CT
0 16.5 moveto 
1 -1 scale
(Desired) t 
GR
GR
GS
[0.75 0 0 0.75 0 0.25] CT
1 0 0 RC
[24 24] 0 setdash
2 LJ
6.667 LW
N
1186 885.167 M
1226 885.167 L
S
GR
%%Trailer
%%Pages: 1
%%EOF
