%!PS-Adobe-3.0 EPSF-3.0
%%Creator: (MATLAB, The Mathworks, Inc. Version 8.5.0.197613 \(R2015a\). Operating System: Linux)
%%Title: (/home/victor/ampro/AMPRO II/Upslope Walking/humandata/Ankle.eps)
%%CreationDate: 2016-02-18T23:07:08
%%Pages: (atend)
%%BoundingBox: 0 0 1391 703
%%LanguageLevel: 2
%%EndComments
%%BeginProlog
%%BeginResource: procset (Apache XML Graphics Std ProcSet) 1.2 0
%%Version: 1.2 0
%%Copyright: (Copyright 2001-2003,2010 The Apache Software Foundation. License terms: http://www.apache.org/licenses/LICENSE-2.0)
/bd{bind def}bind def
/ld{load def}bd
/GR/grestore ld
/M/moveto ld
/LJ/setlinejoin ld
/C/curveto ld
/f/fill ld
/LW/setlinewidth ld
/GC/setgray ld
/t/show ld
/N/newpath ld
/CT/concat ld
/cp/closepath ld
/S/stroke ld
/L/lineto ld
/CC/setcmykcolor ld
/A/ashow ld
/GS/gsave ld
/RC/setrgbcolor ld
/RM/rmoveto ld
/ML/setmiterlimit ld
/re {4 2 roll M
1 index 0 rlineto
0 exch rlineto
neg 0 rlineto
cp } bd
/_ctm matrix def
/_tm matrix def
/BT { _ctm currentmatrix pop matrix _tm copy pop 0 0 moveto } bd
/ET { _ctm setmatrix } bd
/iTm { _ctm setmatrix _tm concat } bd
/Tm { _tm astore pop iTm 0 0 moveto } bd
/ux 0.0 def
/uy 0.0 def
/F {
  /Tp exch def
  /Tf exch def
  Tf findfont Tp scalefont setfont
  /cf Tf def  /cs Tp def
} bd
/ULS {currentpoint /uy exch def /ux exch def} bd
/ULE {
  /Tcx currentpoint pop def
  gsave
  newpath
  cf findfont cs scalefont dup
  /FontMatrix get 0 get /Ts exch def /FontInfo get dup
  /UnderlinePosition get Ts mul /To exch def
  /UnderlineThickness get Ts mul /Tt exch def
  ux uy To add moveto  Tcx uy To add lineto
  Tt setlinewidth stroke
  grestore
} bd
/OLE {
  /Tcx currentpoint pop def
  gsave
  newpath
  cf findfont cs scalefont dup
  /FontMatrix get 0 get /Ts exch def /FontInfo get dup
  /UnderlinePosition get Ts mul /To exch def
  /UnderlineThickness get Ts mul /Tt exch def
  ux uy To add cs add moveto Tcx uy To add cs add lineto
  Tt setlinewidth stroke
  grestore
} bd
/SOE {
  /Tcx currentpoint pop def
  gsave
  newpath
  cf findfont cs scalefont dup
  /FontMatrix get 0 get /Ts exch def /FontInfo get dup
  /UnderlinePosition get Ts mul /To exch def
  /UnderlineThickness get Ts mul /Tt exch def
  ux uy To add cs 10 mul 26 idiv add moveto Tcx uy To add cs 10 mul 26 idiv add lineto
  Tt setlinewidth stroke
  grestore
} bd
/QT {
/Y22 exch store
/X22 exch store
/Y21 exch store
/X21 exch store
currentpoint
/Y21 load 2 mul add 3 div exch
/X21 load 2 mul add 3 div exch
/X21 load 2 mul /X22 load add 3 div
/Y21 load 2 mul /Y22 load add 3 div
/X22 load /Y22 load curveto
} bd
/SSPD {
dup length /d exch dict def
{
/v exch def
/k exch def
currentpagedevice k known {
/cpdv currentpagedevice k get def
v cpdv ne {
/upd false def
/nullv v type /nulltype eq def
/nullcpdv cpdv type /nulltype eq def
nullv nullcpdv or
{
/upd true def
} {
/sametype v type cpdv type eq def
sametype {
v type /arraytype eq {
/vlen v length def
/cpdvlen cpdv length def
vlen cpdvlen eq {
0 1 vlen 1 sub {
/i exch def
/obj v i get def
/cpdobj cpdv i get def
obj cpdobj ne {
/upd true def
exit
} if
} for
} {
/upd true def
} ifelse
} {
v type /dicttype eq {
v {
/dv exch def
/dk exch def
/cpddv cpdv dk get def
dv cpddv ne {
/upd true def
exit
} if
} forall
} {
/upd true def
} ifelse
} ifelse
} if
} ifelse
upd true eq {
d k v put
} if
} if
} if
} forall
d length 0 gt {
d setpagedevice
} if
} bd
%%EndResource
%%BeginResource: procset (Apache XML Graphics EPS ProcSet) 1.0 0
%%Version: 1.0 0
%%Copyright: (Copyright 2002-2003 The Apache Software Foundation. License terms: http://www.apache.org/licenses/LICENSE-2.0)
/BeginEPSF { %def
/b4_Inc_state save def         % Save state for cleanup
/dict_count countdictstack def % Count objects on dict stack
/op_count count 1 sub def      % Count objects on operand stack
userdict begin                 % Push userdict on dict stack
/showpage { } def              % Redefine showpage, { } = null proc
0 setgray 0 setlinecap         % Prepare graphics state
1 setlinewidth 0 setlinejoin
10 setmiterlimit [ ] 0 setdash newpath
/languagelevel where           % If level not equal to 1 then
{pop languagelevel             % set strokeadjust and
1 ne                           % overprint to their defaults.
{false setstrokeadjust false setoverprint
} if
} if
} bd
/EndEPSF { %def
count op_count sub {pop} repeat            % Clean up stacks
countdictstack dict_count sub {end} repeat
b4_Inc_state restore
} bd
%%EndResource
%FOPBeginFontDict
%%IncludeResource: font Courier-Bold
%%IncludeResource: font Helvetica
%%IncludeResource: font Courier-BoldOblique
%%IncludeResource: font Courier-Oblique
%%IncludeResource: font Times-Roman
%%IncludeResource: font Helvetica-BoldOblique
%%IncludeResource: font Helvetica-Bold
%%IncludeResource: font Helvetica-Oblique
%%IncludeResource: font Times-BoldItalic
%%IncludeResource: font Courier
%%IncludeResource: font Times-Italic
%%IncludeResource: font Times-Bold
%%IncludeResource: font Symbol
%%IncludeResource: font ZapfDingbats
%FOPEndFontDict
%%BeginResource: encoding WinAnsiEncoding
/WinAnsiEncoding [
/.notdef /.notdef /.notdef /.notdef /.notdef
/.notdef /.notdef /.notdef /.notdef /.notdef
/.notdef /.notdef /.notdef /.notdef /.notdef
/.notdef /.notdef /.notdef /.notdef /.notdef
/.notdef /.notdef /.notdef /.notdef /.notdef
/.notdef /.notdef /.notdef /.notdef /.notdef
/.notdef /.notdef /space /exclam /quotedbl
/numbersign /dollar /percent /ampersand /quotesingle
/parenleft /parenright /asterisk /plus /comma
/hyphen /period /slash /zero /one
/two /three /four /five /six
/seven /eight /nine /colon /semicolon
/less /equal /greater /question /at
/A /B /C /D /E
/F /G /H /I /J
/K /L /M /N /O
/P /Q /R /S /T
/U /V /W /X /Y
/Z /bracketleft /backslash /bracketright /asciicircum
/underscore /quoteleft /a /b /c
/d /e /f /g /h
/i /j /k /l /m
/n /o /p /q /r
/s /t /u /v /w
/x /y /z /braceleft /bar
/braceright /asciitilde /bullet /Euro /bullet
/quotesinglbase /florin /quotedblbase /ellipsis /dagger
/daggerdbl /circumflex /perthousand /Scaron /guilsinglleft
/OE /bullet /Zcaron /bullet /bullet
/quoteleft /quoteright /quotedblleft /quotedblright /bullet
/endash /emdash /asciitilde /trademark /scaron
/guilsinglright /oe /bullet /zcaron /Ydieresis
/space /exclamdown /cent /sterling /currency
/yen /brokenbar /section /dieresis /copyright
/ordfeminine /guillemotleft /logicalnot /sfthyphen /registered
/macron /degree /plusminus /twosuperior /threesuperior
/acute /mu /paragraph /middot /cedilla
/onesuperior /ordmasculine /guillemotright /onequarter /onehalf
/threequarters /questiondown /Agrave /Aacute /Acircumflex
/Atilde /Adieresis /Aring /AE /Ccedilla
/Egrave /Eacute /Ecircumflex /Edieresis /Igrave
/Iacute /Icircumflex /Idieresis /Eth /Ntilde
/Ograve /Oacute /Ocircumflex /Otilde /Odieresis
/multiply /Oslash /Ugrave /Uacute /Ucircumflex
/Udieresis /Yacute /Thorn /germandbls /agrave
/aacute /acircumflex /atilde /adieresis /aring
/ae /ccedilla /egrave /eacute /ecircumflex
/edieresis /igrave /iacute /icircumflex /idieresis
/eth /ntilde /ograve /oacute /ocircumflex
/otilde /odieresis /divide /oslash /ugrave
/uacute /ucircumflex /udieresis /yacute /thorn
/ydieresis
] def
%%EndResource
%FOPBeginFontReencode
/Courier-Bold findfont
dup length dict begin
  {1 index /FID ne {def} {pop pop} ifelse} forall
  /Encoding WinAnsiEncoding def
  currentdict
end
/Courier-Bold exch definefont pop
/Helvetica findfont
dup length dict begin
  {1 index /FID ne {def} {pop pop} ifelse} forall
  /Encoding WinAnsiEncoding def
  currentdict
end
/Helvetica exch definefont pop
/Courier-BoldOblique findfont
dup length dict begin
  {1 index /FID ne {def} {pop pop} ifelse} forall
  /Encoding WinAnsiEncoding def
  currentdict
end
/Courier-BoldOblique exch definefont pop
/Courier-Oblique findfont
dup length dict begin
  {1 index /FID ne {def} {pop pop} ifelse} forall
  /Encoding WinAnsiEncoding def
  currentdict
end
/Courier-Oblique exch definefont pop
/Times-Roman findfont
dup length dict begin
  {1 index /FID ne {def} {pop pop} ifelse} forall
  /Encoding WinAnsiEncoding def
  currentdict
end
/Times-Roman exch definefont pop
/Helvetica-BoldOblique findfont
dup length dict begin
  {1 index /FID ne {def} {pop pop} ifelse} forall
  /Encoding WinAnsiEncoding def
  currentdict
end
/Helvetica-BoldOblique exch definefont pop
/Helvetica-Bold findfont
dup length dict begin
  {1 index /FID ne {def} {pop pop} ifelse} forall
  /Encoding WinAnsiEncoding def
  currentdict
end
/Helvetica-Bold exch definefont pop
/Helvetica-Oblique findfont
dup length dict begin
  {1 index /FID ne {def} {pop pop} ifelse} forall
  /Encoding WinAnsiEncoding def
  currentdict
end
/Helvetica-Oblique exch definefont pop
/Times-BoldItalic findfont
dup length dict begin
  {1 index /FID ne {def} {pop pop} ifelse} forall
  /Encoding WinAnsiEncoding def
  currentdict
end
/Times-BoldItalic exch definefont pop
/Courier findfont
dup length dict begin
  {1 index /FID ne {def} {pop pop} ifelse} forall
  /Encoding WinAnsiEncoding def
  currentdict
end
/Courier exch definefont pop
/Times-Italic findfont
dup length dict begin
  {1 index /FID ne {def} {pop pop} ifelse} forall
  /Encoding WinAnsiEncoding def
  currentdict
end
/Times-Italic exch definefont pop
/Times-Bold findfont
dup length dict begin
  {1 index /FID ne {def} {pop pop} ifelse} forall
  /Encoding WinAnsiEncoding def
  currentdict
end
/Times-Bold exch definefont pop
%FOPEndFontReencode
%%EndProlog
%%Page: 1 1
%%PageBoundingBox: 0 0 1391 703
%%BeginPageSetup
[1 0 0 -1 0 703] CT
%%EndPageSetup
GS
[0.75 0 0 0.75 0 0.25] CT
N
0 0 M
1855 0 L
1855 937 L
0 937 L
0 0 L
cp
clip
1 GC
N
0 0 1855 937 re
f
GR
GS
[0.75 0 0 0.75 0 0.25] CT
1 GC
N
0 0 1855 937 re
f
GR
GS
[0.75 0 0 0.75 0 0.25] CT
1 GC
N
241 675 M
1679 675 L
1679 28 L
241 28 L
cp
f
GR
GS
[0.75 0 0 0.75 0 0.25] CT
0.873 GC
2 setlinecap
10.0 ML
N
498.949 675 M
498.949 28 L
S
GR
GS
[0.75 0 0 0.75 0 0.25] CT
0.873 GC
2 setlinecap
10.0 ML
N
792.089 675 M
792.089 28 L
S
GR
GS
[0.75 0 0 0.75 0 0.25] CT
0.873 GC
2 setlinecap
10.0 ML
N
1085.228 675 M
1085.228 28 L
S
GR
GS
[0.75 0 0 0.75 0 0.25] CT
0.873 GC
2 setlinecap
10.0 ML
N
1378.368 675 M
1378.368 28 L
S
GR
GS
[0.75 0 0 0.75 0 0.25] CT
0.873 GC
2 setlinecap
10.0 ML
N
1671.508 675 M
1671.508 28 L
S
GR
GS
[0.75 0 0 0.75 0 0.25] CT
0.873 GC
2 setlinecap
10.0 ML
N
1679 673.999 M
241 673.999 L
S
GR
GS
[0.75 0 0 0.75 0 0.25] CT
0.873 GC
2 setlinecap
10.0 ML
N
1679 566.166 M
241 566.166 L
S
GR
GS
[0.75 0 0 0.75 0 0.25] CT
0.873 GC
2 setlinecap
10.0 ML
N
1679 458.333 M
241 458.333 L
S
GR
GS
[0.75 0 0 0.75 0 0.25] CT
0.873 GC
2 setlinecap
10.0 ML
N
1679 350.499 M
241 350.499 L
S
GR
GS
[0.75 0 0 0.75 0 0.25] CT
0.873 GC
2 setlinecap
10.0 ML
N
1679 242.666 M
241 242.666 L
S
GR
GS
[0.75 0 0 0.75 0 0.25] CT
0.873 GC
2 setlinecap
10.0 ML
N
1679 134.833 M
241 134.833 L
S
GR
GS
[0.75 0 0 0.75 720.0005 564.75002] CT
0.149 GC
/Helvetica 59 F
GS
[1 0 0 1 0 0] CT
-311 55 moveto 
1 -1 scale
(Step progression \(%\)) t 
GR
GR
GS
[0.75 0 0 0.75 0 0.25] CT
0.149 GC
2 setlinecap
10.0 ML
N
241 675 M
1679 675 L
S
GR
GS
[0.75 0 0 0.75 0 0.25] CT
0.149 GC
2 setlinecap
10.0 ML
N
241 28 M
1679 28 L
S
GR
GS
[0.75 0 0 0.75 0 0.25] CT
0.149 GC
2 setlinecap
10.0 ML
N
498.949 675 M
498.949 660.62 L
S
GR
GS
[0.75 0 0 0.75 0 0.25] CT
0.149 GC
2 setlinecap
10.0 ML
N
792.089 675 M
792.089 660.62 L
S
GR
GS
[0.75 0 0 0.75 0 0.25] CT
0.149 GC
2 setlinecap
10.0 ML
N
1085.228 675 M
1085.228 660.62 L
S
GR
GS
[0.75 0 0 0.75 0 0.25] CT
0.149 GC
2 setlinecap
10.0 ML
N
1378.368 675 M
1378.368 660.62 L
S
GR
GS
[0.75 0 0 0.75 0 0.25] CT
0.149 GC
2 setlinecap
10.0 ML
N
1671.508 675 M
1671.508 660.62 L
S
GR
GS
[0.75 0 0 0.75 0 0.25] CT
0.149 GC
2 setlinecap
10.0 ML
N
498.949 28 M
498.949 42.38 L
S
GR
GS
[0.75 0 0 0.75 0 0.25] CT
0.149 GC
2 setlinecap
10.0 ML
N
792.089 28 M
792.089 42.38 L
S
GR
GS
[0.75 0 0 0.75 0 0.25] CT
0.149 GC
2 setlinecap
10.0 ML
N
1085.228 28 M
1085.228 42.38 L
S
GR
GS
[0.75 0 0 0.75 0 0.25] CT
0.149 GC
2 setlinecap
10.0 ML
N
1378.368 28 M
1378.368 42.38 L
S
GR
GS
[0.75 0 0 0.75 0 0.25] CT
0.149 GC
2 setlinecap
10.0 ML
N
1671.508 28 M
1671.508 42.38 L
S
GR
GS
[0.75 0 0 0.75 374.21171 516.49998] CT
0.149 GC
/Helvetica 53 F
GS
[1 0 0 1 0 0] CT
-34 50 moveto 
1 -1 scale
(20) t 
GR
GR
GS
[0.75 0 0 0.75 594.06642 516.49998] CT
0.149 GC
/Helvetica 53 F
GS
[1 0 0 1 0 0] CT
-34 50 moveto 
1 -1 scale
(40) t 
GR
GR
GS
[0.75 0 0 0.75 813.9212 516.49998] CT
0.149 GC
/Helvetica 53 F
GS
[1 0 0 1 0 0] CT
-34 50 moveto 
1 -1 scale
(60) t 
GR
GR
GS
[0.75 0 0 0.75 1033.77594 516.49998] CT
0.149 GC
/Helvetica 53 F
GS
[1 0 0 1 0 0] CT
-34 50 moveto 
1 -1 scale
(80) t 
GR
GR
GS
[0.75 0 0 0.75 1253.63068 516.49998] CT
0.149 GC
/Helvetica 53 F
GS
[1 0 0 1 0 0] CT
-51 50 moveto 
1 -1 scale
(100) t 
GR
GR
GS
[0 -0.75 0.75 0 89.75 263.87477] CT
0.149 GC
/Helvetica 59 F
GS
[1 0 0 1 0 0] CT
-165.5 -14 moveto 
1 -1 scale
(Angle \(rad\)) t 
GR
GR
GS
[0.75 0 0 0.75 0 0.25] CT
0.149 GC
2 setlinecap
10.0 ML
N
241 675 M
241 28 L
S
GR
GS
[0.75 0 0 0.75 0 0.25] CT
0.149 GC
2 setlinecap
10.0 ML
N
1679 675 M
1679 28 L
S
GR
GS
[0.75 0 0 0.75 0 0.25] CT
0.149 GC
2 setlinecap
10.0 ML
N
241 673.999 M
255.38 673.999 L
S
GR
GS
[0.75 0 0 0.75 0 0.25] CT
0.149 GC
2 setlinecap
10.0 ML
N
241 566.166 M
255.38 566.166 L
S
GR
GS
[0.75 0 0 0.75 0 0.25] CT
0.149 GC
2 setlinecap
10.0 ML
N
241 458.333 M
255.38 458.333 L
S
GR
GS
[0.75 0 0 0.75 0 0.25] CT
0.149 GC
2 setlinecap
10.0 ML
N
241 350.499 M
255.38 350.499 L
S
GR
GS
[0.75 0 0 0.75 0 0.25] CT
0.149 GC
2 setlinecap
10.0 ML
N
241 242.666 M
255.38 242.666 L
S
GR
GS
[0.75 0 0 0.75 0 0.25] CT
0.149 GC
2 setlinecap
10.0 ML
N
241 134.833 M
255.38 134.833 L
S
GR
GS
[0.75 0 0 0.75 0 0.25] CT
0.149 GC
2 setlinecap
10.0 ML
N
1679 673.999 M
1664.62 673.999 L
S
GR
GS
[0.75 0 0 0.75 0 0.25] CT
0.149 GC
2 setlinecap
10.0 ML
N
1679 566.166 M
1664.62 566.166 L
S
GR
GS
[0.75 0 0 0.75 0 0.25] CT
0.149 GC
2 setlinecap
10.0 ML
N
1679 458.333 M
1664.62 458.333 L
S
GR
GS
[0.75 0 0 0.75 0 0.25] CT
0.149 GC
2 setlinecap
10.0 ML
N
1679 350.499 M
1664.62 350.499 L
S
GR
GS
[0.75 0 0 0.75 0 0.25] CT
0.149 GC
2 setlinecap
10.0 ML
N
1679 242.666 M
1664.62 242.666 L
S
GR
GS
[0.75 0 0 0.75 0 0.25] CT
0.149 GC
2 setlinecap
10.0 ML
N
1679 134.833 M
1664.62 134.833 L
S
GR
GS
[0.75 0 0 0.75 170.75 505.74945] CT
0.149 GC
/Helvetica 53 F
GS
[1 0 0 1 0 0] CT
-104 18.5 moveto 
1 -1 scale
(-0.8) t 
GR
GR
GS
[0.75 0 0 0.75 170.75 424.87447] CT
0.149 GC
/Helvetica 53 F
GS
[1 0 0 1 0 0] CT
-104 18.5 moveto 
1 -1 scale
(-0.6) t 
GR
GR
GS
[0.75 0 0 0.75 170.75 343.99946] CT
0.149 GC
/Helvetica 53 F
GS
[1 0 0 1 0 0] CT
-104 18.5 moveto 
1 -1 scale
(-0.4) t 
GR
GR
GS
[0.75 0 0 0.75 170.75 263.12445] CT
0.149 GC
/Helvetica 53 F
GS
[1 0 0 1 0 0] CT
-104 18.5 moveto 
1 -1 scale
(-0.2) t 
GR
GR
GS
[0.75 0 0 0.75 170.75 182.24945] CT
0.149 GC
/Helvetica 53 F
GS
[1 0 0 1 0 0] CT
-34 18.5 moveto 
1 -1 scale
(0) t 
GR
GR
GS
[0.75 0 0 0.75 170.75 101.37446] CT
0.149 GC
/Helvetica 53 F
GS
[1 0 0 1 0 0] CT
-85 18.5 moveto 
1 -1 scale
(0.2) t 
GR
GR
GS
[0.75 0 0 0.75 0 0.25] CT
0 0.447 0.741 RC
2 LJ
6.667 LW
N
240.856 376.834 M
242.267 377.283 L
248.743 379.14 L
255.829 380.91 L
263.469 382.515 L
271.581 383.883 L
280.077 384.936 L
288.886 385.619 L
297.911 385.867 L
307.092 385.648 L
316.358 384.951 L
325.609 383.755 L
334.821 382.062 L
343.975 379.902 L
353.058 377.296 L
362.06 374.29 L
371.013 370.933 L
379.918 367.292 L
388.84 363.412 L
397.793 359.34 L
406.829 355.145 L
415.962 350.86 L
425.215 346.533 L
434.574 342.218 L
444.069 337.95 L
453.685 333.74 L
463.432 329.627 L
473.288 325.614 L
483.256 321.729 L
493.347 317.979 L
503.564 314.366 L
513.907 310.893 L
524.369 307.554 L
534.949 304.361 L
545.634 301.306 L
556.418 298.366 L
567.318 295.534 L
578.285 292.812 L
589.273 290.184 L
600.252 287.636 L
611.212 285.17 L
622.103 282.757 L
632.937 280.39 L
643.671 278.061 L
654.318 275.763 L
664.857 273.479 L
675.311 271.214 L
685.695 268.96 L
696.001 266.712 L
706.264 264.451 L
S
GR
GS
[0.75 0 0 0.75 0 0.25] CT
0 0.447 0.741 RC
2 LJ
6.667 LW
N
706.264 264.451 M
716.494 262.179 L
726.706 259.9 L
736.971 257.629 L
747.267 255.366 L
757.619 253.12 L
768.072 250.909 L
778.66 248.776 L
789.399 246.733 L
800.291 244.826 L
811.357 243.104 L
822.586 241.62 L
833.943 240.436 L
845.391 239.599 L
856.87 239.153 L
868.301 239.158 L
879.584 239.625 L
890.621 240.611 L
901.307 242.114 L
911.573 244.15 L
921.329 246.709 L
930.533 249.777 L
939.15 253.331 L
947.181 257.346 L
954.651 261.782 L
961.599 266.628 L
968.095 271.875 L
974.209 277.492 L
979.988 283.446 L
985.56 289.737 L
990.967 296.36 L
996.266 303.325 L
1001.493 310.589 L
1006.664 318.143 L
1011.818 325.955 L
1016.937 333.995 L
1022.023 342.219 L
1027.057 350.585 L
1032.014 359.041 L
1036.89 367.545 L
1041.67 376.051 L
1046.334 384.538 L
1050.893 392.957 L
1055.35 401.302 L
1059.721 409.566 L
1064.022 417.731 L
1068.287 425.823 L
1072.562 433.86 L
1076.884 441.816 L
1081.281 449.69 L
S
GR
GS
[0.75 0 0 0.75 0 0.25] CT
0 0.447 0.741 RC
2 LJ
6.667 LW
N
1081.281 449.69 M
1085.807 457.476 L
1090.522 465.139 L
1095.465 472.611 L
1100.674 479.863 L
1106.156 486.83 L
1111.976 493.421 L
1118.129 499.518 L
1124.617 505.028 L
1131.427 509.868 L
1138.516 513.953 L
1145.849 517.216 L
1153.391 519.593 L
1161.072 521.059 L
1168.823 521.615 L
1176.592 521.265 L
1184.298 520.052 L
1191.894 518.032 L
1199.335 515.28 L
1206.582 511.875 L
1213.613 507.906 L
1220.434 503.475 L
1227.052 498.666 L
1233.464 493.55 L
1239.693 488.204 L
1245.78 482.715 L
1251.765 477.104 L
1257.662 471.405 L
1263.501 465.695 L
1269.307 459.98 L
1275.117 454.273 L
1280.931 448.594 L
1286.76 442.967 L
1292.61 437.403 L
1298.499 431.905 L
1304.449 426.476 L
1310.474 421.102 L
1316.584 415.813 L
1322.8 410.603 L
1329.161 405.458 L
1335.677 400.417 L
1342.368 395.483 L
1349.284 390.653 L
1356.453 385.949 L
1363.943 381.399 L
1371.732 377.019 L
1379.873 372.853 L
1388.384 368.915 L
1397.296 365.233 L
1406.593 361.854 L
S
GR
GS
[0.75 0 0 0.75 0 0.25] CT
0 0.447 0.741 RC
2 LJ
6.667 LW
N
1406.593 361.854 M
1416.314 358.775 L
1426.455 356.02 L
1436.988 353.609 L
1447.884 351.536 L
1459.1 349.817 L
1470.623 348.424 L
1482.388 347.363 L
1494.365 346.605 L
1506.502 346.128 L
1518.736 345.906 L
1530.99 345.909 L
1543.167 346.116 L
1555.202 346.496 L
1567.008 347.022 L
1578.494 347.68 L
1589.551 348.426 L
1600.099 349.227 L
1610.026 350.066 L
1619.238 350.921 L
1627.619 351.76 L
1635.157 352.566 L
1641.793 353.322 L
1647.516 354.017 L
S
GR
GS
[0.75 0 0 0.75 0 0.25] CT
0.851 0.325 0.098 RC
2 LJ
6.667 LW
N
240.856 370.715 M
243.435 371.011 L
250.128 371.623 L
257.558 372.112 L
265.636 372.411 L
274.232 372.474 L
283.237 372.24 L
292.511 371.67 L
301.916 370.733 L
311.327 369.423 L
320.662 367.73 L
329.819 365.663 L
338.763 363.257 L
347.492 360.527 L
355.955 357.514 L
364.148 354.256 L
372.105 350.789 L
379.866 347.139 L
387.478 343.351 L
394.957 339.439 L
402.3 335.449 L
409.562 331.411 L
416.782 327.354 L
423.955 323.296 L
431.111 319.272 L
438.246 315.313 L
445.377 311.436 L
452.523 307.664 L
459.69 303.997 L
466.879 300.453 L
474.13 297.026 L
481.439 293.716 L
488.806 290.522 L
496.286 287.424 L
503.87 284.419 L
511.533 281.504 L
519.316 278.685 L
527.2 275.959 L
535.155 273.346 L
543.158 270.839 L
551.197 268.443 L
559.225 266.181 L
567.191 264.066 L
575.065 262.083 L
582.803 260.245 L
590.391 258.533 L
597.793 256.946 L
605.006 255.467 L
612.031 254.082 L
618.88 252.771 L
S
GR
GS
[0.75 0 0 0.75 0 0.25] CT
0.851 0.325 0.098 RC
2 LJ
6.667 LW
N
618.88 252.771 M
625.546 251.519 L
632.104 250.306 L
638.554 249.116 L
644.927 247.947 L
651.301 246.783 L
657.678 245.615 L
664.087 244.439 L
670.593 243.241 L
677.19 242.027 L
683.908 240.783 L
690.776 239.511 L
697.786 238.19 L
704.94 236.817 L
712.258 235.388 L
719.763 233.892 L
727.439 232.335 L
735.305 230.708 L
743.383 229.007 L
751.679 227.26 L
760.218 225.47 L
769.008 223.677 L
778.074 221.913 L
787.44 220.223 L
797.094 218.661 L
807.05 217.291 L
817.314 216.178 L
827.842 215.399 L
838.608 215.021 L
849.574 215.12 L
860.64 215.773 L
871.762 217.029 L
882.865 218.932 L
893.865 221.523 L
904.667 224.833 L
915.21 228.855 L
925.393 233.552 L
935.16 238.895 L
944.469 244.821 L
953.276 251.252 L
961.547 258.105 L
969.281 265.276 L
976.471 272.655 L
983.12 280.138 L
989.26 287.622 L
994.91 295.035 L
1000.104 302.303 L
1004.882 309.362 L
1009.265 316.177 L
1013.334 322.744 L
S
GR
GS
[0.75 0 0 0.75 0 0.25] CT
0.851 0.325 0.098 RC
2 LJ
6.667 LW
N
1013.334 322.744 M
1017.121 329.049 L
1020.662 335.115 L
1023.988 340.977 L
1027.159 346.667 L
1030.199 352.225 L
1033.143 357.674 L
1036.021 363.065 L
1038.866 368.43 L
1041.686 373.791 L
1044.501 379.154 L
1047.305 384.528 L
1050.124 389.934 L
1052.955 395.37 L
1055.81 400.833 L
1058.684 406.347 L
1061.6 411.914 L
1064.547 417.54 L
1067.528 423.231 L
1070.56 429.007 L
1073.653 434.901 L
1076.826 440.912 L
1080.072 447.032 L
1083.409 453.285 L
1086.842 459.649 L
1090.376 466.111 L
1094.011 472.654 L
1097.781 479.251 L
1101.669 485.846 L
1105.71 492.429 L
1109.921 498.907 L
1114.319 505.253 L
1118.938 511.402 L
1123.788 517.28 L
1128.896 522.804 L
1134.268 527.902 L
1139.921 532.489 L
1145.854 536.487 L
1152.044 539.834 L
1158.442 542.477 L
1165.027 544.341 L
1171.732 545.397 L
1178.519 545.617 L
1185.329 545.008 L
1192.109 543.613 L
1198.818 541.447 L
1205.411 538.568 L
1211.888 535.055 L
1218.224 530.975 L
1224.432 526.419 L
S
GR
GS
[0.75 0 0 0.75 0 0.25] CT
0.851 0.325 0.098 RC
2 LJ
6.667 LW
N
1224.432 526.419 M
1230.505 521.472 L
1236.47 516.199 L
1242.324 510.672 L
1248.113 504.958 L
1253.83 499.078 L
1259.482 493.12 L
1265.082 487.096 L
1270.622 481.026 L
1276.105 474.938 L
1281.536 468.841 L
1286.927 462.753 L
1292.278 456.691 L
1297.584 450.659 L
1302.871 444.665 L
1308.172 438.712 L
1313.527 432.816 L
1318.942 426.969 L
1324.473 421.191 L
1330.135 415.497 L
1335.991 409.881 L
1342.076 404.375 L
1348.422 398.989 L
1355.057 393.74 L
1361.99 388.662 L
1369.265 383.781 L
1376.889 379.102 L
1384.873 374.678 L
1393.212 370.52 L
1401.894 366.666 L
1410.879 363.145 L
1420.145 359.967 L
1429.656 357.158 L
1439.383 354.711 L
1449.287 352.631 L
1459.329 350.92 L
1469.464 349.562 L
1479.648 348.528 L
1489.886 347.805 L
1500.18 347.361 L
1510.527 347.163 L
1520.911 347.173 L
1531.354 347.37 L
1541.841 347.733 L
1552.357 348.223 L
1562.864 348.832 L
1573.304 349.536 L
1583.61 350.329 L
1593.683 351.205 L
1603.433 352.13 L
S
GR
GS
[0.75 0 0 0.75 0 0.25] CT
0.851 0.325 0.098 RC
2 LJ
6.667 LW
N
1603.433 352.13 M
1612.72 353.094 L
1621.439 354.084 L
1629.478 355.068 L
1636.744 356.041 L
1643.169 356.973 L
1648.732 357.848 L
S
GR
GS
[0.75 0 0 0.75 0 0.25] CT
0.929 0.694 0.125 RC
2 LJ
6.667 LW
N
240.856 328.527 M
244.667 328.728 L
251.356 328.905 L
258.577 328.894 L
266.245 328.64 L
274.263 328.096 L
282.515 327.231 L
290.877 326.017 L
299.278 324.438 L
307.627 322.493 L
315.853 320.19 L
323.923 317.549 L
331.774 314.594 L
339.399 311.366 L
346.76 307.91 L
353.877 304.269 L
360.773 300.508 L
367.449 296.64 L
373.929 292.707 L
380.228 288.747 L
386.383 284.797 L
392.404 280.881 L
398.323 277.022 L
404.178 273.225 L
409.992 269.502 L
415.797 265.871 L
421.615 262.34 L
427.465 258.908 L
433.391 255.577 L
439.392 252.352 L
445.468 249.238 L
451.663 246.222 L
457.999 243.3 L
464.47 240.466 L
471.109 237.71 L
477.951 235.031 L
484.988 232.411 L
492.236 229.877 L
499.723 227.407 L
507.438 225.01 L
515.38 222.701 L
523.532 220.476 L
531.903 218.365 L
540.436 216.39 L
549.1 214.56 L
557.869 212.876 L
566.687 211.348 L
575.51 209.984 L
584.299 208.784 L
593.028 207.743 L
S
GR
GS
[0.75 0 0 0.75 0 0.25] CT
0.929 0.694 0.125 RC
2 LJ
6.667 LW
N
593.028 207.743 M
601.669 206.844 L
610.203 206.081 L
618.648 205.441 L
626.977 204.904 L
635.24 204.454 L
643.482 204.076 L
651.714 203.757 L
659.977 203.49 L
668.328 203.261 L
676.82 203.056 L
685.504 202.872 L
694.406 202.727 L
703.551 202.584 L
712.934 202.457 L
722.599 202.341 L
732.535 202.242 L
742.684 202.174 L
753.023 202.149 L
763.493 202.173 L
774.019 202.249 L
784.505 202.393 L
794.885 202.63 L
805.087 202.958 L
815.052 203.396 L
824.714 203.942 L
834.052 204.618 L
843.027 205.423 L
851.613 206.374 L
859.844 207.479 L
867.733 208.758 L
875.274 210.208 L
882.502 211.855 L
889.474 213.708 L
896.222 215.783 L
902.762 218.095 L
909.07 220.657 L
915.174 223.462 L
921.095 226.512 L
926.839 229.8 L
932.38 233.323 L
937.702 237.048 L
942.847 240.974 L
947.769 245.064 L
952.484 249.294 L
956.983 253.654 L
961.276 258.132 L
965.369 262.717 L
969.271 267.41 L
972.983 272.194 L
S
GR
GS
[0.75 0 0 0.75 0 0.25] CT
0.929 0.694 0.125 RC
2 LJ
6.667 LW
N
972.983 272.194 M
976.523 277.074 L
979.903 282.069 L
983.136 287.158 L
986.25 292.34 L
989.252 297.608 L
992.14 302.945 L
994.949 308.342 L
997.692 313.757 L
1000.365 319.16 L
1002.982 324.511 L
1005.535 329.794 L
1008.041 334.964 L
1010.502 340.002 L
1012.919 344.887 L
1015.285 349.615 L
1017.613 354.183 L
1019.906 358.596 L
1022.16 362.88 L
1024.385 367.031 L
1026.583 371.089 L
1028.749 375.085 L
1030.881 379.031 L
1032.984 382.958 L
1035.053 386.867 L
1037.088 390.785 L
1039.083 394.718 L
1041.03 398.651 L
1042.946 402.594 L
1044.815 406.542 L
1046.645 410.485 L
1048.437 414.406 L
1050.201 418.299 L
1051.938 422.162 L
1053.664 425.984 L
1055.374 429.78 L
1057.078 433.537 L
1058.778 437.255 L
1060.482 440.946 L
1062.187 444.62 L
1063.897 448.285 L
1065.609 451.938 L
1067.318 455.599 L
1069.03 459.244 L
1070.738 462.887 L
1072.433 466.519 L
1074.12 470.126 L
1075.791 473.713 L
1077.441 477.263 L
1079.073 480.778 L
S
GR
GS
[0.75 0 0 0.75 0 0.25] CT
0.929 0.694 0.125 RC
2 LJ
6.667 LW
N
1079.073 480.778 M
1080.683 484.241 L
1082.268 487.653 L
1083.827 491.001 L
1085.356 494.282 L
1086.862 497.491 L
1088.343 500.628 L
1089.8 503.703 L
1091.237 506.692 L
1092.658 509.616 L
1094.072 512.478 L
1095.479 515.273 L
1096.886 518.008 L
1098.326 520.718 L
1099.794 523.395 L
1101.311 526.075 L
1102.899 528.782 L
1104.584 531.537 L
1106.387 534.354 L
1108.332 537.245 L
1110.466 540.213 L
1112.796 543.265 L
1115.343 546.385 L
1118.135 549.548 L
1121.197 552.702 L
1124.535 555.793 L
1128.175 558.774 L
1132.101 561.579 L
1136.314 564.141 L
1140.799 566.406 L
1145.539 568.309 L
1150.491 569.807 L
1155.627 570.86 L
1160.905 571.455 L
1166.267 571.583 L
1171.659 571.24 L
1177.048 570.446 L
1182.383 569.224 L
1187.609 567.593 L
1192.716 565.6 L
1197.667 563.27 L
1202.453 560.632 L
1207.072 557.706 L
1211.53 554.521 L
1215.854 551.108 L
1220.037 547.485 L
1224.119 543.668 L
1228.123 539.665 L
1232.07 535.489 L
1235.977 531.164 L
S
GR
GS
[0.75 0 0 0.75 0 0.25] CT
0.929 0.694 0.125 RC
2 LJ
6.667 LW
N
1235.977 531.164 M
1239.87 526.705 L
1243.735 522.12 L
1247.587 517.43 L
1251.423 512.656 L
1255.25 507.81 L
1259.05 502.926 L
1262.828 498.021 L
1266.576 493.103 L
1270.289 488.206 L
1273.967 483.341 L
1277.607 478.526 L
1281.213 473.764 L
1284.787 469.065 L
1288.332 464.427 L
1291.848 459.85 L
1295.351 455.326 L
1298.851 450.851 L
1302.352 446.418 L
1305.873 442.013 L
1309.424 437.627 L
1313.015 433.258 L
1316.679 428.893 L
1320.406 424.532 L
1324.226 420.169 L
1328.17 415.797 L
1332.255 411.424 L
1336.473 407.05 L
1340.846 402.677 L
1345.375 398.304 L
1350.068 393.934 L
1354.914 389.577 L
1359.916 385.23 L
1365.063 380.91 L
1370.347 376.628 L
1375.755 372.386 L
1381.302 368.205 L
1386.985 364.102 L
1392.841 360.105 L
1398.869 356.216 L
1405.121 352.464 L
1411.621 348.868 L
1418.419 345.443 L
1425.55 342.211 L
1433.033 339.191 L
1440.879 336.378 L
1449.102 333.779 L
1457.651 331.388 L
1466.539 329.211 L
1475.739 327.244 L
S
GR
GS
[0.75 0 0 0.75 0 0.25] CT
0.929 0.694 0.125 RC
2 LJ
6.667 LW
N
1475.739 327.244 M
1485.154 325.468 L
1494.738 323.866 L
1504.44 322.417 L
1514.187 321.109 L
1523.953 319.919 L
1533.683 318.854 L
1543.341 317.887 L
1552.893 317.024 L
1562.33 316.267 L
1571.628 315.605 L
1580.751 315.054 L
1589.666 314.615 L
1598.336 314.294 L
1606.694 314.079 L
1614.705 313.981 L
1622.285 313.99 L
1629.379 314.096 L
1635.912 314.28 L
1641.829 314.521 L
1647.101 314.795 L
1651.7 315.085 L
1655.621 315.377 L
S
GR
GS
[0.75 0 0 0.75 0 0.25] CT
0.494 0.184 0.557 RC
2 LJ
6.667 LW
N
240.856 294.966 M
242.513 294.717 L
248.719 293.666 L
255.304 292.418 L
262.163 290.97 L
269.193 289.325 L
276.3 287.489 L
283.389 285.467 L
290.382 283.279 L
297.221 280.943 L
303.876 278.477 L
310.304 275.897 L
316.508 273.217 L
322.506 270.444 L
328.305 267.588 L
333.927 264.649 L
339.395 261.649 L
344.744 258.582 L
349.948 255.449 L
355.026 252.268 L
360.006 249.036 L
364.923 245.756 L
369.764 242.438 L
374.525 239.102 L
379.235 235.747 L
383.916 232.391 L
388.581 229.029 L
393.239 225.678 L
397.925 222.342 L
402.676 219.03 L
407.476 215.744 L
412.332 212.494 L
417.247 209.292 L
422.22 206.142 L
427.244 203.05 L
432.314 200.025 L
437.427 197.075 L
442.573 194.206 L
447.741 191.422 L
452.947 188.748 L
458.208 186.168 L
463.555 183.695 L
468.994 181.335 L
474.569 179.095 L
480.307 176.979 L
486.252 175 L
492.426 173.164 L
498.851 171.481 L
505.501 169.956 L
512.402 168.591 L
S
GR
GS
[0.75 0 0 0.75 0 0.25] CT
0.494 0.184 0.557 RC
2 LJ
6.667 LW
N
512.402 168.591 M
519.517 167.387 L
526.836 166.348 L
534.339 165.474 L
541.953 164.757 L
549.641 164.194 L
557.385 163.776 L
565.13 163.487 L
572.856 163.321 L
580.564 163.274 L
588.269 163.347 L
595.957 163.524 L
603.653 163.808 L
611.37 164.193 L
619.147 164.687 L
627.008 165.251 L
634.96 165.918 L
643.026 166.661 L
651.212 167.464 L
659.522 168.322 L
667.928 169.221 L
676.401 170.136 L
684.901 171.058 L
693.389 171.974 L
701.857 172.873 L
710.252 173.732 L
718.561 174.565 L
726.755 175.372 L
734.807 176.146 L
742.747 176.891 L
750.574 177.605 L
758.281 178.295 L
765.94 178.971 L
773.555 179.639 L
781.163 180.306 L
788.748 180.971 L
796.346 181.656 L
803.944 182.363 L
811.543 183.107 L
819.142 183.896 L
826.698 184.757 L
834.213 185.686 L
841.641 186.718 L
848.972 187.861 L
856.174 189.136 L
863.237 190.559 L
870.148 192.148 L
876.912 193.91 L
883.534 195.852 L
890.014 197.977 L
S
GR
GS
[0.75 0 0 0.75 0 0.25] CT
0.494 0.184 0.557 RC
2 LJ
6.667 LW
N
890.014 197.977 M
896.352 200.298 L
902.549 202.81 L
908.604 205.505 L
914.521 208.375 L
920.285 211.412 L
925.871 214.611 L
931.293 217.968 L
936.517 221.467 L
941.555 225.111 L
946.38 228.893 L
951.004 232.823 L
955.423 236.884 L
959.645 241.091 L
963.69 245.439 L
967.556 249.916 L
971.277 254.525 L
974.863 259.247 L
978.331 264.077 L
981.696 269 L
984.98 274.003 L
988.193 279.053 L
991.355 284.142 L
994.47 289.258 L
997.527 294.371 L
1000.535 299.468 L
1003.507 304.552 L
1006.427 309.599 L
1009.276 314.593 L
1012.045 319.528 L
1014.721 324.386 L
1017.289 329.15 L
1019.738 333.802 L
1022.054 338.322 L
1024.238 342.693 L
1026.279 346.908 L
1028.192 350.95 L
1029.977 354.818 L
1031.647 358.507 L
1033.222 362.023 L
1034.712 365.38 L
1036.152 368.588 L
1037.547 371.68 L
1038.924 374.66 L
1040.3 377.56 L
1041.672 380.391 L
1043.057 383.177 L
1044.449 385.923 L
1045.849 388.637 L
1047.268 391.332 L
S
GR
GS
[0.75 0 0 0.75 0 0.25] CT
0.494 0.184 0.557 RC
2 LJ
6.667 LW
N
1047.268 391.332 M
1048.695 394.021 L
1050.118 396.701 L
1051.527 399.364 L
1052.929 402.027 L
1054.318 404.678 L
1055.69 407.334 L
1057.051 409.986 L
1058.397 412.626 L
1059.732 415.262 L
1061.055 417.898 L
1062.378 420.52 L
1063.693 423.116 L
1065.003 425.693 L
1066.313 428.243 L
1067.612 430.75 L
1068.909 433.209 L
1070.182 435.62 L
1071.442 437.982 L
1072.676 440.287 L
1073.875 442.535 L
1075.043 444.731 L
1076.171 446.887 L
1077.262 449.01 L
1078.313 451.122 L
1079.333 453.222 L
1080.322 455.328 L
1081.285 457.443 L
1082.234 459.579 L
1083.175 461.753 L
1084.107 463.958 L
1085.042 466.185 L
1085.979 468.437 L
1086.918 470.713 L
1087.859 473.004 L
1088.797 475.286 L
1089.726 477.558 L
1090.634 479.804 L
1091.524 482.02 L
1092.394 484.2 L
1093.242 486.335 L
1094.068 488.425 L
1094.887 490.473 L
1095.699 492.477 L
1096.531 494.468 L
1097.392 496.44 L
1098.293 498.404 L
1099.247 500.376 L
1100.276 502.368 L
1101.379 504.377 L
S
GR
GS
[0.75 0 0 0.75 0 0.25] CT
0.494 0.184 0.557 RC
2 LJ
6.667 LW
N
1101.379 504.377 M
1102.557 506.424 L
1103.808 508.507 L
1105.119 510.616 L
1106.485 512.757 L
1107.883 514.908 L
1109.312 517.069 L
1110.747 519.231 L
1112.176 521.374 L
1113.59 523.487 L
1114.981 525.567 L
1116.344 527.61 L
1117.685 529.61 L
1119.005 531.577 L
1120.314 533.508 L
1121.617 535.405 L
1122.92 537.285 L
1124.24 539.157 L
1125.578 541.024 L
1126.949 542.895 L
1128.337 544.749 L
1129.753 546.603 L
1131.194 548.446 L
1132.675 550.278 L
1134.165 552.083 L
1135.672 553.857 L
1137.194 555.587 L
1138.724 557.258 L
1140.266 558.873 L
1141.814 560.427 L
1143.377 561.905 L
1144.944 563.307 L
1146.523 564.63 L
1148.12 565.876 L
1149.735 567.046 L
1151.36 568.131 L
1153.005 569.136 L
1154.682 570.059 L
1156.386 570.901 L
1158.111 571.666 L
1159.853 572.343 L
1161.627 572.943 L
1163.421 573.462 L
1165.247 573.899 L
1167.094 574.249 L
1168.963 574.512 L
1170.843 574.683 L
1172.734 574.763 L
1174.611 574.739 L
1176.485 574.617 L
S
GR
GS
[0.75 0 0 0.75 0 0.25] CT
0.494 0.184 0.557 RC
2 LJ
6.667 LW
N
1176.485 574.617 M
1178.347 574.394 L
1180.188 574.062 L
1182.004 573.629 L
1183.788 573.098 L
1185.539 572.472 L
1187.267 571.75 L
1188.958 570.962 L
1190.635 570.1 L
1192.291 569.182 L
1193.928 568.216 L
1195.572 567.206 L
1197.222 566.164 L
1198.856 565.094 L
1200.483 564.005 L
1202.103 562.898 L
1203.717 561.781 L
1205.314 560.653 L
1206.894 559.516 L
1208.442 558.375 L
1209.948 557.241 L
1211.407 556.114 L
1212.818 554.993 L
1214.177 553.88 L
1215.486 552.786 L
1216.75 551.7 L
1217.972 550.622 L
1219.157 549.547 L
1220.316 548.461 L
1221.464 547.353 L
1222.609 546.227 L
1223.75 545.087 L
1224.913 543.898 L
1226.081 542.678 L
1227.264 541.41 L
1228.464 540.109 L
1229.674 538.787 L
1230.882 537.443 L
1232.092 536.086 L
1233.29 534.727 L
1234.486 533.369 L
1235.671 532.013 L
1236.857 530.658 L
1238.04 529.306 L
1239.23 527.953 L
1240.434 526.577 L
1241.664 525.18 L
1242.934 523.754 L
1244.236 522.282 L
1245.579 520.765 L
S
GR
GS
[0.75 0 0 0.75 0 0.25] CT
0.494 0.184 0.557 RC
2 LJ
6.667 LW
N
1245.579 520.765 M
1246.958 519.203 L
1248.366 517.581 L
1249.797 515.911 L
1251.247 514.207 L
1252.697 512.47 L
1254.135 510.703 L
1255.54 508.909 L
1256.918 507.112 L
1258.256 505.304 L
1259.548 503.506 L
1260.792 501.705 L
1261.979 499.916 L
1263.123 498.143 L
1264.22 496.394 L
1265.295 494.661 L
1266.337 492.953 L
1267.368 491.276 L
1268.383 489.635 L
1269.409 488.028 L
1270.434 486.452 L
1271.469 484.915 L
1272.518 483.41 L
1273.572 481.928 L
1274.636 480.483 L
1275.703 479.057 L
1276.762 477.646 L
1277.81 476.245 L
1278.853 474.842 L
1279.872 473.437 L
1280.873 472.025 L
1281.85 470.603 L
1282.815 469.167 L
1283.766 467.705 L
1284.717 466.224 L
1285.67 464.721 L
1286.629 463.198 L
1287.607 461.65 L
1288.603 460.085 L
1289.623 458.5 L
1290.666 456.91 L
1291.738 455.311 L
1292.839 453.71 L
1293.96 452.112 L
1295.096 450.521 L
1296.263 448.94 L
1297.46 447.369 L
1298.68 445.811 L
1299.919 444.264 L
1301.177 442.72 L
S
GR
GS
[0.75 0 0 0.75 0 0.25] CT
0.494 0.184 0.557 RC
2 LJ
6.667 LW
N
1301.177 442.72 M
1302.464 441.183 L
1303.767 439.646 L
1305.092 438.114 L
1306.418 436.587 L
1307.745 435.063 L
1309.065 433.54 L
1310.373 432.028 L
1311.665 430.531 L
1312.932 429.051 L
1314.165 427.587 L
1315.372 426.143 L
1316.552 424.725 L
1317.71 423.333 L
1318.851 421.962 L
1319.988 420.61 L
1321.113 419.273 L
1322.235 417.947 L
1323.364 416.632 L
1324.507 415.32 L
1325.671 414.01 L
1326.847 412.696 L
1328.033 411.383 L
1329.233 410.069 L
1330.456 408.756 L
1331.694 407.454 L
1332.94 406.155 L
1334.196 404.874 L
1335.456 403.613 L
1336.718 402.383 L
1337.981 401.178 L
1339.232 400.011 L
1340.47 398.875 L
1341.681 397.779 L
1342.872 396.713 L
1344.033 395.681 L
1345.159 394.681 L
1346.251 393.697 L
1347.312 392.743 L
1348.332 391.81 L
1349.309 390.894 L
1350.251 389.994 L
1351.176 389.101 L
1352.076 388.211 L
1352.959 387.324 L
1353.828 386.433 L
1354.699 385.53 L
1355.579 384.611 L
1356.484 383.655 L
1357.407 382.663 L
S
GR
GS
[0.75 0 0 0.75 0 0.25] CT
0.494 0.184 0.557 RC
2 LJ
6.667 LW
N
1357.407 382.663 M
1358.368 381.623 L
1359.371 380.532 L
1360.428 379.381 L
1361.545 378.175 L
1362.724 376.909 L
1363.966 375.588 L
1365.269 374.219 L
1366.635 372.815 L
1368.073 371.368 L
1369.556 369.908 L
1371.097 368.425 L
1372.693 366.931 L
1374.336 365.445 L
1376.014 363.952 L
1377.747 362.462 L
1379.503 360.98 L
1381.295 359.496 L
1383.116 358.02 L
1384.966 356.551 L
1386.84 355.082 L
1388.742 353.619 L
1390.659 352.161 L
1392.589 350.703 L
1394.525 349.257 L
1396.468 347.82 L
1398.423 346.395 L
1400.384 344.986 L
1402.355 343.595 L
1404.335 342.218 L
1406.321 340.866 L
1408.313 339.542 L
1410.316 338.243 L
1412.331 336.97 L
1414.35 335.725 L
1416.383 334.5 L
1418.431 333.306 L
1421.547 331.99 L
1423.82 330.802 L
1426.487 329.583 L
1429.498 328.337 L
1432.801 327.064 L
1436.292 325.784 L
1439.876 324.502 L
1443.434 323.242 L
1446.849 322.022 L
1450.007 320.855 L
1452.829 319.759 L
1455.243 318.751 L
1457.206 317.836 L
S
GR
GS
[0.75 0 0 0.75 0 0.25] CT
0.494 0.184 0.557 RC
2 LJ
6.667 LW
N
1457.206 317.836 M
1458.703 317.025 L
1459.758 316.311 L
1460.413 315.694 L
1460.738 315.167 L
1460.838 314.718 L
1460.812 314.326 L
1460.775 313.977 L
1460.85 313.655 L
1461.135 313.338 L
1461.726 313.017 L
1462.703 312.673 L
1464.099 312.298 L
1464.67 312.055 L
1466.308 311.696 L
1467.979 311.354 L
1469.665 311.031 L
1471.383 310.73 L
1473.132 310.444 L
1474.9 310.177 L
1476.694 309.928 L
1478.523 309.698 L
1480.382 309.481 L
1482.269 309.279 L
1484.183 309.089 L
1486.133 308.906 L
1488.118 308.733 L
1490.125 308.564 L
1492.157 308.395 L
1494.206 308.224 L
1496.264 308.052 L
1498.333 307.872 L
1500.415 307.69 L
1502.506 307.502 L
1504.61 307.303 L
1506.733 307.096 L
1508.87 306.884 L
1511.023 306.662 L
1513.196 306.436 L
1515.396 306.203 L
1517.625 305.967 L
1519.889 305.729 L
1522.18 305.487 L
1524.496 305.246 L
1526.846 305.01 L
1529.215 304.774 L
1531.599 304.536 L
1534.011 304.298 L
1536.442 304.062 L
1538.898 303.817 L
S
GR
GS
[0.75 0 0 0.75 0 0.25] CT
0.494 0.184 0.557 RC
2 LJ
6.667 LW
N
1538.898 303.817 M
1541.38 303.573 L
1543.886 303.322 L
1546.422 303.061 L
1548.988 302.791 L
1551.587 302.515 L
1554.214 302.232 L
1556.865 301.946 L
1559.533 301.655 L
1562.213 301.357 L
1564.911 301.071 L
1567.598 300.785 L
1570.271 300.506 L
1572.939 300.236 L
1575.6 299.971 L
1578.266 299.714 L
1580.935 299.464 L
1583.617 299.215 L
1586.322 298.968 L
1589.067 298.719 L
1591.844 298.463 L
1594.667 298.198 L
1597.539 297.927 L
1600.453 297.642 L
1603.429 297.34 L
1606.412 297.034 L
1609.414 296.711 L
1612.418 296.371 L
1615.414 296.021 L
1618.386 295.658 L
1621.315 295.285 L
1624.2 294.895 L
1627.035 294.491 L
1629.815 294.063 L
1632.55 293.617 L
1635.22 293.141 L
1637.84 292.645 L
1640.415 292.12 L
1642.938 291.566 L
1645.402 290.992 L
1647.792 290.399 L
1650.097 289.794 L
1652.296 289.188 L
1654.365 288.594 L
1656.285 288.019 L
1658.04 287.476 L
1659.613 286.978 L
1660.995 286.528 L
S
GR
GS
[0.75 0 0 0.75 1182 54.44122] CT
/Helvetica 48 F
GS
[1 0 0 1 0 0] CT
0 16.5 moveto 
1 -1 scale
(0\260) t 
GR
GR
GS
[0.75 0 0 0.75 0 0.25] CT
0 0.447 0.741 RC
2 setlinecap
10.0 ML
6.667 LW
N
1532 72.255 M
1572 72.255 L
S
GR
GS
[0.75 0 0 0.75 1182 97.81374] CT
/Helvetica 48 F
GS
[1 0 0 1 0 0] CT
0 16.5 moveto 
1 -1 scale
(5\260) t 
GR
GR
GS
[0.75 0 0 0.75 0 0.25] CT
0.851 0.325 0.098 RC
2 setlinecap
10.0 ML
6.667 LW
N
1532 130.085 M
1572 130.085 L
S
GR
GS
[0.75 0 0 0.75 1182 141.18626] CT
/Helvetica 48 F
GS
[1 0 0 1 0 0] CT
0 16.5 moveto 
1 -1 scale
(8\260) t 
GR
GR
GS
[0.75 0 0 0.75 0 0.25] CT
0.929 0.694 0.125 RC
2 setlinecap
10.0 ML
6.667 LW
N
1532 187.915 M
1572 187.915 L
S
GR
GS
[0.75 0 0 0.75 1182 184.55878] CT
/Helvetica 48 F
GS
[1 0 0 1 0 0] CT
0 16.5 moveto 
1 -1 scale
(10\260) t 
GR
GR
GS
[0.75 0 0 0.75 0 0.25] CT
0.494 0.184 0.557 RC
2 setlinecap
10.0 ML
6.667 LW
N
1532 245.745 M
1572 245.745 L
S
GR
GS
[0.75 0 0 0.75 0 0.25] CT
2 setlinecap
10.0 ML
5.333 LW
N
587 456.937 M
489.32 105.35 L
S
GR
GS
[0.75 0 0 0.75 536.37497 342.95276] CT
/Helvetica 27 F
GS
[1 0 0 1 0 0] CT
-251 26 moveto 
1 -1 scale
(As slope increases) t 
GR
GR
GS
[0.75 0 0 0.75 0 0.25] CT
N
487.95 104.513 M
488.224 101.405 L
485.776 92.595 L
483.553 117.858 L
cp
f
GR
GS
[0.75 0 0 0.75 0 0.25] CT
N
488.224 101.405 M
490.061 103.926 L
500.712 113.09 L
485.776 92.595 L
cp
f
GR
GS
[0.75 0 0 0.75 0 0.25] CT
N
490.061 103.926 M
491.471 104.91 L
487.169 105.791 L
500.712 113.09 L
cp
f
GR
GS
[0.75 0 0 0.75 0 0.25] CT
N
491.471 104.91 M
487.95 104.513 L
483.553 117.858 L
487.169 105.791 L
cp
f
GR
GS
[0.75 0 0 0.75 0 0.25] CT
N
485.752 111.185 M
487 97 L
489.32 105.35 L
cp
f
GR
GS
[0.75 0 0 0.75 0 0.25] CT
N
487 97 M
495.387 108.508 L
489.32 105.35 L
cp
f
GR
%%Trailer
%%Pages: 1
%%EOF
