%!PS-Adobe-3.0 EPSF-3.0
%%Creator: (MATLAB, The Mathworks, Inc. Version 8.5.0.197613 \(R2015a\). Operating System: Linux)
%%Title: (/home/victor/ampro/AMPRO II/Upslope Walking/humandata/Knee.eps)
%%CreationDate: 2016-02-18T23:02:30
%%Pages: (atend)
%%BoundingBox: 0 0 1391 703
%%LanguageLevel: 2
%%EndComments
%%BeginProlog
%%BeginResource: procset (Apache XML Graphics Std ProcSet) 1.2 0
%%Version: 1.2 0
%%Copyright: (Copyright 2001-2003,2010 The Apache Software Foundation. License terms: http://www.apache.org/licenses/LICENSE-2.0)
/bd{bind def}bind def
/ld{load def}bd
/GR/grestore ld
/M/moveto ld
/LJ/setlinejoin ld
/C/curveto ld
/f/fill ld
/LW/setlinewidth ld
/GC/setgray ld
/t/show ld
/N/newpath ld
/CT/concat ld
/cp/closepath ld
/S/stroke ld
/L/lineto ld
/CC/setcmykcolor ld
/A/ashow ld
/GS/gsave ld
/RC/setrgbcolor ld
/RM/rmoveto ld
/ML/setmiterlimit ld
/re {4 2 roll M
1 index 0 rlineto
0 exch rlineto
neg 0 rlineto
cp } bd
/_ctm matrix def
/_tm matrix def
/BT { _ctm currentmatrix pop matrix _tm copy pop 0 0 moveto } bd
/ET { _ctm setmatrix } bd
/iTm { _ctm setmatrix _tm concat } bd
/Tm { _tm astore pop iTm 0 0 moveto } bd
/ux 0.0 def
/uy 0.0 def
/F {
  /Tp exch def
  /Tf exch def
  Tf findfont Tp scalefont setfont
  /cf Tf def  /cs Tp def
} bd
/ULS {currentpoint /uy exch def /ux exch def} bd
/ULE {
  /Tcx currentpoint pop def
  gsave
  newpath
  cf findfont cs scalefont dup
  /FontMatrix get 0 get /Ts exch def /FontInfo get dup
  /UnderlinePosition get Ts mul /To exch def
  /UnderlineThickness get Ts mul /Tt exch def
  ux uy To add moveto  Tcx uy To add lineto
  Tt setlinewidth stroke
  grestore
} bd
/OLE {
  /Tcx currentpoint pop def
  gsave
  newpath
  cf findfont cs scalefont dup
  /FontMatrix get 0 get /Ts exch def /FontInfo get dup
  /UnderlinePosition get Ts mul /To exch def
  /UnderlineThickness get Ts mul /Tt exch def
  ux uy To add cs add moveto Tcx uy To add cs add lineto
  Tt setlinewidth stroke
  grestore
} bd
/SOE {
  /Tcx currentpoint pop def
  gsave
  newpath
  cf findfont cs scalefont dup
  /FontMatrix get 0 get /Ts exch def /FontInfo get dup
  /UnderlinePosition get Ts mul /To exch def
  /UnderlineThickness get Ts mul /Tt exch def
  ux uy To add cs 10 mul 26 idiv add moveto Tcx uy To add cs 10 mul 26 idiv add lineto
  Tt setlinewidth stroke
  grestore
} bd
/QT {
/Y22 exch store
/X22 exch store
/Y21 exch store
/X21 exch store
currentpoint
/Y21 load 2 mul add 3 div exch
/X21 load 2 mul add 3 div exch
/X21 load 2 mul /X22 load add 3 div
/Y21 load 2 mul /Y22 load add 3 div
/X22 load /Y22 load curveto
} bd
/SSPD {
dup length /d exch dict def
{
/v exch def
/k exch def
currentpagedevice k known {
/cpdv currentpagedevice k get def
v cpdv ne {
/upd false def
/nullv v type /nulltype eq def
/nullcpdv cpdv type /nulltype eq def
nullv nullcpdv or
{
/upd true def
} {
/sametype v type cpdv type eq def
sametype {
v type /arraytype eq {
/vlen v length def
/cpdvlen cpdv length def
vlen cpdvlen eq {
0 1 vlen 1 sub {
/i exch def
/obj v i get def
/cpdobj cpdv i get def
obj cpdobj ne {
/upd true def
exit
} if
} for
} {
/upd true def
} ifelse
} {
v type /dicttype eq {
v {
/dv exch def
/dk exch def
/cpddv cpdv dk get def
dv cpddv ne {
/upd true def
exit
} if
} forall
} {
/upd true def
} ifelse
} ifelse
} if
} ifelse
upd true eq {
d k v put
} if
} if
} if
} forall
d length 0 gt {
d setpagedevice
} if
} bd
%%EndResource
%%BeginResource: procset (Apache XML Graphics EPS ProcSet) 1.0 0
%%Version: 1.0 0
%%Copyright: (Copyright 2002-2003 The Apache Software Foundation. License terms: http://www.apache.org/licenses/LICENSE-2.0)
/BeginEPSF { %def
/b4_Inc_state save def         % Save state for cleanup
/dict_count countdictstack def % Count objects on dict stack
/op_count count 1 sub def      % Count objects on operand stack
userdict begin                 % Push userdict on dict stack
/showpage { } def              % Redefine showpage, { } = null proc
0 setgray 0 setlinecap         % Prepare graphics state
1 setlinewidth 0 setlinejoin
10 setmiterlimit [ ] 0 setdash newpath
/languagelevel where           % If level not equal to 1 then
{pop languagelevel             % set strokeadjust and
1 ne                           % overprint to their defaults.
{false setstrokeadjust false setoverprint
} if
} if
} bd
/EndEPSF { %def
count op_count sub {pop} repeat            % Clean up stacks
countdictstack dict_count sub {end} repeat
b4_Inc_state restore
} bd
%%EndResource
%FOPBeginFontDict
%%IncludeResource: font Courier-Bold
%%IncludeResource: font Helvetica
%%IncludeResource: font Courier-BoldOblique
%%IncludeResource: font Courier-Oblique
%%IncludeResource: font Times-Roman
%%IncludeResource: font Helvetica-BoldOblique
%%IncludeResource: font Helvetica-Bold
%%IncludeResource: font Helvetica-Oblique
%%IncludeResource: font Times-BoldItalic
%%IncludeResource: font Courier
%%IncludeResource: font Times-Italic
%%IncludeResource: font Times-Bold
%%IncludeResource: font Symbol
%%IncludeResource: font ZapfDingbats
%FOPEndFontDict
%%BeginResource: encoding WinAnsiEncoding
/WinAnsiEncoding [
/.notdef /.notdef /.notdef /.notdef /.notdef
/.notdef /.notdef /.notdef /.notdef /.notdef
/.notdef /.notdef /.notdef /.notdef /.notdef
/.notdef /.notdef /.notdef /.notdef /.notdef
/.notdef /.notdef /.notdef /.notdef /.notdef
/.notdef /.notdef /.notdef /.notdef /.notdef
/.notdef /.notdef /space /exclam /quotedbl
/numbersign /dollar /percent /ampersand /quotesingle
/parenleft /parenright /asterisk /plus /comma
/hyphen /period /slash /zero /one
/two /three /four /five /six
/seven /eight /nine /colon /semicolon
/less /equal /greater /question /at
/A /B /C /D /E
/F /G /H /I /J
/K /L /M /N /O
/P /Q /R /S /T
/U /V /W /X /Y
/Z /bracketleft /backslash /bracketright /asciicircum
/underscore /quoteleft /a /b /c
/d /e /f /g /h
/i /j /k /l /m
/n /o /p /q /r
/s /t /u /v /w
/x /y /z /braceleft /bar
/braceright /asciitilde /bullet /Euro /bullet
/quotesinglbase /florin /quotedblbase /ellipsis /dagger
/daggerdbl /circumflex /perthousand /Scaron /guilsinglleft
/OE /bullet /Zcaron /bullet /bullet
/quoteleft /quoteright /quotedblleft /quotedblright /bullet
/endash /emdash /asciitilde /trademark /scaron
/guilsinglright /oe /bullet /zcaron /Ydieresis
/space /exclamdown /cent /sterling /currency
/yen /brokenbar /section /dieresis /copyright
/ordfeminine /guillemotleft /logicalnot /sfthyphen /registered
/macron /degree /plusminus /twosuperior /threesuperior
/acute /mu /paragraph /middot /cedilla
/onesuperior /ordmasculine /guillemotright /onequarter /onehalf
/threequarters /questiondown /Agrave /Aacute /Acircumflex
/Atilde /Adieresis /Aring /AE /Ccedilla
/Egrave /Eacute /Ecircumflex /Edieresis /Igrave
/Iacute /Icircumflex /Idieresis /Eth /Ntilde
/Ograve /Oacute /Ocircumflex /Otilde /Odieresis
/multiply /Oslash /Ugrave /Uacute /Ucircumflex
/Udieresis /Yacute /Thorn /germandbls /agrave
/aacute /acircumflex /atilde /adieresis /aring
/ae /ccedilla /egrave /eacute /ecircumflex
/edieresis /igrave /iacute /icircumflex /idieresis
/eth /ntilde /ograve /oacute /ocircumflex
/otilde /odieresis /divide /oslash /ugrave
/uacute /ucircumflex /udieresis /yacute /thorn
/ydieresis
] def
%%EndResource
%FOPBeginFontReencode
/Courier-Bold findfont
dup length dict begin
  {1 index /FID ne {def} {pop pop} ifelse} forall
  /Encoding WinAnsiEncoding def
  currentdict
end
/Courier-Bold exch definefont pop
/Helvetica findfont
dup length dict begin
  {1 index /FID ne {def} {pop pop} ifelse} forall
  /Encoding WinAnsiEncoding def
  currentdict
end
/Helvetica exch definefont pop
/Courier-BoldOblique findfont
dup length dict begin
  {1 index /FID ne {def} {pop pop} ifelse} forall
  /Encoding WinAnsiEncoding def
  currentdict
end
/Courier-BoldOblique exch definefont pop
/Courier-Oblique findfont
dup length dict begin
  {1 index /FID ne {def} {pop pop} ifelse} forall
  /Encoding WinAnsiEncoding def
  currentdict
end
/Courier-Oblique exch definefont pop
/Times-Roman findfont
dup length dict begin
  {1 index /FID ne {def} {pop pop} ifelse} forall
  /Encoding WinAnsiEncoding def
  currentdict
end
/Times-Roman exch definefont pop
/Helvetica-BoldOblique findfont
dup length dict begin
  {1 index /FID ne {def} {pop pop} ifelse} forall
  /Encoding WinAnsiEncoding def
  currentdict
end
/Helvetica-BoldOblique exch definefont pop
/Helvetica-Bold findfont
dup length dict begin
  {1 index /FID ne {def} {pop pop} ifelse} forall
  /Encoding WinAnsiEncoding def
  currentdict
end
/Helvetica-Bold exch definefont pop
/Helvetica-Oblique findfont
dup length dict begin
  {1 index /FID ne {def} {pop pop} ifelse} forall
  /Encoding WinAnsiEncoding def
  currentdict
end
/Helvetica-Oblique exch definefont pop
/Times-BoldItalic findfont
dup length dict begin
  {1 index /FID ne {def} {pop pop} ifelse} forall
  /Encoding WinAnsiEncoding def
  currentdict
end
/Times-BoldItalic exch definefont pop
/Courier findfont
dup length dict begin
  {1 index /FID ne {def} {pop pop} ifelse} forall
  /Encoding WinAnsiEncoding def
  currentdict
end
/Courier exch definefont pop
/Times-Italic findfont
dup length dict begin
  {1 index /FID ne {def} {pop pop} ifelse} forall
  /Encoding WinAnsiEncoding def
  currentdict
end
/Times-Italic exch definefont pop
/Times-Bold findfont
dup length dict begin
  {1 index /FID ne {def} {pop pop} ifelse} forall
  /Encoding WinAnsiEncoding def
  currentdict
end
/Times-Bold exch definefont pop
%FOPEndFontReencode
%%EndProlog
%%Page: 1 1
%%PageBoundingBox: 0 0 1391 703
%%BeginPageSetup
[1 0 0 -1 0 703] CT
%%EndPageSetup
GS
[0.75 0 0 0.75 0 0.25] CT
N
0 0 M
1855 0 L
1855 937 L
0 937 L
0 0 L
cp
clip
1 GC
N
0 0 1855 937 re
f
GR
GS
[0.75 0 0 0.75 0 0.25] CT
1 GC
N
0 0 1855 937 re
f
GR
GS
[0.75 0 0 0.75 0 0.25] CT
1 GC
N
241 675 M
1679 675 L
1679 28 L
241 28 L
cp
f
GR
GS
[0.75 0 0 0.75 0 0.25] CT
0.873 GC
2 setlinecap
10.0 ML
N
519.221 675 M
519.221 28 L
S
GR
GS
[0.75 0 0 0.75 0 0.25] CT
0.873 GC
2 setlinecap
10.0 ML
N
808.792 675 M
808.792 28 L
S
GR
GS
[0.75 0 0 0.75 0 0.25] CT
0.873 GC
2 setlinecap
10.0 ML
N
1098.363 675 M
1098.363 28 L
S
GR
GS
[0.75 0 0 0.75 0 0.25] CT
0.873 GC
2 setlinecap
10.0 ML
N
1387.934 675 M
1387.934 28 L
S
GR
GS
[0.75 0 0 0.75 0 0.25] CT
0.873 GC
2 setlinecap
10.0 ML
N
1677.505 675 M
1677.505 28 L
S
GR
GS
[0.75 0 0 0.75 0 0.25] CT
0.873 GC
2 setlinecap
10.0 ML
N
1679 675 M
241 675 L
S
GR
GS
[0.75 0 0 0.75 0 0.25] CT
0.873 GC
2 setlinecap
10.0 ML
N
1679 594.125 M
241 594.125 L
S
GR
GS
[0.75 0 0 0.75 0 0.25] CT
0.873 GC
2 setlinecap
10.0 ML
N
1679 513.25 M
241 513.25 L
S
GR
GS
[0.75 0 0 0.75 0 0.25] CT
0.873 GC
2 setlinecap
10.0 ML
N
1679 432.375 M
241 432.375 L
S
GR
GS
[0.75 0 0 0.75 0 0.25] CT
0.873 GC
2 setlinecap
10.0 ML
N
1679 351.5 M
241 351.5 L
S
GR
GS
[0.75 0 0 0.75 0 0.25] CT
0.873 GC
2 setlinecap
10.0 ML
N
1679 270.625 M
241 270.625 L
S
GR
GS
[0.75 0 0 0.75 0 0.25] CT
0.873 GC
2 setlinecap
10.0 ML
N
1679 189.75 M
241 189.75 L
S
GR
GS
[0.75 0 0 0.75 0 0.25] CT
0.873 GC
2 setlinecap
10.0 ML
N
1679 108.875 M
241 108.875 L
S
GR
GS
[0.75 0 0 0.75 0 0.25] CT
0.873 GC
2 setlinecap
10.0 ML
N
1679 28 M
241 28 L
S
GR
GS
[0.75 0 0 0.75 720.0005 564.75002] CT
0.149 GC
/Helvetica 59 F
GS
[1 0 0 1 0 0] CT
-311 55 moveto 
1 -1 scale
(Step progression \(%\)) t 
GR
GR
GS
[0.75 0 0 0.75 0 0.25] CT
0.149 GC
2 setlinecap
10.0 ML
N
241 675 M
1679 675 L
S
GR
GS
[0.75 0 0 0.75 0 0.25] CT
0.149 GC
2 setlinecap
10.0 ML
N
241 28 M
1679 28 L
S
GR
GS
[0.75 0 0 0.75 0 0.25] CT
0.149 GC
2 setlinecap
10.0 ML
N
519.221 675 M
519.221 660.62 L
S
GR
GS
[0.75 0 0 0.75 0 0.25] CT
0.149 GC
2 setlinecap
10.0 ML
N
808.792 675 M
808.792 660.62 L
S
GR
GS
[0.75 0 0 0.75 0 0.25] CT
0.149 GC
2 setlinecap
10.0 ML
N
1098.363 675 M
1098.363 660.62 L
S
GR
GS
[0.75 0 0 0.75 0 0.25] CT
0.149 GC
2 setlinecap
10.0 ML
N
1387.934 675 M
1387.934 660.62 L
S
GR
GS
[0.75 0 0 0.75 0 0.25] CT
0.149 GC
2 setlinecap
10.0 ML
N
1677.505 675 M
1677.505 660.62 L
S
GR
GS
[0.75 0 0 0.75 0 0.25] CT
0.149 GC
2 setlinecap
10.0 ML
N
519.221 28 M
519.221 42.38 L
S
GR
GS
[0.75 0 0 0.75 0 0.25] CT
0.149 GC
2 setlinecap
10.0 ML
N
808.792 28 M
808.792 42.38 L
S
GR
GS
[0.75 0 0 0.75 0 0.25] CT
0.149 GC
2 setlinecap
10.0 ML
N
1098.363 28 M
1098.363 42.38 L
S
GR
GS
[0.75 0 0 0.75 0 0.25] CT
0.149 GC
2 setlinecap
10.0 ML
N
1387.934 28 M
1387.934 42.38 L
S
GR
GS
[0.75 0 0 0.75 0 0.25] CT
0.149 GC
2 setlinecap
10.0 ML
N
1677.505 28 M
1677.505 42.38 L
S
GR
GS
[0.75 0 0 0.75 389.41589 516.49998] CT
0.149 GC
/Helvetica 53 F
GS
[1 0 0 1 0 0] CT
-34 50 moveto 
1 -1 scale
(20) t 
GR
GR
GS
[0.75 0 0 0.75 606.59413 516.49998] CT
0.149 GC
/Helvetica 53 F
GS
[1 0 0 1 0 0] CT
-34 50 moveto 
1 -1 scale
(40) t 
GR
GR
GS
[0.75 0 0 0.75 823.77237 516.49998] CT
0.149 GC
/Helvetica 53 F
GS
[1 0 0 1 0 0] CT
-34 50 moveto 
1 -1 scale
(60) t 
GR
GR
GS
[0.75 0 0 0.75 1040.95065 516.49998] CT
0.149 GC
/Helvetica 53 F
GS
[1 0 0 1 0 0] CT
-34 50 moveto 
1 -1 scale
(80) t 
GR
GR
GS
[0.75 0 0 0.75 1258.12885 516.49998] CT
0.149 GC
/Helvetica 53 F
GS
[1 0 0 1 0 0] CT
-51 50 moveto 
1 -1 scale
(100) t 
GR
GR
GS
[0 -0.75 0.75 0 104 263.87475] CT
0.149 GC
/Helvetica 59 F
GS
[1 0 0 1 0 0] CT
-165.5 -14 moveto 
1 -1 scale
(Angle \(rad\)) t 
GR
GR
GS
[0.75 0 0 0.75 0 0.25] CT
0.149 GC
2 setlinecap
10.0 ML
N
241 675 M
241 28 L
S
GR
GS
[0.75 0 0 0.75 0 0.25] CT
0.149 GC
2 setlinecap
10.0 ML
N
1679 675 M
1679 28 L
S
GR
GS
[0.75 0 0 0.75 0 0.25] CT
0.149 GC
2 setlinecap
10.0 ML
N
241 675 M
255.38 675 L
S
GR
GS
[0.75 0 0 0.75 0 0.25] CT
0.149 GC
2 setlinecap
10.0 ML
N
241 594.125 M
255.38 594.125 L
S
GR
GS
[0.75 0 0 0.75 0 0.25] CT
0.149 GC
2 setlinecap
10.0 ML
N
241 513.25 M
255.38 513.25 L
S
GR
GS
[0.75 0 0 0.75 0 0.25] CT
0.149 GC
2 setlinecap
10.0 ML
N
241 432.375 M
255.38 432.375 L
S
GR
GS
[0.75 0 0 0.75 0 0.25] CT
0.149 GC
2 setlinecap
10.0 ML
N
241 351.5 M
255.38 351.5 L
S
GR
GS
[0.75 0 0 0.75 0 0.25] CT
0.149 GC
2 setlinecap
10.0 ML
N
241 270.625 M
255.38 270.625 L
S
GR
GS
[0.75 0 0 0.75 0 0.25] CT
0.149 GC
2 setlinecap
10.0 ML
N
241 189.75 M
255.38 189.75 L
S
GR
GS
[0.75 0 0 0.75 0 0.25] CT
0.149 GC
2 setlinecap
10.0 ML
N
241 108.875 M
255.38 108.875 L
S
GR
GS
[0.75 0 0 0.75 0 0.25] CT
0.149 GC
2 setlinecap
10.0 ML
N
241 28 M
255.38 28 L
S
GR
GS
[0.75 0 0 0.75 0 0.25] CT
0.149 GC
2 setlinecap
10.0 ML
N
1679 675 M
1664.62 675 L
S
GR
GS
[0.75 0 0 0.75 0 0.25] CT
0.149 GC
2 setlinecap
10.0 ML
N
1679 594.125 M
1664.62 594.125 L
S
GR
GS
[0.75 0 0 0.75 0 0.25] CT
0.149 GC
2 setlinecap
10.0 ML
N
1679 513.25 M
1664.62 513.25 L
S
GR
GS
[0.75 0 0 0.75 0 0.25] CT
0.149 GC
2 setlinecap
10.0 ML
N
1679 432.375 M
1664.62 432.375 L
S
GR
GS
[0.75 0 0 0.75 0 0.25] CT
0.149 GC
2 setlinecap
10.0 ML
N
1679 351.5 M
1664.62 351.5 L
S
GR
GS
[0.75 0 0 0.75 0 0.25] CT
0.149 GC
2 setlinecap
10.0 ML
N
1679 270.625 M
1664.62 270.625 L
S
GR
GS
[0.75 0 0 0.75 0 0.25] CT
0.149 GC
2 setlinecap
10.0 ML
N
1679 189.75 M
1664.62 189.75 L
S
GR
GS
[0.75 0 0 0.75 0 0.25] CT
0.149 GC
2 setlinecap
10.0 ML
N
1679 108.875 M
1664.62 108.875 L
S
GR
GS
[0.75 0 0 0.75 0 0.25] CT
0.149 GC
2 setlinecap
10.0 ML
N
1679 28 M
1664.62 28 L
S
GR
GS
[0.75 0 0 0.75 170.75 506.5] CT
0.149 GC
/Helvetica 53 F
GS
[1 0 0 1 0 0] CT
-34 18.5 moveto 
1 -1 scale
(0) t 
GR
GR
GS
[0.75 0 0 0.75 170.75 445.84375] CT
0.149 GC
/Helvetica 53 F
GS
[1 0 0 1 0 0] CT
-85 18.5 moveto 
1 -1 scale
(0.3) t 
GR
GR
GS
[0.75 0 0 0.75 170.75 385.1875] CT
0.149 GC
/Helvetica 53 F
GS
[1 0 0 1 0 0] CT
-85 18.5 moveto 
1 -1 scale
(0.6) t 
GR
GR
GS
[0.75 0 0 0.75 170.75 324.53125] CT
0.149 GC
/Helvetica 53 F
GS
[1 0 0 1 0 0] CT
-85 18.5 moveto 
1 -1 scale
(0.9) t 
GR
GR
GS
[0.75 0 0 0.75 170.75 263.875] CT
0.149 GC
/Helvetica 53 F
GS
[1 0 0 1 0 0] CT
-85 18.5 moveto 
1 -1 scale
(1.2) t 
GR
GR
GS
[0.75 0 0 0.75 170.75 203.21875] CT
0.149 GC
/Helvetica 53 F
GS
[1 0 0 1 0 0] CT
-85 18.5 moveto 
1 -1 scale
(1.5) t 
GR
GR
GS
[0.75 0 0 0.75 170.75 142.56251] CT
0.149 GC
/Helvetica 53 F
GS
[1 0 0 1 0 0] CT
-85 18.5 moveto 
1 -1 scale
(1.8) t 
GR
GR
GS
[0.75 0 0 0.75 170.75 81.90627] CT
0.149 GC
/Helvetica 53 F
GS
[1 0 0 1 0 0] CT
-85 18.5 moveto 
1 -1 scale
(2.1) t 
GR
GR
GS
[0.75 0 0 0.75 170.75 21.24998] CT
0.149 GC
/Helvetica 53 F
GS
[1 0 0 1 0 0] CT
-85 18.5 moveto 
1 -1 scale
(2.4) t 
GR
GR
GS
[0.75 0 0 0.75 0 0.25] CT
0 0.447 0.741 RC
2 LJ
6.667 LW
N
240.856 604.691 M
241.668 604.206 L
243.647 603.009 L
245.773 601.703 L
248.045 600.295 L
250.435 598.788 L
252.929 597.196 L
255.518 595.534 L
258.181 593.81 L
260.9 592.035 L
263.659 590.223 L
266.445 588.387 L
269.235 586.54 L
272.033 584.676 L
274.821 582.808 L
277.595 580.946 L
280.344 579.083 L
283.072 577.225 L
285.782 575.372 L
288.461 573.527 L
291.11 571.693 L
293.745 569.853 L
296.358 568.02 L
298.947 566.184 L
301.516 564.35 L
304.06 562.514 L
306.588 560.675 L
309.105 558.824 L
311.615 556.964 L
314.114 555.095 L
316.604 553.22 L
319.096 551.344 L
321.582 549.457 L
324.072 547.566 L
326.569 545.676 L
329.078 543.784 L
331.604 541.889 L
334.158 539.992 L
336.727 538.096 L
339.328 536.194 L
341.966 534.287 L
344.644 532.381 L
347.362 530.462 L
350.127 528.54 L
352.938 526.621 L
355.791 524.704 L
358.665 522.806 L
361.574 520.953 L
364.499 519.148 L
367.43 517.412 L
S
GR
GS
[0.75 0 0 0.75 0 0.25] CT
0 0.447 0.741 RC
2 LJ
6.667 LW
N
367.43 517.412 M
370.369 515.763 L
373.301 514.221 L
376.227 512.799 L
379.152 511.505 L
382.058 510.355 L
384.961 509.342 L
387.865 508.476 L
390.769 507.748 L
393.679 507.144 L
396.592 506.651 L
399.505 506.256 L
402.413 505.955 L
405.309 505.723 L
408.193 505.542 L
411.048 505.41 L
413.87 505.309 L
416.657 505.229 L
419.402 505.166 L
422.101 505.106 L
424.754 505.048 L
427.375 504.986 L
429.968 504.936 L
432.543 504.889 L
435.109 504.849 L
437.683 504.827 L
440.282 504.824 L
442.915 504.857 L
445.596 504.939 L
448.329 505.086 L
451.129 505.295 L
453.995 505.603 L
456.932 505.996 L
459.933 506.493 L
462.987 507.096 L
466.078 507.798 L
469.208 508.606 L
472.359 509.505 L
475.516 510.493 L
478.661 511.566 L
481.795 512.695 L
484.918 513.882 L
488.012 515.097 L
491.093 516.329 L
494.156 517.587 L
497.219 518.849 L
500.297 520.114 L
503.401 521.368 L
506.542 522.61 L
509.729 523.84 L
S
GR
GS
[0.75 0 0 0.75 0 0.25] CT
0 0.447 0.741 RC
2 LJ
6.667 LW
N
509.729 523.84 M
512.974 525.058 L
516.267 526.273 L
519.616 527.484 L
523.014 528.698 L
526.471 529.935 L
529.977 531.201 L
533.517 532.508 L
537.084 533.87 L
540.675 535.285 L
544.292 536.773 L
547.96 538.348 L
551.671 540.005 L
555.421 541.732 L
559.228 543.53 L
563.107 545.387 L
567.069 547.296 L
571.094 549.229 L
575.185 551.175 L
579.322 553.127 L
583.509 555.057 L
587.723 556.967 L
591.946 558.842 L
596.168 560.679 L
600.371 562.488 L
604.542 564.26 L
608.681 566.008 L
612.796 567.733 L
616.877 569.449 L
620.953 571.16 L
625.013 572.871 L
629.072 574.592 L
633.162 576.331 L
637.274 578.09 L
641.419 579.877 L
645.586 581.683 L
649.761 583.504 L
653.939 585.344 L
658.123 587.212 L
662.303 589.088 L
666.467 590.955 L
670.593 592.808 L
674.68 594.644 L
678.731 596.447 L
682.751 598.204 L
686.736 599.911 L
690.695 601.542 L
694.637 603.112 L
698.571 604.616 L
702.512 606.041 L
S
GR
GS
[0.75 0 0 0.75 0 0.25] CT
0 0.447 0.741 RC
2 LJ
6.667 LW
N
702.512 606.041 M
706.48 607.402 L
710.474 608.701 L
714.493 609.942 L
718.573 611.135 L
722.708 612.283 L
726.904 613.393 L
731.154 614.469 L
735.447 615.519 L
739.798 616.544 L
744.187 617.537 L
748.614 618.505 L
753.061 619.447 L
757.511 620.352 L
761.962 621.222 L
766.393 622.058 L
770.797 622.864 L
775.165 623.633 L
779.507 624.356 L
783.814 625.044 L
788.076 625.686 L
792.292 626.282 L
796.463 626.83 L
800.58 627.322 L
804.645 627.757 L
808.646 628.133 L
812.572 628.446 L
816.421 628.685 L
820.186 628.853 L
823.848 628.939 L
827.394 628.956 L
830.828 628.894 L
834.153 628.773 L
837.369 628.579 L
840.466 628.325 L
843.456 628.017 L
846.35 627.658 L
849.153 627.254 L
851.876 626.815 L
854.514 626.332 L
857.083 625.826 L
859.585 625.286 L
862.029 624.716 L
864.408 624.13 L
866.728 623.511 L
869.002 622.864 L
871.235 622.183 L
873.435 621.476 L
875.611 620.728 L
877.772 619.944 L
S
GR
GS
[0.75 0 0 0.75 0 0.25] CT
0 0.447 0.741 RC
2 LJ
6.667 LW
N
877.772 619.944 M
879.927 619.118 L
882.094 618.241 L
884.273 617.316 L
886.469 616.34 L
888.685 615.317 L
890.93 614.239 L
893.182 613.125 L
895.435 611.969 L
897.685 610.787 L
899.92 609.582 L
902.134 608.374 L
904.31 607.169 L
906.448 605.968 L
908.542 604.787 L
910.596 603.632 L
912.609 602.5 L
914.588 601.393 L
916.544 600.316 L
918.481 599.254 L
920.403 598.209 L
922.319 597.175 L
924.245 596.15 L
926.159 595.124 L
928.073 594.098 L
929.985 593.07 L
931.891 592.033 L
933.78 591.001 L
935.655 589.961 L
937.512 588.925 L
939.346 587.884 L
941.151 586.842 L
942.934 585.785 L
944.706 584.716 L
946.462 583.636 L
948.216 582.533 L
949.974 581.392 L
951.739 580.202 L
953.533 578.965 L
955.339 577.667 L
957.177 576.301 L
959.056 574.853 L
960.969 573.318 L
962.926 571.7 L
964.929 569.986 L
966.973 568.185 L
969.062 566.295 L
971.166 564.317 L
973.316 562.264 L
975.487 560.133 L
S
GR
GS
[0.75 0 0 0.75 0 0.25] CT
0 0.447 0.741 RC
2 LJ
6.667 LW
N
975.487 560.133 M
977.675 557.944 L
979.87 555.71 L
982.061 553.428 L
984.242 551.12 L
986.402 548.782 L
988.537 546.427 L
991.567 542.442 L
993.816 539.758 L
996.367 536.469 L
999.2 532.627 L
1002.259 528.343 L
1005.456 523.75 L
1008.712 519.012 L
1011.914 514.295 L
1015.003 509.764 L
1017.876 505.582 L
1020.452 501.889 L
1022.688 498.793 L
1024.544 496.344 L
1026.009 494.575 L
1027.104 493.456 L
1027.869 492.924 L
1028.373 492.869 L
1028.685 493.148 L
1028.903 493.613 L
1029.118 494.079 L
1029.429 494.373 L
1029.93 494.332 L
1030.687 493.816 L
1031.76 492.715 L
1033.18 490.969 L
1033.848 490.489 L
1035.434 488.347 L
1037.018 486.151 L
1038.594 483.906 L
1040.156 481.63 L
1041.715 479.314 L
1043.269 476.966 L
1044.824 474.593 L
1046.376 472.211 L
1047.93 469.82 L
1049.484 467.43 L
1051.036 465.049 L
1052.586 462.689 L
1054.135 460.354 L
1055.681 458.035 L
1057.23 455.717 L
1058.781 453.414 L
1060.33 451.102 L
S
GR
GS
[0.75 0 0 0.75 0 0.25] CT
0 0.447 0.741 RC
2 LJ
6.667 LW
N
1060.33 451.102 M
1061.882 448.772 L
1063.444 446.418 L
1065.014 444.005 L
1066.593 441.543 L
1068.193 439.009 L
1069.818 436.399 L
1071.459 433.703 L
1073.127 430.918 L
1074.817 428.044 L
1076.53 425.096 L
1078.276 422.078 L
1080.045 418.974 L
1081.839 415.811 L
1083.649 412.591 L
1085.481 409.323 L
1087.323 406.006 L
1089.164 402.658 L
1091 399.281 L
1092.831 395.886 L
1094.635 392.472 L
1096.403 389.044 L
1098.146 385.614 L
1099.845 382.201 L
1101.501 378.789 L
1103.1 375.397 L
1104.65 372.035 L
1106.148 368.695 L
1107.601 365.405 L
1109.01 362.143 L
1110.381 358.912 L
1111.718 355.733 L
1113.034 352.591 L
1114.337 349.477 L
1115.642 346.385 L
1116.959 343.311 L
1118.293 340.247 L
1119.658 337.181 L
1121.067 334.108 L
1122.522 331.015 L
1124.026 327.887 L
1125.578 324.734 L
1127.178 321.542 L
1128.818 318.324 L
1130.484 315.065 L
1132.171 311.787 L
1133.879 308.494 L
1135.58 305.195 L
1137.271 301.891 L
1138.943 298.615 L
S
GR
GS
[0.75 0 0 0.75 0 0.25] CT
0 0.447 0.741 RC
2 LJ
6.667 LW
N
1138.943 298.615 M
1140.605 295.371 L
1142.237 292.161 L
1143.84 288.998 L
1145.418 285.873 L
1146.984 282.803 L
1148.525 279.792 L
1150.05 276.826 L
1151.569 273.905 L
1153.081 271.026 L
1154.596 268.188 L
1156.111 265.361 L
1157.627 262.563 L
1159.147 259.77 L
1160.664 256.988 L
1162.185 254.213 L
1163.706 251.44 L
1165.227 248.66 L
1166.747 245.877 L
1168.262 243.076 L
1169.787 240.253 L
1171.318 237.407 L
1172.857 234.53 L
1174.418 231.628 L
1176.014 228.69 L
1177.646 225.705 L
1179.315 222.677 L
1181.034 219.595 L
1182.816 216.461 L
1184.66 213.28 L
1186.555 210.051 L
1188.511 206.779 L
1190.525 203.468 L
1192.585 200.136 L
1194.686 196.798 L
1196.804 193.46 L
1198.945 190.149 L
1201.093 186.861 L
1203.226 183.64 L
1205.35 180.478 L
1207.451 177.389 L
1209.526 174.386 L
1211.57 171.47 L
1213.589 168.641 L
1215.597 165.892 L
1217.595 163.222 L
1219.597 160.626 L
1221.627 158.077 L
1223.704 155.566 L
1225.837 153.09 L
S
GR
GS
[0.75 0 0 0.75 0 0.25] CT
0 0.447 0.741 RC
2 LJ
6.667 LW
N
1225.837 153.09 M
1228.047 150.635 L
1230.344 148.194 L
1232.752 145.772 L
1235.271 143.362 L
1237.903 140.972 L
1240.649 138.618 L
1243.524 136.318 L
1246.517 134.087 L
1249.619 131.95 L
1252.829 129.923 L
1256.149 128.027 L
1259.569 126.289 L
1263.073 124.722 L
1266.669 123.33 L
1270.337 122.132 L
1274.07 121.134 L
1277.854 120.345 L
1281.687 119.762 L
1285.553 119.386 L
1289.445 119.229 L
1293.344 119.289 L
1297.249 119.559 L
1301.147 120.058 L
1305.034 120.777 L
1308.896 121.721 L
1312.724 122.889 L
1316.511 124.268 L
1320.24 125.858 L
1323.895 127.648 L
1327.469 129.631 L
1330.954 131.786 L
1334.342 134.096 L
1337.62 136.557 L
1340.8 139.148 L
1343.877 141.859 L
1346.864 144.677 L
1349.762 147.582 L
1352.595 150.581 L
1355.375 153.663 L
1358.113 156.822 L
1360.833 160.058 L
1363.542 163.354 L
1366.25 166.717 L
1368.955 170.138 L
1371.656 173.611 L
1374.363 177.144 L
1377.075 180.719 L
1379.784 184.337 L
1382.488 188.006 L
S
GR
GS
[0.75 0 0 0.75 0 0.25] CT
0 0.447 0.741 RC
2 LJ
6.667 LW
N
1382.488 188.006 M
1385.182 191.72 L
1387.865 195.476 L
1390.533 199.269 L
1393.183 203.096 L
1395.818 206.964 L
1399.044 212.15 L
1401.749 216.314 L
1404.648 220.971 L
1407.72 226.055 L
1410.906 231.472 L
1414.163 237.103 L
1417.42 242.805 L
1420.605 248.438 L
1423.659 253.858 L
1426.52 258.939 L
1429.141 263.581 L
1431.492 267.686 L
1433.551 271.247 L
1435.314 274.243 L
1436.803 276.706 L
1438.049 278.719 L
1439.098 280.376 L
1440.002 281.814 L
1440.837 283.187 L
1441.654 284.621 L
1442.528 286.27 L
1443.515 288.262 L
1444.672 290.727 L
1446.036 293.742 L
1447.628 297.338 L
1448.734 299.989 L
1450.466 304.025 L
1452.209 308.146 L
1453.968 312.331 L
1455.751 316.559 L
1457.55 320.828 L
1459.375 325.115 L
1461.238 329.41 L
1463.12 333.709 L
1465.021 337.993 L
1466.945 342.254 L
1468.877 346.492 L
1470.811 350.691 L
1472.744 354.856 L
1474.67 359.002 L
1476.586 363.116 L
1478.491 367.202 L
1480.387 371.269 L
1482.264 375.308 L
S
GR
GS
[0.75 0 0 0.75 0 0.25] CT
0 0.447 0.741 RC
2 LJ
6.667 LW
N
1482.264 375.308 M
1484.141 379.344 L
1486.009 383.366 L
1487.879 387.384 L
1489.75 391.399 L
1491.632 395.415 L
1493.531 399.442 L
1495.446 403.475 L
1497.377 407.506 L
1499.315 411.525 L
1501.266 415.546 L
1503.228 419.559 L
1505.2 423.555 L
1507.17 427.537 L
1509.128 431.498 L
1511.077 435.421 L
1513.013 439.307 L
1514.927 443.151 L
1516.818 446.974 L
1518.685 450.758 L
1520.519 454.49 L
1522.316 458.17 L
1524.08 461.795 L
1525.802 465.358 L
1527.49 468.854 L
1529.147 472.28 L
1530.764 475.615 L
1532.343 478.865 L
1533.891 482.026 L
1535.417 485.108 L
1536.923 488.1 L
1538.417 491.02 L
1539.898 493.879 L
1541.372 496.692 L
1542.863 499.484 L
1544.37 502.266 L
1545.898 505.067 L
1547.45 507.894 L
1549.035 510.757 L
1550.652 513.669 L
1552.302 516.634 L
1553.989 519.666 L
1555.706 522.769 L
1557.462 525.921 L
1559.244 529.121 L
1561.053 532.37 L
1562.892 535.652 L
1564.75 538.961 L
1566.629 542.275 L
1568.533 545.59 L
S
GR
GS
[0.75 0 0 0.75 0 0.25] CT
0 0.447 0.741 RC
2 LJ
6.667 LW
N
1568.533 545.59 M
1570.451 548.886 L
1572.388 552.144 L
1574.348 555.34 L
1576.328 558.474 L
1578.33 561.532 L
1580.353 564.504 L
1582.402 567.383 L
1584.484 570.171 L
1586.612 572.866 L
1588.783 575.478 L
1591.012 578.011 L
1593.303 580.482 L
1595.672 582.889 L
1598.127 585.246 L
1600.665 587.557 L
1603.302 589.831 L
1606.05 592.064 L
1608.904 594.243 L
1611.854 596.371 L
1614.901 598.428 L
1618.027 600.399 L
1621.212 602.274 L
1624.451 604.03 L
1627.732 605.666 L
1631.013 607.156 L
1634.291 608.492 L
1637.547 609.677 L
1640.754 610.72 L
1643.893 611.615 L
1646.951 612.367 L
1649.913 612.994 L
1652.763 613.508 L
1655.486 613.921 L
1658.061 614.254 L
1660.479 614.523 L
1662.713 614.739 L
1664.757 614.911 L
1666.597 615.051 L
1668.216 615.166 L
1669.632 615.26 L
S
GR
GS
[0.75 0 0 0.75 0 0.25] CT
0.851 0.325 0.098 RC
2 LJ
6.667 LW
N
240.856 558.285 M
241.442 558.015 L
243.263 557.145 L
245.178 556.191 L
247.167 555.158 L
249.218 554.057 L
251.317 552.893 L
253.456 551.666 L
255.621 550.393 L
257.811 549.069 L
260.021 547.706 L
262.253 546.31 L
264.503 544.888 L
266.768 543.441 L
269.039 541.973 L
271.319 540.495 L
273.603 539.011 L
275.885 537.519 L
278.155 536.023 L
280.402 534.522 L
282.622 533.021 L
284.809 531.517 L
286.954 530.001 L
289.047 528.483 L
291.091 526.958 L
293.083 525.431 L
295.029 523.902 L
296.933 522.361 L
298.798 520.809 L
300.636 519.257 L
302.457 517.697 L
304.269 516.133 L
306.081 514.567 L
307.905 512.996 L
309.75 511.419 L
311.626 509.835 L
313.534 508.242 L
315.479 506.642 L
317.451 505.039 L
319.468 503.43 L
321.52 501.818 L
323.6 500.2 L
325.705 498.585 L
327.829 496.97 L
329.964 495.37 L
332.106 493.778 L
334.239 492.199 L
336.373 490.642 L
338.495 489.108 L
340.603 487.602 L
S
GR
GS
[0.75 0 0 0.75 0 0.25] CT
0.851 0.325 0.098 RC
2 LJ
6.667 LW
N
340.603 487.602 M
342.687 486.125 L
344.745 484.676 L
346.785 483.259 L
348.802 481.882 L
350.799 480.538 L
352.77 479.232 L
354.716 477.961 L
356.634 476.733 L
358.536 475.543 L
360.416 474.391 L
362.279 473.269 L
364.132 472.186 L
365.979 471.138 L
367.832 470.116 L
369.692 469.127 L
371.567 468.159 L
373.471 467.21 L
375.405 466.284 L
377.38 465.383 L
379.401 464.497 L
381.463 463.632 L
383.575 462.787 L
385.72 461.971 L
387.899 461.178 L
390.102 460.413 L
392.323 459.68 L
394.554 458.979 L
396.783 458.311 L
399.003 457.678 L
401.207 457.082 L
403.394 456.524 L
405.566 456.005 L
407.726 455.523 L
409.869 455.072 L
412.014 454.659 L
414.165 454.292 L
416.335 453.964 L
418.517 453.67 L
420.726 453.416 L
422.959 453.195 L
425.23 453.008 L
427.523 452.86 L
429.838 452.746 L
432.172 452.666 L
434.519 452.615 L
436.879 452.599 L
439.248 452.621 L
441.612 452.678 L
443.983 452.787 L
S
GR
GS
[0.75 0 0 0.75 0 0.25] CT
0.851 0.325 0.098 RC
2 LJ
6.667 LW
N
443.983 452.787 M
446.343 452.935 L
448.71 453.137 L
451.068 453.382 L
453.422 453.688 L
455.767 454.046 L
458.114 454.457 L
460.448 454.913 L
462.777 455.409 L
465.085 455.939 L
467.381 456.506 L
469.656 457.096 L
471.908 457.699 L
474.137 458.304 L
476.348 458.911 L
478.542 459.519 L
480.729 460.126 L
482.9 460.734 L
485.066 461.33 L
487.246 461.925 L
489.429 462.517 L
491.628 463.12 L
493.839 463.736 L
496.062 464.363 L
498.306 465.01 L
500.549 465.678 L
502.806 466.379 L
505.057 467.111 L
507.314 467.89 L
509.566 468.708 L
511.825 469.579 L
514.079 470.499 L
516.34 471.482 L
518.594 472.528 L
520.863 473.644 L
523.142 474.816 L
525.436 476.055 L
527.755 477.356 L
530.088 478.717 L
532.444 480.136 L
534.816 481.599 L
537.199 483.097 L
539.6 484.626 L
542.02 486.186 L
544.441 487.762 L
546.877 489.345 L
549.325 490.934 L
551.784 492.521 L
554.249 494.104 L
556.727 495.686 L
S
GR
GS
[0.75 0 0 0.75 0 0.25] CT
0.851 0.325 0.098 RC
2 LJ
6.667 LW
N
556.727 495.686 M
559.22 497.265 L
561.727 498.836 L
564.234 500.402 L
566.758 501.963 L
569.296 503.533 L
571.841 505.106 L
574.402 506.7 L
576.982 508.306 L
579.591 509.946 L
582.224 511.612 L
584.887 513.325 L
587.589 515.078 L
590.331 516.873 L
593.093 518.702 L
595.893 520.566 L
598.719 522.454 L
601.563 524.363 L
604.402 526.27 L
607.227 528.162 L
610.028 530.026 L
612.781 531.853 L
615.486 533.639 L
618.136 535.368 L
620.738 537.051 L
623.286 538.679 L
625.784 540.258 L
628.243 541.805 L
630.684 543.327 L
633.106 544.838 L
635.529 546.342 L
637.964 547.852 L
640.426 549.381 L
642.92 550.94 L
645.443 552.531 L
648.002 554.157 L
650.597 555.816 L
653.214 557.501 L
655.848 559.217 L
658.503 560.961 L
661.158 562.719 L
663.81 564.488 L
666.452 566.253 L
669.079 568.008 L
671.678 569.743 L
674.253 571.45 L
676.807 573.127 L
679.337 574.758 L
681.851 576.355 L
684.352 577.91 L
S
GR
GS
[0.75 0 0 0.75 0 0.25] CT
0.851 0.325 0.098 RC
2 LJ
6.667 LW
N
684.352 577.91 M
686.848 579.431 L
689.339 580.926 L
691.841 582.387 L
694.359 583.843 L
696.896 585.284 L
699.459 586.722 L
702.05 588.166 L
704.662 589.607 L
707.293 591.052 L
709.947 592.491 L
712.615 593.926 L
715.271 595.362 L
717.922 596.784 L
720.554 598.178 L
723.165 599.543 L
725.75 600.891 L
728.299 602.21 L
730.802 603.505 L
733.273 604.777 L
735.72 606.033 L
738.149 607.278 L
740.581 608.506 L
743.016 609.725 L
745.466 610.933 L
747.952 612.128 L
750.477 613.309 L
753.065 614.482 L
755.71 615.641 L
758.415 616.768 L
761.182 617.875 L
763.995 618.95 L
766.856 619.995 L
769.75 621.001 L
772.674 621.969 L
775.609 622.911 L
778.534 623.824 L
781.472 624.689 L
784.397 625.522 L
787.316 626.328 L
790.224 627.122 L
793.137 627.902 L
796.06 628.676 L
798.993 629.453 L
801.949 630.241 L
804.933 631.042 L
807.947 631.857 L
810.984 632.686 L
814.05 633.522 L
817.141 634.366 L
S
GR
GS
[0.75 0 0 0.75 0 0.25] CT
0.851 0.325 0.098 RC
2 LJ
6.667 LW
N
817.141 634.366 M
820.24 635.214 L
823.367 636.051 L
826.495 636.863 L
829.626 637.65 L
832.765 638.396 L
835.895 639.093 L
839.026 639.737 L
842.155 640.312 L
845.294 640.83 L
848.429 641.289 L
851.553 641.677 L
854.67 641.993 L
857.76 642.234 L
860.821 642.411 L
863.837 642.514 L
866.799 642.552 L
869.683 642.512 L
872.482 642.403 L
875.197 642.235 L
877.819 642 L
880.353 641.708 L
882.791 641.357 L
885.144 640.951 L
887.428 640.508 L
889.66 640.023 L
891.854 639.496 L
894.007 638.939 L
896.149 638.346 L
898.284 637.718 L
900.405 637.062 L
902.532 636.372 L
904.66 635.647 L
906.805 634.876 L
908.943 634.065 L
911.081 633.215 L
913.219 632.314 L
915.336 631.374 L
917.45 630.391 L
919.559 629.362 L
921.662 628.304 L
923.767 627.21 L
925.864 626.096 L
927.964 624.971 L
930.085 623.837 L
932.23 622.69 L
934.42 621.531 L
936.672 620.359 L
938.994 619.17 L
941.384 617.955 L
S
GR
GS
[0.75 0 0 0.75 0 0.25] CT
0.851 0.325 0.098 RC
2 LJ
6.667 LW
N
941.384 617.955 M
943.849 616.699 L
946.393 615.401 L
949.016 614.045 L
951.701 612.638 L
954.442 611.165 L
957.236 609.624 L
960.053 608.01 L
962.887 606.33 L
965.714 604.598 L
968.531 602.809 L
971.327 600.965 L
974.092 599.074 L
976.845 597.129 L
979.58 595.138 L
982.301 593.099 L
985.004 591.008 L
987.703 588.858 L
990.404 586.654 L
993.105 584.397 L
995.808 582.077 L
998.521 579.709 L
1001.219 577.298 L
1003.907 574.838 L
1006.574 572.348 L
1009.212 569.824 L
1011.819 567.284 L
1014.383 564.724 L
1016.906 562.154 L
1019.38 559.571 L
1021.801 556.982 L
1024.17 554.382 L
1026.482 551.775 L
1028.754 549.152 L
1030.968 546.514 L
1033.134 543.859 L
1035.252 541.179 L
1037.325 538.479 L
1039.359 535.762 L
1041.35 533.018 L
1043.303 530.253 L
1045.223 527.466 L
1047.106 524.676 L
1048.962 521.875 L
1050.8 519.059 L
1052.615 516.239 L
1054.417 513.413 L
1056.216 510.583 L
1058.008 507.758 L
1059.803 504.925 L
S
GR
GS
[0.75 0 0 0.75 0 0.25] CT
0.851 0.325 0.098 RC
2 LJ
6.667 LW
N
1059.803 504.925 M
1061.604 502.091 L
1063.409 499.262 L
1065.231 496.441 L
1067.055 493.622 L
1068.896 490.799 L
1070.748 487.979 L
1072.598 485.164 L
1074.464 482.338 L
1076.335 479.508 L
1078.22 476.656 L
1080.111 473.787 L
1082.012 470.886 L
1083.929 467.94 L
1085.864 464.943 L
1087.817 461.901 L
1089.783 458.802 L
1091.766 455.65 L
1093.77 452.44 L
1095.788 449.176 L
1097.811 445.867 L
1099.841 442.521 L
1101.868 439.146 L
1103.898 435.734 L
1105.917 432.302 L
1107.907 428.875 L
1109.877 425.452 L
1111.815 422.023 L
1113.706 418.596 L
1115.55 415.182 L
1117.336 411.784 L
1119.057 408.404 L
1120.721 405.023 L
1122.32 401.65 L
1123.855 398.276 L
1125.331 394.903 L
1126.755 391.517 L
1128.142 388.118 L
1129.502 384.699 L
1130.847 381.255 L
1132.196 377.782 L
1133.561 374.287 L
1134.951 370.762 L
1136.379 367.2 L
1137.854 363.6 L
1139.382 359.963 L
1140.97 356.28 L
1142.615 352.542 L
1144.31 348.762 L
1146.055 344.935 L
S
GR
GS
[0.75 0 0 0.75 0 0.25] CT
0.851 0.325 0.098 RC
2 LJ
6.667 LW
N
1146.055 344.935 M
1147.852 341.05 L
1149.686 337.115 L
1151.541 333.144 L
1153.417 329.148 L
1155.308 325.137 L
1157.2 321.126 L
1159.09 317.128 L
1160.967 313.161 L
1162.844 309.232 L
1164.702 305.352 L
1166.54 301.529 L
1168.369 297.755 L
1170.189 294.022 L
1172.001 290.339 L
1173.811 286.683 L
1175.609 283.049 L
1177.422 279.414 L
1179.243 275.766 L
1181.083 272.082 L
1182.943 268.351 L
1184.825 264.563 L
1186.743 260.695 L
1188.703 256.747 L
1190.71 252.705 L
1192.769 248.57 L
1194.871 244.345 L
1197.014 240.039 L
1199.206 235.668 L
1201.433 231.247 L
1203.686 226.796 L
1205.961 222.337 L
1208.252 217.884 L
1210.551 213.459 L
1212.841 209.089 L
1215.131 204.78 L
1217.416 200.527 L
1219.704 196.339 L
1222.008 192.216 L
1224.335 188.138 L
1226.7 184.101 L
1229.118 180.093 L
1231.598 176.096 L
1234.159 172.11 L
1236.819 168.139 L
1239.576 164.188 L
1242.434 160.244 L
1245.415 156.338 L
1248.501 152.487 L
1251.694 148.717 L
S
GR
GS
[0.75 0 0 0.75 0 0.25] CT
0.851 0.325 0.098 RC
2 LJ
6.667 LW
N
1251.694 148.717 M
1254.995 145.054 L
1258.384 141.544 L
1261.866 138.217 L
1265.426 135.103 L
1269.061 132.229 L
1272.783 129.626 L
1276.558 127.319 L
1280.395 125.326 L
1284.288 123.65 L
1288.236 122.295 L
1292.219 121.251 L
1296.251 120.506 L
1300.313 120.045 L
1304.381 119.845 L
1308.452 119.878 L
1312.512 120.127 L
1316.546 120.572 L
1320.532 121.201 L
1324.453 121.995 L
1328.282 122.955 L
1332.012 124.062 L
1335.649 125.326 L
1339.164 126.738 L
1342.57 128.305 L
1345.869 130.026 L
1349.05 131.905 L
1352.141 133.926 L
1355.151 136.088 L
1358.113 138.386 L
1361.031 140.808 L
1363.924 143.351 L
1366.819 146.001 L
1369.734 148.747 L
1372.678 151.601 L
1375.65 154.534 L
1378.667 157.556 L
1381.713 160.67 L
1384.791 163.861 L
1387.902 167.129 L
1391.014 170.477 L
1394.126 173.892 L
1397.21 177.371 L
1400.266 180.911 L
1403.279 184.502 L
1406.232 188.131 L
1409.126 191.8 L
1411.953 195.504 L
1414.709 199.242 L
1417.392 203.004 L
S
GR
GS
[0.75 0 0 0.75 0 0.25] CT
0.851 0.325 0.098 RC
2 LJ
6.667 LW
N
1417.392 203.004 M
1420.004 206.792 L
1422.546 210.579 L
1425.035 214.373 L
1427.461 218.175 L
1429.828 221.976 L
1432.151 225.769 L
1434.413 229.545 L
1436.635 233.305 L
1438.814 237.057 L
1440.953 240.8 L
1443.056 244.548 L
1445.127 248.307 L
1447.173 252.084 L
1449.196 255.895 L
1451.19 259.753 L
1453.172 263.655 L
1455.139 267.618 L
1457.102 271.627 L
1459.057 275.681 L
1461.01 279.774 L
1462.963 283.898 L
1464.922 288.045 L
1466.886 292.208 L
1468.857 296.368 L
1470.844 300.533 L
1472.829 304.681 L
1474.833 308.837 L
1476.84 312.986 L
1478.858 317.121 L
1480.883 321.249 L
1482.909 325.37 L
1484.943 329.484 L
1486.971 333.583 L
1488.987 337.658 L
1490.992 341.693 L
1492.981 345.691 L
1494.949 349.642 L
1496.895 353.538 L
1498.818 357.392 L
1500.715 361.191 L
1502.586 364.937 L
1504.441 368.633 L
1506.285 372.284 L
1508.117 375.899 L
1509.948 379.477 L
1511.788 383.04 L
1513.638 386.58 L
1515.506 390.097 L
1517.394 393.598 L
S
GR
GS
[0.75 0 0 0.75 0 0.25] CT
0.851 0.325 0.098 RC
2 LJ
6.667 LW
N
1517.394 393.598 M
1519.295 397.07 L
1521.226 400.522 L
1523.17 403.925 L
1525.138 407.304 L
1527.121 410.666 L
1529.117 413.986 L
1531.13 417.273 L
1533.145 420.52 L
1535.175 423.738 L
1537.215 426.936 L
1539.272 430.121 L
1541.341 433.301 L
1543.429 436.482 L
1545.529 439.688 L
1547.637 442.902 L
1549.758 446.141 L
1551.898 449.408 L
1554.033 452.686 L
1556.165 455.987 L
1558.284 459.282 L
1560.391 462.588 L
1562.476 465.874 L
1564.543 469.141 L
1566.574 472.366 L
1568.581 475.548 L
1570.56 478.676 L
1572.516 481.735 L
1574.466 484.761 L
1576.412 487.725 L
1578.371 490.632 L
1580.357 493.509 L
1582.386 496.345 L
1584.481 499.164 L
1586.66 501.981 L
1588.95 504.799 L
1591.362 507.623 L
1593.923 510.458 L
1596.643 513.301 L
1599.542 516.14 L
1602.641 518.97 L
1605.934 521.755 L
1609.414 524.473 L
1613.084 527.08 L
1616.927 529.53 L
1620.926 531.805 L
1625.05 533.843 L
1629.268 535.609 L
1633.521 537.087 L
1637.773 538.259 L
S
GR
GS
[0.75 0 0 0.75 0 0.25] CT
0.851 0.325 0.098 RC
2 LJ
6.667 LW
N
1637.773 538.259 M
1641.971 539.123 L
1646.069 539.682 L
1650.015 539.963 L
1653.754 539.991 L
1657.247 539.815 L
1660.455 539.475 L
1663.355 539.016 L
1665.923 538.495 L
1668.161 537.954 L
1670.069 537.421 L
S
GR
GS
[0.75 0 0 0.75 0 0.25] CT
0.929 0.694 0.125 RC
2 LJ
6.667 LW
N
240.856 432.752 M
242.083 432.088 L
244.003 431.043 L
246.026 429.936 L
248.144 428.782 L
250.33 427.595 L
252.581 426.379 L
254.886 425.142 L
257.247 423.889 L
259.659 422.622 L
262.121 421.335 L
264.628 420.029 L
267.179 418.701 L
269.777 417.338 L
272.41 415.941 L
275.07 414.514 L
277.751 413.046 L
280.44 411.539 L
283.132 409.992 L
285.816 408.403 L
288.476 406.778 L
291.128 405.112 L
293.756 403.409 L
296.357 401.67 L
298.93 399.9 L
301.483 398.105 L
304.012 396.283 L
306.523 394.433 L
309.021 392.571 L
311.491 390.714 L
313.961 388.855 L
316.423 387.001 L
318.876 385.164 L
321.325 383.338 L
323.774 381.531 L
326.22 379.746 L
328.67 377.98 L
331.13 376.234 L
333.578 374.51 L
336.031 372.799 L
338.486 371.096 L
340.932 369.407 L
343.384 367.734 L
345.841 366.074 L
348.292 364.439 L
350.759 362.834 L
353.241 361.257 L
355.754 359.73 L
358.307 358.246 L
360.914 356.822 L
S
GR
GS
[0.75 0 0 0.75 0 0.25] CT
0.929 0.694 0.125 RC
2 LJ
6.667 LW
N
360.914 356.822 M
363.569 355.462 L
366.303 354.185 L
369.11 352.997 L
371.989 351.906 L
374.957 350.915 L
378.005 350.027 L
381.13 349.257 L
384.333 348.606 L
387.602 348.076 L
390.939 347.684 L
394.337 347.42 L
397.788 347.296 L
401.283 347.309 L
404.82 347.456 L
408.395 347.746 L
411.989 348.172 L
415.607 348.735 L
419.224 349.43 L
422.821 350.249 L
426.402 351.184 L
429.952 352.225 L
433.461 353.373 L
436.92 354.593 L
440.319 355.895 L
443.65 357.255 L
446.932 358.672 L
450.149 360.118 L
453.318 361.604 L
456.438 363.102 L
459.523 364.602 L
462.578 366.105 L
465.609 367.595 L
468.641 369.078 L
471.673 370.563 L
474.711 372.035 L
477.761 373.505 L
480.836 374.984 L
483.946 376.488 L
487.094 378.031 L
490.278 379.619 L
493.509 381.281 L
496.792 383.014 L
500.111 384.828 L
503.472 386.736 L
506.86 388.733 L
510.263 390.822 L
513.666 392.985 L
517.048 395.219 L
520.398 397.507 L
S
GR
GS
[0.75 0 0 0.75 0 0.25] CT
0.929 0.694 0.125 RC
2 LJ
6.667 LW
N
520.398 397.507 M
523.698 399.839 L
526.925 402.195 L
530.067 404.565 L
533.1 406.925 L
536.03 409.279 L
538.852 411.619 L
541.566 413.937 L
544.185 416.238 L
546.699 418.519 L
549.136 420.776 L
551.492 423.019 L
553.797 425.254 L
556.056 427.483 L
558.272 429.705 L
560.466 431.926 L
562.652 434.149 L
564.84 436.363 L
567.019 438.57 L
569.209 440.774 L
571.415 442.971 L
573.639 445.159 L
575.877 447.334 L
578.136 449.493 L
580.432 451.647 L
582.75 453.799 L
585.095 455.946 L
587.477 458.106 L
589.893 460.272 L
592.348 462.458 L
594.841 464.673 L
597.365 466.912 L
599.925 469.181 L
602.513 471.484 L
605.126 473.805 L
607.755 476.147 L
610.406 478.503 L
613.053 480.865 L
615.694 483.22 L
618.331 485.57 L
620.959 487.909 L
623.573 490.228 L
626.18 492.536 L
628.785 494.85 L
631.396 497.169 L
634.023 499.507 L
636.664 501.869 L
639.337 504.255 L
642.049 506.695 L
644.782 509.173 L
S
GR
GS
[0.75 0 0 0.75 0 0.25] CT
0.929 0.694 0.125 RC
2 LJ
6.667 LW
N
644.782 509.173 M
647.547 511.695 L
650.35 514.257 L
653.178 516.842 L
656.023 519.448 L
658.879 522.062 L
661.733 524.661 L
664.581 527.236 L
667.413 529.77 L
670.231 532.259 L
673.02 534.691 L
675.779 537.063 L
678.501 539.369 L
681.195 541.61 L
683.853 543.794 L
686.472 545.914 L
689.056 547.988 L
691.616 550.019 L
694.15 552.016 L
696.676 553.993 L
699.192 555.947 L
701.707 557.896 L
704.246 559.856 L
706.819 561.835 L
709.418 563.824 L
712.072 565.844 L
714.79 567.89 L
717.565 569.966 L
720.41 572.072 L
723.315 574.206 L
726.277 576.356 L
729.296 578.521 L
732.359 580.687 L
735.456 582.859 L
738.579 585.023 L
741.724 587.172 L
744.874 589.302 L
748.021 591.408 L
751.158 593.49 L
754.278 595.54 L
757.375 597.553 L
760.446 599.519 L
763.481 601.438 L
766.478 603.302 L
769.43 605.101 L
772.346 606.842 L
775.226 608.506 L
778.071 610.083 L
780.882 611.578 L
783.675 612.996 L
S
GR
GS
[0.75 0 0 0.75 0 0.25] CT
0.929 0.694 0.125 RC
2 LJ
6.667 LW
N
783.675 612.996 M
786.458 614.33 L
789.245 615.582 L
792.051 616.765 L
794.878 617.874 L
797.744 618.932 L
800.66 619.952 L
803.629 620.939 L
806.653 621.909 L
809.736 622.869 L
812.869 623.824 L
816.048 624.786 L
819.263 625.75 L
822.505 626.719 L
825.749 627.695 L
828.994 628.681 L
832.219 629.664 L
835.408 630.632 L
838.561 631.579 L
841.666 632.501 L
844.715 633.385 L
847.708 634.219 L
850.638 634.999 L
853.502 635.724 L
856.311 636.376 L
859.071 636.95 L
861.785 637.439 L
864.474 637.843 L
867.141 638.158 L
869.814 638.39 L
872.494 638.544 L
875.195 638.617 L
877.931 638.62 L
880.72 638.56 L
883.557 638.445 L
886.44 638.28 L
889.367 638.073 L
892.324 637.844 L
895.286 637.595 L
898.267 637.321 L
901.22 637.028 L
904.136 636.727 L
907.008 636.413 L
909.803 636.099 L
912.53 635.779 L
915.178 635.455 L
917.741 635.127 L
920.231 634.79 L
922.646 634.451 L
925.001 634.108 L
S
GR
GS
[0.75 0 0 0.75 0 0.25] CT
0.929 0.694 0.125 RC
2 LJ
6.667 LW
N
925.001 634.108 M
927.311 633.755 L
929.603 633.393 L
931.881 633.003 L
934.161 632.585 L
936.449 632.139 L
938.768 631.639 L
941.136 631.08 L
943.537 630.459 L
945.968 629.772 L
948.439 629.002 L
950.94 628.154 L
953.463 627.228 L
955.997 626.217 L
958.533 625.131 L
961.026 623.988 L
963.485 622.786 L
965.906 621.53 L
968.275 620.234 L
970.603 618.896 L
972.875 617.522 L
975.118 616.111 L
977.348 614.656 L
979.566 613.158 L
981.805 611.604 L
984.085 609.989 L
986.407 608.309 L
988.777 606.545 L
991.204 604.714 L
993.693 602.81 L
996.235 600.825 L
998.82 598.779 L
1001.418 596.676 L
1004.031 594.513 L
1006.636 592.304 L
1009.216 590.066 L
1011.758 587.793 L
1014.256 585.492 L
1016.698 583.159 L
1019.085 580.809 L
1021.429 578.424 L
1023.73 575.996 L
1025.996 573.526 L
1028.229 571.011 L
1030.43 568.454 L
1032.621 565.846 L
1034.796 563.195 L
1036.957 560.505 L
1039.114 557.776 L
1041.263 555.011 L
S
GR
GS
[0.75 0 0 0.75 0 0.25] CT
0.929 0.694 0.125 RC
2 LJ
6.667 LW
N
1041.263 555.011 M
1043.389 552.231 L
1045.508 549.415 L
1047.612 546.596 L
1049.693 543.766 L
1051.751 540.932 L
1053.792 538.098 L
1055.812 535.246 L
1057.816 532.383 L
1059.809 529.511 L
1061.789 526.612 L
1063.775 523.685 L
1065.755 520.718 L
1067.738 517.709 L
1069.727 514.656 L
1071.731 511.548 L
1073.751 508.375 L
1075.791 505.142 L
1077.83 501.856 L
1079.877 498.501 L
1081.927 495.099 L
1083.967 491.658 L
1086.007 488.173 L
1088.033 484.667 L
1090.043 481.15 L
1092.027 477.635 L
1093.986 474.116 L
1095.911 470.618 L
1097.808 467.122 L
1099.671 463.651 L
1101.502 460.185 L
1103.3 456.72 L
1105.069 453.261 L
1106.816 449.784 L
1108.533 446.284 L
1110.235 442.762 L
1111.905 439.219 L
1113.564 435.659 L
1115.196 432.08 L
1116.809 428.506 L
1118.397 424.934 L
1119.965 421.379 L
1121.505 417.856 L
1123.024 414.365 L
1124.512 410.936 L
1125.98 407.552 L
1127.427 404.221 L
1128.845 400.952 L
1130.24 397.734 L
1131.614 394.558 L
S
GR
GS
[0.75 0 0 0.75 0 0.25] CT
0.929 0.694 0.125 RC
2 LJ
6.667 LW
N
1131.614 394.558 M
1132.973 391.415 L
1134.324 388.295 L
1135.664 385.199 L
1136.994 382.119 L
1138.312 379.044 L
1139.628 375.968 L
1140.936 372.888 L
1142.25 369.779 L
1143.564 366.66 L
1144.884 363.522 L
1146.218 360.359 L
1147.565 357.158 L
1148.922 353.931 L
1150.31 350.664 L
1151.713 347.368 L
1153.151 344.031 L
1154.61 340.663 L
1156.094 337.263 L
1157.598 333.84 L
1159.12 330.39 L
1160.649 326.914 L
1162.194 323.422 L
1163.744 319.913 L
1165.294 316.385 L
1166.841 312.842 L
1168.383 309.294 L
1169.922 305.742 L
1171.453 302.189 L
1172.976 298.636 L
1174.497 295.091 L
1176.013 291.554 L
1177.527 288.035 L
1179.035 284.553 L
1180.539 281.102 L
1182.035 277.693 L
1183.519 274.332 L
1184.995 271.029 L
1186.458 267.775 L
1187.907 264.58 L
1189.36 261.426 L
1190.799 258.306 L
1192.236 255.21 L
1193.68 252.122 L
1195.134 249.016 L
1196.613 245.889 L
1198.126 242.734 L
1199.664 239.525 L
1201.247 236.26 L
1202.874 232.946 L
S
GR
GS
[0.75 0 0 0.75 0 0.25] CT
0.929 0.694 0.125 RC
2 LJ
6.667 LW
N
1202.874 232.946 M
1204.541 229.582 L
1206.244 226.177 L
1207.981 222.748 L
1209.757 219.308 L
1211.553 215.867 L
1213.374 212.431 L
1215.2 209.01 L
1217.038 205.614 L
1218.878 202.238 L
1220.713 198.884 L
1222.546 195.552 L
1224.372 192.233 L
1226.193 188.938 L
1228.02 185.664 L
1229.842 182.401 L
1231.661 179.161 L
1233.487 175.949 L
1235.325 172.769 L
1237.184 169.632 L
1239.081 166.539 L
1241.02 163.489 L
1243.011 160.469 L
1245.068 157.49 L
1247.201 154.544 L
1249.415 151.62 L
1251.726 148.719 L
1254.163 145.821 L
1256.71 142.934 L
1259.38 140.043 L
1262.179 137.167 L
1265.117 134.303 L
1268.191 131.477 L
1271.396 128.696 L
1274.717 125.973 L
1278.15 123.338 L
1281.671 120.808 L
1285.261 118.419 L
1288.898 116.174 L
1292.555 114.089 L
1296.216 112.203 L
1299.839 110.495 L
1303.421 109.003 L
1306.935 107.71 L
1310.368 106.615 L
1313.71 105.724 L
1316.96 105.029 L
1320.129 104.526 L
1323.221 104.216 L
1326.24 104.081 L
S
GR
GS
[0.75 0 0 0.75 0 0.25] CT
0.929 0.694 0.125 RC
2 LJ
6.667 LW
N
1326.24 104.081 M
1329.207 104.126 L
1332.131 104.344 L
1335.006 104.735 L
1337.865 105.3 L
1340.707 106.027 L
1343.546 106.918 L
1346.379 107.977 L
1349.215 109.188 L
1352.043 110.533 L
1354.879 112.003 L
1357.708 113.594 L
1360.542 115.286 L
1363.378 117.062 L
1366.209 118.917 L
1369.035 120.84 L
1371.84 122.804 L
1374.65 124.829 L
1377.431 126.878 L
1380.204 128.966 L
1382.956 131.105 L
1385.681 133.279 L
1388.379 135.489 L
1391.046 137.743 L
1393.68 140.038 L
1396.285 142.385 L
1398.858 144.777 L
1401.405 147.215 L
1403.931 149.715 L
1406.44 152.258 L
1408.936 154.868 L
1411.436 157.525 L
1413.929 160.247 L
1416.426 163.009 L
1418.932 165.83 L
1421.436 168.701 L
1423.949 171.616 L
1426.456 174.594 L
1428.958 177.621 L
1431.433 180.678 L
1433.886 183.77 L
1436.309 186.904 L
1438.687 190.066 L
1441.026 193.264 L
1443.307 196.476 L
1445.535 199.699 L
1447.714 202.923 L
1449.841 206.153 L
1451.914 209.377 L
1453.946 212.596 L
S
GR
GS
[0.75 0 0 0.75 0 0.25] CT
0.929 0.694 0.125 RC
2 LJ
6.667 LW
N
1453.946 212.596 M
1455.94 215.817 L
1457.9 219.032 L
1459.828 222.251 L
1461.734 225.462 L
1463.613 228.67 L
1465.474 231.869 L
1467.316 235.07 L
1469.144 238.251 L
1470.956 241.418 L
1472.752 244.567 L
1474.541 247.694 L
1476.312 250.795 L
1478.078 253.844 L
1479.826 256.85 L
1481.578 259.826 L
1483.333 262.753 L
1485.087 265.635 L
1486.85 268.477 L
1488.625 271.273 L
1490.418 274.031 L
1492.226 276.731 L
1494.044 279.385 L
1495.871 281.979 L
1497.707 284.516 L
1499.545 286.994 L
1501.374 289.395 L
1503.188 291.732 L
1504.988 294.005 L
1506.766 296.218 L
1508.522 298.387 L
1510.256 300.524 L
1511.964 302.634 L
1513.649 304.732 L
1515.313 306.847 L
1516.969 308.984 L
1518.619 311.145 L
1520.263 313.336 L
1521.912 315.579 L
1523.581 317.866 L
1525.265 320.188 L
1526.97 322.556 L
1528.714 324.959 L
1530.507 327.398 L
1532.339 329.867 L
1534.224 332.371 L
1536.154 334.908 L
1538.131 337.462 L
1540.159 340.042 L
1542.236 342.65 L
S
GR
GS
[0.75 0 0 0.75 0 0.25] CT
0.929 0.694 0.125 RC
2 LJ
6.667 LW
N
1542.236 342.65 M
1544.337 345.274 L
1546.469 347.917 L
1548.633 350.57 L
1550.807 353.228 L
1552.996 355.886 L
1555.2 358.533 L
1557.424 361.169 L
1559.666 363.791 L
1561.936 366.394 L
1564.24 368.965 L
1566.585 371.505 L
1568.983 374.022 L
1571.442 376.522 L
1573.963 378.984 L
1576.548 381.419 L
1579.202 383.812 L
1581.913 386.164 L
1584.687 388.476 L
1587.5 390.741 L
1590.361 392.944 L
1593.245 395.076 L
1596.151 397.128 L
1599.074 399.103 L
1602.006 400.989 L
1604.935 402.773 L
1607.871 404.448 L
1610.799 406.019 L
1613.709 407.473 L
1616.611 408.806 L
1619.494 410.022 L
1622.352 411.112 L
1625.168 412.077 L
1627.935 412.918 L
1630.646 413.633 L
1633.297 414.23 L
1635.874 414.711 L
1638.367 415.079 L
1640.786 415.333 L
1643.117 415.477 L
1645.356 415.505 L
1647.526 415.438 L
1649.631 415.256 L
1651.666 414.973 L
1653.651 414.575 L
1655.59 414.064 L
1657.483 413.456 L
1659.334 412.751 L
1661.144 411.954 L
1662.903 411.073 L
S
GR
GS
[0.75 0 0 0.75 0 0.25] CT
0.929 0.694 0.125 RC
2 LJ
6.667 LW
N
1662.903 411.073 M
1664.607 410.131 L
1666.24 409.146 L
1667.793 408.134 L
1669.253 407.128 L
1670.604 406.146 L
1671.832 405.207 L
1672.926 404.337 L
1673.887 403.547 L
S
GR
GS
[0.75 0 0 0.75 0 0.25] CT
0.494 0.184 0.557 RC
2 LJ
6.667 LW
N
240.856 361.487 M
242.43 361.082 L
244.165 360.629 L
245.953 360.152 L
247.778 359.657 L
249.629 359.145 L
251.497 358.616 L
253.37 358.066 L
255.24 357.507 L
257.1 356.939 L
258.961 356.355 L
260.798 355.757 L
262.624 355.149 L
264.434 354.529 L
266.236 353.894 L
268.038 353.243 L
269.834 352.565 L
271.638 351.86 L
273.445 351.126 L
275.266 350.343 L
277.102 349.516 L
278.954 348.639 L
280.831 347.693 L
282.739 346.678 L
284.67 345.595 L
286.628 344.439 L
288.611 343.21 L
290.633 341.908 L
292.677 340.537 L
294.741 339.096 L
296.827 337.602 L
298.927 336.057 L
301.045 334.486 L
303.166 332.886 L
305.288 331.273 L
307.397 329.663 L
309.504 328.065 L
311.592 326.486 L
313.671 324.936 L
315.731 323.425 L
317.781 321.955 L
319.813 320.54 L
321.831 319.171 L
323.845 317.849 L
325.844 316.578 L
327.833 315.353 L
329.819 314.162 L
331.812 313.007 L
333.81 311.88 L
335.818 310.769 L
S
GR
GS
[0.75 0 0 0.75 0 0.25] CT
0.494 0.184 0.557 RC
2 LJ
6.667 LW
N
335.818 310.769 M
337.852 309.672 L
339.922 308.574 L
342.029 307.475 L
344.185 306.359 L
346.405 305.239 L
348.684 304.105 L
351.025 302.965 L
353.416 301.828 L
355.852 300.702 L
358.323 299.597 L
360.805 298.522 L
363.29 297.49 L
365.766 296.505 L
368.219 295.581 L
370.635 294.717 L
373.004 293.918 L
375.33 293.178 L
377.62 292.498 L
379.865 291.876 L
382.067 291.303 L
384.238 290.772 L
386.379 290.279 L
388.483 289.826 L
390.555 289.411 L
392.599 289.031 L
394.603 288.685 L
396.559 288.376 L
398.467 288.1 L
400.322 287.867 L
402.124 287.668 L
403.868 287.506 L
405.561 287.383 L
407.203 287.29 L
408.793 287.23 L
410.338 287.195 L
411.85 287.18 L
413.318 287.187 L
414.756 287.217 L
416.157 287.265 L
417.531 287.327 L
418.879 287.405 L
420.209 287.496 L
421.515 287.607 L
422.794 287.729 L
424.073 287.873 L
425.358 288.042 L
426.657 288.235 L
427.987 288.456 L
429.361 288.72 L
S
GR
GS
[0.75 0 0 0.75 0 0.25] CT
0.494 0.184 0.557 RC
2 LJ
6.667 LW
N
429.361 288.72 M
430.787 289.022 L
432.29 289.375 L
433.877 289.783 L
435.559 290.258 L
437.337 290.8 L
439.207 291.416 L
441.17 292.11 L
443.214 292.879 L
445.338 293.731 L
447.522 294.654 L
449.765 295.655 L
452.05 296.733 L
454.361 297.873 L
456.69 299.076 L
459.036 300.335 L
461.392 301.648 L
463.752 303.013 L
466.115 304.423 L
468.474 305.869 L
470.838 307.357 L
473.201 308.882 L
475.559 310.435 L
477.923 312.023 L
480.293 313.638 L
482.664 315.27 L
485.05 316.922 L
487.441 318.591 L
489.848 320.27 L
492.257 321.945 L
494.673 323.611 L
497.089 325.265 L
499.499 326.899 L
501.896 328.512 L
504.266 330.089 L
506.614 331.645 L
508.918 333.168 L
511.179 334.661 L
513.392 336.137 L
515.558 337.595 L
517.678 339.044 L
519.758 340.495 L
521.809 341.952 L
523.829 343.432 L
525.837 344.943 L
527.842 346.496 L
529.851 348.084 L
531.874 349.722 L
533.916 351.407 L
535.978 353.141 L
S
GR
GS
[0.75 0 0 0.75 0 0.25] CT
0.494 0.184 0.557 RC
2 LJ
6.667 LW
N
535.978 353.141 M
538.068 354.923 L
540.18 356.748 L
542.312 358.613 L
544.452 360.5 L
546.611 362.415 L
548.767 364.355 L
550.912 366.302 L
553.052 368.257 L
555.176 370.221 L
557.292 372.204 L
559.387 374.203 L
561.463 376.218 L
563.513 378.239 L
565.555 380.28 L
567.583 382.343 L
569.59 384.428 L
571.583 386.526 L
573.556 388.633 L
575.513 390.743 L
577.447 392.845 L
579.357 394.93 L
581.249 397.006 L
583.126 399.06 L
584.984 401.096 L
586.835 403.116 L
588.676 405.122 L
590.522 407.125 L
592.382 409.134 L
594.255 411.152 L
596.139 413.176 L
598.044 415.21 L
599.977 417.264 L
601.93 419.332 L
603.901 421.407 L
605.889 423.473 L
607.883 425.523 L
609.892 427.548 L
611.906 429.553 L
613.917 431.532 L
615.92 433.473 L
617.924 435.38 L
619.92 437.266 L
621.906 439.131 L
623.879 440.982 L
625.832 442.833 L
627.773 444.682 L
629.693 446.533 L
631.596 448.401 L
633.485 450.287 L
S
GR
GS
[0.75 0 0 0.75 0 0.25] CT
0.494 0.184 0.557 RC
2 LJ
6.667 LW
N
633.485 450.287 M
635.368 452.192 L
637.256 454.122 L
639.155 456.081 L
641.066 458.057 L
643.015 460.062 L
644.995 462.103 L
647.024 464.171 L
649.103 466.275 L
651.232 468.414 L
653.414 470.587 L
655.628 472.795 L
657.874 475.032 L
660.13 477.297 L
662.389 479.579 L
664.626 481.856 L
666.84 484.13 L
669.013 486.386 L
671.136 488.608 L
673.201 490.789 L
675.206 492.918 L
677.16 494.985 L
679.057 496.99 L
680.91 498.944 L
682.723 500.842 L
684.507 502.691 L
686.264 504.495 L
688.012 506.274 L
689.746 508.028 L
691.483 509.771 L
693.224 511.524 L
694.991 513.277 L
696.789 515.054 L
698.619 516.847 L
700.489 518.653 L
702.409 520.48 L
704.38 522.318 L
706.406 524.182 L
708.481 526.052 L
710.593 527.915 L
712.741 529.768 L
714.902 531.6 L
717.073 533.41 L
719.248 535.192 L
721.411 536.936 L
723.562 538.645 L
725.691 540.317 L
727.811 541.965 L
729.924 543.588 L
732.033 545.189 L
S
GR
GS
[0.75 0 0 0.75 0 0.25] CT
0.494 0.184 0.557 RC
2 LJ
6.667 LW
N
732.033 545.189 M
734.147 546.776 L
736.279 548.367 L
738.429 549.963 L
740.601 551.571 L
742.806 553.202 L
745.045 554.844 L
747.306 556.51 L
749.581 558.186 L
751.88 559.872 L
754.191 561.569 L
756.509 563.26 L
758.827 564.954 L
761.149 566.622 L
763.469 568.261 L
765.789 569.873 L
768.116 571.458 L
770.452 573.007 L
772.796 574.523 L
775.145 576.002 L
777.514 577.454 L
779.899 578.886 L
782.307 580.308 L
784.748 581.727 L
787.209 583.143 L
789.705 584.577 L
792.234 586.031 L
794.803 587.497 L
797.402 588.982 L
800.042 590.49 L
802.711 591.995 L
805.402 593.496 L
808.105 594.976 L
810.817 596.424 L
813.522 597.816 L
816.209 599.143 L
818.875 600.408 L
821.516 601.587 L
824.11 602.679 L
826.674 603.697 L
829.199 604.631 L
831.68 605.486 L
834.13 606.275 L
836.545 607.004 L
838.942 607.687 L
841.315 608.331 L
843.663 608.941 L
845.984 609.521 L
848.279 610.073 L
850.555 610.609 L
S
GR
GS
[0.75 0 0 0.75 0 0.25] CT
0.494 0.184 0.557 RC
2 LJ
6.667 LW
N
850.555 610.609 M
852.814 611.121 L
855.05 611.622 L
857.257 612.11 L
859.457 612.579 L
861.653 613.026 L
863.839 613.463 L
866.028 613.88 L
868.231 614.278 L
870.446 614.655 L
872.676 615.012 L
874.93 615.347 L
877.199 615.652 L
879.483 615.934 L
881.803 616.195 L
884.13 616.423 L
886.47 616.63 L
888.817 616.816 L
891.164 616.982 L
893.512 617.133 L
895.853 617.27 L
898.176 617.401 L
900.482 617.524 L
902.778 617.652 L
905.048 617.791 L
907.282 617.929 L
909.474 618.081 L
911.631 618.237 L
913.763 618.407 L
915.867 618.59 L
917.944 618.779 L
920.017 618.96 L
922.091 619.135 L
924.169 619.289 L
926.265 619.418 L
928.391 619.51 L
930.551 619.551 L
932.755 619.535 L
935 619.45 L
937.272 619.293 L
939.564 619.064 L
941.873 618.755 L
944.185 618.369 L
946.491 617.919 L
948.77 617.406 L
951.012 616.843 L
953.207 616.24 L
955.353 615.603 L
957.432 614.947 L
959.437 614.277 L
S
GR
GS
[0.75 0 0 0.75 0 0.25] CT
0.494 0.184 0.557 RC
2 LJ
6.667 LW
N
959.437 614.277 M
961.389 613.614 L
963.265 612.946 L
965.076 612.286 L
966.823 611.632 L
968.509 610.981 L
970.146 610.336 L
971.739 609.69 L
973.291 609.039 L
974.81 608.382 L
976.315 607.708 L
977.801 607.012 L
979.281 606.291 L
980.757 605.537 L
982.24 604.75 L
983.727 603.928 L
985.229 603.064 L
986.749 602.163 L
988.29 601.216 L
989.841 600.223 L
991.417 599.185 L
993.015 598.108 L
994.644 596.991 L
996.293 595.848 L
997.978 594.674 L
999.703 593.466 L
1001.445 592.234 L
1003.227 590.985 L
1005.043 589.719 L
1006.89 588.434 L
1008.768 587.127 L
1010.676 585.78 L
1012.595 584.4 L
1014.523 582.986 L
1016.462 581.53 L
1018.392 580.017 L
1020.313 578.45 L
1022.223 576.828 L
1024.103 575.161 L
1025.971 573.453 L
1027.815 571.716 L
1029.643 569.951 L
1031.456 568.167 L
1033.253 566.386 L
1035.063 564.603 L
1036.886 562.823 L
1038.725 561.051 L
1040.593 559.272 L
1042.504 557.483 L
1044.465 555.67 L
S
GR
GS
[0.75 0 0 0.75 0 0.25] CT
0.494 0.184 0.557 RC
2 LJ
6.667 LW
N
1044.465 555.67 M
1046.472 553.829 L
1048.547 551.934 L
1050.678 549.975 L
1052.871 547.935 L
1055.117 545.788 L
1057.414 543.522 L
1059.74 541.16 L
1062.091 538.687 L
1064.455 536.086 L
1066.812 533.37 L
1069.152 530.553 L
1071.458 527.645 L
1073.717 524.665 L
1075.92 521.643 L
1078.042 518.594 L
1080.097 515.545 L
1082.072 512.509 L
1083.964 509.511 L
1085.786 506.559 L
1087.533 503.668 L
1089.206 500.848 L
1090.827 498.09 L
1092.386 495.385 L
1093.906 492.736 L
1095.396 490.123 L
1096.86 487.535 L
1098.302 484.95 L
1099.735 482.363 L
1101.154 479.755 L
1102.574 477.134 L
1103.984 474.482 L
1105.394 471.796 L
1106.802 469.072 L
1108.213 466.32 L
1109.618 463.534 L
1111.02 460.722 L
1112.421 457.872 L
1113.822 455.011 L
1115.224 452.129 L
1116.635 449.235 L
1118.041 446.317 L
1119.46 443.389 L
1120.898 440.445 L
1122.347 437.494 L
1123.806 434.544 L
1125.279 431.57 L
1126.767 428.58 L
1128.272 425.577 L
1129.784 422.545 L
S
GR
GS
[0.75 0 0 0.75 0 0.25] CT
0.494 0.184 0.557 RC
2 LJ
6.667 LW
N
1129.784 422.545 M
1131.293 419.491 L
1132.805 416.409 L
1134.315 413.301 L
1135.819 410.135 L
1137.324 406.941 L
1138.825 403.701 L
1140.323 400.418 L
1141.819 397.09 L
1143.317 393.726 L
1144.815 390.326 L
1146.318 386.908 L
1147.828 383.472 L
1149.342 380.069 L
1150.854 376.687 L
1152.356 373.345 L
1153.855 370.069 L
1155.346 366.871 L
1156.819 363.769 L
1158.274 360.779 L
1159.709 357.894 L
1161.138 355.108 L
1162.554 352.42 L
1163.95 349.815 L
1165.336 347.292 L
1166.721 344.818 L
1168.098 342.366 L
1169.471 339.916 L
1170.837 337.449 L
1172.19 334.965 L
1173.529 332.427 L
1174.844 329.827 L
1176.13 327.183 L
1177.387 324.484 L
1178.612 321.729 L
1179.799 318.937 L
1180.956 316.113 L
1182.082 313.268 L
1183.185 310.412 L
1184.269 307.556 L
1185.355 304.707 L
1186.433 301.87 L
1187.525 299.055 L
1188.643 296.266 L
1189.781 293.49 L
1190.96 290.736 L
1192.173 287.986 L
1193.423 285.264 L
1194.716 282.547 L
1196.048 279.841 L
S
GR
GS
[0.75 0 0 0.75 0 0.25] CT
0.494 0.184 0.557 RC
2 LJ
6.667 LW
N
1196.048 279.841 M
1197.415 277.119 L
1198.818 274.401 L
1200.244 271.662 L
1201.691 268.897 L
1203.156 266.099 L
1204.622 263.266 L
1206.088 260.402 L
1207.546 257.493 L
1208.994 254.539 L
1210.419 251.554 L
1211.818 248.543 L
1213.201 245.495 L
1214.556 242.44 L
1215.893 239.369 L
1217.217 236.298 L
1218.526 233.225 L
1219.835 230.165 L
1221.148 227.113 L
1222.469 224.061 L
1223.809 221.022 L
1225.165 217.991 L
1226.539 214.968 L
1227.931 211.953 L
1229.339 208.96 L
1230.76 205.96 L
1232.182 203.003 L
1233.61 200.062 L
1235.037 197.158 L
1236.457 194.29 L
1237.865 191.474 L
1239.265 188.703 L
1240.655 185.957 L
1242.035 183.268 L
1243.412 180.621 L
1244.785 178.003 L
1246.161 175.394 L
1247.536 172.805 L
1248.922 170.22 L
1250.325 167.633 L
1251.753 165.03 L
1253.203 162.431 L
1254.693 159.815 L
1256.219 157.19 L
1257.786 154.576 L
1259.404 151.969 L
1261.074 149.385 L
1262.795 146.838 L
1264.572 144.334 L
1266.407 141.886 L
S
GR
GS
[0.75 0 0 0.75 0 0.25] CT
0.494 0.184 0.557 RC
2 LJ
6.667 LW
N
1266.407 141.886 M
1268.299 139.508 L
1270.239 137.202 L
1272.218 134.975 L
1274.24 132.829 L
1276.294 130.772 L
1278.378 128.793 L
1280.496 126.891 L
1282.634 125.081 L
1284.809 123.323 L
1286.983 121.631 L
1289.174 119.993 L
1291.385 118.414 L
1293.618 116.872 L
1295.868 115.366 L
1298.141 113.896 L
1300.42 112.456 L
1302.711 111.04 L
1305.002 109.656 L
1307.299 108.305 L
1309.6 106.994 L
1311.906 105.724 L
1314.223 104.5 L
1316.547 103.344 L
1318.897 102.257 L
1321.256 101.245 L
1323.645 100.321 L
1326.069 99.477 L
1328.527 98.725 L
1331.022 98.076 L
1333.55 97.521 L
1336.117 97.063 L
1338.697 96.702 L
1341.294 96.445 L
1343.867 96.294 L
1346.44 96.244 L
1348.989 96.295 L
1351.497 96.45 L
1353.96 96.715 L
1356.386 97.088 L
1358.763 97.559 L
1361.104 98.141 L
1363.414 98.822 L
1365.718 99.609 L
1368.013 100.492 L
1370.313 101.462 L
1372.634 102.534 L
1374.977 103.699 L
1377.368 104.96 L
1379.799 106.317 L
S
GR
GS
[0.75 0 0 0.75 0 0.25] CT
0.494 0.184 0.557 RC
2 LJ
6.667 LW
N
1379.799 106.317 M
1382.285 107.768 L
1384.808 109.292 L
1387.376 110.925 L
1389.996 112.654 L
1392.65 114.461 L
1395.339 116.351 L
1398.044 118.32 L
1400.763 120.356 L
1403.492 122.441 L
1406.207 124.574 L
1408.9 126.734 L
1411.554 128.908 L
1414.162 131.076 L
1416.73 133.238 L
1419.225 135.361 L
1421.658 137.459 L
1424.034 139.514 L
1426.343 141.534 L
1428.587 143.528 L
1430.781 145.495 L
1432.937 147.456 L
1435.056 149.419 L
1437.157 151.411 L
1439.238 153.449 L
1441.302 155.534 L
1443.36 157.686 L
1445.429 159.949 L
1447.492 162.291 L
1449.557 164.73 L
1451.622 167.266 L
1453.686 169.881 L
1455.759 172.576 L
1457.839 175.339 L
1459.912 178.157 L
1462 181.011 L
1464.079 183.881 L
1466.163 186.745 L
1468.261 189.608 L
1470.345 192.431 L
1472.436 195.225 L
1474.517 197.964 L
1476.572 200.646 L
1478.613 203.263 L
1480.621 205.8 L
1482.597 208.278 L
1484.531 210.691 L
1486.43 213.042 L
1488.289 215.34 L
1490.113 217.584 L
S
GR
GS
[0.75 0 0 0.75 0 0.25] CT
0.494 0.184 0.557 RC
2 LJ
6.667 LW
N
1490.113 217.584 M
1491.915 219.803 L
1493.694 222.003 L
1495.456 224.193 L
1497.225 226.388 L
1499.006 228.593 L
1500.806 230.826 L
1502.643 233.101 L
1504.526 235.416 L
1506.458 237.775 L
1508.432 240.179 L
1510.443 242.61 L
1512.509 245.071 L
1514.621 247.567 L
1516.754 250.065 L
1518.908 252.562 L
1521.072 255.054 L
1523.241 257.523 L
1525.401 259.965 L
1527.545 262.379 L
1529.673 264.763 L
1531.779 267.107 L
1533.866 269.413 L
1535.937 271.687 L
1537.993 273.943 L
1540.037 276.172 L
1542.073 278.383 L
1544.119 280.588 L
1546.171 282.777 L
1548.23 284.964 L
1550.299 287.151 L
1552.401 289.35 L
1554.534 291.561 L
1556.682 293.779 L
1558.852 296.011 L
1561.051 298.252 L
1563.285 300.517 L
1565.54 302.798 L
1567.816 305.097 L
1570.122 307.408 L
1572.455 309.735 L
1574.81 312.064 L
1577.174 314.388 L
1579.558 316.705 L
1581.968 319.004 L
1584.397 321.27 L
1586.848 323.503 L
1589.327 325.69 L
1591.833 327.826 L
1594.373 329.898 L
S
GR
GS
[0.75 0 0 0.75 0 0.25] CT
0.494 0.184 0.557 RC
2 LJ
6.667 LW
N
1594.373 329.898 M
1596.966 331.914 L
1599.627 333.863 L
1602.348 335.74 L
1605.14 337.552 L
1608.027 339.296 L
1611.019 340.967 L
1614.103 342.564 L
1617.265 344.075 L
1620.52 345.496 L
1623.837 346.817 L
1627.213 348.037 L
1630.612 349.137 L
1634.015 350.115 L
1637.387 350.959 L
1640.707 351.682 L
1643.946 352.276 L
1647.071 352.745 L
1650.076 353.105 L
1652.946 353.363 L
1655.661 353.532 L
1658.213 353.63 L
1660.594 353.671 L
1662.793 353.673 L
1664.81 353.648 L
1666.644 353.606 L
1668.29 353.555 L
1669.737 353.501 L
1670.998 353.448 L
S
GR
GS
[0.75 0 0 0.75 1182 54.44122] CT
/Helvetica 48 F
GS
[1 0 0 1 0 0] CT
0 16.5 moveto 
1 -1 scale
(0\260) t 
GR
GR
GS
[0.75 0 0 0.75 0 0.25] CT
0 0.447 0.741 RC
2 setlinecap
10.0 ML
6.667 LW
N
1532 72.255 M
1572 72.255 L
S
GR
GS
[0.75 0 0 0.75 1182 97.81374] CT
/Helvetica 48 F
GS
[1 0 0 1 0 0] CT
0 16.5 moveto 
1 -1 scale
(5\260) t 
GR
GR
GS
[0.75 0 0 0.75 0 0.25] CT
0.851 0.325 0.098 RC
2 setlinecap
10.0 ML
6.667 LW
N
1532 130.085 M
1572 130.085 L
S
GR
GS
[0.75 0 0 0.75 1182 141.18626] CT
/Helvetica 48 F
GS
[1 0 0 1 0 0] CT
0 16.5 moveto 
1 -1 scale
(8\260) t 
GR
GR
GS
[0.75 0 0 0.75 0 0.25] CT
0.929 0.694 0.125 RC
2 setlinecap
10.0 ML
6.667 LW
N
1532 187.915 M
1572 187.915 L
S
GR
GS
[0.75 0 0 0.75 1182 184.55878] CT
/Helvetica 48 F
GS
[1 0 0 1 0 0] CT
0 16.5 moveto 
1 -1 scale
(10\260) t 
GR
GR
GS
[0.75 0 0 0.75 0 0.25] CT
0.494 0.184 0.557 RC
2 setlinecap
10.0 ML
6.667 LW
N
1532 245.745 M
1572 245.745 L
S
GR
GS
[0.75 0 0 0.75 0 0.25] CT
2 setlinecap
10.0 ML
5.333 LW
N
439 573.548 M
524.939 222.589 L
S
GR
GS
[0.75 0 0 0.75 421.62502 430.41107] CT
/Helvetica 27 F
GS
[1 0 0 1 0 0] CT
-241 26 moveto 
1 -1 scale
(Increase on Slope) t 
GR
GR
GS
[0.75 0 0 0.75 0 0.25] CT
N
524.154 221.189 M
525.913 218.612 L
528.087 209.731 L
513.791 230.677 L
cp
f
GR
GS
[0.75 0 0 0.75 0 0.25] CT
N
525.913 218.612 M
526.282 221.71 L
531.089 234.913 L
528.087 209.731 L
cp
f
GR
GS
[0.75 0 0 0.75 0 0.25] CT
N
526.282 221.71 M
527.031 223.257 L
522.847 221.921 L
531.089 234.913 L
cp
f
GR
GS
[0.75 0 0 0.75 0 0.25] CT
N
527.031 223.257 M
524.154 221.189 L
513.791 230.677 L
522.847 221.921 L
cp
f
GR
GS
[0.75 0 0 0.75 0 0.25] CT
N
518.972 225.933 M
527 214.171 L
524.939 222.589 L
cp
f
GR
GS
[0.75 0 0 0.75 0 0.25] CT
N
527 214.171 M
528.685 228.311 L
524.939 222.589 L
cp
f
GR
%%Trailer
%%Pages: 1
%%EOF
