%!PS-Adobe-3.0 EPSF-3.0
%%Creator: (MATLAB, The Mathworks, Inc. Version 8.5.0.197613 \(R2015a\). Operating System: Linux)
%%Title: (/home/victor/ampro/AMPRO II/Upslope Walking/figures/Thesis/FlatgroundSplines/AnkleTracking.eps)
%%CreationDate: 2016-02-19T15:23:13
%%Pages: (atend)
%%BoundingBox: 0 0 1391 751
%%LanguageLevel: 2
%%EndComments
%%BeginProlog
%%BeginResource: procset (Apache XML Graphics Std ProcSet) 1.2 0
%%Version: 1.2 0
%%Copyright: (Copyright 2001-2003,2010 The Apache Software Foundation. License terms: http://www.apache.org/licenses/LICENSE-2.0)
/bd{bind def}bind def
/ld{load def}bd
/GR/grestore ld
/M/moveto ld
/LJ/setlinejoin ld
/C/curveto ld
/f/fill ld
/LW/setlinewidth ld
/GC/setgray ld
/t/show ld
/N/newpath ld
/CT/concat ld
/cp/closepath ld
/S/stroke ld
/L/lineto ld
/CC/setcmykcolor ld
/A/ashow ld
/GS/gsave ld
/RC/setrgbcolor ld
/RM/rmoveto ld
/ML/setmiterlimit ld
/re {4 2 roll M
1 index 0 rlineto
0 exch rlineto
neg 0 rlineto
cp } bd
/_ctm matrix def
/_tm matrix def
/BT { _ctm currentmatrix pop matrix _tm copy pop 0 0 moveto } bd
/ET { _ctm setmatrix } bd
/iTm { _ctm setmatrix _tm concat } bd
/Tm { _tm astore pop iTm 0 0 moveto } bd
/ux 0.0 def
/uy 0.0 def
/F {
  /Tp exch def
  /Tf exch def
  Tf findfont Tp scalefont setfont
  /cf Tf def  /cs Tp def
} bd
/ULS {currentpoint /uy exch def /ux exch def} bd
/ULE {
  /Tcx currentpoint pop def
  gsave
  newpath
  cf findfont cs scalefont dup
  /FontMatrix get 0 get /Ts exch def /FontInfo get dup
  /UnderlinePosition get Ts mul /To exch def
  /UnderlineThickness get Ts mul /Tt exch def
  ux uy To add moveto  Tcx uy To add lineto
  Tt setlinewidth stroke
  grestore
} bd
/OLE {
  /Tcx currentpoint pop def
  gsave
  newpath
  cf findfont cs scalefont dup
  /FontMatrix get 0 get /Ts exch def /FontInfo get dup
  /UnderlinePosition get Ts mul /To exch def
  /UnderlineThickness get Ts mul /Tt exch def
  ux uy To add cs add moveto Tcx uy To add cs add lineto
  Tt setlinewidth stroke
  grestore
} bd
/SOE {
  /Tcx currentpoint pop def
  gsave
  newpath
  cf findfont cs scalefont dup
  /FontMatrix get 0 get /Ts exch def /FontInfo get dup
  /UnderlinePosition get Ts mul /To exch def
  /UnderlineThickness get Ts mul /Tt exch def
  ux uy To add cs 10 mul 26 idiv add moveto Tcx uy To add cs 10 mul 26 idiv add lineto
  Tt setlinewidth stroke
  grestore
} bd
/QT {
/Y22 exch store
/X22 exch store
/Y21 exch store
/X21 exch store
currentpoint
/Y21 load 2 mul add 3 div exch
/X21 load 2 mul add 3 div exch
/X21 load 2 mul /X22 load add 3 div
/Y21 load 2 mul /Y22 load add 3 div
/X22 load /Y22 load curveto
} bd
/SSPD {
dup length /d exch dict def
{
/v exch def
/k exch def
currentpagedevice k known {
/cpdv currentpagedevice k get def
v cpdv ne {
/upd false def
/nullv v type /nulltype eq def
/nullcpdv cpdv type /nulltype eq def
nullv nullcpdv or
{
/upd true def
} {
/sametype v type cpdv type eq def
sametype {
v type /arraytype eq {
/vlen v length def
/cpdvlen cpdv length def
vlen cpdvlen eq {
0 1 vlen 1 sub {
/i exch def
/obj v i get def
/cpdobj cpdv i get def
obj cpdobj ne {
/upd true def
exit
} if
} for
} {
/upd true def
} ifelse
} {
v type /dicttype eq {
v {
/dv exch def
/dk exch def
/cpddv cpdv dk get def
dv cpddv ne {
/upd true def
exit
} if
} forall
} {
/upd true def
} ifelse
} ifelse
} if
} ifelse
upd true eq {
d k v put
} if
} if
} if
} forall
d length 0 gt {
d setpagedevice
} if
} bd
%%EndResource
%%BeginResource: procset (Apache XML Graphics EPS ProcSet) 1.0 0
%%Version: 1.0 0
%%Copyright: (Copyright 2002-2003 The Apache Software Foundation. License terms: http://www.apache.org/licenses/LICENSE-2.0)
/BeginEPSF { %def
/b4_Inc_state save def         % Save state for cleanup
/dict_count countdictstack def % Count objects on dict stack
/op_count count 1 sub def      % Count objects on operand stack
userdict begin                 % Push userdict on dict stack
/showpage { } def              % Redefine showpage, { } = null proc
0 setgray 0 setlinecap         % Prepare graphics state
1 setlinewidth 0 setlinejoin
10 setmiterlimit [ ] 0 setdash newpath
/languagelevel where           % If level not equal to 1 then
{pop languagelevel             % set strokeadjust and
1 ne                           % overprint to their defaults.
{false setstrokeadjust false setoverprint
} if
} if
} bd
/EndEPSF { %def
count op_count sub {pop} repeat            % Clean up stacks
countdictstack dict_count sub {end} repeat
b4_Inc_state restore
} bd
%%EndResource
%FOPBeginFontDict
%%IncludeResource: font Courier-Bold
%%IncludeResource: font Helvetica
%%IncludeResource: font Courier-BoldOblique
%%IncludeResource: font Courier-Oblique
%%IncludeResource: font Times-Roman
%%IncludeResource: font Helvetica-BoldOblique
%%IncludeResource: font Helvetica-Bold
%%IncludeResource: font Helvetica-Oblique
%%IncludeResource: font Times-BoldItalic
%%IncludeResource: font Courier
%%IncludeResource: font Times-Italic
%%IncludeResource: font Times-Bold
%%IncludeResource: font Symbol
%%IncludeResource: font ZapfDingbats
%FOPEndFontDict
%%BeginResource: encoding WinAnsiEncoding
/WinAnsiEncoding [
/.notdef /.notdef /.notdef /.notdef /.notdef
/.notdef /.notdef /.notdef /.notdef /.notdef
/.notdef /.notdef /.notdef /.notdef /.notdef
/.notdef /.notdef /.notdef /.notdef /.notdef
/.notdef /.notdef /.notdef /.notdef /.notdef
/.notdef /.notdef /.notdef /.notdef /.notdef
/.notdef /.notdef /space /exclam /quotedbl
/numbersign /dollar /percent /ampersand /quotesingle
/parenleft /parenright /asterisk /plus /comma
/hyphen /period /slash /zero /one
/two /three /four /five /six
/seven /eight /nine /colon /semicolon
/less /equal /greater /question /at
/A /B /C /D /E
/F /G /H /I /J
/K /L /M /N /O
/P /Q /R /S /T
/U /V /W /X /Y
/Z /bracketleft /backslash /bracketright /asciicircum
/underscore /quoteleft /a /b /c
/d /e /f /g /h
/i /j /k /l /m
/n /o /p /q /r
/s /t /u /v /w
/x /y /z /braceleft /bar
/braceright /asciitilde /bullet /Euro /bullet
/quotesinglbase /florin /quotedblbase /ellipsis /dagger
/daggerdbl /circumflex /perthousand /Scaron /guilsinglleft
/OE /bullet /Zcaron /bullet /bullet
/quoteleft /quoteright /quotedblleft /quotedblright /bullet
/endash /emdash /asciitilde /trademark /scaron
/guilsinglright /oe /bullet /zcaron /Ydieresis
/space /exclamdown /cent /sterling /currency
/yen /brokenbar /section /dieresis /copyright
/ordfeminine /guillemotleft /logicalnot /sfthyphen /registered
/macron /degree /plusminus /twosuperior /threesuperior
/acute /mu /paragraph /middot /cedilla
/onesuperior /ordmasculine /guillemotright /onequarter /onehalf
/threequarters /questiondown /Agrave /Aacute /Acircumflex
/Atilde /Adieresis /Aring /AE /Ccedilla
/Egrave /Eacute /Ecircumflex /Edieresis /Igrave
/Iacute /Icircumflex /Idieresis /Eth /Ntilde
/Ograve /Oacute /Ocircumflex /Otilde /Odieresis
/multiply /Oslash /Ugrave /Uacute /Ucircumflex
/Udieresis /Yacute /Thorn /germandbls /agrave
/aacute /acircumflex /atilde /adieresis /aring
/ae /ccedilla /egrave /eacute /ecircumflex
/edieresis /igrave /iacute /icircumflex /idieresis
/eth /ntilde /ograve /oacute /ocircumflex
/otilde /odieresis /divide /oslash /ugrave
/uacute /ucircumflex /udieresis /yacute /thorn
/ydieresis
] def
%%EndResource
%FOPBeginFontReencode
/Courier-Bold findfont
dup length dict begin
  {1 index /FID ne {def} {pop pop} ifelse} forall
  /Encoding WinAnsiEncoding def
  currentdict
end
/Courier-Bold exch definefont pop
/Helvetica findfont
dup length dict begin
  {1 index /FID ne {def} {pop pop} ifelse} forall
  /Encoding WinAnsiEncoding def
  currentdict
end
/Helvetica exch definefont pop
/Courier-BoldOblique findfont
dup length dict begin
  {1 index /FID ne {def} {pop pop} ifelse} forall
  /Encoding WinAnsiEncoding def
  currentdict
end
/Courier-BoldOblique exch definefont pop
/Courier-Oblique findfont
dup length dict begin
  {1 index /FID ne {def} {pop pop} ifelse} forall
  /Encoding WinAnsiEncoding def
  currentdict
end
/Courier-Oblique exch definefont pop
/Times-Roman findfont
dup length dict begin
  {1 index /FID ne {def} {pop pop} ifelse} forall
  /Encoding WinAnsiEncoding def
  currentdict
end
/Times-Roman exch definefont pop
/Helvetica-BoldOblique findfont
dup length dict begin
  {1 index /FID ne {def} {pop pop} ifelse} forall
  /Encoding WinAnsiEncoding def
  currentdict
end
/Helvetica-BoldOblique exch definefont pop
/Helvetica-Bold findfont
dup length dict begin
  {1 index /FID ne {def} {pop pop} ifelse} forall
  /Encoding WinAnsiEncoding def
  currentdict
end
/Helvetica-Bold exch definefont pop
/Helvetica-Oblique findfont
dup length dict begin
  {1 index /FID ne {def} {pop pop} ifelse} forall
  /Encoding WinAnsiEncoding def
  currentdict
end
/Helvetica-Oblique exch definefont pop
/Times-BoldItalic findfont
dup length dict begin
  {1 index /FID ne {def} {pop pop} ifelse} forall
  /Encoding WinAnsiEncoding def
  currentdict
end
/Times-BoldItalic exch definefont pop
/Courier findfont
dup length dict begin
  {1 index /FID ne {def} {pop pop} ifelse} forall
  /Encoding WinAnsiEncoding def
  currentdict
end
/Courier exch definefont pop
/Times-Italic findfont
dup length dict begin
  {1 index /FID ne {def} {pop pop} ifelse} forall
  /Encoding WinAnsiEncoding def
  currentdict
end
/Times-Italic exch definefont pop
/Times-Bold findfont
dup length dict begin
  {1 index /FID ne {def} {pop pop} ifelse} forall
  /Encoding WinAnsiEncoding def
  currentdict
end
/Times-Bold exch definefont pop
%FOPEndFontReencode
%%EndProlog
%%Page: 1 1
%%PageBoundingBox: 0 0 1391 751
%%BeginPageSetup
[1 0 0 -1 0 751] CT
%%EndPageSetup
GS
[0.75 0 0 0.75 0 0.25] CT
N
0 0 M
1855 0 L
1855 1001 L
0 1001 L
0 0 L
cp
clip
1 GC
N
0 0 1855 1001 re
f
GR
GS
[0.75 0 0 0.75 0 0.25] CT
1 GC
N
0 0 1855 1001 re
f
GR
GS
[0.75 0 0 0.75 0 0.25] CT
1 GC
N
241 721 M
1679 721 L
1679 30 L
241 30 L
cp
f
GR
GS
[0.75 0 0 0.75 0 0.25] CT
0.873 GC
2 setlinecap
10.0 ML
N
241 721 M
241 30 L
S
GR
GS
[0.75 0 0 0.75 0 0.25] CT
0.873 GC
2 setlinecap
10.0 ML
N
605.905 721 M
605.905 30 L
S
GR
GS
[0.75 0 0 0.75 0 0.25] CT
0.873 GC
2 setlinecap
10.0 ML
N
970.81 721 M
970.81 30 L
S
GR
GS
[0.75 0 0 0.75 0 0.25] CT
0.873 GC
2 setlinecap
10.0 ML
N
1335.714 721 M
1335.714 30 L
S
GR
GS
[0.75 0 0 0.75 0 0.25] CT
0.873 GC
2 setlinecap
10.0 ML
N
1679 721 M
241 721 L
S
GR
GS
[0.75 0 0 0.75 0 0.25] CT
0.873 GC
2 setlinecap
10.0 ML
N
1679 622.286 M
241 622.286 L
S
GR
GS
[0.75 0 0 0.75 0 0.25] CT
0.873 GC
2 setlinecap
10.0 ML
N
1679 523.571 M
241 523.571 L
S
GR
GS
[0.75 0 0 0.75 0 0.25] CT
0.873 GC
2 setlinecap
10.0 ML
N
1679 424.857 M
241 424.857 L
S
GR
GS
[0.75 0 0 0.75 0 0.25] CT
0.873 GC
2 setlinecap
10.0 ML
N
1679 326.143 M
241 326.143 L
S
GR
GS
[0.75 0 0 0.75 0 0.25] CT
0.873 GC
2 setlinecap
10.0 ML
N
1679 227.429 M
241 227.429 L
S
GR
GS
[0.75 0 0 0.75 0 0.25] CT
0.873 GC
2 setlinecap
10.0 ML
N
1679 128.714 M
241 128.714 L
S
GR
GS
[0.75 0 0 0.75 0 0.25] CT
0.873 GC
2 setlinecap
10.0 ML
N
1679 30 M
241 30 L
S
GR
GS
[0.75 0 0 0.75 720.0005 599.25002] CT
0.149 GC
/Helvetica 59 F
GS
[1 0 0 1 0 0] CT
-121 55 moveto 
1 -1 scale
(Time \(s\)) t 
GR
GR
GS
[0.75 0 0 0.75 0 0.25] CT
0.149 GC
2 setlinecap
10.0 ML
N
241 721 M
1679 721 L
S
GR
GS
[0.75 0 0 0.75 0 0.25] CT
0.149 GC
2 setlinecap
10.0 ML
N
241 30 M
1679 30 L
S
GR
GS
[0.75 0 0 0.75 0 0.25] CT
0.149 GC
2 setlinecap
10.0 ML
N
241 721 M
241 706.62 L
S
GR
GS
[0.75 0 0 0.75 0 0.25] CT
0.149 GC
2 setlinecap
10.0 ML
N
605.905 721 M
605.905 706.62 L
S
GR
GS
[0.75 0 0 0.75 0 0.25] CT
0.149 GC
2 setlinecap
10.0 ML
N
970.81 721 M
970.81 706.62 L
S
GR
GS
[0.75 0 0 0.75 0 0.25] CT
0.149 GC
2 setlinecap
10.0 ML
N
1335.714 721 M
1335.714 706.62 L
S
GR
GS
[0.75 0 0 0.75 0 0.25] CT
0.149 GC
2 setlinecap
10.0 ML
N
241 30 M
241 44.38 L
S
GR
GS
[0.75 0 0 0.75 0 0.25] CT
0.149 GC
2 setlinecap
10.0 ML
N
605.905 30 M
605.905 44.38 L
S
GR
GS
[0.75 0 0 0.75 0 0.25] CT
0.149 GC
2 setlinecap
10.0 ML
N
970.81 30 M
970.81 44.38 L
S
GR
GS
[0.75 0 0 0.75 0 0.25] CT
0.149 GC
2 setlinecap
10.0 ML
N
1335.714 30 M
1335.714 44.38 L
S
GR
GS
[0.75 0 0 0.75 180.75 550.99998] CT
0.149 GC
/Helvetica 53 F
GS
[1 0 0 1 0 0] CT
-17 50 moveto 
1 -1 scale
(0) t 
GR
GR
GS
[0.75 0 0 0.75 454.42854 550.99998] CT
0.149 GC
/Helvetica 53 F
GS
[1 0 0 1 0 0] CT
-42.5 50 moveto 
1 -1 scale
(0.5) t 
GR
GR
GS
[0.75 0 0 0.75 728.10713 550.99998] CT
0.149 GC
/Helvetica 53 F
GS
[1 0 0 1 0 0] CT
-17 50 moveto 
1 -1 scale
(1) t 
GR
GR
GS
[0.75 0 0 0.75 1001.78568 550.99998] CT
0.149 GC
/Helvetica 53 F
GS
[1 0 0 1 0 0] CT
-42.5 50 moveto 
1 -1 scale
(1.5) t 
GR
GR
GS
[0 -0.75 0.75 0 89.75 281.87473] CT
0.149 GC
/Helvetica 59 F
GS
[1 0 0 1 0 0] CT
-255 -14 moveto 
1 -1 scale
(Ankle angle \(rad\)) t 
GR
GR
GS
[0.75 0 0 0.75 0 0.25] CT
0.149 GC
2 setlinecap
10.0 ML
N
241 721 M
241 30 L
S
GR
GS
[0.75 0 0 0.75 0 0.25] CT
0.149 GC
2 setlinecap
10.0 ML
N
1679 721 M
1679 30 L
S
GR
GS
[0.75 0 0 0.75 0 0.25] CT
0.149 GC
2 setlinecap
10.0 ML
N
241 721 M
255.38 721 L
S
GR
GS
[0.75 0 0 0.75 0 0.25] CT
0.149 GC
2 setlinecap
10.0 ML
N
241 622.286 M
255.38 622.286 L
S
GR
GS
[0.75 0 0 0.75 0 0.25] CT
0.149 GC
2 setlinecap
10.0 ML
N
241 523.571 M
255.38 523.571 L
S
GR
GS
[0.75 0 0 0.75 0 0.25] CT
0.149 GC
2 setlinecap
10.0 ML
N
241 424.857 M
255.38 424.857 L
S
GR
GS
[0.75 0 0 0.75 0 0.25] CT
0.149 GC
2 setlinecap
10.0 ML
N
241 326.143 M
255.38 326.143 L
S
GR
GS
[0.75 0 0 0.75 0 0.25] CT
0.149 GC
2 setlinecap
10.0 ML
N
241 227.429 M
255.38 227.429 L
S
GR
GS
[0.75 0 0 0.75 0 0.25] CT
0.149 GC
2 setlinecap
10.0 ML
N
241 128.714 M
255.38 128.714 L
S
GR
GS
[0.75 0 0 0.75 0 0.25] CT
0.149 GC
2 setlinecap
10.0 ML
N
241 30 M
255.38 30 L
S
GR
GS
[0.75 0 0 0.75 0 0.25] CT
0.149 GC
2 setlinecap
10.0 ML
N
1679 721 M
1664.62 721 L
S
GR
GS
[0.75 0 0 0.75 0 0.25] CT
0.149 GC
2 setlinecap
10.0 ML
N
1679 622.286 M
1664.62 622.286 L
S
GR
GS
[0.75 0 0 0.75 0 0.25] CT
0.149 GC
2 setlinecap
10.0 ML
N
1679 523.571 M
1664.62 523.571 L
S
GR
GS
[0.75 0 0 0.75 0 0.25] CT
0.149 GC
2 setlinecap
10.0 ML
N
1679 424.857 M
1664.62 424.857 L
S
GR
GS
[0.75 0 0 0.75 0 0.25] CT
0.149 GC
2 setlinecap
10.0 ML
N
1679 326.143 M
1664.62 326.143 L
S
GR
GS
[0.75 0 0 0.75 0 0.25] CT
0.149 GC
2 setlinecap
10.0 ML
N
1679 227.429 M
1664.62 227.429 L
S
GR
GS
[0.75 0 0 0.75 0 0.25] CT
0.149 GC
2 setlinecap
10.0 ML
N
1679 128.714 M
1664.62 128.714 L
S
GR
GS
[0.75 0 0 0.75 0 0.25] CT
0.149 GC
2 setlinecap
10.0 ML
N
1679 30 M
1664.62 30 L
S
GR
GS
[0.75 0 0 0.75 170.75 541] CT
0.149 GC
/Helvetica 53 F
GS
[1 0 0 1 0 0] CT
-104 18.5 moveto 
1 -1 scale
(-0.1) t 
GR
GR
GS
[0.75 0 0 0.75 170.75 466.96428] CT
0.149 GC
/Helvetica 53 F
GS
[1 0 0 1 0 0] CT
-34 18.5 moveto 
1 -1 scale
(0) t 
GR
GR
GS
[0.75 0 0 0.75 170.75 392.92856] CT
0.149 GC
/Helvetica 53 F
GS
[1 0 0 1 0 0] CT
-85 18.5 moveto 
1 -1 scale
(0.1) t 
GR
GR
GS
[0.75 0 0 0.75 170.75 318.89286] CT
0.149 GC
/Helvetica 53 F
GS
[1 0 0 1 0 0] CT
-85 18.5 moveto 
1 -1 scale
(0.2) t 
GR
GR
GS
[0.75 0 0 0.75 170.75 244.85714] CT
0.149 GC
/Helvetica 53 F
GS
[1 0 0 1 0 0] CT
-85 18.5 moveto 
1 -1 scale
(0.3) t 
GR
GR
GS
[0.75 0 0 0.75 170.75 170.82142] CT
0.149 GC
/Helvetica 53 F
GS
[1 0 0 1 0 0] CT
-85 18.5 moveto 
1 -1 scale
(0.4) t 
GR
GR
GS
[0.75 0 0 0.75 170.75 96.78571] CT
0.149 GC
/Helvetica 53 F
GS
[1 0 0 1 0 0] CT
-85 18.5 moveto 
1 -1 scale
(0.5) t 
GR
GR
GS
[0.75 0 0 0.75 170.75 22.74998] CT
0.149 GC
/Helvetica 53 F
GS
[1 0 0 1 0 0] CT
-85 18.5 moveto 
1 -1 scale
(0.6) t 
GR
GR
GS
[0.75 0 0 0.75 0 0.25] CT
0 0 1 RC
2 LJ
6.667 LW
N
241 592.81 M
243.463 601.892 L
245.833 605.296 L
248.113 608.528 L
251.955 613.124 L
255.23 617.05 L
259.152 620.756 L
262.803 624.175 L
266.359 627.078 L
269.732 629.55 L
273.384 631.871 L
277.671 634.066 L
280.773 635.853 L
284.423 637.47 L
287.888 638.965 L
291.902 640.256 L
295.368 641.388 L
299.019 642.387 L
302.483 643.232 L
306.224 643.996 L
309.965 644.519 L
313.612 644.776 L
317.352 644.768 L
320.728 644.598 L
324.926 644.216 L
328.122 643.784 L
331.958 643.107 L
335.782 642.361 L
339.158 641.589 L
342.714 640.759 L
346.365 639.821 L
350.472 638.806 L
355.03 637.303 L
357.584 636.599 L
361.051 635.433 L
364.882 634.108 L
368.348 632.878 L
371.998 631.56 L
375.645 630.216 L
379.298 628.816 L
383.037 627.252 L
386.685 625.609 L
390.516 623.875 L
393.892 622.085 L
397.996 620.124 L
401.191 618.288 L
404.838 616.338 L
408.942 614.43 L
412.411 612.53 L
415.878 610.925 L
S
GR
GS
[0.75 0 0 0.75 0 0.25] CT
0 0 1 RC
2 LJ
6.667 LW
N
415.878 610.925 M
419.618 609.32 L
423.358 607.995 L
426.826 606.825 L
430.657 605.799 L
434.124 604.913 L
437.772 603.948 L
441.422 603.07 L
445.071 602.165 L
448.719 601.196 L
452.369 600.121 L
456.2 598.852 L
459.848 597.437 L
463.499 595.744 L
466.783 593.992 L
470.98 591.542 L
474.537 588.684 L
477.729 585.432 L
481.926 581.276 L
485.208 576.941 L
489.043 572.8 L
492.325 569.756 L
496.338 568.158 L
499.623 568.469 L
503.274 569.987 L
507.012 571.997 L
510.572 574.056 L
514.313 575.877 L
517.869 577.312 L
521.791 578.338 L
525.167 579.095 L
529.001 579.527 L
532.556 579.671 L
537.847 579.693 L
540.309 579.693 L
543.685 579.693 L
547.151 579.701 L
550.801 579.735 L
554.998 579.822 L
558.282 579.988 L
561.931 580.219 L
565.58 580.488 L
569.229 580.689 L
572.696 580.825 L
576.345 580.863 L
579.995 580.848 L
583.644 580.81 L
587.475 580.746 L
591.033 580.632 L
594.772 580.431 L
S
GR
GS
[0.75 0 0 0.75 0 0.25] CT
0 0 1 RC
2 LJ
6.667 LW
N
594.772 580.431 M
598.239 580.193 L
601.888 579.898 L
605.629 579.546 L
609.185 579.072 L
612.835 578.452 L
616.757 577.74 L
620.5 576.846 L
623.887 575.76 L
627.894 574.545 L
631.175 573.224 L
634.732 571.811 L
638.288 570.297 L
642.301 568.726 L
645.769 567.132 L
649.328 565.436 L
652.976 563.767 L
656.443 561.904 L
660.364 559.811 L
663.83 557.71 L
667.57 555.48 L
671.131 553.3 L
674.961 550.945 L
678.611 548.424 L
681.984 546.111 L
685.908 543.684 L
689.373 541.231 L
693.388 538.551 L
696.762 536.208 L
700.321 533.86 L
704.333 531.176 L
707.622 528.648 L
711.451 525.907 L
714.918 523.075 L
718.932 520.001 L
723.31 516.068 L
725.865 514.096 L
729.514 511.018 L
733.165 507.944 L
736.812 504.843 L
740.733 501.539 L
744.292 498.48 L
747.851 495.156 L
751.682 491.791 L
755.147 488.368 L
758.978 484.742 L
762.356 481.543 L
766.093 478.223 L
769.835 474.907 L
773.575 471.643 L
S
GR
GS
[0.75 0 0 0.75 0 0.25] CT
0 0 1 RC
2 LJ
6.667 LW
N
773.575 471.643 M
777.045 468.399 L
780.693 465.109 L
784.524 461.744 L
788.173 458.39 L
792.005 454.869 L
795.288 451.666 L
799.119 448.191 L
802.585 445.098 L
806.234 441.835 L
809.885 438.712 L
813.622 435.259 L
817.367 431.943 L
820.742 428.563 L
824.299 425.205 L
828.313 421.601 L
833.784 417.35 L
835.885 415.987 L
839.167 414.332 L
842.907 412.708 L
846.646 411.44 L
850.297 410.161 L
853.673 409.048 L
857.597 407.976 L
861.063 406.939 L
864.713 405.959 L
868.358 405.054 L
871.826 404.232 L
875.565 403.619 L
879.123 403.214 L
883.046 402.847 L
886.422 402.506 L
890.438 402.256 L
893.811 402.139 L
897.37 402.067 L
901.2 402.025 L
906.584 401.999 L
908.863 401.946 L
912.512 400.072 L
916.163 395.597 L
919.446 389.62 L
923.281 382.923 L
926.746 376.699 L
930.303 369.987 L
934.317 363.135 L
937.693 356.276 L
941.524 349.78 L
944.991 343.802 L
948.731 338.479 L
952.107 333.838 L
S
GR
GS
[0.75 0 0 0.75 0 0.25] CT
0 0 1 RC
2 LJ
6.667 LW
N
952.107 333.838 M
956.029 329.754 L
959.588 326.169 L
963.235 322.992 L
966.886 320.354 L
970.533 318.222 L
974.366 316.625 L
977.83 315.573 L
981.662 314.887 L
985.311 314.577 L
989.143 314.539 L
992.428 314.717 L
996.26 315.326 L
999.636 316.352 L
1003.284 317.935 L
1006.935 320.036 L
1010.672 322.788 L
1014.414 325.843 L
1017.97 329.727 L
1021.711 333.861 L
1025.177 338.15 L
1028.826 342.954 L
1032.839 348.034 L
1036.128 353.327 L
1039.776 358.816 L
1043.422 364.468 L
1047.253 370.226 L
1050.72 376.09 L
1054.552 382.31 L
1058.2 387.981 L
1061.673 393.943 L
1065.325 399.89 L
1069.15 405.822 L
1072.619 411.577 L
1076.267 417.085 L
1080.097 422.354 L
1083.562 427.393 L
1087.394 432.424 L
1092.046 438.057 L
1094.509 441.089 L
1098.249 445.136 L
1101.808 448.888 L
1105.912 452.325 L
1109.106 455.441 L
1113.028 458.238 L
1116.405 460.756 L
1120.143 463.004 L
1123.701 464.95 L
1127.349 466.642 L
1131.456 468.081 L
S
GR
GS
[0.75 0 0 0.75 0 0.25] CT
0 0 1 RC
2 LJ
6.667 LW
N
1131.456 468.081 M
1134.739 469.489 L
1138.389 470.686 L
1142.218 471.651 L
1145.687 472.389 L
1149.245 473.161 L
1152.986 473.903 L
1156.453 474.581 L
1160.283 475.349 L
1163.932 476.22 L
1167.581 477.136 L
1171.231 478.147 L
1174.696 479.404 L
1178.711 480.752 L
1182.636 482.209 L
1186.466 483.875 L
1189.938 485.215 L
1193.767 486.491 L
1197.597 487.577 L
1200.944 488.505 L
1205.17 489.394 L
1208.362 490.159 L
1212.198 490.814 L
1215.842 491.408 L
1219.31 491.961 L
1222.774 492.517 L
1226.613 493.044 L
1230.077 493.494 L
1233.724 493.869 L
1237.375 494.092 L
1241.02 494.24 L
1245.036 494.357 L
1248.324 494.456 L
1252.424 494.577 L
1255.617 494.713 L
1259.447 494.861 L
1262.736 494.989 L
1266.564 495.095 L
1270.403 495.164 L
1276.052 495.182 L
1279.703 495.182 L
1283.439 495.182 L
1286.453 495.182 L
1289.917 495.182 L
1292.75 495.182 L
1295.756 495.182 L
1299.5 495.182 L
1303.056 495.182 L
1306.795 495.182 L
1310.625 495.182 L
S
GR
GS
[0.75 0 0 0.75 0 0.25] CT
0 0 1 RC
2 LJ
6.667 LW
N
1310.625 495.182 M
1314.108 495.182 L
1317.926 495.182 L
1321.391 495.182 L
1325.408 495.182 L
1328.508 495.182 L
1332.341 495.182 L
1335.811 495.182 L
1339.546 495.182 L
1343.468 495.182 L
1346.935 495.182 L
1350.95 495.182 L
1354.231 495.182 L
1357.978 495.182 L
1362.169 495.182 L
1365.272 495.182 L
1368.648 495.182 L
1372.388 495.182 L
1376.399 495.182 L
1379.683 495.179 L
1383.431 495.179 L
1386.893 495.179 L
1390.814 495.179 L
1394.463 495.179 L
1398.113 495.175 L
1401.759 495.175 L
1405.049 495.175 L
1409.243 495.175 L
1412.528 495.175 L
1416.357 495.175 L
1419.826 495.175 L
1423.747 495.175 L
1427.216 495.175 L
1430.771 495.175 L
1435.152 495.175 L
1438.071 495.175 L
1441.9 495.175 L
1445.184 495.175 L
1449.386 495.175 L
1452.758 495.175 L
1458.414 495.175 L
1461.604 495.175 L
1464.614 495.175 L
1467.533 495.175 L
1471.097 495.175 L
1474.835 495.175 L
1478.209 495.175 L
1481.951 495.175 L
1485.598 495.175 L
1489.428 495.175 L
S
GR
GS
[0.75 0 0 0.75 0 0.25] CT
0 0 1 RC
2 LJ
6.667 LW
N
1489.428 495.175 M
1492.913 495.179 L
1496.547 495.186 L
1500.56 495.201 L
1503.661 495.213 L
1507.857 495.228 L
1511.143 495.251 L
1514.89 495.277 L
1518.261 495.307 L
1522.27 495.353 L
1525.555 495.417 L
1529.203 495.516 L
1532.854 495.663 L
1536.609 495.902 L
1540.428 496.269 L
1543.984 496.784 L
1547.907 497.431 L
1551.19 498.139 L
1555.115 499.029 L
1559.04 499.915 L
1562.139 500.808 L
1565.968 501.868 L
1569.436 503.026 L
1573.539 504.385 L
1576.734 505.597 L
1581.307 507.047 L
1584.397 508.712 L
1587.862 510.397 L
1591.336 512.127 L
1594.978 514.065 L
1598.536 516.113 L
1602.094 518.286 L
1606.113 520.584 L
1609.575 523.041 L
1613.406 525.615 L
1617.055 528.33 L
1620.704 531.286 L
1624.444 534.224 L
1628.006 537.252 L
1632.199 540.394 L
1635.483 543.514 L
1639.225 547.163 L
1645.789 551.373 L
1649.808 559.962 L
1654.456 565.153 L
1657.742 570.305 L
1661.304 575.139 L
1664.947 579.458 L
1669.058 584.898 L
1672.617 588.82 L
S
GR
GS
[0.75 0 0 0.75 0 0.25] CT
0 0 1 RC
2 LJ
6.667 LW
N
1672.617 588.82 M
1679 593.56 L
S
GR
GS
[0.75 0 0 0.75 0 0.25] CT
1 0 0 RC
[24 24] 0 setdash
2 LJ
6.667 LW
N
241 592.81 M
243.463 592.81 L
245.833 592.81 L
248.113 592.81 L
251.955 592.81 L
255.23 592.81 L
259.152 592.81 L
262.803 592.81 L
266.359 592.81 L
269.732 592.81 L
273.384 592.81 L
277.671 592.81 L
280.773 592.81 L
284.423 592.81 L
287.888 592.81 L
291.902 592.81 L
295.368 592.81 L
299.019 592.81 L
302.483 592.81 L
306.224 592.81 L
309.965 592.81 L
313.612 592.81 L
317.352 592.81 L
320.728 592.81 L
324.926 592.81 L
328.122 592.81 L
331.958 592.81 L
335.782 592.81 L
339.158 592.81 L
342.714 592.81 L
346.365 592.81 L
350.472 592.81 L
355.03 592.81 L
357.584 592.81 L
361.051 592.81 L
364.882 592.81 L
368.348 592.81 L
371.998 592.81 L
375.645 592.81 L
379.298 592.81 L
383.037 592.81 L
386.685 592.81 L
390.516 592.81 L
393.892 592.81 L
397.996 592.81 L
401.191 592.81 L
404.838 592.81 L
408.942 592.81 L
412.411 592.81 L
415.878 595.134 L
419.618 598.822 L
423.358 601.883 L
426.826 604.628 L
430.657 607.055 L
434.124 609.174 L
437.772 611.436 L
441.422 613.543 L
445.071 615.684 L
448.719 617.788 L
452.369 619.831 L
456.2 621.774 L
459.848 623.375 L
463.499 624.384 L
466.783 624.264 L
470.98 622.23 L
474.537 617.952 L
477.729 611.93 L
481.926 605.307 L
485.208 602.943 L
489.043 608.751 L
492.325 618.76 L
496.338 627.86 L
499.623 633.18 L
503.274 636.547 L
507.012 639.144 L
510.572 640.823 L
514.313 642.276 L
517.869 643.067 L
521.791 642.937 L
525.167 641.962 L
529.001 639.978 L
532.556 637.598 L
537.847 634.851 L
540.309 631.774 L
543.685 631.774 L
547.151 626.647 L
550.801 624.657 L
554.998 622.959 L
558.282 621.509 L
561.931 620.44 L
565.58 619.616 L
569.229 618.953 L
572.696 618.321 L
576.345 617.681 L
579.995 617.05 L
583.644 616.413 L
587.475 615.706 L
591.033 614.888 L
594.772 613.88 L
598.239 612.836 L
601.888 611.625 L
605.629 610.328 L
609.185 608.884 L
612.835 607.304 L
616.757 605.67 L
620.5 603.869 L
623.887 602.02 L
627.894 600.042 L
631.175 598.06 L
634.732 596.098 L
638.288 594.081 L
642.301 592.066 L
645.769 590.051 L
649.328 587.981 L
652.976 585.959 L
656.443 583.793 L
660.364 581.423 L
663.83 579.116 L
667.57 576.736 L
671.131 574.443 L
674.961 571.924 L
678.611 568.976 L
681.984 566.358 L
685.908 563.79 L
689.373 561.28 L
693.388 558.587 L
696.762 556.213 L
700.321 553.635 L
704.333 550.816 L
707.622 548.258 L
711.451 545.515 L
714.918 542.678 L
718.932 539.596 L
723.31 535.652 L
725.865 533.674 L
729.514 530.585 L
733.165 527.492 L
736.812 524.361 L
740.733 521.014 L
744.292 517.896 L
747.851 514.492 L
751.682 511.02 L
755.147 507.472 L
758.978 503.714 L
762.356 500.414 L
766.093 496.989 L
769.835 493.564 L
773.575 490.175 L
777.045 486.769 L
780.693 483.303 L
784.524 479.77 L
788.173 476.258 L
792.005 472.533 L
795.288 469.13 L
799.119 465.432 L
802.585 462.151 L
806.234 458.67 L
809.885 455.295 L
813.622 451.58 L
817.367 448.015 L
820.742 444.33 L
824.299 440.636 L
828.313 438.101 L
833.784 438.101 L
835.885 438.101 L
839.167 438.101 L
842.907 438.101 L
846.646 438.101 L
850.297 438.101 L
853.673 438.101 L
857.597 438.101 L
861.063 438.101 L
864.713 438.101 L
868.358 438.101 L
871.826 438.103 L
875.565 438.103 L
879.123 438.103 L
883.046 438.103 L
886.422 438.103 L
890.438 438.103 L
893.811 438.103 L
897.37 438.103 L
901.2 438.103 L
906.584 422.132 L
908.863 407.203 L
912.512 390.844 L
916.163 373.226 L
919.446 356.732 L
923.281 342.601 L
926.746 331.625 L
930.303 322.009 L
934.317 312.907 L
937.693 304.894 L
941.524 297.754 L
944.991 291.895 L
948.731 288.825 L
952.107 285.742 L
956.029 281.858 L
959.588 279.37 L
963.235 277.978 L
966.886 277.117 L
970.533 277.168 L
974.366 278.102 L
977.83 279.544 L
981.662 281.336 L
985.311 283.762 L
989.143 287.122 L
992.428 291.337 L
996.26 296.274 L
999.636 301.555 L
1003.284 307.126 L
1006.935 313.645 L
1010.672 321.01 L
1014.414 328.42 L
1017.97 336.311 L
1021.711 344.76 L
1025.177 353.36 L
1028.826 361.766 L
1032.839 370.462 L
1036.128 379.04 L
1039.776 387.729 L
1043.422 396.506 L
1047.253 405.196 L
1050.72 413.982 L
1054.552 422.9 L
1058.2 431.126 L
1061.673 438.906 L
1065.325 445.06 L
1069.15 450.817 L
1072.619 456.141 L
1076.267 462.273 L
1080.097 467.7 L
1083.562 472.889 L
1087.394 477.462 L
1092.046 481.9 L
1094.509 485.819 L
1098.249 488.103 L
1101.808 490.691 L
1105.912 491.959 L
1109.106 493.154 L
1113.028 494.066 L
1116.405 494.317 L
1120.143 494.497 L
1123.701 494.221 L
1127.349 494.188 L
1131.456 493.965 L
1134.739 493.097 L
1138.389 492.31 L
1142.218 491.339 L
1145.687 490.814 L
1149.245 490.331 L
1152.986 490.042 L
1156.453 489.61 L
1160.283 489.557 L
1163.932 489.98 L
1167.581 490.458 L
1171.231 491.594 L
1174.696 492.596 L
1178.711 494.94 L
1182.636 496.676 L
1186.466 497.831 L
1189.938 499.571 L
1193.767 500.966 L
1197.597 502.889 L
1200.944 504.807 L
1205.17 506.579 L
1208.362 507.608 L
1212.198 508.954 L
1215.842 510.746 L
1219.31 512.147 L
1222.774 513.46 L
1226.613 514.556 L
1230.077 515.693 L
1233.724 516.804 L
1237.375 517.832 L
1241.02 519.085 L
1245.036 520.263 L
1248.324 521.334 L
1252.424 522.275 L
1255.617 523.513 L
1259.447 524.419 L
1262.736 525.559 L
1266.564 526.483 L
1270.403 527.13 L
1276.052 527.756 L
1279.703 528.446 L
1283.439 528.84 L
1286.453 529.131 L
1289.917 529.338 L
1292.75 529.338 L
1295.756 529.567 L
1299.5 529.666 L
1303.056 529.691 L
1306.795 529.712 L
1310.625 529.715 L
1314.108 529.697 L
1317.926 529.687 L
1321.391 529.549 L
1325.408 529.573 L
1328.508 529.493 L
1332.341 529.46 L
1335.811 529.399 L
1339.546 529.213 L
1343.468 529.154 L
1346.935 528.957 L
1350.95 528.759 L
1354.231 528.563 L
1357.978 528.226 L
1362.169 527.883 L
1365.272 527.408 L
1368.648 526.956 L
1372.388 526.488 L
1376.399 526.014 L
1379.683 525.662 L
1383.431 525.34 L
1386.893 524.973 L
1390.814 524.651 L
1394.463 524.099 L
1398.113 523.708 L
1401.759 522.922 L
1405.049 522.481 L
1409.243 521.884 L
1412.528 521.614 L
1416.357 521.32 L
1419.826 521.081 L
1423.747 520.763 L
1427.216 520.495 L
1430.771 520.206 L
1435.152 519.888 L
1438.071 519.637 L
1441.9 519.446 L
1445.184 519.3 L
1449.386 519.276 L
1452.758 519.328 L
1458.414 519.467 L
1461.604 519.805 L
1464.614 520.139 L
1467.533 520.139 L
1471.097 520.868 L
1474.835 521.321 L
1478.209 521.896 L
1481.951 522.512 L
1485.598 523.261 L
1489.428 524.143 L
1492.913 525.122 L
1496.547 526.12 L
1500.56 527.135 L
1503.661 528.086 L
1507.857 528.964 L
1511.143 530.083 L
1514.89 531.289 L
1518.261 533.391 L
1522.27 535.37 L
1525.555 537.864 L
1529.203 540.112 L
1532.854 542.695 L
1536.609 545.805 L
1540.428 548.619 L
1543.984 552.334 L
1547.907 554.722 L
1551.19 557.496 L
1555.115 560.052 L
1559.04 562.758 L
1562.139 565.914 L
1565.968 569.949 L
1569.436 574.352 L
1573.539 579.168 L
1576.734 584.096 L
1581.307 589.549 L
1584.397 594.798 L
1587.862 599.526 L
1591.336 604.964 L
1594.978 608.007 L
1598.536 612.852 L
1602.094 626.152 L
1606.113 632.559 L
1609.575 639.46 L
1613.406 647.162 L
1617.055 655.511 L
1620.704 664.776 L
1624.444 673.999 L
1628.006 683.853 L
1632.199 692.697 L
1635.483 699.104 L
1639.225 704.281 L
1645.789 711.313 L
1648.084 721.069 L
S
GR
GS
[0.75 0 0 0.75 0 0.25] CT
1 0 0 RC
[24 24] 0 setdash
2 LJ
6.667 LW
N
1674.807 721.069 M
1679 593.56 L
S
GR
GS
[0.75 0 0 0.75 378.5625 664.12502] CT
/Helvetica 48 F
GS
[1 0 0 1 0 0] CT
0 16.5 moveto 
1 -1 scale
(Actual) t 
GR
GR
GS
[0.75 0 0 0.75 0 0.25] CT
0 0 1 RC
2 setlinecap
10.0 ML
6.667 LW
N
460.962 885.167 M
500.769 885.167 L
S
GR
GS
[0.75 0 0 0.75 922.5 664.12502] CT
/Helvetica 48 F
GS
[1 0 0 1 0 0] CT
0 16.5 moveto 
1 -1 scale
(Desired) t 
GR
GR
GS
[0.75 0 0 0.75 0 0.25] CT
1 0 0 RC
[24 24] 0 setdash
2 LJ
6.667 LW
N
1186 885.167 M
1226 885.167 L
S
GR
%%Trailer
%%Pages: 1
%%EOF
