%!PS-Adobe-3.0 EPSF-3.0
%%Creator: (MATLAB, The Mathworks, Inc. Version 8.5.0.197613 \(R2015a\). Operating System: Linux)
%%Title: (/home/victor/ampro/AMPRO II/Upslope Walking/figures/Thesis/FlatgroundSplines/AnkleTrackingTwoSteps.eps)
%%CreationDate: 2016-02-18T16:52:10
%%Pages: (atend)
%%BoundingBox: 0 0 1391 751
%%LanguageLevel: 2
%%EndComments
%%BeginProlog
%%BeginResource: procset (Apache XML Graphics Std ProcSet) 1.2 0
%%Version: 1.2 0
%%Copyright: (Copyright 2001-2003,2010 The Apache Software Foundation. License terms: http://www.apache.org/licenses/LICENSE-2.0)
/bd{bind def}bind def
/ld{load def}bd
/GR/grestore ld
/M/moveto ld
/LJ/setlinejoin ld
/C/curveto ld
/f/fill ld
/LW/setlinewidth ld
/GC/setgray ld
/t/show ld
/N/newpath ld
/CT/concat ld
/cp/closepath ld
/S/stroke ld
/L/lineto ld
/CC/setcmykcolor ld
/A/ashow ld
/GS/gsave ld
/RC/setrgbcolor ld
/RM/rmoveto ld
/ML/setmiterlimit ld
/re {4 2 roll M
1 index 0 rlineto
0 exch rlineto
neg 0 rlineto
cp } bd
/_ctm matrix def
/_tm matrix def
/BT { _ctm currentmatrix pop matrix _tm copy pop 0 0 moveto } bd
/ET { _ctm setmatrix } bd
/iTm { _ctm setmatrix _tm concat } bd
/Tm { _tm astore pop iTm 0 0 moveto } bd
/ux 0.0 def
/uy 0.0 def
/F {
  /Tp exch def
  /Tf exch def
  Tf findfont Tp scalefont setfont
  /cf Tf def  /cs Tp def
} bd
/ULS {currentpoint /uy exch def /ux exch def} bd
/ULE {
  /Tcx currentpoint pop def
  gsave
  newpath
  cf findfont cs scalefont dup
  /FontMatrix get 0 get /Ts exch def /FontInfo get dup
  /UnderlinePosition get Ts mul /To exch def
  /UnderlineThickness get Ts mul /Tt exch def
  ux uy To add moveto  Tcx uy To add lineto
  Tt setlinewidth stroke
  grestore
} bd
/OLE {
  /Tcx currentpoint pop def
  gsave
  newpath
  cf findfont cs scalefont dup
  /FontMatrix get 0 get /Ts exch def /FontInfo get dup
  /UnderlinePosition get Ts mul /To exch def
  /UnderlineThickness get Ts mul /Tt exch def
  ux uy To add cs add moveto Tcx uy To add cs add lineto
  Tt setlinewidth stroke
  grestore
} bd
/SOE {
  /Tcx currentpoint pop def
  gsave
  newpath
  cf findfont cs scalefont dup
  /FontMatrix get 0 get /Ts exch def /FontInfo get dup
  /UnderlinePosition get Ts mul /To exch def
  /UnderlineThickness get Ts mul /Tt exch def
  ux uy To add cs 10 mul 26 idiv add moveto Tcx uy To add cs 10 mul 26 idiv add lineto
  Tt setlinewidth stroke
  grestore
} bd
/QT {
/Y22 exch store
/X22 exch store
/Y21 exch store
/X21 exch store
currentpoint
/Y21 load 2 mul add 3 div exch
/X21 load 2 mul add 3 div exch
/X21 load 2 mul /X22 load add 3 div
/Y21 load 2 mul /Y22 load add 3 div
/X22 load /Y22 load curveto
} bd
/SSPD {
dup length /d exch dict def
{
/v exch def
/k exch def
currentpagedevice k known {
/cpdv currentpagedevice k get def
v cpdv ne {
/upd false def
/nullv v type /nulltype eq def
/nullcpdv cpdv type /nulltype eq def
nullv nullcpdv or
{
/upd true def
} {
/sametype v type cpdv type eq def
sametype {
v type /arraytype eq {
/vlen v length def
/cpdvlen cpdv length def
vlen cpdvlen eq {
0 1 vlen 1 sub {
/i exch def
/obj v i get def
/cpdobj cpdv i get def
obj cpdobj ne {
/upd true def
exit
} if
} for
} {
/upd true def
} ifelse
} {
v type /dicttype eq {
v {
/dv exch def
/dk exch def
/cpddv cpdv dk get def
dv cpddv ne {
/upd true def
exit
} if
} forall
} {
/upd true def
} ifelse
} ifelse
} if
} ifelse
upd true eq {
d k v put
} if
} if
} if
} forall
d length 0 gt {
d setpagedevice
} if
} bd
%%EndResource
%%BeginResource: procset (Apache XML Graphics EPS ProcSet) 1.0 0
%%Version: 1.0 0
%%Copyright: (Copyright 2002-2003 The Apache Software Foundation. License terms: http://www.apache.org/licenses/LICENSE-2.0)
/BeginEPSF { %def
/b4_Inc_state save def         % Save state for cleanup
/dict_count countdictstack def % Count objects on dict stack
/op_count count 1 sub def      % Count objects on operand stack
userdict begin                 % Push userdict on dict stack
/showpage { } def              % Redefine showpage, { } = null proc
0 setgray 0 setlinecap         % Prepare graphics state
1 setlinewidth 0 setlinejoin
10 setmiterlimit [ ] 0 setdash newpath
/languagelevel where           % If level not equal to 1 then
{pop languagelevel             % set strokeadjust and
1 ne                           % overprint to their defaults.
{false setstrokeadjust false setoverprint
} if
} if
} bd
/EndEPSF { %def
count op_count sub {pop} repeat            % Clean up stacks
countdictstack dict_count sub {end} repeat
b4_Inc_state restore
} bd
%%EndResource
%FOPBeginFontDict
%%IncludeResource: font Courier-Bold
%%IncludeResource: font Helvetica
%%IncludeResource: font Courier-BoldOblique
%%IncludeResource: font Courier-Oblique
%%IncludeResource: font Times-Roman
%%IncludeResource: font Helvetica-BoldOblique
%%IncludeResource: font Helvetica-Bold
%%IncludeResource: font Helvetica-Oblique
%%IncludeResource: font Times-BoldItalic
%%IncludeResource: font Courier
%%IncludeResource: font Times-Italic
%%IncludeResource: font Times-Bold
%%IncludeResource: font Symbol
%%IncludeResource: font ZapfDingbats
%FOPEndFontDict
%%BeginResource: encoding WinAnsiEncoding
/WinAnsiEncoding [
/.notdef /.notdef /.notdef /.notdef /.notdef
/.notdef /.notdef /.notdef /.notdef /.notdef
/.notdef /.notdef /.notdef /.notdef /.notdef
/.notdef /.notdef /.notdef /.notdef /.notdef
/.notdef /.notdef /.notdef /.notdef /.notdef
/.notdef /.notdef /.notdef /.notdef /.notdef
/.notdef /.notdef /space /exclam /quotedbl
/numbersign /dollar /percent /ampersand /quotesingle
/parenleft /parenright /asterisk /plus /comma
/hyphen /period /slash /zero /one
/two /three /four /five /six
/seven /eight /nine /colon /semicolon
/less /equal /greater /question /at
/A /B /C /D /E
/F /G /H /I /J
/K /L /M /N /O
/P /Q /R /S /T
/U /V /W /X /Y
/Z /bracketleft /backslash /bracketright /asciicircum
/underscore /quoteleft /a /b /c
/d /e /f /g /h
/i /j /k /l /m
/n /o /p /q /r
/s /t /u /v /w
/x /y /z /braceleft /bar
/braceright /asciitilde /bullet /Euro /bullet
/quotesinglbase /florin /quotedblbase /ellipsis /dagger
/daggerdbl /circumflex /perthousand /Scaron /guilsinglleft
/OE /bullet /Zcaron /bullet /bullet
/quoteleft /quoteright /quotedblleft /quotedblright /bullet
/endash /emdash /asciitilde /trademark /scaron
/guilsinglright /oe /bullet /zcaron /Ydieresis
/space /exclamdown /cent /sterling /currency
/yen /brokenbar /section /dieresis /copyright
/ordfeminine /guillemotleft /logicalnot /sfthyphen /registered
/macron /degree /plusminus /twosuperior /threesuperior
/acute /mu /paragraph /middot /cedilla
/onesuperior /ordmasculine /guillemotright /onequarter /onehalf
/threequarters /questiondown /Agrave /Aacute /Acircumflex
/Atilde /Adieresis /Aring /AE /Ccedilla
/Egrave /Eacute /Ecircumflex /Edieresis /Igrave
/Iacute /Icircumflex /Idieresis /Eth /Ntilde
/Ograve /Oacute /Ocircumflex /Otilde /Odieresis
/multiply /Oslash /Ugrave /Uacute /Ucircumflex
/Udieresis /Yacute /Thorn /germandbls /agrave
/aacute /acircumflex /atilde /adieresis /aring
/ae /ccedilla /egrave /eacute /ecircumflex
/edieresis /igrave /iacute /icircumflex /idieresis
/eth /ntilde /ograve /oacute /ocircumflex
/otilde /odieresis /divide /oslash /ugrave
/uacute /ucircumflex /udieresis /yacute /thorn
/ydieresis
] def
%%EndResource
%FOPBeginFontReencode
/Courier-Bold findfont
dup length dict begin
  {1 index /FID ne {def} {pop pop} ifelse} forall
  /Encoding WinAnsiEncoding def
  currentdict
end
/Courier-Bold exch definefont pop
/Helvetica findfont
dup length dict begin
  {1 index /FID ne {def} {pop pop} ifelse} forall
  /Encoding WinAnsiEncoding def
  currentdict
end
/Helvetica exch definefont pop
/Courier-BoldOblique findfont
dup length dict begin
  {1 index /FID ne {def} {pop pop} ifelse} forall
  /Encoding WinAnsiEncoding def
  currentdict
end
/Courier-BoldOblique exch definefont pop
/Courier-Oblique findfont
dup length dict begin
  {1 index /FID ne {def} {pop pop} ifelse} forall
  /Encoding WinAnsiEncoding def
  currentdict
end
/Courier-Oblique exch definefont pop
/Times-Roman findfont
dup length dict begin
  {1 index /FID ne {def} {pop pop} ifelse} forall
  /Encoding WinAnsiEncoding def
  currentdict
end
/Times-Roman exch definefont pop
/Helvetica-BoldOblique findfont
dup length dict begin
  {1 index /FID ne {def} {pop pop} ifelse} forall
  /Encoding WinAnsiEncoding def
  currentdict
end
/Helvetica-BoldOblique exch definefont pop
/Helvetica-Bold findfont
dup length dict begin
  {1 index /FID ne {def} {pop pop} ifelse} forall
  /Encoding WinAnsiEncoding def
  currentdict
end
/Helvetica-Bold exch definefont pop
/Helvetica-Oblique findfont
dup length dict begin
  {1 index /FID ne {def} {pop pop} ifelse} forall
  /Encoding WinAnsiEncoding def
  currentdict
end
/Helvetica-Oblique exch definefont pop
/Times-BoldItalic findfont
dup length dict begin
  {1 index /FID ne {def} {pop pop} ifelse} forall
  /Encoding WinAnsiEncoding def
  currentdict
end
/Times-BoldItalic exch definefont pop
/Courier findfont
dup length dict begin
  {1 index /FID ne {def} {pop pop} ifelse} forall
  /Encoding WinAnsiEncoding def
  currentdict
end
/Courier exch definefont pop
/Times-Italic findfont
dup length dict begin
  {1 index /FID ne {def} {pop pop} ifelse} forall
  /Encoding WinAnsiEncoding def
  currentdict
end
/Times-Italic exch definefont pop
/Times-Bold findfont
dup length dict begin
  {1 index /FID ne {def} {pop pop} ifelse} forall
  /Encoding WinAnsiEncoding def
  currentdict
end
/Times-Bold exch definefont pop
%FOPEndFontReencode
%%EndProlog
%%Page: 1 1
%%PageBoundingBox: 0 0 1391 751
%%BeginPageSetup
[1 0 0 -1 0 751] CT
%%EndPageSetup
GS
[0.75 0 0 0.75 0 0.25] CT
N
0 0 M
1855 0 L
1855 1001 L
0 1001 L
0 0 L
cp
clip
1 GC
N
0 0 1855 1001 re
f
GR
GS
[0.75 0 0 0.75 0 0.25] CT
1 GC
N
0 0 1855 1001 re
f
GR
GS
[0.75 0 0 0.75 0 0.25] CT
1 GC
N
241 721 M
1679 721 L
1679 30 L
241 30 L
cp
f
GR
GS
[0.75 0 0 0.75 0 0.25] CT
0.873 GC
2 setlinecap
10.0 ML
N
241 721 M
241 30 L
S
GR
GS
[0.75 0 0 0.75 0 0.25] CT
0.873 GC
2 setlinecap
10.0 ML
N
420.773 721 M
420.773 30 L
S
GR
GS
[0.75 0 0 0.75 0 0.25] CT
0.873 GC
2 setlinecap
10.0 ML
N
600.546 721 M
600.546 30 L
S
GR
GS
[0.75 0 0 0.75 0 0.25] CT
0.873 GC
2 setlinecap
10.0 ML
N
780.32 721 M
780.32 30 L
S
GR
GS
[0.75 0 0 0.75 0 0.25] CT
0.873 GC
2 setlinecap
10.0 ML
N
960.093 721 M
960.093 30 L
S
GR
GS
[0.75 0 0 0.75 0 0.25] CT
0.873 GC
2 setlinecap
10.0 ML
N
1139.866 721 M
1139.866 30 L
S
GR
GS
[0.75 0 0 0.75 0 0.25] CT
0.873 GC
2 setlinecap
10.0 ML
N
1319.639 721 M
1319.639 30 L
S
GR
GS
[0.75 0 0 0.75 0 0.25] CT
0.873 GC
2 setlinecap
10.0 ML
N
1499.412 721 M
1499.412 30 L
S
GR
GS
[0.75 0 0 0.75 0 0.25] CT
0.873 GC
2 setlinecap
10.0 ML
N
1679 721 M
241 721 L
S
GR
GS
[0.75 0 0 0.75 0 0.25] CT
0.873 GC
2 setlinecap
10.0 ML
N
1679 605.833 M
241 605.833 L
S
GR
GS
[0.75 0 0 0.75 0 0.25] CT
0.873 GC
2 setlinecap
10.0 ML
N
1679 490.667 M
241 490.667 L
S
GR
GS
[0.75 0 0 0.75 0 0.25] CT
0.873 GC
2 setlinecap
10.0 ML
N
1679 375.5 M
241 375.5 L
S
GR
GS
[0.75 0 0 0.75 0 0.25] CT
0.873 GC
2 setlinecap
10.0 ML
N
1679 260.333 M
241 260.333 L
S
GR
GS
[0.75 0 0 0.75 0 0.25] CT
0.873 GC
2 setlinecap
10.0 ML
N
1679 145.167 M
241 145.167 L
S
GR
GS
[0.75 0 0 0.75 0 0.25] CT
0.873 GC
2 setlinecap
10.0 ML
N
1679 30 M
241 30 L
S
GR
GS
[0.75 0 0 0.75 720.0005 599.25002] CT
0.149 GC
/Helvetica 59 F
GS
[1 0 0 1 0 0] CT
-121 55 moveto 
1 -1 scale
(Time \(s\)) t 
GR
GR
GS
[0.75 0 0 0.75 0 0.25] CT
0.149 GC
2 setlinecap
10.0 ML
N
241 721 M
1679 721 L
S
GR
GS
[0.75 0 0 0.75 0 0.25] CT
0.149 GC
2 setlinecap
10.0 ML
N
241 30 M
1679 30 L
S
GR
GS
[0.75 0 0 0.75 0 0.25] CT
0.149 GC
2 setlinecap
10.0 ML
N
241 721 M
241 706.62 L
S
GR
GS
[0.75 0 0 0.75 0 0.25] CT
0.149 GC
2 setlinecap
10.0 ML
N
420.773 721 M
420.773 706.62 L
S
GR
GS
[0.75 0 0 0.75 0 0.25] CT
0.149 GC
2 setlinecap
10.0 ML
N
600.546 721 M
600.546 706.62 L
S
GR
GS
[0.75 0 0 0.75 0 0.25] CT
0.149 GC
2 setlinecap
10.0 ML
N
780.32 721 M
780.32 706.62 L
S
GR
GS
[0.75 0 0 0.75 0 0.25] CT
0.149 GC
2 setlinecap
10.0 ML
N
960.093 721 M
960.093 706.62 L
S
GR
GS
[0.75 0 0 0.75 0 0.25] CT
0.149 GC
2 setlinecap
10.0 ML
N
1139.866 721 M
1139.866 706.62 L
S
GR
GS
[0.75 0 0 0.75 0 0.25] CT
0.149 GC
2 setlinecap
10.0 ML
N
1319.639 721 M
1319.639 706.62 L
S
GR
GS
[0.75 0 0 0.75 0 0.25] CT
0.149 GC
2 setlinecap
10.0 ML
N
1499.412 721 M
1499.412 706.62 L
S
GR
GS
[0.75 0 0 0.75 0 0.25] CT
0.149 GC
2 setlinecap
10.0 ML
N
241 30 M
241 44.38 L
S
GR
GS
[0.75 0 0 0.75 0 0.25] CT
0.149 GC
2 setlinecap
10.0 ML
N
420.773 30 M
420.773 44.38 L
S
GR
GS
[0.75 0 0 0.75 0 0.25] CT
0.149 GC
2 setlinecap
10.0 ML
N
600.546 30 M
600.546 44.38 L
S
GR
GS
[0.75 0 0 0.75 0 0.25] CT
0.149 GC
2 setlinecap
10.0 ML
N
780.32 30 M
780.32 44.38 L
S
GR
GS
[0.75 0 0 0.75 0 0.25] CT
0.149 GC
2 setlinecap
10.0 ML
N
960.093 30 M
960.093 44.38 L
S
GR
GS
[0.75 0 0 0.75 0 0.25] CT
0.149 GC
2 setlinecap
10.0 ML
N
1139.866 30 M
1139.866 44.38 L
S
GR
GS
[0.75 0 0 0.75 0 0.25] CT
0.149 GC
2 setlinecap
10.0 ML
N
1319.639 30 M
1319.639 44.38 L
S
GR
GS
[0.75 0 0 0.75 0 0.25] CT
0.149 GC
2 setlinecap
10.0 ML
N
1499.412 30 M
1499.412 44.38 L
S
GR
GS
[0.75 0 0 0.75 180.75 550.99998] CT
0.149 GC
/Helvetica 53 F
GS
[1 0 0 1 0 0] CT
-17 50 moveto 
1 -1 scale
(0) t 
GR
GR
GS
[0.75 0 0 0.75 315.57987 550.99998] CT
0.149 GC
/Helvetica 53 F
GS
[1 0 0 1 0 0] CT
-42.5 50 moveto 
1 -1 scale
(0.5) t 
GR
GR
GS
[0.75 0 0 0.75 450.40974 550.99998] CT
0.149 GC
/Helvetica 53 F
GS
[1 0 0 1 0 0] CT
-17 50 moveto 
1 -1 scale
(1) t 
GR
GR
GS
[0.75 0 0 0.75 585.23964 550.99998] CT
0.149 GC
/Helvetica 53 F
GS
[1 0 0 1 0 0] CT
-42.5 50 moveto 
1 -1 scale
(1.5) t 
GR
GR
GS
[0.75 0 0 0.75 720.06953 550.99998] CT
0.149 GC
/Helvetica 53 F
GS
[1 0 0 1 0 0] CT
-17 50 moveto 
1 -1 scale
(2) t 
GR
GR
GS
[0.75 0 0 0.75 854.89938 550.99998] CT
0.149 GC
/Helvetica 53 F
GS
[1 0 0 1 0 0] CT
-42.5 50 moveto 
1 -1 scale
(2.5) t 
GR
GR
GS
[0.75 0 0 0.75 989.72928 550.99998] CT
0.149 GC
/Helvetica 53 F
GS
[1 0 0 1 0 0] CT
-17 50 moveto 
1 -1 scale
(3) t 
GR
GR
GS
[0.75 0 0 0.75 1124.55917 550.99998] CT
0.149 GC
/Helvetica 53 F
GS
[1 0 0 1 0 0] CT
-42.5 50 moveto 
1 -1 scale
(3.5) t 
GR
GR
GS
[0 -0.75 0.75 0 104 281.87473] CT
0.149 GC
/Helvetica 59 F
GS
[1 0 0 1 0 0] CT
-255 -14 moveto 
1 -1 scale
(Ankle angle \(rad\)) t 
GR
GR
GS
[0.75 0 0 0.75 0 0.25] CT
0.149 GC
2 setlinecap
10.0 ML
N
241 721 M
241 30 L
S
GR
GS
[0.75 0 0 0.75 0 0.25] CT
0.149 GC
2 setlinecap
10.0 ML
N
1679 721 M
1679 30 L
S
GR
GS
[0.75 0 0 0.75 0 0.25] CT
0.149 GC
2 setlinecap
10.0 ML
N
241 721 M
255.38 721 L
S
GR
GS
[0.75 0 0 0.75 0 0.25] CT
0.149 GC
2 setlinecap
10.0 ML
N
241 605.833 M
255.38 605.833 L
S
GR
GS
[0.75 0 0 0.75 0 0.25] CT
0.149 GC
2 setlinecap
10.0 ML
N
241 490.667 M
255.38 490.667 L
S
GR
GS
[0.75 0 0 0.75 0 0.25] CT
0.149 GC
2 setlinecap
10.0 ML
N
241 375.5 M
255.38 375.5 L
S
GR
GS
[0.75 0 0 0.75 0 0.25] CT
0.149 GC
2 setlinecap
10.0 ML
N
241 260.333 M
255.38 260.333 L
S
GR
GS
[0.75 0 0 0.75 0 0.25] CT
0.149 GC
2 setlinecap
10.0 ML
N
241 145.167 M
255.38 145.167 L
S
GR
GS
[0.75 0 0 0.75 0 0.25] CT
0.149 GC
2 setlinecap
10.0 ML
N
241 30 M
255.38 30 L
S
GR
GS
[0.75 0 0 0.75 0 0.25] CT
0.149 GC
2 setlinecap
10.0 ML
N
1679 721 M
1664.62 721 L
S
GR
GS
[0.75 0 0 0.75 0 0.25] CT
0.149 GC
2 setlinecap
10.0 ML
N
1679 605.833 M
1664.62 605.833 L
S
GR
GS
[0.75 0 0 0.75 0 0.25] CT
0.149 GC
2 setlinecap
10.0 ML
N
1679 490.667 M
1664.62 490.667 L
S
GR
GS
[0.75 0 0 0.75 0 0.25] CT
0.149 GC
2 setlinecap
10.0 ML
N
1679 375.5 M
1664.62 375.5 L
S
GR
GS
[0.75 0 0 0.75 0 0.25] CT
0.149 GC
2 setlinecap
10.0 ML
N
1679 260.333 M
1664.62 260.333 L
S
GR
GS
[0.75 0 0 0.75 0 0.25] CT
0.149 GC
2 setlinecap
10.0 ML
N
1679 145.167 M
1664.62 145.167 L
S
GR
GS
[0.75 0 0 0.75 0 0.25] CT
0.149 GC
2 setlinecap
10.0 ML
N
1679 30 M
1664.62 30 L
S
GR
GS
[0.75 0 0 0.75 170.75 541] CT
0.149 GC
/Helvetica 53 F
GS
[1 0 0 1 0 0] CT
-34 18.5 moveto 
1 -1 scale
(0) t 
GR
GR
GS
[0.75 0 0 0.75 170.75 454.62498] CT
0.149 GC
/Helvetica 53 F
GS
[1 0 0 1 0 0] CT
-85 18.5 moveto 
1 -1 scale
(0.1) t 
GR
GR
GS
[0.75 0 0 0.75 170.75 368.24999] CT
0.149 GC
/Helvetica 53 F
GS
[1 0 0 1 0 0] CT
-85 18.5 moveto 
1 -1 scale
(0.2) t 
GR
GR
GS
[0.75 0 0 0.75 170.75 281.875] CT
0.149 GC
/Helvetica 53 F
GS
[1 0 0 1 0 0] CT
-85 18.5 moveto 
1 -1 scale
(0.3) t 
GR
GR
GS
[0.75 0 0 0.75 170.75 195.49998] CT
0.149 GC
/Helvetica 53 F
GS
[1 0 0 1 0 0] CT
-85 18.5 moveto 
1 -1 scale
(0.4) t 
GR
GR
GS
[0.75 0 0 0.75 170.75 109.125] CT
0.149 GC
/Helvetica 53 F
GS
[1 0 0 1 0 0] CT
-85 18.5 moveto 
1 -1 scale
(0.5) t 
GR
GR
GS
[0.75 0 0 0.75 170.75 22.74998] CT
0.149 GC
/Helvetica 53 F
GS
[1 0 0 1 0 0] CT
-85 18.5 moveto 
1 -1 scale
(0.6) t 
GR
GR
GS
[0.75 0 0 0.75 0 0.25] CT
0 0 1 RC
2 LJ
6.667 LW
N
241 594.479 M
242.213 605.074 L
243.381 609.045 L
244.504 612.817 L
246.397 618.178 L
248.011 622.758 L
249.942 627.082 L
251.742 631.07 L
253.493 634.458 L
255.155 637.342 L
256.954 640.049 L
259.066 642.611 L
260.594 644.695 L
262.392 646.581 L
264.1 648.326 L
266.077 649.832 L
267.785 651.153 L
269.583 652.318 L
271.29 653.303 L
273.133 654.196 L
274.976 654.805 L
276.773 655.105 L
278.616 655.096 L
280.279 654.898 L
282.347 654.452 L
283.921 653.948 L
285.811 653.158 L
287.695 652.288 L
289.358 651.387 L
291.11 650.419 L
292.909 649.324 L
294.932 648.14 L
297.178 646.387 L
298.436 645.566 L
300.144 644.205 L
302.031 642.659 L
303.739 641.224 L
305.537 639.687 L
307.334 638.119 L
309.134 636.485 L
310.976 634.661 L
312.773 632.744 L
314.66 630.721 L
316.323 628.632 L
318.345 626.345 L
319.919 624.203 L
321.716 621.928 L
323.738 619.702 L
325.447 617.485 L
327.155 615.612 L
S
GR
GS
[0.75 0 0 0.75 0 0.25] CT
0 0 1 RC
2 LJ
6.667 LW
N
327.155 615.612 M
328.998 613.74 L
330.84 612.194 L
332.549 610.829 L
334.436 609.632 L
336.144 608.599 L
337.941 607.472 L
339.74 606.448 L
341.537 605.392 L
343.334 604.262 L
345.133 603.007 L
347.02 601.528 L
348.817 599.876 L
350.616 597.902 L
352.234 595.857 L
354.301 592.999 L
356.054 589.665 L
357.626 585.871 L
359.694 581.022 L
361.311 575.965 L
363.2 571.133 L
364.817 567.582 L
366.794 565.718 L
368.413 566.08 L
370.211 567.851 L
372.053 570.196 L
373.807 572.599 L
375.65 574.724 L
377.402 576.397 L
379.334 577.594 L
380.997 578.478 L
382.886 578.981 L
384.637 579.149 L
387.244 579.175 L
388.457 579.175 L
390.12 579.175 L
391.828 579.184 L
393.626 579.224 L
395.694 579.326 L
397.311 579.52 L
399.109 579.789 L
400.907 580.103 L
402.704 580.337 L
404.413 580.496 L
406.21 580.54 L
408.009 580.522 L
409.806 580.478 L
411.694 580.403 L
413.447 580.271 L
415.288 580.037 L
S
GR
GS
[0.75 0 0 0.75 0 0.25] CT
0 0 1 RC
2 LJ
6.667 LW
N
415.288 580.037 M
416.996 579.758 L
418.794 579.414 L
420.637 579.003 L
422.389 578.451 L
424.187 577.727 L
426.12 576.896 L
427.964 575.854 L
429.632 574.587 L
431.606 573.169 L
433.223 571.627 L
434.975 569.98 L
436.727 568.213 L
438.704 566.381 L
440.413 564.521 L
442.166 562.543 L
443.963 560.595 L
445.671 558.422 L
447.603 555.979 L
449.311 553.528 L
451.153 550.927 L
452.907 548.383 L
454.794 545.636 L
456.592 542.694 L
458.254 539.996 L
460.187 537.165 L
461.894 534.303 L
463.872 531.176 L
465.535 528.442 L
467.288 525.704 L
469.265 522.572 L
470.885 519.622 L
472.771 516.425 L
474.479 513.121 L
476.457 509.535 L
478.614 504.946 L
479.872 502.645 L
481.67 499.054 L
483.469 495.468 L
485.265 491.851 L
487.197 487.995 L
488.951 484.426 L
490.704 480.549 L
492.592 476.622 L
494.299 472.63 L
496.186 468.399 L
497.85 464.667 L
499.691 460.793 L
501.535 456.924 L
503.377 453.117 L
S
GR
GS
[0.75 0 0 0.75 0 0.25] CT
0 0 1 RC
2 LJ
6.667 LW
N
503.377 453.117 M
505.087 449.332 L
506.884 445.494 L
508.772 441.568 L
510.569 437.655 L
512.457 433.547 L
514.075 429.811 L
515.962 425.756 L
517.669 422.148 L
519.467 418.341 L
521.265 414.697 L
523.107 410.669 L
524.952 406.8 L
526.614 402.856 L
528.367 398.939 L
530.344 394.734 L
533.04 389.775 L
534.075 388.185 L
535.691 386.255 L
537.534 384.36 L
539.376 382.88 L
541.175 381.387 L
542.838 380.089 L
544.771 378.839 L
546.479 377.629 L
548.277 376.485 L
550.073 375.429 L
551.781 374.471 L
553.624 373.756 L
555.377 373.283 L
557.309 372.855 L
558.972 372.457 L
560.951 372.166 L
562.613 372.029 L
564.366 371.945 L
566.253 371.896 L
568.905 371.865 L
570.028 371.803 L
571.826 369.617 L
573.624 364.397 L
575.242 357.423 L
577.131 349.61 L
578.838 342.349 L
580.591 334.519 L
582.568 326.525 L
584.231 318.522 L
586.119 310.943 L
587.827 303.969 L
589.669 297.759 L
591.333 292.345 L
S
GR
GS
[0.75 0 0 0.75 0 0.25] CT
0 0 1 RC
2 LJ
6.667 LW
N
591.333 292.345 M
593.264 287.579 L
595.018 283.397 L
596.815 279.691 L
598.613 276.613 L
600.41 274.126 L
602.298 272.262 L
604.005 271.035 L
605.893 270.235 L
607.691 269.873 L
609.579 269.829 L
611.197 270.036 L
613.085 270.748 L
614.748 271.944 L
616.545 273.791 L
618.344 276.242 L
620.185 279.453 L
622.028 283.017 L
623.78 287.548 L
625.623 292.371 L
627.331 297.375 L
629.129 302.98 L
631.106 308.907 L
632.726 315.081 L
634.523 321.485 L
636.32 328.079 L
638.207 334.797 L
639.915 341.638 L
641.803 348.895 L
643.6 355.511 L
645.311 362.467 L
647.11 369.405 L
648.994 376.326 L
650.704 383.039 L
652.501 389.465 L
654.388 395.613 L
656.095 401.492 L
657.983 407.361 L
660.274 413.933 L
661.488 417.471 L
663.331 422.192 L
665.084 426.569 L
667.105 430.579 L
668.679 434.214 L
670.611 437.478 L
672.275 440.415 L
674.117 443.039 L
675.87 445.309 L
677.667 447.283 L
679.69 448.961 L
S
GR
GS
[0.75 0 0 0.75 0 0.25] CT
0 0 1 RC
2 LJ
6.667 LW
N
679.69 448.961 M
681.307 450.604 L
683.106 452 L
684.992 453.126 L
686.701 453.987 L
688.454 454.888 L
690.297 455.754 L
692.005 456.544 L
693.892 457.441 L
695.69 458.457 L
697.487 459.526 L
699.286 460.705 L
700.993 462.171 L
702.971 463.744 L
704.905 465.444 L
706.791 467.387 L
708.502 468.951 L
710.388 470.439 L
712.275 471.707 L
713.924 472.789 L
716.006 473.827 L
717.578 474.719 L
719.468 475.483 L
721.263 476.176 L
722.972 476.821 L
724.679 477.47 L
726.57 478.084 L
728.277 478.61 L
730.073 479.047 L
731.872 479.308 L
733.668 479.48 L
735.646 479.617 L
737.266 479.732 L
739.286 479.873 L
740.859 480.032 L
742.746 480.204 L
744.366 480.354 L
746.252 480.478 L
748.143 480.557 L
750.927 480.58 L
752.725 480.58 L
754.566 480.58 L
756.051 480.58 L
757.757 480.58 L
759.153 480.58 L
760.634 480.58 L
762.478 480.58 L
764.23 480.58 L
766.072 480.58 L
767.959 480.58 L
S
GR
GS
[0.75 0 0 0.75 0 0.25] CT
0 0 1 RC
2 LJ
6.667 LW
N
767.959 480.58 M
769.675 480.58 L
771.556 480.58 L
773.263 480.58 L
775.242 480.58 L
776.769 480.58 L
778.658 480.58 L
780.367 480.58 L
782.207 480.58 L
784.139 480.58 L
785.847 480.58 L
787.826 480.58 L
789.442 480.58 L
791.288 480.58 L
793.353 480.58 L
794.882 480.58 L
796.544 480.58 L
798.387 480.58 L
800.363 480.58 L
801.981 480.575 L
803.828 480.575 L
805.533 480.575 L
807.465 480.575 L
809.262 480.575 L
811.061 480.571 L
812.857 480.571 L
814.478 480.571 L
816.544 480.571 L
818.163 480.571 L
820.049 480.571 L
821.758 480.571 L
823.689 480.571 L
825.398 480.571 L
827.15 480.571 L
829.308 480.571 L
830.747 480.571 L
832.633 480.571 L
834.25 480.571 L
836.321 480.571 L
837.982 480.571 L
840.768 480.571 L
842.34 480.571 L
843.823 480.571 L
845.261 480.571 L
847.017 480.571 L
848.859 480.571 L
850.521 480.571 L
852.364 480.571 L
854.161 480.571 L
856.048 480.571 L
S
GR
GS
[0.75 0 0 0.75 0 0.25] CT
0 0 1 RC
2 LJ
6.667 LW
N
856.048 480.571 M
857.765 480.575 L
859.555 480.584 L
861.532 480.602 L
863.06 480.615 L
865.127 480.633 L
866.746 480.659 L
868.592 480.69 L
870.253 480.725 L
872.228 480.778 L
873.846 480.853 L
875.643 480.968 L
877.442 481.14 L
879.292 481.419 L
881.173 481.847 L
882.925 482.448 L
884.858 483.203 L
886.475 484.029 L
888.409 485.067 L
890.343 486.1 L
891.869 487.143 L
893.756 488.379 L
895.464 489.731 L
897.486 491.316 L
899.06 492.73 L
901.313 494.421 L
902.835 496.364 L
904.542 498.33 L
906.253 500.348 L
908.048 502.609 L
909.801 504.999 L
911.554 507.534 L
913.534 510.215 L
915.239 513.081 L
917.126 516.084 L
918.924 519.251 L
920.722 522.701 L
922.565 526.128 L
924.319 529.661 L
926.385 533.327 L
928.003 536.966 L
929.846 541.224 L
933.08 546.135 L
935.06 556.156 L
937.35 562.211 L
938.969 568.222 L
940.724 573.862 L
942.519 578.902 L
944.544 585.248 L
946.297 589.824 L
S
GR
GS
[0.75 0 0 0.75 0 0.25] CT
0 0 1 RC
2 LJ
6.667 LW
N
946.297 589.824 M
949.442 595.353 L
950.744 605.989 L
951.823 609.5 L
952.946 612.543 L
954.654 617.573 L
956.456 622.078 L
958.295 626.119 L
960.049 629.728 L
961.936 632.939 L
963.553 635.792 L
965.439 638.349 L
967.15 640.592 L
969.215 642.615 L
970.833 644.448 L
972.81 646.056 L
974.43 647.549 L
976.137 648.931 L
978.205 650.225 L
979.867 651.475 L
981.71 652.645 L
983.328 653.626 L
985.395 654.695 L
987.013 655.671 L
988.811 656.572 L
990.698 657.38 L
992.406 658.188 L
994.249 658.961 L
995.956 659.725 L
997.844 660.383 L
999.551 660.882 L
1001.35 661.43 L
1003.146 661.92 L
1005.125 662.331 L
1006.877 662.728 L
1008.629 663.126 L
1010.518 663.554 L
1012.137 663.89 L
1014.025 664.151 L
1015.911 664.389 L
1017.619 664.707 L
1019.372 665.087 L
1021.305 665.431 L
1023.641 665.705 L
1024.72 665.767 L
1026.608 665.78 L
1028.36 665.78 L
1030.158 665.78 L
1032.001 665.78 L
1033.798 665.763 L
S
GR
GS
[0.75 0 0 0.75 0 0.25] CT
0 0 1 RC
2 LJ
6.667 LW
N
1033.798 665.763 M
1035.595 665.652 L
1037.304 665.414 L
1039.191 665.016 L
1040.854 664.446 L
1042.922 663.881 L
1044.539 663.108 L
1046.428 662.079 L
1048.091 660.816 L
1050.113 659.314 L
1051.822 657.636 L
1053.528 655.847 L
1055.416 653.966 L
1057.214 651.974 L
1059.101 649.907 L
1060.629 647.889 L
1062.607 646.255 L
1064.315 644.625 L
1066.113 642.916 L
1068 641.387 L
1069.978 639.418 L
1072.63 636.194 L
1073.798 634.44 L
1075.191 632.528 L
1076.901 629.918 L
1078.791 627.201 L
1080.589 624.914 L
1082.295 622.436 L
1084.136 620.02 L
1085.799 617.617 L
1087.82 615.294 L
1089.484 613.068 L
1091.416 610.909 L
1093.034 609.093 L
1094.922 607.296 L
1096.675 605.626 L
1098.518 604.01 L
1100.225 602.46 L
1102.113 600.803 L
1103.91 599.094 L
1105.708 597.279 L
1107.595 595.261 L
1109.258 593.039 L
1111.192 590.221 L
1114.157 587.532 L
1115.326 582.572 L
1116.629 580.16 L
1118.202 575.761 L
1120.089 571.053 L
1121.798 566.57 L
S
GR
GS
[0.75 0 0 0.75 0 0.25] CT
0 0 1 RC
2 LJ
6.667 LW
N
1121.798 566.57 M
1123.865 562.94 L
1125.393 560.811 L
1127.282 560.476 L
1129.034 561.584 L
1130.787 563.58 L
1132.63 565.97 L
1134.427 568.483 L
1136.314 570.881 L
1138.112 573.103 L
1139.909 575.059 L
1141.617 577.002 L
1143.686 578.941 L
1145.213 580.271 L
1147.01 581.6 L
1148.809 582.647 L
1150.697 583.53 L
1152.494 584.29 L
1154.201 584.895 L
1156.091 585.434 L
1157.798 585.902 L
1159.775 586.246 L
1161.393 586.361 L
1163.19 586.374 L
1164.988 586.361 L
1166.785 586.339 L
1168.628 586.277 L
1170.38 586.149 L
1172.224 585.928 L
1173.976 585.628 L
1175.865 585.239 L
1177.617 584.93 L
1179.414 584.82 L
1181.213 584.815 L
1183.01 584.78 L
1184.808 584.639 L
1186.875 584.201 L
1188.493 583.667 L
1190.202 582.788 L
1192.089 581.446 L
1193.708 580.001 L
1195.505 577.987 L
1197.392 575.642 L
1199.19 573.019 L
1201.078 570.276 L
1202.786 567.441 L
1205.167 563.664 L
1206.381 561.589 L
1208.269 558.316 L
1209.931 555.551 L
S
GR
GS
[0.75 0 0 0.75 0 0.25] CT
0 0 1 RC
2 LJ
6.667 LW
N
1209.931 555.551 M
1211.683 552.486 L
1213.482 549.425 L
1215.323 546.409 L
1217.166 543.383 L
1218.92 540.393 L
1220.807 537.403 L
1222.785 534.011 L
1224.401 531.216 L
1226.111 528.703 L
1227.909 525.774 L
1229.706 522.793 L
1231.594 519.803 L
1233.347 516.76 L
1235.144 513.691 L
1237.032 510.59 L
1238.696 507.477 L
1240.583 504.027 L
1242.335 501.218 L
1244.089 498.105 L
1245.887 495.031 L
1247.684 491.948 L
1249.482 488.878 L
1251.324 485.84 L
1253.121 482.739 L
1254.874 479.612 L
1256.897 476.159 L
1258.739 473.372 L
1260.311 470.293 L
1262.11 467.264 L
1263.908 464.207 L
1265.707 461.155 L
1267.458 458.077 L
1269.391 454.968 L
1271.144 451.788 L
1272.897 448.184 L
1274.738 445.207 L
1276.492 441.833 L
1278.2 438.428 L
1280.042 435.014 L
1281.885 431.741 L
1283.638 428.274 L
1285.525 424.595 L
1287.189 421.274 L
1289.076 417.255 L
1290.829 414.083 L
1292.627 410.714 L
1295.867 406.54 L
1297.169 401.721 L
1298.472 398.957 L
S
GR
GS
[0.75 0 0 0.75 0 0.25] CT
0 0 1 RC
2 LJ
6.667 LW
N
1298.472 398.957 M
1299.819 396.037 L
1301.616 392.478 L
1303.414 389.134 L
1305.302 386.25 L
1307.01 384.444 L
1308.807 382.805 L
1310.604 381.383 L
1312.401 380.129 L
1314.289 378.879 L
1315.997 377.585 L
1317.795 376.366 L
1319.593 374.979 L
1321.39 373.561 L
1323.188 372.316 L
1324.986 371.035 L
1326.739 369.75 L
1328.626 368.54 L
1330.696 367.48 L
1332.222 366.486 L
1334.245 365.43 L
1337.885 364.733 L
1342.11 363.098 L
1344.446 362.069 L
1347.637 356.862 L
1348.985 344.319 L
1351.73 336.665 L
1354.02 328.737 L
1356.267 320.394 L
1358.244 313.288 L
1361.84 303.187 L
1364.042 294.094 L
1366.514 287.544 L
1368.131 277.889 L
1370.11 271.282 L
1371.728 265.757 L
1373.571 259.68 L
1375.322 253.629 L
1377.255 247.759 L
1378.962 242.389 L
1380.761 237.601 L
1382.513 233.268 L
1384.356 229.439 L
1386.827 225.102 L
1388.042 223.238 L
1389.75 220.69 L
1391.548 218.853 L
1393.435 217.488 L
1395.097 216.56 L
1396.94 216.057 L
S
GR
GS
[0.75 0 0 0.75 0 0.25] CT
0 0 1 RC
2 LJ
6.667 LW
N
1396.94 216.057 M
1398.693 215.947 L
1400.445 216.008 L
1402.288 216.212 L
1404.175 216.591 L
1406.243 217.188 L
1407.772 217.682 L
1409.569 218.446 L
1411.277 219.374 L
1413.164 220.487 L
1414.965 221.715 L
1416.762 223.234 L
1418.558 224.952 L
1420.266 226.909 L
1422.109 229.073 L
1423.997 231.413 L
1425.749 233.887 L
1427.457 236.563 L
1429.254 239.447 L
1431.098 242.574 L
1432.849 245.869 L
1434.648 249.34 L
1436.449 252.993 L
1438.289 256.835 L
1440.175 260.753 L
1442.153 264.732 L
1443.681 268.835 L
1445.569 273.283 L
1447.232 277.408 L
1449.254 282.231 L
1450.873 286.214 L
1452.67 290.675 L
1454.514 295.105 L
1456.22 299.575 L
1458.154 304.146 L
1459.86 308.858 L
1461.659 313.677 L
1463.456 318.57 L
1465.254 323.57 L
1467.052 328.662 L
1468.759 333.49 L
1470.647 338.608 L
1472.355 343.829 L
1474.333 349.001 L
1477.658 354.725 L
1478.827 361.133 L
1480.849 365.43 L
1482.378 369.29 L
1484.266 373.19 L
1486.018 377.187 L
S
GR
GS
[0.75 0 0 0.75 0 0.25] CT
0 0 1 RC
2 LJ
6.667 LW
N
1486.018 377.187 M
1487.773 380.743 L
1489.569 384.413 L
1491.456 387.99 L
1493.704 391.493 L
1495.5 395.048 L
1497.213 397.928 L
1498.875 400.573 L
1500.669 402.856 L
1502.469 404.857 L
1504.223 406.58 L
1506.288 408.059 L
1507.862 409.402 L
1509.704 410.625 L
1511.637 411.743 L
1513.433 412.785 L
1515.055 413.761 L
1516.987 414.697 L
1518.829 415.598 L
1520.445 416.384 L
1522.377 417.153 L
1524.04 417.807 L
1525.976 418.39 L
1527.638 418.845 L
1529.614 419.198 L
1531.231 419.52 L
1533.209 419.86 L
1534.918 420.214 L
1536.628 420.518 L
1538.469 420.748 L
1540.222 420.907 L
1542.154 421.04 L
1543.998 421.159 L
1545.748 421.269 L
1547.728 421.388 L
1549.389 421.494 L
1551.277 421.6 L
1552.985 421.676 L
1554.783 421.715 L
1556.58 421.737 L
1558.379 421.737 L
1559.996 421.737 L
1562.019 421.742 L
1563.725 421.742 L
1565.524 421.746 L
1568.581 421.751 L
1570.153 421.759 L
1571.952 421.773 L
1573.704 421.79 L
1575.502 421.821 L
S
GR
GS
[0.75 0 0 0.75 0 0.25] CT
0 0 1 RC
2 LJ
6.667 LW
N
1575.502 421.821 M
1577.389 421.852 L
1579.097 421.91 L
1580.94 422.055 L
1582.693 422.281 L
1584.985 422.55 L
1586.692 422.895 L
1588.265 423.336 L
1589.882 423.928 L
1591.684 424.674 L
1593.614 425.496 L
1595.322 426.498 L
1597.166 427.647 L
1598.916 428.901 L
1600.714 430.23 L
1602.513 431.639 L
1604.446 433.229 L
1606.063 434.722 L
1607.815 436.347 L
1609.793 438.021 L
1612.578 440.503 L
1614.289 442.208 L
1615.906 443.851 L
1617.702 445.591 L
1619.5 447.362 L
1621.521 449.257 L
1623.455 451.218 L
1624.94 453.042 L
1626.692 454.853 L
1628.444 456.999 L
1630.332 459.512 L
1632.265 461.849 L
1633.972 464.375 L
1635.863 467.405 L
1637.568 470.536 L
1639.367 473.734 L
1641.074 477.302 L
1642.872 481.061 L
1644.669 484.992 L
1646.559 489.311 L
1648.264 493.348 L
1650.333 497.716 L
1652.31 502.397 L
1654.017 507.189 L
1655.904 511.597 L
1659.278 517.502 L
1661.028 525.412 L
1662.917 530.774 L
1664.669 535.487 L
1666.511 540.778 L
S
GR
GS
[0.75 0 0 0.75 0 0.25] CT
0 0 1 RC
2 LJ
6.667 LW
N
1666.511 540.778 M
1668.222 545.631 L
1670.109 550.825 L
1672.039 556.086 L
1673.792 561.677 L
1675.696 567.065 L
1679 572.78 L
S
GR
GS
[0.75 0 0 0.75 0 0.25] CT
1 0 0 RC
[24 24] 0 setdash
2 LJ
6.667 LW
N
241 594.479 M
242.213 594.479 L
243.381 594.479 L
244.504 594.479 L
246.397 594.479 L
248.011 594.479 L
249.942 594.479 L
251.742 594.479 L
253.493 594.479 L
255.155 594.479 L
256.954 594.479 L
259.066 594.479 L
260.594 594.479 L
262.392 594.479 L
264.1 594.479 L
266.077 594.479 L
267.785 594.479 L
269.583 594.479 L
271.29 594.479 L
273.133 594.479 L
274.976 594.479 L
276.773 594.479 L
278.616 594.479 L
280.279 594.479 L
282.347 594.479 L
283.921 594.479 L
285.811 594.479 L
287.695 594.479 L
289.358 594.479 L
291.11 594.479 L
292.909 594.479 L
294.932 594.479 L
297.178 594.479 L
298.436 594.479 L
300.144 594.479 L
302.031 594.479 L
303.739 594.479 L
305.537 594.479 L
307.334 594.479 L
309.134 594.479 L
310.976 594.479 L
312.773 594.479 L
314.66 594.479 L
316.323 594.479 L
318.345 594.479 L
319.919 594.479 L
321.716 594.479 L
323.738 594.479 L
325.447 594.479 L
327.155 597.19 L
328.998 601.493 L
330.84 605.063 L
332.549 608.266 L
334.436 611.098 L
336.144 613.569 L
337.941 616.209 L
339.74 618.667 L
341.537 621.165 L
343.334 623.62 L
345.133 626.003 L
347.02 628.27 L
348.817 630.138 L
350.616 631.314 L
352.234 631.175 L
354.301 628.802 L
356.054 623.81 L
357.626 616.785 L
359.694 609.059 L
361.311 606.3 L
363.2 613.076 L
364.817 624.754 L
366.794 635.37 L
368.413 641.577 L
370.211 645.505 L
372.053 648.535 L
373.807 650.494 L
375.65 652.189 L
377.402 653.111 L
379.334 652.96 L
380.997 651.822 L
382.886 649.507 L
384.637 646.73 L
387.244 643.526 L
388.457 639.936 L
390.12 639.936 L
391.828 633.955 L
393.626 631.633 L
395.694 629.653 L
397.311 627.961 L
399.109 626.713 L
400.907 625.753 L
402.704 624.979 L
404.413 624.242 L
406.21 623.494 L
408.009 622.758 L
409.806 622.016 L
411.694 621.191 L
413.447 620.235 L
415.288 619.061 L
416.996 617.842 L
418.794 616.43 L
420.637 614.916 L
422.389 613.231 L
424.187 611.388 L
426.12 609.482 L
427.964 607.381 L
429.632 605.223 L
431.606 602.916 L
433.223 600.603 L
434.975 598.315 L
436.727 595.961 L
438.704 593.61 L
440.413 591.259 L
442.166 588.844 L
443.963 586.485 L
445.671 583.959 L
447.603 581.194 L
449.311 578.502 L
451.153 575.725 L
452.907 573.05 L
454.794 570.112 L
456.592 566.672 L
458.254 563.618 L
460.187 560.622 L
461.894 557.693 L
463.872 554.551 L
465.535 551.781 L
467.288 548.774 L
469.265 545.485 L
470.885 542.501 L
472.771 539.301 L
474.479 535.991 L
476.457 532.396 L
478.614 527.794 L
479.872 525.486 L
481.67 521.882 L
483.469 518.273 L
485.265 514.621 L
487.197 510.716 L
488.951 507.079 L
490.704 503.107 L
492.592 499.056 L
494.299 494.917 L
496.186 490.533 L
497.85 486.683 L
499.691 482.687 L
501.535 478.691 L
503.377 474.737 L
505.087 470.763 L
506.884 466.721 L
508.772 462.599 L
510.569 458.501 L
512.457 454.155 L
514.075 450.185 L
515.962 445.871 L
517.669 442.042 L
519.467 437.982 L
521.265 434.044 L
523.107 429.709 L
524.952 425.551 L
526.614 421.251 L
528.367 416.943 L
530.344 413.984 L
533.04 413.984 L
534.075 413.984 L
535.691 413.984 L
537.534 413.984 L
539.376 413.984 L
541.175 413.984 L
542.838 413.984 L
544.771 413.984 L
546.479 413.984 L
548.277 413.984 L
550.073 413.984 L
551.781 413.987 L
553.624 413.987 L
555.377 413.987 L
557.309 413.987 L
558.972 413.987 L
560.951 413.987 L
562.613 413.987 L
564.366 413.987 L
566.253 413.987 L
568.905 395.354 L
570.028 377.937 L
571.826 358.851 L
573.624 338.297 L
575.242 319.054 L
577.131 302.568 L
578.838 289.762 L
580.591 278.544 L
582.568 267.925 L
584.231 258.577 L
586.119 250.246 L
587.827 243.41 L
589.669 239.829 L
591.333 236.233 L
593.264 231.701 L
595.018 228.799 L
596.815 227.174 L
598.613 226.17 L
600.41 226.23 L
602.298 227.319 L
604.005 229.001 L
605.893 231.092 L
607.691 233.922 L
609.579 237.842 L
611.197 242.76 L
613.085 248.52 L
614.748 254.681 L
616.545 261.181 L
618.344 268.786 L
620.185 277.378 L
622.028 286.024 L
623.78 295.229 L
625.623 305.086 L
627.331 315.12 L
629.129 324.927 L
631.106 335.072 L
632.726 345.08 L
634.523 355.217 L
636.32 365.457 L
638.207 375.596 L
639.915 385.845 L
641.803 396.251 L
643.6 405.847 L
645.311 414.924 L
647.11 422.104 L
648.994 428.82 L
650.704 435.031 L
652.501 442.185 L
654.388 448.517 L
656.095 454.571 L
657.983 459.905 L
660.274 465.083 L
661.488 469.656 L
663.331 472.32 L
665.084 475.339 L
667.105 476.819 L
668.679 478.213 L
670.611 479.277 L
672.275 479.569 L
674.117 479.78 L
675.87 479.457 L
677.667 479.419 L
679.69 479.159 L
681.307 478.147 L
683.106 477.228 L
684.992 476.096 L
686.701 475.483 L
688.454 474.92 L
690.297 474.582 L
692.005 474.079 L
693.892 474.016 L
695.69 474.51 L
697.487 475.067 L
699.286 476.393 L
700.993 477.562 L
702.971 480.297 L
704.905 482.322 L
706.791 483.67 L
708.502 485.699 L
710.388 487.327 L
712.275 489.57 L
713.924 491.808 L
716.006 493.875 L
717.578 495.076 L
719.468 496.646 L
721.263 498.737 L
722.972 500.372 L
724.679 501.903 L
726.57 503.181 L
728.277 504.509 L
730.073 505.805 L
731.872 507.004 L
733.668 508.465 L
735.646 509.841 L
737.266 511.09 L
739.286 512.188 L
740.859 513.632 L
742.746 514.689 L
744.366 516.019 L
746.252 517.097 L
748.143 517.852 L
750.927 518.582 L
752.725 519.388 L
754.566 519.847 L
756.051 520.186 L
757.757 520.427 L
759.153 520.427 L
760.634 520.695 L
762.478 520.81 L
764.23 520.839 L
766.072 520.864 L
767.959 520.868 L
769.675 520.846 L
771.556 520.834 L
773.263 520.674 L
775.242 520.702 L
776.769 520.608 L
778.658 520.569 L
780.367 520.498 L
782.207 520.282 L
784.139 520.213 L
785.847 519.984 L
787.826 519.752 L
789.442 519.523 L
791.288 519.13 L
793.353 518.731 L
794.882 518.176 L
796.544 517.649 L
798.387 517.103 L
800.363 516.55 L
801.981 516.139 L
803.828 515.763 L
805.533 515.335 L
807.465 514.959 L
809.262 514.316 L
811.061 513.859 L
812.857 512.942 L
814.478 512.428 L
816.544 511.731 L
818.163 511.416 L
820.049 511.073 L
821.758 510.795 L
823.689 510.423 L
825.398 510.111 L
827.15 509.774 L
829.308 509.403 L
830.747 509.11 L
832.633 508.887 L
834.25 508.716 L
836.321 508.689 L
837.982 508.75 L
840.768 508.912 L
842.34 509.306 L
843.823 509.695 L
845.261 509.695 L
847.017 510.546 L
848.859 511.075 L
850.521 511.745 L
852.364 512.464 L
854.161 513.338 L
856.048 514.367 L
857.765 515.508 L
859.555 516.673 L
861.532 517.857 L
863.06 518.967 L
865.127 519.991 L
866.746 521.296 L
868.592 522.704 L
870.253 525.156 L
872.228 527.465 L
873.846 530.375 L
875.643 532.998 L
877.442 536.011 L
879.292 539.639 L
881.173 542.922 L
882.925 547.257 L
884.858 550.042 L
886.475 553.279 L
888.409 556.26 L
890.343 559.417 L
891.869 563.1 L
893.756 567.807 L
895.464 572.945 L
897.486 578.562 L
899.06 584.312 L
901.313 590.673 L
902.835 596.798 L
904.542 602.314 L
906.253 608.658 L
908.048 612.208 L
909.801 617.861 L
911.554 633.377 L
913.534 640.853 L
915.239 648.903 L
917.126 657.889 L
918.924 667.63 L
920.722 678.438 L
922.565 689.199 L
924.319 700.695 L
926.385 711.013 L
928.003 718.488 L
928.791 721.069 L
S
GR
GS
[0.75 0 0 0.75 0 0.25] CT
1 0 0 RC
[24 24] 0 setdash
2 LJ
6.667 LW
N
947.696 721.069 M
949.442 595.353 L
950.744 595.353 L
951.823 595.353 L
952.946 595.353 L
954.654 595.353 L
956.456 595.353 L
958.295 595.353 L
960.049 595.353 L
961.936 595.353 L
963.553 595.353 L
965.439 595.353 L
967.15 595.353 L
969.215 595.353 L
970.833 595.353 L
972.81 595.353 L
974.43 595.353 L
976.137 595.353 L
978.205 595.353 L
979.867 595.353 L
981.71 595.353 L
983.328 595.353 L
985.395 595.353 L
987.013 595.353 L
988.811 595.353 L
990.698 595.353 L
992.406 595.353 L
994.249 595.353 L
995.956 595.353 L
997.844 595.353 L
999.551 595.353 L
1001.35 595.353 L
1003.146 595.353 L
1005.125 595.353 L
1006.877 595.353 L
1008.629 595.353 L
1010.518 595.353 L
1012.137 595.353 L
1014.025 595.353 L
1015.911 595.353 L
1017.619 595.353 L
1019.372 595.353 L
1021.305 595.353 L
1023.641 595.353 L
1024.72 595.353 L
1026.608 595.353 L
1028.36 595.353 L
1030.158 595.353 L
1032.001 595.353 L
1033.798 595.353 L
1035.595 595.353 L
1037.304 595.353 L
1039.191 595.353 L
1040.854 595.353 L
1042.922 595.353 L
1044.539 595.353 L
1046.428 595.353 L
1048.091 595.353 L
1050.113 595.353 L
1051.822 595.353 L
1053.528 595.353 L
1055.416 595.353 L
1057.214 595.353 L
1059.101 595.353 L
1060.629 595.353 L
1062.607 595.353 L
1064.315 595.353 L
1066.113 595.353 L
1068 595.353 L
1069.978 595.353 L
1072.63 595.353 L
1073.798 595.353 L
1075.191 595.353 L
1076.901 595.353 L
1078.791 595.353 L
1080.589 595.353 L
1082.295 595.353 L
1084.136 595.353 L
1085.799 595.353 L
1087.82 597.779 L
1089.484 602.218 L
1091.416 606.419 L
1093.034 609.901 L
1094.922 613.318 L
1096.675 616.46 L
1098.518 619.374 L
1100.225 621.968 L
1102.113 624.49 L
1103.91 626.755 L
1105.708 628.683 L
1107.595 630.033 L
1109.258 630.51 L
1111.192 629.37 L
1114.157 626.563 L
1115.326 618.56 L
1116.629 614.09 L
1118.202 606.238 L
1120.089 600.477 L
1121.798 600.608 L
1123.865 606.124 L
1125.393 612.732 L
1127.282 617.905 L
1129.034 620.707 L
1130.787 622.646 L
1132.63 624.283 L
1134.427 626.006 L
1136.314 628.126 L
1138.112 630.589 L
1139.909 633.313 L
1141.617 635.712 L
1143.686 637.901 L
1145.213 638.818 L
1147.01 639.157 L
1148.809 638.805 L
1150.697 637.966 L
1152.494 636.841 L
1154.201 635.566 L
1156.091 634.386 L
1157.798 633.12 L
1159.775 631.897 L
1161.393 630.753 L
1163.19 629.569 L
1164.988 628.491 L
1166.785 627.515 L
1168.628 626.666 L
1170.38 625.76 L
1172.224 624.908 L
1173.976 624.908 L
1175.865 622.017 L
1177.617 621.214 L
1179.414 620.525 L
1181.213 619.9 L
1183.01 619.24 L
1184.808 618.434 L
1186.875 617.147 L
1188.493 616.021 L
1190.202 614.357 L
1192.089 611.786 L
1193.708 609.504 L
1195.505 606.658 L
1197.392 603.632 L
1199.19 600.442 L
1201.078 597.196 L
1202.786 593.936 L
1205.167 589.677 L
1206.381 587.379 L
1208.269 583.826 L
1209.931 580.879 L
1211.683 577.66 L
1213.482 574.517 L
1215.323 571.481 L
1217.166 568.464 L
1218.92 565.477 L
1220.807 562.484 L
1222.785 559.092 L
1224.401 556.294 L
1226.111 553.779 L
1227.909 550.847 L
1229.706 547.852 L
1231.594 544.838 L
1233.347 541.759 L
1235.144 538.647 L
1237.032 535.498 L
1238.696 532.324 L
1240.583 528.797 L
1242.335 525.901 L
1244.089 522.663 L
1245.887 519.418 L
1247.684 516.13 L
1249.482 512.867 L
1251.324 509.673 L
1253.121 506.43 L
1254.874 503.152 L
1256.897 499.514 L
1258.739 496.591 L
1260.311 493.375 L
1262.11 490.227 L
1263.908 487.042 L
1265.707 483.834 L
1267.458 480.562 L
1269.391 477.24 L
1271.144 473.857 L
1272.897 470.08 L
1274.738 466.972 L
1276.492 463.444 L
1278.2 459.863 L
1280.042 456.253 L
1281.885 452.821 L
1283.638 449.189 L
1285.525 445.332 L
1287.189 441.806 L
1289.076 437.558 L
1290.829 434.231 L
1292.627 430.737 L
1295.867 426.407 L
1297.169 421.371 L
1298.472 418.464 L
1299.819 415.402 L
1301.616 413.984 L
1303.414 413.984 L
1305.302 413.984 L
1307.01 413.984 L
1308.807 413.984 L
1310.604 413.984 L
1312.401 413.984 L
1314.289 413.984 L
1315.997 413.984 L
1317.795 413.984 L
1319.593 413.984 L
1321.39 413.984 L
1323.188 413.984 L
1324.986 413.984 L
1326.739 413.984 L
1328.626 413.984 L
1330.696 413.984 L
1332.222 413.984 L
1334.245 413.984 L
1337.885 413.984 L
1342.11 413.987 L
1344.446 401.346 L
1347.637 389.091 L
1348.985 377.231 L
1351.73 365.777 L
1354.02 354.738 L
1356.267 344.123 L
1358.244 333.939 L
1361.84 324.194 L
1364.042 314.893 L
1366.514 306.044 L
1368.131 297.652 L
1370.11 289.72 L
1371.728 282.252 L
1373.571 275.251 L
1375.322 268.72 L
1377.255 262.66 L
1378.962 257.071 L
1380.761 251.954 L
1382.513 247.307 L
1384.356 243.13 L
1386.827 239.42 L
1388.042 236.173 L
1389.75 233.387 L
1391.548 231.056 L
1393.435 229.176 L
1395.097 227.741 L
1396.94 226.744 L
1398.693 226.179 L
1400.445 226.037 L
1402.288 226.309 L
1404.175 226.988 L
1406.243 228.063 L
1407.772 229.525 L
1409.569 231.362 L
1411.277 233.563 L
1413.164 236.116 L
1414.965 239.01 L
1416.762 242.232 L
1418.558 245.768 L
1420.266 249.606 L
1422.109 253.73 L
1423.997 258.128 L
1425.749 262.785 L
1427.457 267.686 L
1429.254 272.816 L
1431.098 278.16 L
1432.849 283.702 L
1434.648 289.428 L
1436.449 295.321 L
1438.289 301.367 L
1440.175 307.548 L
1442.153 313.85 L
1443.681 320.256 L
1445.569 326.752 L
1447.232 333.321 L
1449.254 339.948 L
1450.873 346.617 L
1452.67 353.315 L
1454.514 360.024 L
1456.22 366.732 L
1458.154 373.423 L
1459.86 380.084 L
1461.659 386.7 L
1463.456 393.259 L
1465.254 399.746 L
1467.052 406.15 L
1468.759 412.458 L
1470.647 418.658 L
1472.355 424.74 L
1474.333 430.692 L
1477.658 436.505 L
1478.827 442.168 L
1480.849 447.672 L
1482.378 453.01 L
1484.266 458.173 L
1486.018 463.153 L
1487.773 467.944 L
1489.569 472.541 L
1491.456 476.937 L
1493.704 481.129 L
1495.5 485.111 L
1497.213 488.881 L
1498.875 492.437 L
1500.669 495.775 L
1502.469 498.896 L
1504.223 501.798 L
1506.288 504.482 L
1507.862 506.948 L
1509.704 509.198 L
1511.637 511.235 L
1513.433 513.061 L
1515.055 514.68 L
1516.987 516.097 L
1518.829 517.315 L
1520.445 518.342 L
1522.377 519.183 L
1524.04 519.845 L
1525.976 520.335 L
1527.638 520.663 L
1529.614 520.835 L
1531.231 520.862 L
1533.209 520.753 L
1534.918 520.519 L
1536.628 520.17 L
1538.469 519.717 L
1540.222 519.173 L
1542.154 518.549 L
1543.998 517.857 L
1545.748 517.111 L
1547.728 516.323 L
1549.389 515.508 L
1551.277 514.677 L
1552.985 513.847 L
1554.783 513.03 L
1556.58 512.241 L
1558.379 511.495 L
1559.996 510.806 L
1562.019 510.188 L
1563.725 509.657 L
1565.524 509.227 L
1568.581 508.912 L
1570.153 508.728 L
1571.952 508.688 L
1573.704 508.808 L
1575.502 509.101 L
1577.389 520.657 L
1579.097 522.921 L
1580.94 524.871 L
1582.693 526.672 L
1584.985 529.398 L
1586.692 533.335 L
1588.265 536.723 L
1589.882 536.723 L
1591.684 542.163 L
1593.614 546.245 L
1595.322 549.871 L
1597.166 552.323 L
1598.916 554.86 L
1600.714 557.702 L
1602.513 560.647 L
1604.446 564.012 L
1606.063 567.155 L
1607.815 567.155 L
1609.793 570.921 L
1612.578 574.485 L
1614.289 579.781 L
1615.906 583.73 L
1617.702 587.258 L
1619.5 591.277 L
1621.521 595.656 L
1623.455 601.174 L
1624.94 607.151 L
1626.692 613.157 L
1628.444 619.097 L
1630.332 634.394 L
1632.265 640.705 L
1633.972 646.587 L
1635.863 652.484 L
1637.568 658.542 L
1639.367 664.87 L
1641.074 671.16 L
1642.872 678.163 L
1644.669 685.496 L
1646.559 693.461 L
1648.264 701.591 L
1650.333 709.95 L
1652.31 718.375 L
1652.846 721.069 L
S
GR
GS
[0.75 0 0 0.75 0 0.25] CT
1 0 0 RC
[24 24] 0 setdash
2 LJ
6.667 LW
N
1677.033 721.069 M
1679 572.78 L
S
GR
GS
[0.75 0 0 0.75 378.5625 664.12502] CT
/Helvetica 48 F
GS
[1 0 0 1 0 0] CT
0 16.5 moveto 
1 -1 scale
(Actual) t 
GR
GR
GS
[0.75 0 0 0.75 0 0.25] CT
0 0 1 RC
2 setlinecap
10.0 ML
6.667 LW
N
460.962 885.167 M
500.769 885.167 L
S
GR
GS
[0.75 0 0 0.75 922.5 664.12502] CT
/Helvetica 48 F
GS
[1 0 0 1 0 0] CT
0 16.5 moveto 
1 -1 scale
(Desired) t 
GR
GR
GS
[0.75 0 0 0.75 0 0.25] CT
1 0 0 RC
[24 24] 0 setdash
2 LJ
6.667 LW
N
1186 885.167 M
1226 885.167 L
S
GR
%%Trailer
%%Pages: 1
%%EOF
