%!PS-Adobe-3.0 EPSF-3.0
%%Creator: (MATLAB, The Mathworks, Inc. Version 8.5.0.197613 \(R2015a\). Operating System: Linux)
%%Title: (/home/victor/ampro/AMPRO II/Upslope Walking/figures/Thesis/FlatgroundSplines/KneeTracking.eps)
%%CreationDate: 2016-02-19T15:23:30
%%Pages: (atend)
%%BoundingBox: 0 0 1391 751
%%LanguageLevel: 2
%%EndComments
%%BeginProlog
%%BeginResource: procset (Apache XML Graphics Std ProcSet) 1.2 0
%%Version: 1.2 0
%%Copyright: (Copyright 2001-2003,2010 The Apache Software Foundation. License terms: http://www.apache.org/licenses/LICENSE-2.0)
/bd{bind def}bind def
/ld{load def}bd
/GR/grestore ld
/M/moveto ld
/LJ/setlinejoin ld
/C/curveto ld
/f/fill ld
/LW/setlinewidth ld
/GC/setgray ld
/t/show ld
/N/newpath ld
/CT/concat ld
/cp/closepath ld
/S/stroke ld
/L/lineto ld
/CC/setcmykcolor ld
/A/ashow ld
/GS/gsave ld
/RC/setrgbcolor ld
/RM/rmoveto ld
/ML/setmiterlimit ld
/re {4 2 roll M
1 index 0 rlineto
0 exch rlineto
neg 0 rlineto
cp } bd
/_ctm matrix def
/_tm matrix def
/BT { _ctm currentmatrix pop matrix _tm copy pop 0 0 moveto } bd
/ET { _ctm setmatrix } bd
/iTm { _ctm setmatrix _tm concat } bd
/Tm { _tm astore pop iTm 0 0 moveto } bd
/ux 0.0 def
/uy 0.0 def
/F {
  /Tp exch def
  /Tf exch def
  Tf findfont Tp scalefont setfont
  /cf Tf def  /cs Tp def
} bd
/ULS {currentpoint /uy exch def /ux exch def} bd
/ULE {
  /Tcx currentpoint pop def
  gsave
  newpath
  cf findfont cs scalefont dup
  /FontMatrix get 0 get /Ts exch def /FontInfo get dup
  /UnderlinePosition get Ts mul /To exch def
  /UnderlineThickness get Ts mul /Tt exch def
  ux uy To add moveto  Tcx uy To add lineto
  Tt setlinewidth stroke
  grestore
} bd
/OLE {
  /Tcx currentpoint pop def
  gsave
  newpath
  cf findfont cs scalefont dup
  /FontMatrix get 0 get /Ts exch def /FontInfo get dup
  /UnderlinePosition get Ts mul /To exch def
  /UnderlineThickness get Ts mul /Tt exch def
  ux uy To add cs add moveto Tcx uy To add cs add lineto
  Tt setlinewidth stroke
  grestore
} bd
/SOE {
  /Tcx currentpoint pop def
  gsave
  newpath
  cf findfont cs scalefont dup
  /FontMatrix get 0 get /Ts exch def /FontInfo get dup
  /UnderlinePosition get Ts mul /To exch def
  /UnderlineThickness get Ts mul /Tt exch def
  ux uy To add cs 10 mul 26 idiv add moveto Tcx uy To add cs 10 mul 26 idiv add lineto
  Tt setlinewidth stroke
  grestore
} bd
/QT {
/Y22 exch store
/X22 exch store
/Y21 exch store
/X21 exch store
currentpoint
/Y21 load 2 mul add 3 div exch
/X21 load 2 mul add 3 div exch
/X21 load 2 mul /X22 load add 3 div
/Y21 load 2 mul /Y22 load add 3 div
/X22 load /Y22 load curveto
} bd
/SSPD {
dup length /d exch dict def
{
/v exch def
/k exch def
currentpagedevice k known {
/cpdv currentpagedevice k get def
v cpdv ne {
/upd false def
/nullv v type /nulltype eq def
/nullcpdv cpdv type /nulltype eq def
nullv nullcpdv or
{
/upd true def
} {
/sametype v type cpdv type eq def
sametype {
v type /arraytype eq {
/vlen v length def
/cpdvlen cpdv length def
vlen cpdvlen eq {
0 1 vlen 1 sub {
/i exch def
/obj v i get def
/cpdobj cpdv i get def
obj cpdobj ne {
/upd true def
exit
} if
} for
} {
/upd true def
} ifelse
} {
v type /dicttype eq {
v {
/dv exch def
/dk exch def
/cpddv cpdv dk get def
dv cpddv ne {
/upd true def
exit
} if
} forall
} {
/upd true def
} ifelse
} ifelse
} if
} ifelse
upd true eq {
d k v put
} if
} if
} if
} forall
d length 0 gt {
d setpagedevice
} if
} bd
%%EndResource
%%BeginResource: procset (Apache XML Graphics EPS ProcSet) 1.0 0
%%Version: 1.0 0
%%Copyright: (Copyright 2002-2003 The Apache Software Foundation. License terms: http://www.apache.org/licenses/LICENSE-2.0)
/BeginEPSF { %def
/b4_Inc_state save def         % Save state for cleanup
/dict_count countdictstack def % Count objects on dict stack
/op_count count 1 sub def      % Count objects on operand stack
userdict begin                 % Push userdict on dict stack
/showpage { } def              % Redefine showpage, { } = null proc
0 setgray 0 setlinecap         % Prepare graphics state
1 setlinewidth 0 setlinejoin
10 setmiterlimit [ ] 0 setdash newpath
/languagelevel where           % If level not equal to 1 then
{pop languagelevel             % set strokeadjust and
1 ne                           % overprint to their defaults.
{false setstrokeadjust false setoverprint
} if
} if
} bd
/EndEPSF { %def
count op_count sub {pop} repeat            % Clean up stacks
countdictstack dict_count sub {end} repeat
b4_Inc_state restore
} bd
%%EndResource
%FOPBeginFontDict
%%IncludeResource: font Courier-Bold
%%IncludeResource: font Helvetica
%%IncludeResource: font Courier-BoldOblique
%%IncludeResource: font Courier-Oblique
%%IncludeResource: font Times-Roman
%%IncludeResource: font Helvetica-BoldOblique
%%IncludeResource: font Helvetica-Bold
%%IncludeResource: font Helvetica-Oblique
%%IncludeResource: font Times-BoldItalic
%%IncludeResource: font Courier
%%IncludeResource: font Times-Italic
%%IncludeResource: font Times-Bold
%%IncludeResource: font Symbol
%%IncludeResource: font ZapfDingbats
%FOPEndFontDict
%%BeginResource: encoding WinAnsiEncoding
/WinAnsiEncoding [
/.notdef /.notdef /.notdef /.notdef /.notdef
/.notdef /.notdef /.notdef /.notdef /.notdef
/.notdef /.notdef /.notdef /.notdef /.notdef
/.notdef /.notdef /.notdef /.notdef /.notdef
/.notdef /.notdef /.notdef /.notdef /.notdef
/.notdef /.notdef /.notdef /.notdef /.notdef
/.notdef /.notdef /space /exclam /quotedbl
/numbersign /dollar /percent /ampersand /quotesingle
/parenleft /parenright /asterisk /plus /comma
/hyphen /period /slash /zero /one
/two /three /four /five /six
/seven /eight /nine /colon /semicolon
/less /equal /greater /question /at
/A /B /C /D /E
/F /G /H /I /J
/K /L /M /N /O
/P /Q /R /S /T
/U /V /W /X /Y
/Z /bracketleft /backslash /bracketright /asciicircum
/underscore /quoteleft /a /b /c
/d /e /f /g /h
/i /j /k /l /m
/n /o /p /q /r
/s /t /u /v /w
/x /y /z /braceleft /bar
/braceright /asciitilde /bullet /Euro /bullet
/quotesinglbase /florin /quotedblbase /ellipsis /dagger
/daggerdbl /circumflex /perthousand /Scaron /guilsinglleft
/OE /bullet /Zcaron /bullet /bullet
/quoteleft /quoteright /quotedblleft /quotedblright /bullet
/endash /emdash /asciitilde /trademark /scaron
/guilsinglright /oe /bullet /zcaron /Ydieresis
/space /exclamdown /cent /sterling /currency
/yen /brokenbar /section /dieresis /copyright
/ordfeminine /guillemotleft /logicalnot /sfthyphen /registered
/macron /degree /plusminus /twosuperior /threesuperior
/acute /mu /paragraph /middot /cedilla
/onesuperior /ordmasculine /guillemotright /onequarter /onehalf
/threequarters /questiondown /Agrave /Aacute /Acircumflex
/Atilde /Adieresis /Aring /AE /Ccedilla
/Egrave /Eacute /Ecircumflex /Edieresis /Igrave
/Iacute /Icircumflex /Idieresis /Eth /Ntilde
/Ograve /Oacute /Ocircumflex /Otilde /Odieresis
/multiply /Oslash /Ugrave /Uacute /Ucircumflex
/Udieresis /Yacute /Thorn /germandbls /agrave
/aacute /acircumflex /atilde /adieresis /aring
/ae /ccedilla /egrave /eacute /ecircumflex
/edieresis /igrave /iacute /icircumflex /idieresis
/eth /ntilde /ograve /oacute /ocircumflex
/otilde /odieresis /divide /oslash /ugrave
/uacute /ucircumflex /udieresis /yacute /thorn
/ydieresis
] def
%%EndResource
%FOPBeginFontReencode
/Courier-Bold findfont
dup length dict begin
  {1 index /FID ne {def} {pop pop} ifelse} forall
  /Encoding WinAnsiEncoding def
  currentdict
end
/Courier-Bold exch definefont pop
/Helvetica findfont
dup length dict begin
  {1 index /FID ne {def} {pop pop} ifelse} forall
  /Encoding WinAnsiEncoding def
  currentdict
end
/Helvetica exch definefont pop
/Courier-BoldOblique findfont
dup length dict begin
  {1 index /FID ne {def} {pop pop} ifelse} forall
  /Encoding WinAnsiEncoding def
  currentdict
end
/Courier-BoldOblique exch definefont pop
/Courier-Oblique findfont
dup length dict begin
  {1 index /FID ne {def} {pop pop} ifelse} forall
  /Encoding WinAnsiEncoding def
  currentdict
end
/Courier-Oblique exch definefont pop
/Times-Roman findfont
dup length dict begin
  {1 index /FID ne {def} {pop pop} ifelse} forall
  /Encoding WinAnsiEncoding def
  currentdict
end
/Times-Roman exch definefont pop
/Helvetica-BoldOblique findfont
dup length dict begin
  {1 index /FID ne {def} {pop pop} ifelse} forall
  /Encoding WinAnsiEncoding def
  currentdict
end
/Helvetica-BoldOblique exch definefont pop
/Helvetica-Bold findfont
dup length dict begin
  {1 index /FID ne {def} {pop pop} ifelse} forall
  /Encoding WinAnsiEncoding def
  currentdict
end
/Helvetica-Bold exch definefont pop
/Helvetica-Oblique findfont
dup length dict begin
  {1 index /FID ne {def} {pop pop} ifelse} forall
  /Encoding WinAnsiEncoding def
  currentdict
end
/Helvetica-Oblique exch definefont pop
/Times-BoldItalic findfont
dup length dict begin
  {1 index /FID ne {def} {pop pop} ifelse} forall
  /Encoding WinAnsiEncoding def
  currentdict
end
/Times-BoldItalic exch definefont pop
/Courier findfont
dup length dict begin
  {1 index /FID ne {def} {pop pop} ifelse} forall
  /Encoding WinAnsiEncoding def
  currentdict
end
/Courier exch definefont pop
/Times-Italic findfont
dup length dict begin
  {1 index /FID ne {def} {pop pop} ifelse} forall
  /Encoding WinAnsiEncoding def
  currentdict
end
/Times-Italic exch definefont pop
/Times-Bold findfont
dup length dict begin
  {1 index /FID ne {def} {pop pop} ifelse} forall
  /Encoding WinAnsiEncoding def
  currentdict
end
/Times-Bold exch definefont pop
%FOPEndFontReencode
%%EndProlog
%%Page: 1 1
%%PageBoundingBox: 0 0 1391 751
%%BeginPageSetup
[1 0 0 -1 0 751] CT
%%EndPageSetup
GS
[0.75 0 0 0.75 0 0.25] CT
N
0 0 M
1855 0 L
1855 1001 L
0 1001 L
0 0 L
cp
clip
1 GC
N
0 0 1855 1001 re
f
GR
GS
[0.75 0 0 0.75 0 0.25] CT
1 GC
N
0 0 1855 1001 re
f
GR
GS
[0.75 0 0 0.75 0 0.25] CT
1 GC
N
241 721 M
1679 721 L
1679 30 L
241 30 L
cp
f
GR
GS
[0.75 0 0 0.75 0 0.25] CT
0.873 GC
2 setlinecap
10.0 ML
N
241 721 M
241 30 L
S
GR
GS
[0.75 0 0 0.75 0 0.25] CT
0.873 GC
2 setlinecap
10.0 ML
N
605.905 721 M
605.905 30 L
S
GR
GS
[0.75 0 0 0.75 0 0.25] CT
0.873 GC
2 setlinecap
10.0 ML
N
970.81 721 M
970.81 30 L
S
GR
GS
[0.75 0 0 0.75 0 0.25] CT
0.873 GC
2 setlinecap
10.0 ML
N
1335.714 721 M
1335.714 30 L
S
GR
GS
[0.75 0 0 0.75 0 0.25] CT
0.873 GC
2 setlinecap
10.0 ML
N
1679 721 M
241 721 L
S
GR
GS
[0.75 0 0 0.75 0 0.25] CT
0.873 GC
2 setlinecap
10.0 ML
N
1679 605.833 M
241 605.833 L
S
GR
GS
[0.75 0 0 0.75 0 0.25] CT
0.873 GC
2 setlinecap
10.0 ML
N
1679 490.667 M
241 490.667 L
S
GR
GS
[0.75 0 0 0.75 0 0.25] CT
0.873 GC
2 setlinecap
10.0 ML
N
1679 375.5 M
241 375.5 L
S
GR
GS
[0.75 0 0 0.75 0 0.25] CT
0.873 GC
2 setlinecap
10.0 ML
N
1679 260.333 M
241 260.333 L
S
GR
GS
[0.75 0 0 0.75 0 0.25] CT
0.873 GC
2 setlinecap
10.0 ML
N
1679 145.167 M
241 145.167 L
S
GR
GS
[0.75 0 0 0.75 0 0.25] CT
0.873 GC
2 setlinecap
10.0 ML
N
1679 30 M
241 30 L
S
GR
GS
[0.75 0 0 0.75 720.0005 599.25002] CT
0.149 GC
/Helvetica 59 F
GS
[1 0 0 1 0 0] CT
-121 55 moveto 
1 -1 scale
(Time \(s\)) t 
GR
GR
GS
[0.75 0 0 0.75 0 0.25] CT
0.149 GC
2 setlinecap
10.0 ML
N
241 721 M
1679 721 L
S
GR
GS
[0.75 0 0 0.75 0 0.25] CT
0.149 GC
2 setlinecap
10.0 ML
N
241 30 M
1679 30 L
S
GR
GS
[0.75 0 0 0.75 0 0.25] CT
0.149 GC
2 setlinecap
10.0 ML
N
241 721 M
241 706.62 L
S
GR
GS
[0.75 0 0 0.75 0 0.25] CT
0.149 GC
2 setlinecap
10.0 ML
N
605.905 721 M
605.905 706.62 L
S
GR
GS
[0.75 0 0 0.75 0 0.25] CT
0.149 GC
2 setlinecap
10.0 ML
N
970.81 721 M
970.81 706.62 L
S
GR
GS
[0.75 0 0 0.75 0 0.25] CT
0.149 GC
2 setlinecap
10.0 ML
N
1335.714 721 M
1335.714 706.62 L
S
GR
GS
[0.75 0 0 0.75 0 0.25] CT
0.149 GC
2 setlinecap
10.0 ML
N
241 30 M
241 44.38 L
S
GR
GS
[0.75 0 0 0.75 0 0.25] CT
0.149 GC
2 setlinecap
10.0 ML
N
605.905 30 M
605.905 44.38 L
S
GR
GS
[0.75 0 0 0.75 0 0.25] CT
0.149 GC
2 setlinecap
10.0 ML
N
970.81 30 M
970.81 44.38 L
S
GR
GS
[0.75 0 0 0.75 0 0.25] CT
0.149 GC
2 setlinecap
10.0 ML
N
1335.714 30 M
1335.714 44.38 L
S
GR
GS
[0.75 0 0 0.75 180.75 550.99998] CT
0.149 GC
/Helvetica 53 F
GS
[1 0 0 1 0 0] CT
-17 50 moveto 
1 -1 scale
(0) t 
GR
GR
GS
[0.75 0 0 0.75 454.42854 550.99998] CT
0.149 GC
/Helvetica 53 F
GS
[1 0 0 1 0 0] CT
-42.5 50 moveto 
1 -1 scale
(0.5) t 
GR
GR
GS
[0.75 0 0 0.75 728.10713 550.99998] CT
0.149 GC
/Helvetica 53 F
GS
[1 0 0 1 0 0] CT
-17 50 moveto 
1 -1 scale
(1) t 
GR
GR
GS
[0.75 0 0 0.75 1001.78568 550.99998] CT
0.149 GC
/Helvetica 53 F
GS
[1 0 0 1 0 0] CT
-42.5 50 moveto 
1 -1 scale
(1.5) t 
GR
GR
GS
[0 -0.75 0.75 0 104 281.87473] CT
0.149 GC
/Helvetica 59 F
GS
[1 0 0 1 0 0] CT
-247 -14 moveto 
1 -1 scale
(Knee angle \(rad\)) t 
GR
GR
GS
[0.75 0 0 0.75 0 0.25] CT
0.149 GC
2 setlinecap
10.0 ML
N
241 721 M
241 30 L
S
GR
GS
[0.75 0 0 0.75 0 0.25] CT
0.149 GC
2 setlinecap
10.0 ML
N
1679 721 M
1679 30 L
S
GR
GS
[0.75 0 0 0.75 0 0.25] CT
0.149 GC
2 setlinecap
10.0 ML
N
241 721 M
255.38 721 L
S
GR
GS
[0.75 0 0 0.75 0 0.25] CT
0.149 GC
2 setlinecap
10.0 ML
N
241 605.833 M
255.38 605.833 L
S
GR
GS
[0.75 0 0 0.75 0 0.25] CT
0.149 GC
2 setlinecap
10.0 ML
N
241 490.667 M
255.38 490.667 L
S
GR
GS
[0.75 0 0 0.75 0 0.25] CT
0.149 GC
2 setlinecap
10.0 ML
N
241 375.5 M
255.38 375.5 L
S
GR
GS
[0.75 0 0 0.75 0 0.25] CT
0.149 GC
2 setlinecap
10.0 ML
N
241 260.333 M
255.38 260.333 L
S
GR
GS
[0.75 0 0 0.75 0 0.25] CT
0.149 GC
2 setlinecap
10.0 ML
N
241 145.167 M
255.38 145.167 L
S
GR
GS
[0.75 0 0 0.75 0 0.25] CT
0.149 GC
2 setlinecap
10.0 ML
N
241 30 M
255.38 30 L
S
GR
GS
[0.75 0 0 0.75 0 0.25] CT
0.149 GC
2 setlinecap
10.0 ML
N
1679 721 M
1664.62 721 L
S
GR
GS
[0.75 0 0 0.75 0 0.25] CT
0.149 GC
2 setlinecap
10.0 ML
N
1679 605.833 M
1664.62 605.833 L
S
GR
GS
[0.75 0 0 0.75 0 0.25] CT
0.149 GC
2 setlinecap
10.0 ML
N
1679 490.667 M
1664.62 490.667 L
S
GR
GS
[0.75 0 0 0.75 0 0.25] CT
0.149 GC
2 setlinecap
10.0 ML
N
1679 375.5 M
1664.62 375.5 L
S
GR
GS
[0.75 0 0 0.75 0 0.25] CT
0.149 GC
2 setlinecap
10.0 ML
N
1679 260.333 M
1664.62 260.333 L
S
GR
GS
[0.75 0 0 0.75 0 0.25] CT
0.149 GC
2 setlinecap
10.0 ML
N
1679 145.167 M
1664.62 145.167 L
S
GR
GS
[0.75 0 0 0.75 0 0.25] CT
0.149 GC
2 setlinecap
10.0 ML
N
1679 30 M
1664.62 30 L
S
GR
GS
[0.75 0 0 0.75 170.75 541] CT
0.149 GC
/Helvetica 53 F
GS
[1 0 0 1 0 0] CT
-34 18.5 moveto 
1 -1 scale
(0) t 
GR
GR
GS
[0.75 0 0 0.75 170.75 454.62498] CT
0.149 GC
/Helvetica 53 F
GS
[1 0 0 1 0 0] CT
-85 18.5 moveto 
1 -1 scale
(0.2) t 
GR
GR
GS
[0.75 0 0 0.75 170.75 368.24999] CT
0.149 GC
/Helvetica 53 F
GS
[1 0 0 1 0 0] CT
-85 18.5 moveto 
1 -1 scale
(0.4) t 
GR
GR
GS
[0.75 0 0 0.75 170.75 281.875] CT
0.149 GC
/Helvetica 53 F
GS
[1 0 0 1 0 0] CT
-85 18.5 moveto 
1 -1 scale
(0.6) t 
GR
GR
GS
[0.75 0 0 0.75 170.75 195.49998] CT
0.149 GC
/Helvetica 53 F
GS
[1 0 0 1 0 0] CT
-85 18.5 moveto 
1 -1 scale
(0.8) t 
GR
GR
GS
[0.75 0 0 0.75 170.75 109.125] CT
0.149 GC
/Helvetica 53 F
GS
[1 0 0 1 0 0] CT
-34 18.5 moveto 
1 -1 scale
(1) t 
GR
GR
GS
[0.75 0 0 0.75 170.75 22.74998] CT
0.149 GC
/Helvetica 53 F
GS
[1 0 0 1 0 0] CT
-85 18.5 moveto 
1 -1 scale
(1.2) t 
GR
GR
GS
[0.75 0 0 0.75 0 0.25] CT
0 0 1 RC
2 LJ
6.667 LW
N
241 558.666 M
243.463 562.385 L
245.833 563.555 L
248.113 564.469 L
251.955 565.719 L
255.23 566.722 L
259.152 567.594 L
262.803 568.385 L
266.359 569.023 L
269.732 569.615 L
273.384 570.185 L
277.671 570.745 L
280.773 571.218 L
284.423 571.629 L
287.888 571.982 L
291.902 572.377 L
295.368 572.726 L
299.019 573.049 L
302.483 573.311 L
306.224 573.51 L
309.965 573.645 L
313.612 573.751 L
317.352 573.857 L
320.728 573.981 L
324.926 574.146 L
328.122 574.296 L
331.958 574.502 L
335.782 574.769 L
339.158 575.058 L
342.714 575.383 L
346.365 575.696 L
350.472 576.054 L
355.03 576.467 L
357.584 576.626 L
361.051 576.873 L
364.882 577.103 L
368.348 577.28 L
371.998 577.467 L
375.645 577.713 L
379.298 578.024 L
383.037 578.349 L
386.685 578.673 L
390.516 578.993 L
393.892 579.278 L
397.996 579.57 L
401.191 579.861 L
404.838 580.146 L
408.942 580.407 L
412.411 580.709 L
415.878 581.01 L
S
GR
GS
[0.75 0 0 0.75 0 0.25] CT
0 0 1 RC
2 LJ
6.667 LW
N
415.878 581.01 M
419.618 581.328 L
423.358 581.632 L
426.826 581.97 L
430.657 582.326 L
434.124 582.697 L
437.772 583.138 L
441.422 583.657 L
445.071 584.284 L
448.719 584.969 L
452.369 585.718 L
456.2 586.541 L
459.848 587.473 L
463.499 588.586 L
466.783 589.723 L
470.98 591.104 L
474.537 592.689 L
477.729 594.544 L
481.926 596.744 L
485.208 599.325 L
489.043 602.364 L
492.325 605.884 L
496.338 609.753 L
499.623 613.717 L
503.274 618.1 L
507.012 622.89 L
510.572 627.359 L
514.313 632.14 L
517.869 636.875 L
521.791 641.7 L
525.167 645.898 L
529.001 650.295 L
532.556 653.972 L
537.847 657.487 L
540.309 661.115 L
543.685 663.542 L
547.151 666.153 L
550.801 668.498 L
554.998 670.565 L
558.282 672.437 L
561.931 673.943 L
565.58 675.209 L
569.229 676.209 L
572.696 677.099 L
576.345 677.885 L
579.995 678.598 L
583.644 679.292 L
587.475 680.036 L
591.033 680.853 L
594.772 681.787 L
S
GR
GS
[0.75 0 0 0.75 0 0.25] CT
0 0 1 RC
2 LJ
6.667 LW
N
594.772 681.787 M
598.239 682.721 L
601.888 683.781 L
605.629 684.877 L
609.185 686.001 L
612.835 687.111 L
616.757 688.18 L
620.5 689.231 L
623.887 690.115 L
627.894 690.998 L
631.175 691.764 L
634.732 692.4 L
638.288 692.983 L
642.301 693.498 L
645.769 693.986 L
649.328 694.419 L
652.976 694.827 L
656.443 695.178 L
660.364 695.499 L
663.83 695.737 L
667.57 695.911 L
671.131 696.042 L
674.961 696.232 L
678.611 696.726 L
681.984 697.08 L
685.908 697.243 L
689.373 697.309 L
693.388 697.325 L
696.762 697.36 L
700.321 697.627 L
704.333 697.784 L
707.622 697.817 L
711.451 697.819 L
714.918 697.826 L
718.932 697.835 L
723.31 697.848 L
725.865 697.855 L
729.514 697.868 L
733.165 697.89 L
736.812 697.925 L
740.733 697.974 L
744.292 698.042 L
747.851 698.135 L
751.682 698.259 L
755.147 698.405 L
758.978 698.557 L
762.356 698.674 L
766.093 698.795 L
769.835 698.921 L
773.575 699.067 L
S
GR
GS
[0.75 0 0 0.75 0 0.25] CT
0 0 1 RC
2 LJ
6.667 LW
N
773.575 699.067 M
777.045 699.255 L
780.693 699.458 L
784.524 699.652 L
788.173 699.836 L
792.005 700.072 L
795.288 700.304 L
799.119 700.562 L
802.585 700.781 L
806.234 701.033 L
809.885 701.324 L
813.622 701.629 L
817.367 701.916 L
820.742 702.269 L
824.299 702.658 L
828.313 703.104 L
833.784 703.636 L
835.885 703.839 L
839.167 704.164 L
842.907 704.575 L
846.646 705.021 L
850.297 705.493 L
853.673 706.021 L
857.597 706.6 L
861.063 707.112 L
864.713 707.684 L
868.358 708.229 L
871.826 708.815 L
875.565 709.353 L
879.123 709.716 L
883.046 709.969 L
886.422 710.159 L
890.438 710.371 L
893.811 710.605 L
897.37 710.862 L
901.2 711.067 L
906.584 711.244 L
908.863 711.487 L
912.512 710.466 L
916.163 707.761 L
919.446 703.95 L
923.281 699.677 L
926.746 695.719 L
930.303 691.294 L
934.317 686.533 L
937.693 681.469 L
941.524 676.127 L
944.991 670.49 L
948.731 664.51 L
952.107 658.227 L
S
GR
GS
[0.75 0 0 0.75 0 0.25] CT
0 0 1 RC
2 LJ
6.667 LW
N
952.107 658.227 M
956.029 651.693 L
959.588 644.906 L
963.235 637.864 L
966.886 630.603 L
970.533 623.139 L
974.366 615.41 L
977.83 607.359 L
981.662 599.012 L
985.311 589.584 L
989.143 581.294 L
992.428 573.289 L
996.26 563.683 L
999.636 554.755 L
1003.284 545.142 L
1006.935 535.302 L
1010.672 524.694 L
1014.414 514.948 L
1017.97 504.015 L
1021.711 493.404 L
1025.177 483.209 L
1028.826 472.417 L
1032.839 461.514 L
1036.128 450.491 L
1039.776 439.431 L
1043.422 428.311 L
1047.253 417.119 L
1050.72 405.938 L
1054.552 394.221 L
1058.2 383.612 L
1061.673 372.732 L
1065.325 363.422 L
1069.15 356.718 L
1072.619 350.532 L
1076.267 344.682 L
1080.097 338.961 L
1083.562 333.319 L
1087.394 327.493 L
1092.046 320.508 L
1094.509 317.123 L
1098.249 312.062 L
1101.808 307.212 L
1105.912 302.526 L
1109.106 297.984 L
1113.028 293.598 L
1116.405 289.332 L
1120.143 284.986 L
1123.701 281.179 L
1127.349 277.332 L
1131.456 273.668 L
S
GR
GS
[0.75 0 0 0.75 0 0.25] CT
0 0 1 RC
2 LJ
6.667 LW
N
1131.456 273.668 M
1134.739 270.179 L
1138.389 266.871 L
1142.218 263.777 L
1145.687 260.829 L
1149.245 257.978 L
1152.986 255.085 L
1156.453 252.517 L
1160.283 249.878 L
1163.932 247.292 L
1167.581 244.66 L
1171.231 242.355 L
1174.696 239.989 L
1178.711 237.688 L
1182.636 235.438 L
1186.466 233.161 L
1189.938 231.192 L
1193.767 229.184 L
1197.597 227.221 L
1200.944 225.269 L
1205.17 223.337 L
1208.362 221.442 L
1212.198 219.596 L
1215.842 217.814 L
1219.31 216.091 L
1222.774 214.563 L
1226.613 213.009 L
1230.077 211.628 L
1233.724 210.306 L
1237.375 209.095 L
1241.02 207.775 L
1245.036 206.549 L
1248.324 205.339 L
1252.424 204.244 L
1255.617 203.076 L
1259.447 202.002 L
1262.736 201.022 L
1266.564 200.017 L
1270.403 199.059 L
1276.052 198.14 L
1279.703 196.809 L
1283.439 195.923 L
1286.453 195.057 L
1289.917 194.282 L
1292.75 193.542 L
1295.756 192.959 L
1299.5 192.189 L
1303.056 191.416 L
1306.795 190.676 L
1310.625 189.954 L
S
GR
GS
[0.75 0 0 0.75 0 0.25] CT
0 0 1 RC
2 LJ
6.667 LW
N
1310.625 189.954 M
1314.108 189.254 L
1317.926 188.51 L
1321.391 187.867 L
1325.408 187.187 L
1328.508 186.569 L
1332.341 185.919 L
1335.811 185.317 L
1339.546 184.734 L
1343.468 184.261 L
1346.935 184.912 L
1350.95 186.513 L
1354.231 188.51 L
1357.978 190.676 L
1362.169 192.758 L
1365.272 194.863 L
1368.648 197.345 L
1372.388 200.198 L
1376.399 203.354 L
1379.683 206.686 L
1383.431 210.076 L
1386.893 213.459 L
1390.814 216.855 L
1394.463 220.261 L
1398.113 223.664 L
1401.759 227.071 L
1405.049 230.355 L
1409.243 234.087 L
1412.528 237.748 L
1416.357 241.308 L
1419.826 245.124 L
1423.747 249.167 L
1427.216 252.809 L
1430.771 256.799 L
1435.152 260.783 L
1438.071 264.426 L
1441.9 268.147 L
1445.184 272.149 L
1449.386 276.426 L
1452.758 280.401 L
1458.414 284.948 L
1461.604 291.429 L
1464.614 295.976 L
1467.533 299.251 L
1471.097 303.84 L
1474.835 308.159 L
1478.209 312.764 L
1481.951 317.463 L
1485.598 322.452 L
1489.428 327.184 L
S
GR
GS
[0.75 0 0 0.75 0 0.25] CT
0 0 1 RC
2 LJ
6.667 LW
N
1489.428 327.184 M
1492.913 331.707 L
1496.547 336.503 L
1500.56 341.593 L
1503.661 346.23 L
1507.857 351.139 L
1511.143 356.068 L
1514.89 360.98 L
1518.261 365.862 L
1522.27 371.195 L
1525.555 375.592 L
1529.203 380.556 L
1532.854 385.604 L
1536.609 390.747 L
1540.428 396.264 L
1543.984 401.815 L
1547.907 407.19 L
1551.19 412.473 L
1555.115 418.029 L
1559.04 423.322 L
1562.139 428.403 L
1565.968 433.725 L
1569.436 439.003 L
1573.539 444.541 L
1576.734 449.587 L
1581.307 454.967 L
1584.397 460.669 L
1587.862 465.887 L
1591.336 471.71 L
1594.978 477.244 L
1598.536 482.835 L
1602.094 488.23 L
1606.113 493.588 L
1609.575 499.075 L
1613.406 504.638 L
1617.055 510.561 L
1620.704 516.185 L
1624.444 521.757 L
1628.006 527.304 L
1632.199 532.88 L
1635.483 538.208 L
1639.225 543.38 L
1645.789 547.909 L
1649.808 555.153 L
1654.456 558.613 L
1657.742 561.744 L
1661.304 564.43 L
1664.947 566.987 L
1669.058 569.785 L
1672.617 571.77 L
S
GR
GS
[0.75 0 0 0.75 0 0.25] CT
0 0 1 RC
2 LJ
6.667 LW
N
1672.617 571.77 M
1679 573.985 L
S
GR
GS
[0.75 0 0 0.75 0 0.25] CT
1 0 0 RC
[24 24] 0 setdash
2 LJ
6.667 LW
N
241 558.666 M
243.463 558.666 L
245.833 558.666 L
248.113 558.666 L
251.955 558.666 L
255.23 558.666 L
259.152 558.666 L
262.803 558.666 L
266.359 558.666 L
269.732 558.666 L
273.384 558.666 L
277.671 558.666 L
280.773 558.666 L
284.423 558.666 L
287.888 558.666 L
291.902 558.666 L
295.368 558.666 L
299.019 558.666 L
302.483 558.666 L
306.224 558.666 L
309.965 558.666 L
313.612 558.666 L
317.352 558.666 L
320.728 558.666 L
324.926 558.666 L
328.122 558.666 L
331.958 558.666 L
335.782 558.666 L
339.158 558.666 L
342.714 558.666 L
346.365 558.666 L
350.472 558.666 L
355.03 558.666 L
357.584 558.666 L
361.051 558.666 L
364.882 558.666 L
368.348 558.666 L
371.998 558.666 L
375.645 558.666 L
379.298 558.666 L
383.037 558.666 L
386.685 558.666 L
390.516 558.666 L
393.892 558.666 L
397.996 558.666 L
401.191 558.666 L
404.838 558.666 L
408.942 558.666 L
412.411 558.666 L
415.878 559.694 L
419.618 561.344 L
423.358 562.752 L
426.826 564.063 L
430.657 565.277 L
434.124 566.394 L
437.772 567.665 L
441.422 568.945 L
445.071 570.378 L
448.719 571.971 L
452.369 573.794 L
456.2 575.985 L
459.848 578.577 L
463.499 581.886 L
466.783 585.568 L
470.98 590.945 L
474.537 597.925 L
477.729 607.001 L
481.926 620.06 L
485.208 636.603 L
489.043 656.085 L
492.325 674.101 L
496.338 687.799 L
499.623 695.538 L
503.274 700.574 L
507.012 704.743 L
510.572 707.805 L
514.313 711.115 L
517.869 714.146 L
521.791 716.795 L
525.167 718.461 L
529.001 719.675 L
532.556 720.248 L
537.847 720.482 L
540.309 720.53 L
543.685 720.53 L
547.151 720.531 L
550.801 720.531 L
554.998 720.531 L
558.282 720.531 L
561.931 720.531 L
565.58 720.531 L
569.229 720.532 L
572.696 720.532 L
576.345 720.532 L
579.995 720.532 L
583.644 720.532 L
587.475 720.532 L
591.033 720.532 L
594.772 720.532 L
598.239 720.532 L
601.888 720.532 L
605.629 720.532 L
609.185 720.532 L
612.835 720.532 L
616.757 720.532 L
620.5 720.532 L
623.887 720.532 L
627.894 720.532 L
631.175 720.532 L
634.732 720.532 L
638.288 720.532 L
642.301 720.532 L
645.769 720.532 L
649.328 720.532 L
652.976 720.532 L
656.443 720.532 L
660.364 720.532 L
663.83 720.532 L
667.57 720.532 L
671.131 720.532 L
674.961 720.532 L
678.611 720.532 L
681.984 720.532 L
685.908 720.532 L
689.373 720.532 L
693.388 720.532 L
696.762 720.532 L
700.321 720.532 L
704.333 720.532 L
707.622 720.532 L
711.451 720.532 L
714.918 720.532 L
718.932 720.532 L
723.31 720.532 L
725.865 720.532 L
729.514 720.532 L
733.165 720.532 L
736.812 720.532 L
740.733 720.532 L
744.292 720.532 L
747.851 720.532 L
751.682 720.532 L
755.147 720.532 L
758.978 720.532 L
762.356 720.532 L
766.093 720.532 L
769.835 720.532 L
773.575 720.532 L
777.045 720.532 L
780.693 720.532 L
784.524 720.532 L
788.173 720.532 L
792.005 720.532 L
795.288 720.532 L
799.119 720.532 L
802.585 720.532 L
806.234 720.532 L
809.885 720.532 L
813.622 720.532 L
817.367 720.532 L
820.742 720.532 L
824.299 720.532 L
828.313 720.532 L
833.784 720.532 L
835.885 720.532 L
839.167 720.532 L
842.907 720.532 L
846.646 720.532 L
850.297 720.532 L
853.673 720.532 L
857.597 720.532 L
861.063 720.532 L
864.713 720.532 L
868.358 720.532 L
871.826 720.535 L
875.565 720.535 L
879.123 720.535 L
883.046 720.535 L
886.422 720.535 L
890.438 720.535 L
893.811 720.535 L
897.37 720.535 L
901.2 720.535 L
906.584 713.204 L
908.863 705.346 L
912.512 695.441 L
916.163 682.965 L
919.446 669.172 L
923.281 655.263 L
926.746 642.723 L
930.303 630.102 L
934.317 616.281 L
937.693 602.029 L
941.524 586.94 L
944.991 571.977 L
948.731 562.718 L
952.107 551.906 L
956.029 534.613 L
959.588 518.95 L
963.235 505.698 L
966.886 489.887 L
970.533 470.898 L
974.366 454.596 L
977.83 440.46 L
981.662 427.66 L
985.311 413.903 L
989.143 398.286 L
992.428 381.84 L
996.26 365.249 L
999.636 349.578 L
1003.284 334.668 L
1006.935 318.778 L
1010.672 302.352 L
1014.414 287.095 L
1017.97 271.973 L
1021.711 256.837 L
1025.177 242.375 L
1028.826 229.03 L
1032.839 215.952 L
1036.128 203.701 L
1039.776 191.891 L
1043.422 180.53 L
1047.253 169.817 L
1050.72 159.504 L
1054.552 149.556 L
1058.2 145.167 L
1061.673 145.167 L
1065.325 145.167 L
1069.15 145.167 L
1072.619 145.167 L
1076.267 145.167 L
1080.097 145.167 L
1083.562 145.167 L
1087.394 145.167 L
1092.046 145.167 L
1094.509 145.167 L
1098.249 145.167 L
1101.808 145.167 L
1105.912 145.167 L
1109.106 145.167 L
1113.028 145.167 L
1116.405 145.167 L
1120.143 145.167 L
1123.701 145.167 L
1127.349 145.167 L
1131.456 145.167 L
1134.739 145.167 L
1138.389 145.167 L
1142.218 145.167 L
1145.687 145.167 L
1149.245 145.167 L
1152.986 145.167 L
1156.453 145.167 L
1160.283 145.167 L
1163.932 145.167 L
1167.581 145.167 L
1171.231 145.167 L
1174.696 145.167 L
1178.711 145.167 L
1182.636 145.167 L
1186.466 145.167 L
1189.938 145.167 L
1193.767 145.167 L
1197.597 145.167 L
1200.944 145.167 L
1205.17 145.167 L
1208.362 145.167 L
1212.198 145.167 L
1215.842 145.167 L
1219.31 145.167 L
1222.774 145.167 L
1226.613 145.167 L
1230.077 145.167 L
1233.724 145.167 L
1237.375 145.167 L
1241.02 145.167 L
1245.036 145.167 L
1248.324 145.167 L
1252.424 145.167 L
1255.617 145.167 L
1259.447 145.167 L
1262.736 145.167 L
1266.564 145.167 L
1270.403 145.167 L
1276.052 145.167 L
1279.703 145.167 L
1283.439 145.167 L
1286.453 145.167 L
1289.917 145.167 L
1292.75 145.167 L
1295.756 145.167 L
1299.5 145.167 L
1303.056 145.167 L
1306.795 145.167 L
1310.625 145.167 L
1314.108 145.167 L
1317.926 145.167 L
1321.391 145.167 L
1325.408 145.167 L
1328.508 145.167 L
1332.341 145.167 L
1335.811 145.167 L
1339.546 146.118 L
1343.468 147.138 L
1346.935 150.269 L
1350.95 153.145 L
1354.231 155.794 L
1357.978 160.03 L
1362.169 164.067 L
1365.272 169.364 L
1368.648 174.188 L
1372.388 179.049 L
1376.399 183.884 L
1379.683 187.453 L
1383.431 190.702 L
1386.893 194.417 L
1390.814 197.693 L
1394.463 203.373 L
1398.113 207.483 L
1401.759 216.033 L
1405.049 221.059 L
1409.243 228.266 L
1412.528 231.721 L
1416.357 235.661 L
1419.826 239.025 L
1423.747 243.809 L
1427.216 248.179 L
1430.771 253.391 L
1435.152 260.061 L
1438.071 266.57 L
1441.9 273.191 L
1445.184 281.852 L
1449.386 289.742 L
1452.758 295.494 L
1458.414 302.211 L
1461.604 311.512 L
1464.614 317.876 L
1467.533 317.876 L
1471.097 328.221 L
1474.835 333.369 L
1478.209 339.065 L
1481.951 344.456 L
1485.598 350.289 L
1489.428 356.412 L
1492.913 362.509 L
1496.547 368.156 L
1500.56 373.426 L
1503.661 378.021 L
1507.857 382.006 L
1511.143 386.791 L
1514.89 391.634 L
1518.261 399.415 L
1522.27 406.121 L
1525.555 413.892 L
1529.203 420.36 L
1532.854 427.271 L
1536.609 434.977 L
1540.428 441.462 L
1543.984 449.433 L
1547.907 454.246 L
1551.19 459.573 L
1555.115 464.253 L
1559.04 468.995 L
1562.139 474.275 L
1565.968 480.673 L
1569.436 487.254 L
1573.539 494.028 L
1576.734 500.559 L
1581.307 507.363 L
1584.397 513.543 L
1587.862 518.828 L
1591.336 524.609 L
1594.978 527.716 L
1598.536 532.486 L
1602.094 544.585 L
1606.113 549.952 L
1609.575 555.434 L
1613.406 561.22 L
1617.055 567.127 L
1620.704 573.277 L
1624.444 579.013 L
1628.006 584.752 L
1632.199 589.586 L
1635.483 592.915 L
1639.225 595.503 L
1645.789 598.879 L
1649.808 606.462 L
1654.456 610.066 L
1657.742 614.115 L
1661.304 617.495 L
1664.947 621.694 L
1669.058 625.655 L
1672.617 626.967 L
1679 573.985 L
S
GR
GS
[0.75 0 0 0.75 378.5625 664.12502] CT
/Helvetica 48 F
GS
[1 0 0 1 0 0] CT
0 16.5 moveto 
1 -1 scale
(Actual) t 
GR
GR
GS
[0.75 0 0 0.75 0 0.25] CT
0 0 1 RC
2 setlinecap
10.0 ML
6.667 LW
N
460.962 885.167 M
500.769 885.167 L
S
GR
GS
[0.75 0 0 0.75 922.5 664.12502] CT
/Helvetica 48 F
GS
[1 0 0 1 0 0] CT
0 16.5 moveto 
1 -1 scale
(Desired) t 
GR
GR
GS
[0.75 0 0 0.75 0 0.25] CT
1 0 0 RC
[24 24] 0 setdash
2 LJ
6.667 LW
N
1186 885.167 M
1226 885.167 L
S
GR
%%Trailer
%%Pages: 1
%%EOF
