%!PS-Adobe-3.0 EPSF-3.0
%%Creator: (MATLAB, The Mathworks, Inc. Version 8.5.0.197613 \(R2015a\). Operating System: Linux)
%%Title: (/home/victor/ampro/AMPRO II/Upslope Walking/figures/Thesis/FlatgroundSplines/KneeTrackingTwoSteps.eps)
%%CreationDate: 2016-02-18T16:52:30
%%Pages: (atend)
%%BoundingBox: 0 0 1391 751
%%LanguageLevel: 2
%%EndComments
%%BeginProlog
%%BeginResource: procset (Apache XML Graphics Std ProcSet) 1.2 0
%%Version: 1.2 0
%%Copyright: (Copyright 2001-2003,2010 The Apache Software Foundation. License terms: http://www.apache.org/licenses/LICENSE-2.0)
/bd{bind def}bind def
/ld{load def}bd
/GR/grestore ld
/M/moveto ld
/LJ/setlinejoin ld
/C/curveto ld
/f/fill ld
/LW/setlinewidth ld
/GC/setgray ld
/t/show ld
/N/newpath ld
/CT/concat ld
/cp/closepath ld
/S/stroke ld
/L/lineto ld
/CC/setcmykcolor ld
/A/ashow ld
/GS/gsave ld
/RC/setrgbcolor ld
/RM/rmoveto ld
/ML/setmiterlimit ld
/re {4 2 roll M
1 index 0 rlineto
0 exch rlineto
neg 0 rlineto
cp } bd
/_ctm matrix def
/_tm matrix def
/BT { _ctm currentmatrix pop matrix _tm copy pop 0 0 moveto } bd
/ET { _ctm setmatrix } bd
/iTm { _ctm setmatrix _tm concat } bd
/Tm { _tm astore pop iTm 0 0 moveto } bd
/ux 0.0 def
/uy 0.0 def
/F {
  /Tp exch def
  /Tf exch def
  Tf findfont Tp scalefont setfont
  /cf Tf def  /cs Tp def
} bd
/ULS {currentpoint /uy exch def /ux exch def} bd
/ULE {
  /Tcx currentpoint pop def
  gsave
  newpath
  cf findfont cs scalefont dup
  /FontMatrix get 0 get /Ts exch def /FontInfo get dup
  /UnderlinePosition get Ts mul /To exch def
  /UnderlineThickness get Ts mul /Tt exch def
  ux uy To add moveto  Tcx uy To add lineto
  Tt setlinewidth stroke
  grestore
} bd
/OLE {
  /Tcx currentpoint pop def
  gsave
  newpath
  cf findfont cs scalefont dup
  /FontMatrix get 0 get /Ts exch def /FontInfo get dup
  /UnderlinePosition get Ts mul /To exch def
  /UnderlineThickness get Ts mul /Tt exch def
  ux uy To add cs add moveto Tcx uy To add cs add lineto
  Tt setlinewidth stroke
  grestore
} bd
/SOE {
  /Tcx currentpoint pop def
  gsave
  newpath
  cf findfont cs scalefont dup
  /FontMatrix get 0 get /Ts exch def /FontInfo get dup
  /UnderlinePosition get Ts mul /To exch def
  /UnderlineThickness get Ts mul /Tt exch def
  ux uy To add cs 10 mul 26 idiv add moveto Tcx uy To add cs 10 mul 26 idiv add lineto
  Tt setlinewidth stroke
  grestore
} bd
/QT {
/Y22 exch store
/X22 exch store
/Y21 exch store
/X21 exch store
currentpoint
/Y21 load 2 mul add 3 div exch
/X21 load 2 mul add 3 div exch
/X21 load 2 mul /X22 load add 3 div
/Y21 load 2 mul /Y22 load add 3 div
/X22 load /Y22 load curveto
} bd
/SSPD {
dup length /d exch dict def
{
/v exch def
/k exch def
currentpagedevice k known {
/cpdv currentpagedevice k get def
v cpdv ne {
/upd false def
/nullv v type /nulltype eq def
/nullcpdv cpdv type /nulltype eq def
nullv nullcpdv or
{
/upd true def
} {
/sametype v type cpdv type eq def
sametype {
v type /arraytype eq {
/vlen v length def
/cpdvlen cpdv length def
vlen cpdvlen eq {
0 1 vlen 1 sub {
/i exch def
/obj v i get def
/cpdobj cpdv i get def
obj cpdobj ne {
/upd true def
exit
} if
} for
} {
/upd true def
} ifelse
} {
v type /dicttype eq {
v {
/dv exch def
/dk exch def
/cpddv cpdv dk get def
dv cpddv ne {
/upd true def
exit
} if
} forall
} {
/upd true def
} ifelse
} ifelse
} if
} ifelse
upd true eq {
d k v put
} if
} if
} if
} forall
d length 0 gt {
d setpagedevice
} if
} bd
%%EndResource
%%BeginResource: procset (Apache XML Graphics EPS ProcSet) 1.0 0
%%Version: 1.0 0
%%Copyright: (Copyright 2002-2003 The Apache Software Foundation. License terms: http://www.apache.org/licenses/LICENSE-2.0)
/BeginEPSF { %def
/b4_Inc_state save def         % Save state for cleanup
/dict_count countdictstack def % Count objects on dict stack
/op_count count 1 sub def      % Count objects on operand stack
userdict begin                 % Push userdict on dict stack
/showpage { } def              % Redefine showpage, { } = null proc
0 setgray 0 setlinecap         % Prepare graphics state
1 setlinewidth 0 setlinejoin
10 setmiterlimit [ ] 0 setdash newpath
/languagelevel where           % If level not equal to 1 then
{pop languagelevel             % set strokeadjust and
1 ne                           % overprint to their defaults.
{false setstrokeadjust false setoverprint
} if
} if
} bd
/EndEPSF { %def
count op_count sub {pop} repeat            % Clean up stacks
countdictstack dict_count sub {end} repeat
b4_Inc_state restore
} bd
%%EndResource
%FOPBeginFontDict
%%IncludeResource: font Courier-Bold
%%IncludeResource: font Helvetica
%%IncludeResource: font Courier-BoldOblique
%%IncludeResource: font Courier-Oblique
%%IncludeResource: font Times-Roman
%%IncludeResource: font Helvetica-BoldOblique
%%IncludeResource: font Helvetica-Bold
%%IncludeResource: font Helvetica-Oblique
%%IncludeResource: font Times-BoldItalic
%%IncludeResource: font Courier
%%IncludeResource: font Times-Italic
%%IncludeResource: font Times-Bold
%%IncludeResource: font Symbol
%%IncludeResource: font ZapfDingbats
%FOPEndFontDict
%%BeginResource: encoding WinAnsiEncoding
/WinAnsiEncoding [
/.notdef /.notdef /.notdef /.notdef /.notdef
/.notdef /.notdef /.notdef /.notdef /.notdef
/.notdef /.notdef /.notdef /.notdef /.notdef
/.notdef /.notdef /.notdef /.notdef /.notdef
/.notdef /.notdef /.notdef /.notdef /.notdef
/.notdef /.notdef /.notdef /.notdef /.notdef
/.notdef /.notdef /space /exclam /quotedbl
/numbersign /dollar /percent /ampersand /quotesingle
/parenleft /parenright /asterisk /plus /comma
/hyphen /period /slash /zero /one
/two /three /four /five /six
/seven /eight /nine /colon /semicolon
/less /equal /greater /question /at
/A /B /C /D /E
/F /G /H /I /J
/K /L /M /N /O
/P /Q /R /S /T
/U /V /W /X /Y
/Z /bracketleft /backslash /bracketright /asciicircum
/underscore /quoteleft /a /b /c
/d /e /f /g /h
/i /j /k /l /m
/n /o /p /q /r
/s /t /u /v /w
/x /y /z /braceleft /bar
/braceright /asciitilde /bullet /Euro /bullet
/quotesinglbase /florin /quotedblbase /ellipsis /dagger
/daggerdbl /circumflex /perthousand /Scaron /guilsinglleft
/OE /bullet /Zcaron /bullet /bullet
/quoteleft /quoteright /quotedblleft /quotedblright /bullet
/endash /emdash /asciitilde /trademark /scaron
/guilsinglright /oe /bullet /zcaron /Ydieresis
/space /exclamdown /cent /sterling /currency
/yen /brokenbar /section /dieresis /copyright
/ordfeminine /guillemotleft /logicalnot /sfthyphen /registered
/macron /degree /plusminus /twosuperior /threesuperior
/acute /mu /paragraph /middot /cedilla
/onesuperior /ordmasculine /guillemotright /onequarter /onehalf
/threequarters /questiondown /Agrave /Aacute /Acircumflex
/Atilde /Adieresis /Aring /AE /Ccedilla
/Egrave /Eacute /Ecircumflex /Edieresis /Igrave
/Iacute /Icircumflex /Idieresis /Eth /Ntilde
/Ograve /Oacute /Ocircumflex /Otilde /Odieresis
/multiply /Oslash /Ugrave /Uacute /Ucircumflex
/Udieresis /Yacute /Thorn /germandbls /agrave
/aacute /acircumflex /atilde /adieresis /aring
/ae /ccedilla /egrave /eacute /ecircumflex
/edieresis /igrave /iacute /icircumflex /idieresis
/eth /ntilde /ograve /oacute /ocircumflex
/otilde /odieresis /divide /oslash /ugrave
/uacute /ucircumflex /udieresis /yacute /thorn
/ydieresis
] def
%%EndResource
%FOPBeginFontReencode
/Courier-Bold findfont
dup length dict begin
  {1 index /FID ne {def} {pop pop} ifelse} forall
  /Encoding WinAnsiEncoding def
  currentdict
end
/Courier-Bold exch definefont pop
/Helvetica findfont
dup length dict begin
  {1 index /FID ne {def} {pop pop} ifelse} forall
  /Encoding WinAnsiEncoding def
  currentdict
end
/Helvetica exch definefont pop
/Courier-BoldOblique findfont
dup length dict begin
  {1 index /FID ne {def} {pop pop} ifelse} forall
  /Encoding WinAnsiEncoding def
  currentdict
end
/Courier-BoldOblique exch definefont pop
/Courier-Oblique findfont
dup length dict begin
  {1 index /FID ne {def} {pop pop} ifelse} forall
  /Encoding WinAnsiEncoding def
  currentdict
end
/Courier-Oblique exch definefont pop
/Times-Roman findfont
dup length dict begin
  {1 index /FID ne {def} {pop pop} ifelse} forall
  /Encoding WinAnsiEncoding def
  currentdict
end
/Times-Roman exch definefont pop
/Helvetica-BoldOblique findfont
dup length dict begin
  {1 index /FID ne {def} {pop pop} ifelse} forall
  /Encoding WinAnsiEncoding def
  currentdict
end
/Helvetica-BoldOblique exch definefont pop
/Helvetica-Bold findfont
dup length dict begin
  {1 index /FID ne {def} {pop pop} ifelse} forall
  /Encoding WinAnsiEncoding def
  currentdict
end
/Helvetica-Bold exch definefont pop
/Helvetica-Oblique findfont
dup length dict begin
  {1 index /FID ne {def} {pop pop} ifelse} forall
  /Encoding WinAnsiEncoding def
  currentdict
end
/Helvetica-Oblique exch definefont pop
/Times-BoldItalic findfont
dup length dict begin
  {1 index /FID ne {def} {pop pop} ifelse} forall
  /Encoding WinAnsiEncoding def
  currentdict
end
/Times-BoldItalic exch definefont pop
/Courier findfont
dup length dict begin
  {1 index /FID ne {def} {pop pop} ifelse} forall
  /Encoding WinAnsiEncoding def
  currentdict
end
/Courier exch definefont pop
/Times-Italic findfont
dup length dict begin
  {1 index /FID ne {def} {pop pop} ifelse} forall
  /Encoding WinAnsiEncoding def
  currentdict
end
/Times-Italic exch definefont pop
/Times-Bold findfont
dup length dict begin
  {1 index /FID ne {def} {pop pop} ifelse} forall
  /Encoding WinAnsiEncoding def
  currentdict
end
/Times-Bold exch definefont pop
%FOPEndFontReencode
%%EndProlog
%%Page: 1 1
%%PageBoundingBox: 0 0 1391 751
%%BeginPageSetup
[1 0 0 -1 0 751] CT
%%EndPageSetup
GS
[0.75 0 0 0.75 0 0.25] CT
N
0 0 M
1855 0 L
1855 1001 L
0 1001 L
0 0 L
cp
clip
1 GC
N
0 0 1855 1001 re
f
GR
GS
[0.75 0 0 0.75 0 0.25] CT
1 GC
N
0 0 1855 1001 re
f
GR
GS
[0.75 0 0 0.75 0 0.25] CT
1 GC
N
241 721 M
1679 721 L
1679 30 L
241 30 L
cp
f
GR
GS
[0.75 0 0 0.75 0 0.25] CT
0.873 GC
2 setlinecap
10.0 ML
N
241 721 M
241 30 L
S
GR
GS
[0.75 0 0 0.75 0 0.25] CT
0.873 GC
2 setlinecap
10.0 ML
N
420.773 721 M
420.773 30 L
S
GR
GS
[0.75 0 0 0.75 0 0.25] CT
0.873 GC
2 setlinecap
10.0 ML
N
600.546 721 M
600.546 30 L
S
GR
GS
[0.75 0 0 0.75 0 0.25] CT
0.873 GC
2 setlinecap
10.0 ML
N
780.32 721 M
780.32 30 L
S
GR
GS
[0.75 0 0 0.75 0 0.25] CT
0.873 GC
2 setlinecap
10.0 ML
N
960.093 721 M
960.093 30 L
S
GR
GS
[0.75 0 0 0.75 0 0.25] CT
0.873 GC
2 setlinecap
10.0 ML
N
1139.866 721 M
1139.866 30 L
S
GR
GS
[0.75 0 0 0.75 0 0.25] CT
0.873 GC
2 setlinecap
10.0 ML
N
1319.639 721 M
1319.639 30 L
S
GR
GS
[0.75 0 0 0.75 0 0.25] CT
0.873 GC
2 setlinecap
10.0 ML
N
1499.412 721 M
1499.412 30 L
S
GR
GS
[0.75 0 0 0.75 0 0.25] CT
0.873 GC
2 setlinecap
10.0 ML
N
1679 721 M
241 721 L
S
GR
GS
[0.75 0 0 0.75 0 0.25] CT
0.873 GC
2 setlinecap
10.0 ML
N
1679 605.833 M
241 605.833 L
S
GR
GS
[0.75 0 0 0.75 0 0.25] CT
0.873 GC
2 setlinecap
10.0 ML
N
1679 490.667 M
241 490.667 L
S
GR
GS
[0.75 0 0 0.75 0 0.25] CT
0.873 GC
2 setlinecap
10.0 ML
N
1679 375.5 M
241 375.5 L
S
GR
GS
[0.75 0 0 0.75 0 0.25] CT
0.873 GC
2 setlinecap
10.0 ML
N
1679 260.333 M
241 260.333 L
S
GR
GS
[0.75 0 0 0.75 0 0.25] CT
0.873 GC
2 setlinecap
10.0 ML
N
1679 145.167 M
241 145.167 L
S
GR
GS
[0.75 0 0 0.75 0 0.25] CT
0.873 GC
2 setlinecap
10.0 ML
N
1679 30 M
241 30 L
S
GR
GS
[0.75 0 0 0.75 720.0005 599.25002] CT
0.149 GC
/Helvetica 59 F
GS
[1 0 0 1 0 0] CT
-121 55 moveto 
1 -1 scale
(Time \(s\)) t 
GR
GR
GS
[0.75 0 0 0.75 0 0.25] CT
0.149 GC
2 setlinecap
10.0 ML
N
241 721 M
1679 721 L
S
GR
GS
[0.75 0 0 0.75 0 0.25] CT
0.149 GC
2 setlinecap
10.0 ML
N
241 30 M
1679 30 L
S
GR
GS
[0.75 0 0 0.75 0 0.25] CT
0.149 GC
2 setlinecap
10.0 ML
N
241 721 M
241 706.62 L
S
GR
GS
[0.75 0 0 0.75 0 0.25] CT
0.149 GC
2 setlinecap
10.0 ML
N
420.773 721 M
420.773 706.62 L
S
GR
GS
[0.75 0 0 0.75 0 0.25] CT
0.149 GC
2 setlinecap
10.0 ML
N
600.546 721 M
600.546 706.62 L
S
GR
GS
[0.75 0 0 0.75 0 0.25] CT
0.149 GC
2 setlinecap
10.0 ML
N
780.32 721 M
780.32 706.62 L
S
GR
GS
[0.75 0 0 0.75 0 0.25] CT
0.149 GC
2 setlinecap
10.0 ML
N
960.093 721 M
960.093 706.62 L
S
GR
GS
[0.75 0 0 0.75 0 0.25] CT
0.149 GC
2 setlinecap
10.0 ML
N
1139.866 721 M
1139.866 706.62 L
S
GR
GS
[0.75 0 0 0.75 0 0.25] CT
0.149 GC
2 setlinecap
10.0 ML
N
1319.639 721 M
1319.639 706.62 L
S
GR
GS
[0.75 0 0 0.75 0 0.25] CT
0.149 GC
2 setlinecap
10.0 ML
N
1499.412 721 M
1499.412 706.62 L
S
GR
GS
[0.75 0 0 0.75 0 0.25] CT
0.149 GC
2 setlinecap
10.0 ML
N
241 30 M
241 44.38 L
S
GR
GS
[0.75 0 0 0.75 0 0.25] CT
0.149 GC
2 setlinecap
10.0 ML
N
420.773 30 M
420.773 44.38 L
S
GR
GS
[0.75 0 0 0.75 0 0.25] CT
0.149 GC
2 setlinecap
10.0 ML
N
600.546 30 M
600.546 44.38 L
S
GR
GS
[0.75 0 0 0.75 0 0.25] CT
0.149 GC
2 setlinecap
10.0 ML
N
780.32 30 M
780.32 44.38 L
S
GR
GS
[0.75 0 0 0.75 0 0.25] CT
0.149 GC
2 setlinecap
10.0 ML
N
960.093 30 M
960.093 44.38 L
S
GR
GS
[0.75 0 0 0.75 0 0.25] CT
0.149 GC
2 setlinecap
10.0 ML
N
1139.866 30 M
1139.866 44.38 L
S
GR
GS
[0.75 0 0 0.75 0 0.25] CT
0.149 GC
2 setlinecap
10.0 ML
N
1319.639 30 M
1319.639 44.38 L
S
GR
GS
[0.75 0 0 0.75 0 0.25] CT
0.149 GC
2 setlinecap
10.0 ML
N
1499.412 30 M
1499.412 44.38 L
S
GR
GS
[0.75 0 0 0.75 180.75 550.99998] CT
0.149 GC
/Helvetica 53 F
GS
[1 0 0 1 0 0] CT
-17 50 moveto 
1 -1 scale
(0) t 
GR
GR
GS
[0.75 0 0 0.75 315.57987 550.99998] CT
0.149 GC
/Helvetica 53 F
GS
[1 0 0 1 0 0] CT
-42.5 50 moveto 
1 -1 scale
(0.5) t 
GR
GR
GS
[0.75 0 0 0.75 450.40974 550.99998] CT
0.149 GC
/Helvetica 53 F
GS
[1 0 0 1 0 0] CT
-17 50 moveto 
1 -1 scale
(1) t 
GR
GR
GS
[0.75 0 0 0.75 585.23964 550.99998] CT
0.149 GC
/Helvetica 53 F
GS
[1 0 0 1 0 0] CT
-42.5 50 moveto 
1 -1 scale
(1.5) t 
GR
GR
GS
[0.75 0 0 0.75 720.06953 550.99998] CT
0.149 GC
/Helvetica 53 F
GS
[1 0 0 1 0 0] CT
-17 50 moveto 
1 -1 scale
(2) t 
GR
GR
GS
[0.75 0 0 0.75 854.89938 550.99998] CT
0.149 GC
/Helvetica 53 F
GS
[1 0 0 1 0 0] CT
-42.5 50 moveto 
1 -1 scale
(2.5) t 
GR
GR
GS
[0.75 0 0 0.75 989.72928 550.99998] CT
0.149 GC
/Helvetica 53 F
GS
[1 0 0 1 0 0] CT
-17 50 moveto 
1 -1 scale
(3) t 
GR
GR
GS
[0.75 0 0 0.75 1124.55917 550.99998] CT
0.149 GC
/Helvetica 53 F
GS
[1 0 0 1 0 0] CT
-42.5 50 moveto 
1 -1 scale
(3.5) t 
GR
GR
GS
[0 -0.75 0.75 0 104 281.87473] CT
0.149 GC
/Helvetica 59 F
GS
[1 0 0 1 0 0] CT
-247 -14 moveto 
1 -1 scale
(Knee angle \(rad\)) t 
GR
GR
GS
[0.75 0 0 0.75 0 0.25] CT
0.149 GC
2 setlinecap
10.0 ML
N
241 721 M
241 30 L
S
GR
GS
[0.75 0 0 0.75 0 0.25] CT
0.149 GC
2 setlinecap
10.0 ML
N
1679 721 M
1679 30 L
S
GR
GS
[0.75 0 0 0.75 0 0.25] CT
0.149 GC
2 setlinecap
10.0 ML
N
241 721 M
255.38 721 L
S
GR
GS
[0.75 0 0 0.75 0 0.25] CT
0.149 GC
2 setlinecap
10.0 ML
N
241 605.833 M
255.38 605.833 L
S
GR
GS
[0.75 0 0 0.75 0 0.25] CT
0.149 GC
2 setlinecap
10.0 ML
N
241 490.667 M
255.38 490.667 L
S
GR
GS
[0.75 0 0 0.75 0 0.25] CT
0.149 GC
2 setlinecap
10.0 ML
N
241 375.5 M
255.38 375.5 L
S
GR
GS
[0.75 0 0 0.75 0 0.25] CT
0.149 GC
2 setlinecap
10.0 ML
N
241 260.333 M
255.38 260.333 L
S
GR
GS
[0.75 0 0 0.75 0 0.25] CT
0.149 GC
2 setlinecap
10.0 ML
N
241 145.167 M
255.38 145.167 L
S
GR
GS
[0.75 0 0 0.75 0 0.25] CT
0.149 GC
2 setlinecap
10.0 ML
N
241 30 M
255.38 30 L
S
GR
GS
[0.75 0 0 0.75 0 0.25] CT
0.149 GC
2 setlinecap
10.0 ML
N
1679 721 M
1664.62 721 L
S
GR
GS
[0.75 0 0 0.75 0 0.25] CT
0.149 GC
2 setlinecap
10.0 ML
N
1679 605.833 M
1664.62 605.833 L
S
GR
GS
[0.75 0 0 0.75 0 0.25] CT
0.149 GC
2 setlinecap
10.0 ML
N
1679 490.667 M
1664.62 490.667 L
S
GR
GS
[0.75 0 0 0.75 0 0.25] CT
0.149 GC
2 setlinecap
10.0 ML
N
1679 375.5 M
1664.62 375.5 L
S
GR
GS
[0.75 0 0 0.75 0 0.25] CT
0.149 GC
2 setlinecap
10.0 ML
N
1679 260.333 M
1664.62 260.333 L
S
GR
GS
[0.75 0 0 0.75 0 0.25] CT
0.149 GC
2 setlinecap
10.0 ML
N
1679 145.167 M
1664.62 145.167 L
S
GR
GS
[0.75 0 0 0.75 0 0.25] CT
0.149 GC
2 setlinecap
10.0 ML
N
1679 30 M
1664.62 30 L
S
GR
GS
[0.75 0 0 0.75 170.75 541] CT
0.149 GC
/Helvetica 53 F
GS
[1 0 0 1 0 0] CT
-34 18.5 moveto 
1 -1 scale
(0) t 
GR
GR
GS
[0.75 0 0 0.75 170.75 454.62498] CT
0.149 GC
/Helvetica 53 F
GS
[1 0 0 1 0 0] CT
-85 18.5 moveto 
1 -1 scale
(0.2) t 
GR
GR
GS
[0.75 0 0 0.75 170.75 368.24999] CT
0.149 GC
/Helvetica 53 F
GS
[1 0 0 1 0 0] CT
-85 18.5 moveto 
1 -1 scale
(0.4) t 
GR
GR
GS
[0.75 0 0 0.75 170.75 281.875] CT
0.149 GC
/Helvetica 53 F
GS
[1 0 0 1 0 0] CT
-85 18.5 moveto 
1 -1 scale
(0.6) t 
GR
GR
GS
[0.75 0 0 0.75 170.75 195.49998] CT
0.149 GC
/Helvetica 53 F
GS
[1 0 0 1 0 0] CT
-85 18.5 moveto 
1 -1 scale
(0.8) t 
GR
GR
GS
[0.75 0 0 0.75 170.75 109.125] CT
0.149 GC
/Helvetica 53 F
GS
[1 0 0 1 0 0] CT
-34 18.5 moveto 
1 -1 scale
(1) t 
GR
GR
GS
[0.75 0 0 0.75 170.75 22.74998] CT
0.149 GC
/Helvetica 53 F
GS
[1 0 0 1 0 0] CT
-85 18.5 moveto 
1 -1 scale
(1.2) t 
GR
GR
GS
[0.75 0 0 0.75 0 0.25] CT
0 0 1 RC
2 LJ
6.667 LW
N
241 558.666 M
242.213 562.385 L
243.381 563.555 L
244.504 564.469 L
246.397 565.719 L
248.011 566.722 L
249.942 567.594 L
251.742 568.385 L
253.493 569.023 L
255.155 569.615 L
256.954 570.185 L
259.066 570.745 L
260.594 571.218 L
262.392 571.629 L
264.1 571.982 L
266.077 572.377 L
267.785 572.726 L
269.583 573.049 L
271.29 573.311 L
273.133 573.51 L
274.976 573.645 L
276.773 573.751 L
278.616 573.857 L
280.279 573.981 L
282.347 574.146 L
283.921 574.296 L
285.811 574.502 L
287.695 574.769 L
289.358 575.058 L
291.11 575.383 L
292.909 575.696 L
294.932 576.054 L
297.178 576.467 L
298.436 576.626 L
300.144 576.873 L
302.031 577.103 L
303.739 577.28 L
305.537 577.467 L
307.334 577.713 L
309.134 578.024 L
310.976 578.349 L
312.773 578.673 L
314.66 578.993 L
316.323 579.278 L
318.345 579.57 L
319.919 579.861 L
321.716 580.146 L
323.738 580.407 L
325.447 580.709 L
327.155 581.01 L
S
GR
GS
[0.75 0 0 0.75 0 0.25] CT
0 0 1 RC
2 LJ
6.667 LW
N
327.155 581.01 M
328.998 581.328 L
330.84 581.632 L
332.549 581.97 L
334.436 582.326 L
336.144 582.697 L
337.941 583.138 L
339.74 583.657 L
341.537 584.284 L
343.334 584.969 L
345.133 585.718 L
347.02 586.541 L
348.817 587.473 L
350.616 588.586 L
352.234 589.723 L
354.301 591.104 L
356.054 592.689 L
357.626 594.544 L
359.694 596.744 L
361.311 599.325 L
363.2 602.364 L
364.817 605.884 L
366.794 609.753 L
368.413 613.717 L
370.211 618.1 L
372.053 622.89 L
373.807 627.359 L
375.65 632.14 L
377.402 636.875 L
379.334 641.7 L
380.997 645.898 L
382.886 650.295 L
384.637 653.972 L
387.244 657.487 L
388.457 661.115 L
390.12 663.542 L
391.828 666.153 L
393.626 668.498 L
395.694 670.565 L
397.311 672.437 L
399.109 673.943 L
400.907 675.209 L
402.704 676.209 L
404.413 677.099 L
406.21 677.885 L
408.009 678.598 L
409.806 679.292 L
411.694 680.036 L
413.447 680.853 L
415.288 681.787 L
S
GR
GS
[0.75 0 0 0.75 0 0.25] CT
0 0 1 RC
2 LJ
6.667 LW
N
415.288 681.787 M
416.996 682.721 L
418.794 683.781 L
420.637 684.877 L
422.389 686.001 L
424.187 687.111 L
426.12 688.18 L
427.964 689.231 L
429.632 690.115 L
431.606 690.998 L
433.223 691.764 L
434.975 692.4 L
436.727 692.983 L
438.704 693.498 L
440.413 693.986 L
442.166 694.419 L
443.963 694.827 L
445.671 695.178 L
447.603 695.499 L
449.311 695.737 L
451.153 695.911 L
452.907 696.042 L
454.794 696.232 L
456.592 696.726 L
458.254 697.08 L
460.187 697.243 L
461.894 697.309 L
463.872 697.325 L
465.535 697.36 L
467.288 697.627 L
469.265 697.784 L
470.885 697.817 L
472.771 697.819 L
474.479 697.826 L
476.457 697.835 L
478.614 697.848 L
479.872 697.855 L
481.67 697.868 L
483.469 697.89 L
485.265 697.925 L
487.197 697.974 L
488.951 698.042 L
490.704 698.135 L
492.592 698.259 L
494.299 698.405 L
496.186 698.557 L
497.85 698.674 L
499.691 698.795 L
501.535 698.921 L
503.377 699.067 L
S
GR
GS
[0.75 0 0 0.75 0 0.25] CT
0 0 1 RC
2 LJ
6.667 LW
N
503.377 699.067 M
505.087 699.255 L
506.884 699.458 L
508.772 699.652 L
510.569 699.836 L
512.457 700.072 L
514.075 700.304 L
515.962 700.562 L
517.669 700.781 L
519.467 701.033 L
521.265 701.324 L
523.107 701.629 L
524.952 701.916 L
526.614 702.269 L
528.367 702.658 L
530.344 703.104 L
533.04 703.636 L
534.075 703.839 L
535.691 704.164 L
537.534 704.575 L
539.376 705.021 L
541.175 705.493 L
542.838 706.021 L
544.771 706.6 L
546.479 707.112 L
548.277 707.684 L
550.073 708.229 L
551.781 708.815 L
553.624 709.353 L
555.377 709.716 L
557.309 709.969 L
558.972 710.159 L
560.951 710.371 L
562.613 710.605 L
564.366 710.862 L
566.253 711.067 L
568.905 711.244 L
570.028 711.487 L
571.826 710.466 L
573.624 707.761 L
575.242 703.95 L
577.131 699.677 L
578.838 695.719 L
580.591 691.294 L
582.568 686.533 L
584.231 681.469 L
586.119 676.127 L
587.827 670.49 L
589.669 664.51 L
591.333 658.227 L
S
GR
GS
[0.75 0 0 0.75 0 0.25] CT
0 0 1 RC
2 LJ
6.667 LW
N
591.333 658.227 M
593.264 651.693 L
595.018 644.906 L
596.815 637.864 L
598.613 630.603 L
600.41 623.139 L
602.298 615.41 L
604.005 607.359 L
605.893 599.012 L
607.691 589.584 L
609.579 581.294 L
611.197 573.289 L
613.085 563.683 L
614.748 554.755 L
616.545 545.142 L
618.344 535.302 L
620.185 524.694 L
622.028 514.948 L
623.78 504.015 L
625.623 493.404 L
627.331 483.209 L
629.129 472.417 L
631.106 461.514 L
632.726 450.491 L
634.523 439.431 L
636.32 428.311 L
638.207 417.119 L
639.915 405.938 L
641.803 394.221 L
643.6 383.612 L
645.311 372.732 L
647.11 363.422 L
648.994 356.718 L
650.704 350.532 L
652.501 344.682 L
654.388 338.961 L
656.095 333.319 L
657.983 327.493 L
660.274 320.508 L
661.488 317.123 L
663.331 312.062 L
665.084 307.212 L
667.105 302.526 L
668.679 297.984 L
670.611 293.598 L
672.275 289.332 L
674.117 284.986 L
675.87 281.179 L
677.667 277.332 L
679.69 273.668 L
S
GR
GS
[0.75 0 0 0.75 0 0.25] CT
0 0 1 RC
2 LJ
6.667 LW
N
679.69 273.668 M
681.307 270.179 L
683.106 266.871 L
684.992 263.777 L
686.701 260.829 L
688.454 257.978 L
690.297 255.085 L
692.005 252.517 L
693.892 249.878 L
695.69 247.292 L
697.487 244.66 L
699.286 242.355 L
700.993 239.989 L
702.971 237.688 L
704.905 235.438 L
706.791 233.161 L
708.502 231.192 L
710.388 229.184 L
712.275 227.221 L
713.924 225.269 L
716.006 223.337 L
717.578 221.442 L
719.468 219.596 L
721.263 217.814 L
722.972 216.091 L
724.679 214.563 L
726.57 213.009 L
728.277 211.628 L
730.073 210.306 L
731.872 209.095 L
733.668 207.775 L
735.646 206.549 L
737.266 205.339 L
739.286 204.244 L
740.859 203.076 L
742.746 202.002 L
744.366 201.022 L
746.252 200.017 L
748.143 199.059 L
750.927 198.14 L
752.725 196.809 L
754.566 195.923 L
756.051 195.057 L
757.757 194.282 L
759.153 193.542 L
760.634 192.959 L
762.478 192.189 L
764.23 191.416 L
766.072 190.676 L
767.959 189.954 L
S
GR
GS
[0.75 0 0 0.75 0 0.25] CT
0 0 1 RC
2 LJ
6.667 LW
N
767.959 189.954 M
769.675 189.254 L
771.556 188.51 L
773.263 187.867 L
775.242 187.187 L
776.769 186.569 L
778.658 185.919 L
780.367 185.317 L
782.207 184.734 L
784.139 184.261 L
785.847 184.912 L
787.826 186.513 L
789.442 188.51 L
791.288 190.676 L
793.353 192.758 L
794.882 194.863 L
796.544 197.345 L
798.387 200.198 L
800.363 203.354 L
801.981 206.686 L
803.828 210.076 L
805.533 213.459 L
807.465 216.855 L
809.262 220.261 L
811.061 223.664 L
812.857 227.071 L
814.478 230.355 L
816.544 234.087 L
818.163 237.748 L
820.049 241.308 L
821.758 245.124 L
823.689 249.167 L
825.398 252.809 L
827.15 256.799 L
829.308 260.783 L
830.747 264.426 L
832.633 268.147 L
834.25 272.149 L
836.321 276.426 L
837.982 280.401 L
840.768 284.948 L
842.34 291.429 L
843.823 295.976 L
845.261 299.251 L
847.017 303.84 L
848.859 308.159 L
850.521 312.764 L
852.364 317.463 L
854.161 322.452 L
856.048 327.184 L
S
GR
GS
[0.75 0 0 0.75 0 0.25] CT
0 0 1 RC
2 LJ
6.667 LW
N
856.048 327.184 M
857.765 331.707 L
859.555 336.503 L
861.532 341.593 L
863.06 346.23 L
865.127 351.139 L
866.746 356.068 L
868.592 360.98 L
870.253 365.862 L
872.228 371.195 L
873.846 375.592 L
875.643 380.556 L
877.442 385.604 L
879.292 390.747 L
881.173 396.264 L
882.925 401.815 L
884.858 407.19 L
886.475 412.473 L
888.409 418.029 L
890.343 423.322 L
891.869 428.403 L
893.756 433.725 L
895.464 439.003 L
897.486 444.541 L
899.06 449.587 L
901.313 454.967 L
902.835 460.669 L
904.542 465.887 L
906.253 471.71 L
908.048 477.244 L
909.801 482.835 L
911.554 488.23 L
913.534 493.588 L
915.239 499.075 L
917.126 504.638 L
918.924 510.561 L
920.722 516.185 L
922.565 521.757 L
924.319 527.304 L
926.385 532.88 L
928.003 538.208 L
929.846 543.38 L
933.08 547.909 L
935.06 555.153 L
937.35 558.613 L
938.969 561.744 L
940.724 564.43 L
942.519 566.987 L
944.544 569.785 L
946.297 571.77 L
S
GR
GS
[0.75 0 0 0.75 0 0.25] CT
0 0 1 RC
2 LJ
6.667 LW
N
946.297 571.77 M
949.442 573.985 L
950.744 577.748 L
951.823 578.693 L
952.946 579.623 L
954.654 580.981 L
956.456 582.167 L
958.295 583.198 L
960.049 584.106 L
961.936 584.909 L
963.553 585.627 L
965.439 586.268 L
967.15 586.853 L
969.215 587.407 L
970.833 587.908 L
972.81 588.354 L
974.43 588.725 L
976.137 589.063 L
978.205 589.397 L
979.867 589.704 L
981.71 589.986 L
983.328 590.196 L
985.395 590.362 L
987.013 590.461 L
988.811 590.525 L
990.698 590.569 L
992.406 590.609 L
994.249 590.66 L
995.956 590.715 L
997.844 590.786 L
999.551 590.856 L
1001.35 590.934 L
1003.146 591 L
1005.125 591.059 L
1006.877 591.097 L
1008.629 591.115 L
1010.518 591.121 L
1012.137 591.121 L
1014.025 591.121 L
1015.911 591.121 L
1017.619 591.121 L
1019.372 591.121 L
1021.305 591.119 L
1023.641 591.117 L
1024.72 591.115 L
1026.608 591.108 L
1028.36 591.101 L
1030.158 591.095 L
1032.001 591.088 L
1033.798 591.084 L
S
GR
GS
[0.75 0 0 0.75 0 0.25] CT
0 0 1 RC
2 LJ
6.667 LW
N
1033.798 591.084 M
1035.595 591.084 L
1037.304 591.084 L
1039.191 591.088 L
1040.854 591.095 L
1042.922 591.117 L
1044.539 591.154 L
1046.428 591.214 L
1048.091 591.296 L
1050.113 591.402 L
1051.822 591.534 L
1053.528 591.702 L
1055.416 591.892 L
1057.214 592.08 L
1059.101 592.254 L
1060.629 592.422 L
1062.607 592.627 L
1064.315 592.864 L
1066.113 593.122 L
1068 593.332 L
1069.978 593.524 L
1072.63 593.787 L
1073.798 593.91 L
1075.191 594.027 L
1076.901 594.149 L
1078.791 594.264 L
1080.589 594.381 L
1082.295 594.529 L
1084.136 594.719 L
1085.799 594.895 L
1087.82 595.028 L
1089.484 595.114 L
1091.416 595.191 L
1093.034 595.293 L
1094.922 595.461 L
1096.675 595.706 L
1098.518 595.999 L
1100.225 596.313 L
1102.113 596.699 L
1103.91 597.163 L
1105.708 597.735 L
1107.595 598.314 L
1109.258 598.998 L
1111.192 599.842 L
1114.157 600.635 L
1115.326 602.081 L
1116.629 602.772 L
1118.202 604.137 L
1120.089 605.815 L
1121.798 607.79 L
S
GR
GS
[0.75 0 0 0.75 0 0.25] CT
0 0 1 RC
2 LJ
6.667 LW
N
1121.798 607.79 M
1123.865 610.031 L
1125.393 612.52 L
1127.282 615.388 L
1129.034 618.191 L
1130.787 621.359 L
1132.63 624.749 L
1134.427 628.34 L
1136.314 632.12 L
1138.112 636.062 L
1139.909 640.163 L
1141.617 644.414 L
1143.686 649.445 L
1145.213 653.124 L
1147.01 657.213 L
1148.809 660.939 L
1150.697 664.28 L
1152.494 667.257 L
1154.201 669.865 L
1156.091 672.013 L
1157.798 674.054 L
1159.775 675.816 L
1161.393 677.194 L
1163.19 678.468 L
1164.988 679.572 L
1166.785 680.544 L
1168.628 681.337 L
1170.38 682.114 L
1172.224 682.741 L
1173.976 683.36 L
1175.865 684.018 L
1177.617 684.508 L
1179.414 685.082 L
1181.213 685.698 L
1183.01 686.319 L
1184.808 686.979 L
1186.875 687.823 L
1188.493 688.41 L
1190.202 689.189 L
1192.089 690.408 L
1193.708 691.241 L
1195.505 692.067 L
1197.392 692.743 L
1199.19 693.306 L
1201.078 693.805 L
1202.786 694.227 L
1205.167 694.706 L
1206.381 694.927 L
1208.269 695.205 L
1209.931 695.386 L
S
GR
GS
[0.75 0 0 0.75 0 0.25] CT
0 0 1 RC
2 LJ
6.667 LW
N
1209.931 695.386 M
1211.683 695.538 L
1213.482 695.62 L
1215.323 695.64 L
1217.166 695.631 L
1218.92 695.629 L
1220.807 695.631 L
1222.785 695.631 L
1224.401 695.633 L
1226.111 695.635 L
1227.909 695.64 L
1229.706 695.653 L
1231.594 695.677 L
1233.347 695.713 L
1235.144 695.755 L
1237.032 695.803 L
1238.696 695.863 L
1240.583 695.94 L
1242.335 696.026 L
1244.089 696.15 L
1245.887 696.32 L
1247.684 696.523 L
1249.482 696.715 L
1251.324 696.87 L
1253.121 697.011 L
1254.874 697.161 L
1256.897 697.345 L
1258.739 697.479 L
1260.311 697.616 L
1262.11 697.733 L
1263.908 697.861 L
1265.707 698.016 L
1267.458 698.208 L
1269.391 698.42 L
1271.144 698.621 L
1272.897 698.793 L
1274.738 698.924 L
1276.492 699.076 L
1278.2 699.25 L
1280.042 699.445 L
1281.885 699.604 L
1283.638 699.767 L
1285.525 699.944 L
1287.189 700.147 L
1289.076 700.374 L
1290.829 700.529 L
1292.627 700.653 L
1295.867 700.807 L
1297.169 701.024 L
1298.472 701.165 L
S
GR
GS
[0.75 0 0 0.75 0 0.25] CT
0 0 1 RC
2 LJ
6.667 LW
N
1298.472 701.165 M
1299.819 701.306 L
1301.616 701.456 L
1303.414 701.589 L
1305.302 701.75 L
1307.01 701.945 L
1308.807 702.207 L
1310.604 702.51 L
1312.401 702.834 L
1314.289 703.194 L
1315.997 703.565 L
1317.795 703.914 L
1319.593 704.352 L
1321.39 704.853 L
1323.188 705.33 L
1324.986 705.862 L
1326.739 706.421 L
1328.626 706.96 L
1330.696 707.485 L
1332.222 708.037 L
1334.245 708.682 L
1337.885 709.163 L
1342.11 710.424 L
1344.446 711.244 L
1347.637 709.537 L
1348.985 702.207 L
1351.73 697.055 L
1354.02 692.016 L
1356.267 688.282 L
1358.244 685.499 L
1361.84 680.524 L
1364.042 674.491 L
1366.514 669.569 L
1368.131 662.981 L
1370.11 658.485 L
1371.728 654.937 L
1373.571 650.851 L
1375.322 646.576 L
1377.255 642.131 L
1378.962 637.546 L
1380.761 632.849 L
1382.513 628.053 L
1384.356 623.161 L
1386.827 616.592 L
1388.042 613.213 L
1389.75 607.659 L
1391.548 602.205 L
1393.435 596.611 L
1395.097 590.896 L
1396.94 585.075 L
S
GR
GS
[0.75 0 0 0.75 0 0.25] CT
0 0 1 RC
2 LJ
6.667 LW
N
1396.94 585.075 M
1398.693 579.431 L
1400.445 573.331 L
1402.288 567.062 L
1404.175 560.654 L
1406.243 553.148 L
1407.772 547.516 L
1409.569 540.79 L
1411.277 533.898 L
1413.164 526.491 L
1414.965 519.679 L
1416.762 512.413 L
1418.558 505.016 L
1420.266 497.461 L
1422.109 489.798 L
1423.997 482.056 L
1425.749 474.245 L
1427.457 466.368 L
1429.254 457.986 L
1431.098 450.336 L
1432.849 442.267 L
1434.648 434.149 L
1436.449 425.976 L
1438.289 417.735 L
1440.175 409.48 L
1442.153 401.226 L
1443.681 392.936 L
1445.569 384.173 L
1447.232 376.243 L
1449.254 367.145 L
1450.873 359.765 L
1452.67 351.669 L
1454.514 343.7 L
1456.22 335.905 L
1458.154 328.251 L
1459.86 320.674 L
1461.659 313.15 L
1463.456 305.715 L
1465.254 298.41 L
1467.052 291.275 L
1468.759 284.471 L
1470.647 279.112 L
1472.355 274.945 L
1474.333 271.367 L
1477.658 267.494 L
1478.827 263.022 L
1480.849 259.751 L
1482.378 256.58 L
1484.266 253.537 L
1486.018 250.64 L
S
GR
GS
[0.75 0 0 0.75 0 0.25] CT
0 0 1 RC
2 LJ
6.667 LW
N
1486.018 250.64 M
1487.773 247.893 L
1489.569 245.281 L
1491.456 242.779 L
1493.704 240.38 L
1495.5 238.075 L
1497.213 235.845 L
1498.875 233.702 L
1500.669 231.647 L
1502.469 229.657 L
1504.223 227.716 L
1506.288 225.81 L
1507.862 223.918 L
1509.704 222.049 L
1511.637 220.309 L
1513.433 218.527 L
1515.055 216.802 L
1516.987 215.064 L
1518.829 213.479 L
1520.445 211.962 L
1522.377 210.5 L
1524.04 209.173 L
1525.976 207.815 L
1527.638 206.503 L
1529.614 205.222 L
1531.231 203.988 L
1533.209 202.778 L
1534.918 201.616 L
1536.628 200.503 L
1538.469 199.522 L
1540.222 200.172 L
1542.154 202.38 L
1543.998 205.352 L
1545.748 208.424 L
1547.728 211.337 L
1549.389 214.179 L
1551.277 217.253 L
1552.985 220.353 L
1554.783 223.476 L
1556.58 227.086 L
1558.379 230.505 L
1559.996 234.277 L
1562.019 238.249 L
1563.725 242.394 L
1565.524 246.681 L
1568.581 251.075 L
1570.153 258.486 L
1571.952 263.267 L
1573.704 267.646 L
1575.502 272.343 L
S
GR
GS
[0.75 0 0 0.75 0 0.25] CT
0 0 1 RC
2 LJ
6.667 LW
N
1575.502 272.343 M
1577.389 277.124 L
1579.097 282.104 L
1580.94 288.119 L
1582.693 295.031 L
1584.985 302.33 L
1586.692 309.986 L
1588.265 317.578 L
1589.882 324.064 L
1591.684 331.26 L
1593.614 338.429 L
1595.322 345.586 L
1597.166 352.844 L
1598.916 360.211 L
1600.714 367.552 L
1602.513 374.759 L
1604.446 382.221 L
1606.063 388.868 L
1607.815 395.773 L
1609.793 402.604 L
1612.578 412.186 L
1614.289 418.503 L
1615.906 424.181 L
1617.702 429.967 L
1619.5 435.644 L
1621.521 441.532 L
1623.455 447.381 L
1624.94 452.664 L
1626.692 457.687 L
1628.444 463.376 L
1630.332 469.782 L
1632.265 475.418 L
1633.972 481.117 L
1635.863 487.457 L
1637.568 493.513 L
1639.367 499.245 L
1641.074 505.148 L
1642.872 510.978 L
1644.669 516.671 L
1646.559 522.448 L
1648.264 527.516 L
1650.333 532.75 L
1652.31 538.166 L
1654.017 543.104 L
1655.904 546.991 L
1659.278 551.478 L
1661.028 556.948 L
1662.917 560.073 L
1664.669 562.738 L
1666.511 565.534 L
S
GR
GS
[0.75 0 0 0.75 0 0.25] CT
0 0 1 RC
2 LJ
6.667 LW
N
1666.511 565.534 M
1668.222 567.948 L
1670.109 570.377 L
1672.039 572.797 L
1673.792 574.988 L
1675.696 577.059 L
1679 579.077 L
S
GR
GS
[0.75 0 0 0.75 0 0.25] CT
1 0 0 RC
[24 24] 0 setdash
2 LJ
6.667 LW
N
241 558.666 M
242.213 558.666 L
243.381 558.666 L
244.504 558.666 L
246.397 558.666 L
248.011 558.666 L
249.942 558.666 L
251.742 558.666 L
253.493 558.666 L
255.155 558.666 L
256.954 558.666 L
259.066 558.666 L
260.594 558.666 L
262.392 558.666 L
264.1 558.666 L
266.077 558.666 L
267.785 558.666 L
269.583 558.666 L
271.29 558.666 L
273.133 558.666 L
274.976 558.666 L
276.773 558.666 L
278.616 558.666 L
280.279 558.666 L
282.347 558.666 L
283.921 558.666 L
285.811 558.666 L
287.695 558.666 L
289.358 558.666 L
291.11 558.666 L
292.909 558.666 L
294.932 558.666 L
297.178 558.666 L
298.436 558.666 L
300.144 558.666 L
302.031 558.666 L
303.739 558.666 L
305.537 558.666 L
307.334 558.666 L
309.134 558.666 L
310.976 558.666 L
312.773 558.666 L
314.66 558.666 L
316.323 558.666 L
318.345 558.666 L
319.919 558.666 L
321.716 558.666 L
323.738 558.666 L
325.447 558.666 L
327.155 559.694 L
328.998 561.344 L
330.84 562.752 L
332.549 564.063 L
334.436 565.277 L
336.144 566.394 L
337.941 567.665 L
339.74 568.945 L
341.537 570.378 L
343.334 571.971 L
345.133 573.794 L
347.02 575.985 L
348.817 578.577 L
350.616 581.886 L
352.234 585.568 L
354.301 590.945 L
356.054 597.925 L
357.626 607.001 L
359.694 620.06 L
361.311 636.603 L
363.2 656.085 L
364.817 674.101 L
366.794 687.799 L
368.413 695.538 L
370.211 700.574 L
372.053 704.743 L
373.807 707.805 L
375.65 711.115 L
377.402 714.146 L
379.334 716.795 L
380.997 718.461 L
382.886 719.675 L
384.637 720.248 L
387.244 720.482 L
388.457 720.53 L
390.12 720.53 L
391.828 720.531 L
393.626 720.531 L
395.694 720.531 L
397.311 720.531 L
399.109 720.531 L
400.907 720.531 L
402.704 720.532 L
404.413 720.532 L
406.21 720.532 L
408.009 720.532 L
409.806 720.532 L
411.694 720.532 L
413.447 720.532 L
415.288 720.532 L
416.996 720.532 L
418.794 720.532 L
420.637 720.532 L
422.389 720.532 L
424.187 720.532 L
426.12 720.532 L
427.964 720.532 L
429.632 720.532 L
431.606 720.532 L
433.223 720.532 L
434.975 720.532 L
436.727 720.532 L
438.704 720.532 L
440.413 720.532 L
442.166 720.532 L
443.963 720.532 L
445.671 720.532 L
447.603 720.532 L
449.311 720.532 L
451.153 720.532 L
452.907 720.532 L
454.794 720.532 L
456.592 720.532 L
458.254 720.532 L
460.187 720.532 L
461.894 720.532 L
463.872 720.532 L
465.535 720.532 L
467.288 720.532 L
469.265 720.532 L
470.885 720.532 L
472.771 720.532 L
474.479 720.532 L
476.457 720.532 L
478.614 720.532 L
479.872 720.532 L
481.67 720.532 L
483.469 720.532 L
485.265 720.532 L
487.197 720.532 L
488.951 720.532 L
490.704 720.532 L
492.592 720.532 L
494.299 720.532 L
496.186 720.532 L
497.85 720.532 L
499.691 720.532 L
501.535 720.532 L
503.377 720.532 L
505.087 720.532 L
506.884 720.532 L
508.772 720.532 L
510.569 720.532 L
512.457 720.532 L
514.075 720.532 L
515.962 720.532 L
517.669 720.532 L
519.467 720.532 L
521.265 720.532 L
523.107 720.532 L
524.952 720.532 L
526.614 720.532 L
528.367 720.532 L
530.344 720.532 L
533.04 720.532 L
534.075 720.532 L
535.691 720.532 L
537.534 720.532 L
539.376 720.532 L
541.175 720.532 L
542.838 720.532 L
544.771 720.532 L
546.479 720.532 L
548.277 720.532 L
550.073 720.532 L
551.781 720.535 L
553.624 720.535 L
555.377 720.535 L
557.309 720.535 L
558.972 720.535 L
560.951 720.535 L
562.613 720.535 L
564.366 720.535 L
566.253 720.535 L
568.905 713.204 L
570.028 705.346 L
571.826 695.441 L
573.624 682.965 L
575.242 669.172 L
577.131 655.263 L
578.838 642.723 L
580.591 630.102 L
582.568 616.281 L
584.231 602.029 L
586.119 586.94 L
587.827 571.977 L
589.669 562.718 L
591.333 551.906 L
593.264 534.613 L
595.018 518.95 L
596.815 505.698 L
598.613 489.887 L
600.41 470.898 L
602.298 454.596 L
604.005 440.46 L
605.893 427.66 L
607.691 413.903 L
609.579 398.286 L
611.197 381.84 L
613.085 365.249 L
614.748 349.578 L
616.545 334.668 L
618.344 318.778 L
620.185 302.352 L
622.028 287.095 L
623.78 271.973 L
625.623 256.837 L
627.331 242.375 L
629.129 229.03 L
631.106 215.952 L
632.726 203.701 L
634.523 191.891 L
636.32 180.53 L
638.207 169.817 L
639.915 159.504 L
641.803 149.556 L
643.6 145.167 L
645.311 145.167 L
647.11 145.167 L
648.994 145.167 L
650.704 145.167 L
652.501 145.167 L
654.388 145.167 L
656.095 145.167 L
657.983 145.167 L
660.274 145.167 L
661.488 145.167 L
663.331 145.167 L
665.084 145.167 L
667.105 145.167 L
668.679 145.167 L
670.611 145.167 L
672.275 145.167 L
674.117 145.167 L
675.87 145.167 L
677.667 145.167 L
679.69 145.167 L
681.307 145.167 L
683.106 145.167 L
684.992 145.167 L
686.701 145.167 L
688.454 145.167 L
690.297 145.167 L
692.005 145.167 L
693.892 145.167 L
695.69 145.167 L
697.487 145.167 L
699.286 145.167 L
700.993 145.167 L
702.971 145.167 L
704.905 145.167 L
706.791 145.167 L
708.502 145.167 L
710.388 145.167 L
712.275 145.167 L
713.924 145.167 L
716.006 145.167 L
717.578 145.167 L
719.468 145.167 L
721.263 145.167 L
722.972 145.167 L
724.679 145.167 L
726.57 145.167 L
728.277 145.167 L
730.073 145.167 L
731.872 145.167 L
733.668 145.167 L
735.646 145.167 L
737.266 145.167 L
739.286 145.167 L
740.859 145.167 L
742.746 145.167 L
744.366 145.167 L
746.252 145.167 L
748.143 145.167 L
750.927 145.167 L
752.725 145.167 L
754.566 145.167 L
756.051 145.167 L
757.757 145.167 L
759.153 145.167 L
760.634 145.167 L
762.478 145.167 L
764.23 145.167 L
766.072 145.167 L
767.959 145.167 L
769.675 145.167 L
771.556 145.167 L
773.263 145.167 L
775.242 145.167 L
776.769 145.167 L
778.658 145.167 L
780.367 145.167 L
782.207 146.118 L
784.139 147.138 L
785.847 150.269 L
787.826 153.145 L
789.442 155.794 L
791.288 160.03 L
793.353 164.067 L
794.882 169.364 L
796.544 174.188 L
798.387 179.049 L
800.363 183.884 L
801.981 187.453 L
803.828 190.702 L
805.533 194.417 L
807.465 197.693 L
809.262 203.373 L
811.061 207.483 L
812.857 216.033 L
814.478 221.059 L
816.544 228.266 L
818.163 231.721 L
820.049 235.661 L
821.758 239.025 L
823.689 243.809 L
825.398 248.179 L
827.15 253.391 L
829.308 260.061 L
830.747 266.57 L
832.633 273.191 L
834.25 281.852 L
836.321 289.742 L
837.982 295.494 L
840.768 302.211 L
842.34 311.512 L
843.823 317.876 L
845.261 317.876 L
847.017 328.221 L
848.859 333.369 L
850.521 339.065 L
852.364 344.456 L
854.161 350.289 L
856.048 356.412 L
857.765 362.509 L
859.555 368.156 L
861.532 373.426 L
863.06 378.021 L
865.127 382.006 L
866.746 386.791 L
868.592 391.634 L
870.253 399.415 L
872.228 406.121 L
873.846 413.892 L
875.643 420.36 L
877.442 427.271 L
879.292 434.977 L
881.173 441.462 L
882.925 449.433 L
884.858 454.246 L
886.475 459.573 L
888.409 464.253 L
890.343 468.995 L
891.869 474.275 L
893.756 480.673 L
895.464 487.254 L
897.486 494.028 L
899.06 500.559 L
901.313 507.363 L
902.835 513.543 L
904.542 518.828 L
906.253 524.609 L
908.048 527.716 L
909.801 532.486 L
911.554 544.585 L
913.534 549.952 L
915.239 555.434 L
917.126 561.22 L
918.924 567.127 L
920.722 573.277 L
922.565 579.013 L
924.319 584.752 L
926.385 589.586 L
928.003 592.915 L
929.846 595.503 L
933.08 598.879 L
935.06 606.462 L
937.35 610.066 L
938.969 614.115 L
940.724 617.495 L
942.519 621.694 L
944.544 625.655 L
946.297 626.967 L
949.442 573.985 L
950.744 573.985 L
951.823 573.985 L
952.946 573.985 L
954.654 573.985 L
956.456 573.985 L
958.295 573.985 L
960.049 573.985 L
961.936 573.985 L
963.553 573.985 L
965.439 573.985 L
967.15 573.985 L
969.215 573.985 L
970.833 573.985 L
972.81 573.985 L
974.43 573.985 L
976.137 573.985 L
978.205 573.985 L
979.867 573.985 L
981.71 573.985 L
983.328 573.985 L
985.395 573.985 L
987.013 573.985 L
988.811 573.985 L
990.698 573.985 L
992.406 573.985 L
994.249 573.985 L
995.956 573.985 L
997.844 573.985 L
999.551 573.985 L
1001.35 573.985 L
1003.146 573.985 L
1005.125 573.985 L
1006.877 573.985 L
1008.629 573.985 L
1010.518 573.985 L
1012.137 573.985 L
1014.025 573.985 L
1015.911 573.985 L
1017.619 573.985 L
1019.372 573.985 L
1021.305 573.985 L
1023.641 573.985 L
1024.72 573.985 L
1026.608 573.985 L
1028.36 573.985 L
1030.158 573.985 L
1032.001 573.985 L
1033.798 573.985 L
1035.595 573.985 L
1037.304 573.985 L
1039.191 573.985 L
1040.854 573.985 L
1042.922 573.985 L
1044.539 573.985 L
1046.428 573.985 L
1048.091 573.985 L
1050.113 573.985 L
1051.822 573.985 L
1053.528 573.985 L
1055.416 573.985 L
1057.214 573.985 L
1059.101 573.985 L
1060.629 573.985 L
1062.607 573.985 L
1064.315 573.985 L
1066.113 573.985 L
1068 573.985 L
1069.978 573.985 L
1072.63 573.985 L
1073.798 573.985 L
1075.191 573.985 L
1076.901 573.985 L
1078.791 573.985 L
1080.589 573.985 L
1082.295 573.985 L
1084.136 573.985 L
1085.799 573.985 L
1087.82 574.896 L
1089.484 576.583 L
1091.416 578.229 L
1093.034 579.657 L
1094.922 581.145 L
1096.675 582.623 L
1098.518 584.131 L
1100.225 585.639 L
1102.113 587.341 L
1103.91 589.215 L
1105.708 591.357 L
1107.595 593.799 L
1109.258 596.687 L
1111.192 600.587 L
1114.157 604.599 L
1115.326 612.855 L
1116.629 617.308 L
1118.202 626.467 L
1120.089 638.107 L
1121.798 651.634 L
1123.865 665.05 L
1125.393 675.734 L
1127.282 682.961 L
1129.034 686.671 L
1130.787 689.188 L
1132.63 691.293 L
1134.427 693.499 L
1136.314 696.215 L
1138.112 699.409 L
1139.909 703.072 L
1141.617 706.581 L
1143.686 710.511 L
1145.213 712.945 L
1147.01 715.257 L
1148.809 716.997 L
1150.697 718.212 L
1152.494 719.035 L
1154.201 719.586 L
1156.091 719.916 L
1157.798 720.153 L
1159.775 720.307 L
1161.393 720.402 L
1163.19 720.466 L
1164.988 720.501 L
1166.785 720.519 L
1168.628 720.527 L
1170.38 720.531 L
1172.224 720.532 L
1173.976 720.532 L
1175.865 720.532 L
1177.617 720.532 L
1179.414 720.532 L
1181.213 720.532 L
1183.01 720.532 L
1184.808 720.532 L
1186.875 720.532 L
1188.493 720.532 L
1190.202 720.532 L
1192.089 720.532 L
1193.708 720.532 L
1195.505 720.532 L
1197.392 720.532 L
1199.19 720.532 L
1201.078 720.532 L
1202.786 720.532 L
1205.167 720.532 L
1206.381 720.532 L
1208.269 720.532 L
1209.931 720.532 L
1211.683 720.532 L
1213.482 720.532 L
1215.323 720.532 L
1217.166 720.532 L
1218.92 720.532 L
1220.807 720.532 L
1222.785 720.532 L
1224.401 720.532 L
1226.111 720.532 L
1227.909 720.532 L
1229.706 720.532 L
1231.594 720.532 L
1233.347 720.532 L
1235.144 720.532 L
1237.032 720.532 L
1238.696 720.532 L
1240.583 720.532 L
1242.335 720.532 L
1244.089 720.532 L
1245.887 720.532 L
1247.684 720.532 L
1249.482 720.532 L
1251.324 720.532 L
1253.121 720.532 L
1254.874 720.532 L
1256.897 720.532 L
1258.739 720.532 L
1260.311 720.532 L
1262.11 720.532 L
1263.908 720.532 L
1265.707 720.532 L
1267.458 720.532 L
1269.391 720.532 L
1271.144 720.532 L
1272.897 720.532 L
1274.738 720.532 L
1276.492 720.532 L
1278.2 720.532 L
1280.042 720.532 L
1281.885 720.532 L
1283.638 720.532 L
1285.525 720.532 L
1287.189 720.532 L
1289.076 720.532 L
1290.829 720.532 L
1292.627 720.532 L
1295.867 720.532 L
1297.169 720.532 L
1298.472 720.532 L
1299.819 720.532 L
1301.616 720.532 L
1303.414 720.532 L
1305.302 720.532 L
1307.01 720.532 L
1308.807 720.532 L
1310.604 720.532 L
1312.401 720.532 L
1314.289 720.532 L
1315.997 720.532 L
1317.795 720.532 L
1319.593 720.532 L
1321.39 720.532 L
1323.188 720.532 L
1324.986 720.532 L
1326.739 720.532 L
1328.626 720.532 L
1330.696 720.532 L
1332.222 720.532 L
1334.245 720.532 L
1337.885 720.532 L
1342.11 720.535 L
1344.446 715.676 L
1347.637 710.497 L
1348.985 705.005 L
1351.73 699.205 L
1354.02 693.106 L
1356.267 686.715 L
1358.244 680.039 L
1361.84 673.087 L
1364.042 665.866 L
1366.514 658.385 L
1368.131 650.653 L
1370.11 642.678 L
1371.728 634.47 L
1373.571 626.038 L
1375.322 617.392 L
1377.255 608.542 L
1378.962 599.496 L
1380.761 590.267 L
1382.513 580.863 L
1384.356 571.295 L
1386.827 561.573 L
1388.042 551.71 L
1389.75 541.714 L
1391.548 531.597 L
1393.435 521.37 L
1395.097 511.044 L
1396.94 500.631 L
1398.693 490.14 L
1400.445 479.584 L
1402.288 468.974 L
1404.175 458.321 L
1406.243 447.635 L
1407.772 436.93 L
1409.569 426.215 L
1411.277 415.502 L
1413.164 404.802 L
1414.965 394.126 L
1416.762 383.485 L
1418.558 372.891 L
1420.266 362.354 L
1422.109 351.884 L
1423.997 341.493 L
1425.749 331.192 L
1427.457 320.989 L
1429.254 310.897 L
1431.098 300.925 L
1432.849 291.082 L
1434.648 281.38 L
1436.449 271.827 L
1438.289 262.433 L
1440.175 253.206 L
1442.153 244.158 L
1443.681 235.295 L
1445.569 226.626 L
1447.232 218.161 L
1449.254 209.907 L
1450.873 201.872 L
1452.67 194.063 L
1454.514 186.488 L
1456.22 179.155 L
1458.154 172.069 L
1459.86 165.238 L
1461.659 158.667 L
1463.456 152.363 L
1465.254 146.331 L
1467.052 145.167 L
1468.759 145.167 L
1470.647 145.167 L
1472.355 145.167 L
1474.333 145.167 L
1477.658 145.167 L
1478.827 145.167 L
1480.849 145.167 L
1482.378 145.167 L
1484.266 145.167 L
1486.018 145.167 L
1487.773 145.167 L
1489.569 145.167 L
1491.456 145.167 L
1493.704 145.167 L
1495.5 145.167 L
1497.213 145.167 L
1498.875 145.167 L
1500.669 145.167 L
1502.469 145.167 L
1504.223 145.167 L
1506.288 145.167 L
1507.862 145.167 L
1509.704 145.167 L
1511.637 145.167 L
1513.433 145.167 L
1515.055 145.167 L
1516.987 145.167 L
1518.829 145.167 L
1520.445 145.167 L
1522.377 145.167 L
1524.04 145.167 L
1525.976 145.167 L
1527.638 145.167 L
1529.614 145.167 L
1531.231 145.167 L
1533.209 145.167 L
1534.918 145.167 L
1536.628 147.755 L
1538.469 153.555 L
1540.222 159.584 L
1542.154 165.836 L
1543.998 172.303 L
1545.748 178.977 L
1547.728 185.852 L
1549.389 192.918 L
1551.277 200.168 L
1552.985 207.594 L
1554.783 215.188 L
1556.58 222.94 L
1558.379 230.843 L
1559.996 238.887 L
1562.019 247.064 L
1563.725 255.365 L
1565.524 263.781 L
1568.581 272.302 L
1570.153 280.919 L
1571.952 289.623 L
1573.704 298.404 L
1575.502 307.254 L
1577.389 384.485 L
1579.097 392.351 L
1580.94 398.546 L
1582.693 403.878 L
1584.985 411.361 L
1586.692 421.16 L
1588.265 428.832 L
1589.882 428.832 L
1591.684 440 L
1593.614 447.627 L
1595.322 453.955 L
1597.166 458.028 L
1598.916 462.081 L
1600.714 466.444 L
1602.513 470.787 L
1604.446 475.546 L
1606.063 479.809 L
1607.815 479.809 L
1609.793 484.709 L
1612.578 489.154 L
1614.289 495.445 L
1615.906 499.915 L
1617.702 503.762 L
1619.5 507.988 L
1621.521 512.417 L
1623.455 517.757 L
1624.94 523.263 L
1626.692 528.531 L
1628.444 533.502 L
1630.332 545.332 L
1632.265 549.849 L
1633.972 553.887 L
1635.863 557.78 L
1637.568 561.627 L
1639.367 565.49 L
1641.074 569.18 L
1642.872 573.125 L
1644.669 577.08 L
1646.559 581.185 L
1648.264 585.183 L
1650.333 589.101 L
1652.31 592.865 L
1654.017 596.517 L
1655.904 600.031 L
1659.278 604.776 L
1661.028 609.776 L
1662.917 612.457 L
1664.669 615.008 L
1666.511 617.552 L
1668.222 620.149 L
1670.109 622.363 L
1672.039 624.56 L
1673.792 626.667 L
1675.696 626.967 L
1679 579.077 L
S
GR
GS
[0.75 0 0 0.75 378.5625 664.12502] CT
/Helvetica 48 F
GS
[1 0 0 1 0 0] CT
0 16.5 moveto 
1 -1 scale
(Actual) t 
GR
GR
GS
[0.75 0 0 0.75 0 0.25] CT
0 0 1 RC
2 setlinecap
10.0 ML
6.667 LW
N
460.962 885.167 M
500.769 885.167 L
S
GR
GS
[0.75 0 0 0.75 922.5 664.12502] CT
/Helvetica 48 F
GS
[1 0 0 1 0 0] CT
0 16.5 moveto 
1 -1 scale
(Desired) t 
GR
GR
GS
[0.75 0 0 0.75 0 0.25] CT
1 0 0 RC
[24 24] 0 setdash
2 LJ
6.667 LW
N
1186 885.167 M
1226 885.167 L
S
GR
%%Trailer
%%Pages: 1
%%EOF
