%!PS-Adobe-3.0 EPSF-3.0
%%Creator: (MATLAB, The Mathworks, Inc. Version 8.5.0.197613 \(R2015a\). Operating System: Linux)
%%Title: /home/victor/Documents/MATLAB/prosthetic_onedomain_gaitgeneration_ampro2/SplineFigures/Ankle.eps
%%CreationDate: 2016-02-20T15:54:37
%%Pages: (atend)
%%BoundingBox: 0 0 1391 751
%%LanguageLevel: 2
%%EndComments
%%BeginProlog
%%BeginResource: procset (Apache XML Graphics Std ProcSet) 1.2 0
%%Version: 1.2 0
%%Copyright: (Copyright 2001-2003,2010 The Apache Software Foundation. License terms: http://www.apache.org/licenses/LICENSE-2.0)
/bd{bind def}bind def
/ld{load def}bd
/GR/grestore ld
/M/moveto ld
/LJ/setlinejoin ld
/C/curveto ld
/f/fill ld
/LW/setlinewidth ld
/GC/setgray ld
/t/show ld
/N/newpath ld
/CT/concat ld
/cp/closepath ld
/S/stroke ld
/L/lineto ld
/CC/setcmykcolor ld
/A/ashow ld
/GS/gsave ld
/RC/setrgbcolor ld
/RM/rmoveto ld
/ML/setmiterlimit ld
/re {4 2 roll M
1 index 0 rlineto
0 exch rlineto
neg 0 rlineto
cp } bd
/_ctm matrix def
/_tm matrix def
/BT { _ctm currentmatrix pop matrix _tm copy pop 0 0 moveto } bd
/ET { _ctm setmatrix } bd
/iTm { _ctm setmatrix _tm concat } bd
/Tm { _tm astore pop iTm 0 0 moveto } bd
/ux 0.0 def
/uy 0.0 def
/F {
  /Tp exch def
  /Tf exch def
  Tf findfont Tp scalefont setfont
  /cf Tf def  /cs Tp def
} bd
/ULS {currentpoint /uy exch def /ux exch def} bd
/ULE {
  /Tcx currentpoint pop def
  gsave
  newpath
  cf findfont cs scalefont dup
  /FontMatrix get 0 get /Ts exch def /FontInfo get dup
  /UnderlinePosition get Ts mul /To exch def
  /UnderlineThickness get Ts mul /Tt exch def
  ux uy To add moveto  Tcx uy To add lineto
  Tt setlinewidth stroke
  grestore
} bd
/OLE {
  /Tcx currentpoint pop def
  gsave
  newpath
  cf findfont cs scalefont dup
  /FontMatrix get 0 get /Ts exch def /FontInfo get dup
  /UnderlinePosition get Ts mul /To exch def
  /UnderlineThickness get Ts mul /Tt exch def
  ux uy To add cs add moveto Tcx uy To add cs add lineto
  Tt setlinewidth stroke
  grestore
} bd
/SOE {
  /Tcx currentpoint pop def
  gsave
  newpath
  cf findfont cs scalefont dup
  /FontMatrix get 0 get /Ts exch def /FontInfo get dup
  /UnderlinePosition get Ts mul /To exch def
  /UnderlineThickness get Ts mul /Tt exch def
  ux uy To add cs 10 mul 26 idiv add moveto Tcx uy To add cs 10 mul 26 idiv add lineto
  Tt setlinewidth stroke
  grestore
} bd
/QT {
/Y22 exch store
/X22 exch store
/Y21 exch store
/X21 exch store
currentpoint
/Y21 load 2 mul add 3 div exch
/X21 load 2 mul add 3 div exch
/X21 load 2 mul /X22 load add 3 div
/Y21 load 2 mul /Y22 load add 3 div
/X22 load /Y22 load curveto
} bd
/SSPD {
dup length /d exch dict def
{
/v exch def
/k exch def
currentpagedevice k known {
/cpdv currentpagedevice k get def
v cpdv ne {
/upd false def
/nullv v type /nulltype eq def
/nullcpdv cpdv type /nulltype eq def
nullv nullcpdv or
{
/upd true def
} {
/sametype v type cpdv type eq def
sametype {
v type /arraytype eq {
/vlen v length def
/cpdvlen cpdv length def
vlen cpdvlen eq {
0 1 vlen 1 sub {
/i exch def
/obj v i get def
/cpdobj cpdv i get def
obj cpdobj ne {
/upd true def
exit
} if
} for
} {
/upd true def
} ifelse
} {
v type /dicttype eq {
v {
/dv exch def
/dk exch def
/cpddv cpdv dk get def
dv cpddv ne {
/upd true def
exit
} if
} forall
} {
/upd true def
} ifelse
} ifelse
} if
} ifelse
upd true eq {
d k v put
} if
} if
} if
} forall
d length 0 gt {
d setpagedevice
} if
} bd
%%EndResource
%%BeginResource: procset (Apache XML Graphics EPS ProcSet) 1.0 0
%%Version: 1.0 0
%%Copyright: (Copyright 2002-2003 The Apache Software Foundation. License terms: http://www.apache.org/licenses/LICENSE-2.0)
/BeginEPSF { %def
/b4_Inc_state save def         % Save state for cleanup
/dict_count countdictstack def % Count objects on dict stack
/op_count count 1 sub def      % Count objects on operand stack
userdict begin                 % Push userdict on dict stack
/showpage { } def              % Redefine showpage, { } = null proc
0 setgray 0 setlinecap         % Prepare graphics state
1 setlinewidth 0 setlinejoin
10 setmiterlimit [ ] 0 setdash newpath
/languagelevel where           % If level not equal to 1 then
{pop languagelevel             % set strokeadjust and
1 ne                           % overprint to their defaults.
{false setstrokeadjust false setoverprint
} if
} if
} bd
/EndEPSF { %def
count op_count sub {pop} repeat            % Clean up stacks
countdictstack dict_count sub {end} repeat
b4_Inc_state restore
} bd
%%EndResource
%FOPBeginFontDict
%%IncludeResource: font Courier-Bold
%%IncludeResource: font Helvetica
%%IncludeResource: font Courier-BoldOblique
%%IncludeResource: font Courier-Oblique
%%IncludeResource: font Times-Roman
%%IncludeResource: font Helvetica-BoldOblique
%%IncludeResource: font Helvetica-Bold
%%IncludeResource: font Helvetica-Oblique
%%IncludeResource: font Times-BoldItalic
%%IncludeResource: font Courier
%%IncludeResource: font Times-Italic
%%IncludeResource: font Times-Bold
%%IncludeResource: font Symbol
%%IncludeResource: font ZapfDingbats
%FOPEndFontDict
%%BeginResource: encoding WinAnsiEncoding
/WinAnsiEncoding [
/.notdef /.notdef /.notdef /.notdef /.notdef
/.notdef /.notdef /.notdef /.notdef /.notdef
/.notdef /.notdef /.notdef /.notdef /.notdef
/.notdef /.notdef /.notdef /.notdef /.notdef
/.notdef /.notdef /.notdef /.notdef /.notdef
/.notdef /.notdef /.notdef /.notdef /.notdef
/.notdef /.notdef /space /exclam /quotedbl
/numbersign /dollar /percent /ampersand /quotesingle
/parenleft /parenright /asterisk /plus /comma
/hyphen /period /slash /zero /one
/two /three /four /five /six
/seven /eight /nine /colon /semicolon
/less /equal /greater /question /at
/A /B /C /D /E
/F /G /H /I /J
/K /L /M /N /O
/P /Q /R /S /T
/U /V /W /X /Y
/Z /bracketleft /backslash /bracketright /asciicircum
/underscore /quoteleft /a /b /c
/d /e /f /g /h
/i /j /k /l /m
/n /o /p /q /r
/s /t /u /v /w
/x /y /z /braceleft /bar
/braceright /asciitilde /bullet /Euro /bullet
/quotesinglbase /florin /quotedblbase /ellipsis /dagger
/daggerdbl /circumflex /perthousand /Scaron /guilsinglleft
/OE /bullet /Zcaron /bullet /bullet
/quoteleft /quoteright /quotedblleft /quotedblright /bullet
/endash /emdash /asciitilde /trademark /scaron
/guilsinglright /oe /bullet /zcaron /Ydieresis
/space /exclamdown /cent /sterling /currency
/yen /brokenbar /section /dieresis /copyright
/ordfeminine /guillemotleft /logicalnot /sfthyphen /registered
/macron /degree /plusminus /twosuperior /threesuperior
/acute /mu /paragraph /middot /cedilla
/onesuperior /ordmasculine /guillemotright /onequarter /onehalf
/threequarters /questiondown /Agrave /Aacute /Acircumflex
/Atilde /Adieresis /Aring /AE /Ccedilla
/Egrave /Eacute /Ecircumflex /Edieresis /Igrave
/Iacute /Icircumflex /Idieresis /Eth /Ntilde
/Ograve /Oacute /Ocircumflex /Otilde /Odieresis
/multiply /Oslash /Ugrave /Uacute /Ucircumflex
/Udieresis /Yacute /Thorn /germandbls /agrave
/aacute /acircumflex /atilde /adieresis /aring
/ae /ccedilla /egrave /eacute /ecircumflex
/edieresis /igrave /iacute /icircumflex /idieresis
/eth /ntilde /ograve /oacute /ocircumflex
/otilde /odieresis /divide /oslash /ugrave
/uacute /ucircumflex /udieresis /yacute /thorn
/ydieresis
] def
%%EndResource
%FOPBeginFontReencode
/Courier-Bold findfont
dup length dict begin
  {1 index /FID ne {def} {pop pop} ifelse} forall
  /Encoding WinAnsiEncoding def
  currentdict
end
/Courier-Bold exch definefont pop
/Helvetica findfont
dup length dict begin
  {1 index /FID ne {def} {pop pop} ifelse} forall
  /Encoding WinAnsiEncoding def
  currentdict
end
/Helvetica exch definefont pop
/Courier-BoldOblique findfont
dup length dict begin
  {1 index /FID ne {def} {pop pop} ifelse} forall
  /Encoding WinAnsiEncoding def
  currentdict
end
/Courier-BoldOblique exch definefont pop
/Courier-Oblique findfont
dup length dict begin
  {1 index /FID ne {def} {pop pop} ifelse} forall
  /Encoding WinAnsiEncoding def
  currentdict
end
/Courier-Oblique exch definefont pop
/Times-Roman findfont
dup length dict begin
  {1 index /FID ne {def} {pop pop} ifelse} forall
  /Encoding WinAnsiEncoding def
  currentdict
end
/Times-Roman exch definefont pop
/Helvetica-BoldOblique findfont
dup length dict begin
  {1 index /FID ne {def} {pop pop} ifelse} forall
  /Encoding WinAnsiEncoding def
  currentdict
end
/Helvetica-BoldOblique exch definefont pop
/Helvetica-Bold findfont
dup length dict begin
  {1 index /FID ne {def} {pop pop} ifelse} forall
  /Encoding WinAnsiEncoding def
  currentdict
end
/Helvetica-Bold exch definefont pop
/Helvetica-Oblique findfont
dup length dict begin
  {1 index /FID ne {def} {pop pop} ifelse} forall
  /Encoding WinAnsiEncoding def
  currentdict
end
/Helvetica-Oblique exch definefont pop
/Times-BoldItalic findfont
dup length dict begin
  {1 index /FID ne {def} {pop pop} ifelse} forall
  /Encoding WinAnsiEncoding def
  currentdict
end
/Times-BoldItalic exch definefont pop
/Courier findfont
dup length dict begin
  {1 index /FID ne {def} {pop pop} ifelse} forall
  /Encoding WinAnsiEncoding def
  currentdict
end
/Courier exch definefont pop
/Times-Italic findfont
dup length dict begin
  {1 index /FID ne {def} {pop pop} ifelse} forall
  /Encoding WinAnsiEncoding def
  currentdict
end
/Times-Italic exch definefont pop
/Times-Bold findfont
dup length dict begin
  {1 index /FID ne {def} {pop pop} ifelse} forall
  /Encoding WinAnsiEncoding def
  currentdict
end
/Times-Bold exch definefont pop
%FOPEndFontReencode
%%EndProlog
%%Page: 1 1
%%PageBoundingBox: 0 0 1391 751
%%BeginPageSetup
[1 0 0 -1 0 751] CT
%%EndPageSetup
GS
[0.75 0 0 0.75 0 0.25] CT
N
0 0 M
1855 0 L
1855 1001 L
0 1001 L
0 0 L
cp
clip
1 GC
N
0 0 1855 1001 re
f
GR
GS
[0.75 0 0 0.75 0 0.25] CT
1 GC
N
0 0 1855 1001 re
f
GR
GS
[0.75 0 0 0.75 0 0.25] CT
1 GC
N
241 721 M
1679 721 L
1679 30 L
241 30 L
cp
f
GR
GS
[0.75 0 0 0.75 0 0.25] CT
0.873 GC
2 setlinecap
10.0 ML
N
241 721 M
241 30 L
S
GR
GS
[0.75 0 0 0.75 0 0.25] CT
0.873 GC
2 setlinecap
10.0 ML
N
673.976 721 M
673.976 30 L
S
GR
GS
[0.75 0 0 0.75 0 0.25] CT
0.873 GC
2 setlinecap
10.0 ML
N
1106.952 721 M
1106.952 30 L
S
GR
GS
[0.75 0 0 0.75 0 0.25] CT
0.873 GC
2 setlinecap
10.0 ML
N
1539.928 721 M
1539.928 30 L
S
GR
GS
[0.75 0 0 0.75 0 0.25] CT
0.873 GC
2 setlinecap
10.0 ML
N
1679 721 M
241 721 L
S
GR
GS
[0.75 0 0 0.75 0 0.25] CT
0.873 GC
2 setlinecap
10.0 ML
N
1679 582.8 M
241 582.8 L
S
GR
GS
[0.75 0 0 0.75 0 0.25] CT
0.873 GC
2 setlinecap
10.0 ML
N
1679 444.6 M
241 444.6 L
S
GR
GS
[0.75 0 0 0.75 0 0.25] CT
0.873 GC
2 setlinecap
10.0 ML
N
1679 306.4 M
241 306.4 L
S
GR
GS
[0.75 0 0 0.75 0 0.25] CT
0.873 GC
2 setlinecap
10.0 ML
N
1679 168.2 M
241 168.2 L
S
GR
GS
[0.75 0 0 0.75 0 0.25] CT
0.873 GC
2 setlinecap
10.0 ML
N
1679 30 M
241 30 L
S
GR
GS
[0.75 0 0 0.75 720.0005 599.25002] CT
0.149 GC
/Helvetica 59 F
GS
[1 0 0 1 0 0] CT
-121 55 moveto 
1 -1 scale
(Time \(s\)) t 
GR
GR
GS
[0.75 0 0 0.75 0 0.25] CT
0.149 GC
2 setlinecap
10.0 ML
N
241 721 M
1679 721 L
S
GR
GS
[0.75 0 0 0.75 0 0.25] CT
0.149 GC
2 setlinecap
10.0 ML
N
241 30 M
1679 30 L
S
GR
GS
[0.75 0 0 0.75 0 0.25] CT
0.149 GC
2 setlinecap
10.0 ML
N
241 721 M
241 706.62 L
S
GR
GS
[0.75 0 0 0.75 0 0.25] CT
0.149 GC
2 setlinecap
10.0 ML
N
673.976 721 M
673.976 706.62 L
S
GR
GS
[0.75 0 0 0.75 0 0.25] CT
0.149 GC
2 setlinecap
10.0 ML
N
1106.952 721 M
1106.952 706.62 L
S
GR
GS
[0.75 0 0 0.75 0 0.25] CT
0.149 GC
2 setlinecap
10.0 ML
N
1539.928 721 M
1539.928 706.62 L
S
GR
GS
[0.75 0 0 0.75 0 0.25] CT
0.149 GC
2 setlinecap
10.0 ML
N
241 30 M
241 44.38 L
S
GR
GS
[0.75 0 0 0.75 0 0.25] CT
0.149 GC
2 setlinecap
10.0 ML
N
673.976 30 M
673.976 44.38 L
S
GR
GS
[0.75 0 0 0.75 0 0.25] CT
0.149 GC
2 setlinecap
10.0 ML
N
1106.952 30 M
1106.952 44.38 L
S
GR
GS
[0.75 0 0 0.75 0 0.25] CT
0.149 GC
2 setlinecap
10.0 ML
N
1539.928 30 M
1539.928 44.38 L
S
GR
GS
[0.75 0 0 0.75 180.75 550.99998] CT
0.149 GC
/Helvetica 53 F
GS
[1 0 0 1 0 0] CT
-17 50 moveto 
1 -1 scale
(0) t 
GR
GR
GS
[0.75 0 0 0.75 505.48201 550.99998] CT
0.149 GC
/Helvetica 53 F
GS
[1 0 0 1 0 0] CT
-42.5 50 moveto 
1 -1 scale
(0.5) t 
GR
GR
GS
[0.75 0 0 0.75 830.21402 550.99998] CT
0.149 GC
/Helvetica 53 F
GS
[1 0 0 1 0 0] CT
-17 50 moveto 
1 -1 scale
(1) t 
GR
GR
GS
[0.75 0 0 0.75 1154.94608 550.99998] CT
0.149 GC
/Helvetica 53 F
GS
[1 0 0 1 0 0] CT
-42.5 50 moveto 
1 -1 scale
(1.5) t 
GR
GR
GS
[0 -0.75 0.75 0 89.75 281.87475] CT
0.149 GC
/Helvetica 59 F
GS
[1 0 0 1 0 0] CT
-255 -14 moveto 
1 -1 scale
(Ankle angle \(rad\)) t 
GR
GR
GS
[0.75 0 0 0.75 0 0.25] CT
0.149 GC
2 setlinecap
10.0 ML
N
241 721 M
241 30 L
S
GR
GS
[0.75 0 0 0.75 0 0.25] CT
0.149 GC
2 setlinecap
10.0 ML
N
1679 721 M
1679 30 L
S
GR
GS
[0.75 0 0 0.75 0 0.25] CT
0.149 GC
2 setlinecap
10.0 ML
N
241 721 M
255.38 721 L
S
GR
GS
[0.75 0 0 0.75 0 0.25] CT
0.149 GC
2 setlinecap
10.0 ML
N
241 582.8 M
255.38 582.8 L
S
GR
GS
[0.75 0 0 0.75 0 0.25] CT
0.149 GC
2 setlinecap
10.0 ML
N
241 444.6 M
255.38 444.6 L
S
GR
GS
[0.75 0 0 0.75 0 0.25] CT
0.149 GC
2 setlinecap
10.0 ML
N
241 306.4 M
255.38 306.4 L
S
GR
GS
[0.75 0 0 0.75 0 0.25] CT
0.149 GC
2 setlinecap
10.0 ML
N
241 168.2 M
255.38 168.2 L
S
GR
GS
[0.75 0 0 0.75 0 0.25] CT
0.149 GC
2 setlinecap
10.0 ML
N
241 30 M
255.38 30 L
S
GR
GS
[0.75 0 0 0.75 0 0.25] CT
0.149 GC
2 setlinecap
10.0 ML
N
1679 721 M
1664.62 721 L
S
GR
GS
[0.75 0 0 0.75 0 0.25] CT
0.149 GC
2 setlinecap
10.0 ML
N
1679 582.8 M
1664.62 582.8 L
S
GR
GS
[0.75 0 0 0.75 0 0.25] CT
0.149 GC
2 setlinecap
10.0 ML
N
1679 444.6 M
1664.62 444.6 L
S
GR
GS
[0.75 0 0 0.75 0 0.25] CT
0.149 GC
2 setlinecap
10.0 ML
N
1679 306.4 M
1664.62 306.4 L
S
GR
GS
[0.75 0 0 0.75 0 0.25] CT
0.149 GC
2 setlinecap
10.0 ML
N
1679 168.2 M
1664.62 168.2 L
S
GR
GS
[0.75 0 0 0.75 0 0.25] CT
0.149 GC
2 setlinecap
10.0 ML
N
1679 30 M
1664.62 30 L
S
GR
GS
[0.75 0 0 0.75 170.75 541] CT
0.149 GC
/Helvetica 53 F
GS
[1 0 0 1 0 0] CT
-104 18.5 moveto 
1 -1 scale
(-0.2) t 
GR
GR
GS
[0.75 0 0 0.75 170.75 437.34999] CT
0.149 GC
/Helvetica 53 F
GS
[1 0 0 1 0 0] CT
-34 18.5 moveto 
1 -1 scale
(0) t 
GR
GR
GS
[0.75 0 0 0.75 170.75 333.7] CT
0.149 GC
/Helvetica 53 F
GS
[1 0 0 1 0 0] CT
-85 18.5 moveto 
1 -1 scale
(0.2) t 
GR
GR
GS
[0.75 0 0 0.75 170.75 230.05] CT
0.149 GC
/Helvetica 53 F
GS
[1 0 0 1 0 0] CT
-85 18.5 moveto 
1 -1 scale
(0.4) t 
GR
GR
GS
[0.75 0 0 0.75 170.75 126.39999] CT
0.149 GC
/Helvetica 53 F
GS
[1 0 0 1 0 0] CT
-85 18.5 moveto 
1 -1 scale
(0.6) t 
GR
GR
GS
[0.75 0 0 0.75 170.75 22.74999] CT
0.149 GC
/Helvetica 53 F
GS
[1 0 0 1 0 0] CT
-85 18.5 moveto 
1 -1 scale
(0.8) t 
GR
GR
GS
[0.75 0 0 0.75 0 0.25] CT
0 0.447 0.741 RC
2 LJ
6.667 LW
N
241 522.499 M
241.866 522.499 L
242.732 522.499 L
243.598 522.499 L
244.464 522.499 L
245.33 522.499 L
246.196 522.499 L
247.062 522.5 L
247.928 522.5 L
248.794 522.501 L
249.66 522.502 L
250.525 522.503 L
251.391 522.504 L
252.257 522.505 L
253.123 522.506 L
253.989 522.508 L
254.855 522.51 L
255.721 522.512 L
256.587 522.515 L
257.453 522.517 L
258.319 522.521 L
259.185 522.524 L
260.051 522.528 L
260.917 522.532 L
261.783 522.536 L
262.649 522.541 L
263.515 522.546 L
264.381 522.552 L
265.247 522.558 L
266.113 522.565 L
266.979 522.572 L
267.845 522.579 L
268.71 522.587 L
269.576 522.596 L
270.442 522.605 L
271.308 522.615 L
272.174 522.625 L
273.04 522.636 L
273.906 522.647 L
274.772 522.659 L
275.638 522.672 L
276.504 522.685 L
277.37 522.699 L
278.236 522.714 L
279.102 522.729 L
279.968 522.745 L
280.834 522.762 L
281.7 522.78 L
282.566 522.798 L
283.432 522.817 L
S
GR
GS
[0.75 0 0 0.75 0 0.25] CT
0 0.447 0.741 RC
2 LJ
6.667 LW
N
283.432 522.817 M
284.298 522.837 L
285.164 522.857 L
286.03 522.879 L
286.895 522.901 L
287.761 522.925 L
288.627 522.949 L
289.493 522.974 L
290.359 523 L
291.225 523.026 L
292.091 523.054 L
292.957 523.083 L
293.823 523.113 L
294.689 523.143 L
295.555 523.175 L
296.421 523.208 L
297.287 523.241 L
298.153 523.276 L
299.019 523.312 L
299.885 523.349 L
300.751 523.387 L
301.617 523.426 L
302.483 523.466 L
303.349 523.508 L
304.215 523.551 L
305.08 523.594 L
305.946 523.639 L
306.812 523.686 L
307.678 523.733 L
308.544 523.782 L
309.41 523.832 L
310.276 523.883 L
311.142 523.936 L
312.008 523.99 L
312.874 524.045 L
313.74 524.101 L
314.606 524.159 L
315.472 524.219 L
316.338 524.279 L
317.204 524.341 L
318.07 524.405 L
318.936 524.47 L
319.802 524.536 L
320.668 524.604 L
321.534 524.674 L
322.4 524.744 L
323.265 524.817 L
324.131 524.891 L
324.997 524.966 L
325.863 525.043 L
S
GR
GS
[0.75 0 0 0.75 0 0.25] CT
0 0.447 0.741 RC
2 LJ
6.667 LW
N
325.863 525.043 M
326.729 525.122 L
327.595 525.202 L
328.461 525.284 L
329.327 525.368 L
330.193 525.453 L
331.059 525.54 L
331.925 525.629 L
332.791 525.719 L
333.657 525.811 L
334.523 525.904 L
335.389 526 L
336.255 526.097 L
337.121 526.195 L
337.987 526.296 L
338.853 526.398 L
339.719 526.502 L
340.585 526.607 L
341.45 526.714 L
342.316 526.823 L
343.182 526.934 L
344.048 527.046 L
344.914 527.16 L
345.78 527.276 L
346.646 527.393 L
347.512 527.513 L
348.378 527.633 L
349.244 527.756 L
350.11 527.88 L
350.976 528.006 L
351.842 528.134 L
352.708 528.263 L
353.574 528.395 L
354.44 528.528 L
355.306 528.662 L
356.172 528.799 L
357.038 528.937 L
357.904 529.076 L
358.77 529.218 L
359.635 529.361 L
360.501 529.506 L
361.367 529.653 L
362.233 529.801 L
363.099 529.952 L
363.965 530.104 L
364.831 530.257 L
365.697 530.413 L
366.563 530.57 L
367.429 530.729 L
368.295 530.889 L
S
GR
GS
[0.75 0 0 0.75 0 0.25] CT
0 0.447 0.741 RC
2 LJ
6.667 LW
N
368.295 530.889 M
369.161 531.052 L
370.027 531.216 L
370.893 531.382 L
371.759 531.55 L
372.625 531.719 L
373.491 531.89 L
374.357 532.063 L
375.223 532.238 L
376.089 532.414 L
376.954 532.593 L
377.82 532.773 L
378.686 532.954 L
379.552 533.138 L
380.418 533.323 L
381.284 533.51 L
382.15 533.699 L
383.016 533.89 L
383.882 534.082 L
384.748 534.276 L
385.614 534.472 L
386.48 534.67 L
387.346 534.869 L
388.212 535.071 L
389.078 535.274 L
389.944 535.479 L
390.81 535.685 L
391.676 535.894 L
392.542 536.104 L
393.408 536.316 L
394.274 536.53 L
395.139 536.745 L
396.005 536.963 L
396.871 537.182 L
397.737 537.403 L
398.603 537.626 L
399.469 537.85 L
400.335 538.077 L
401.201 538.305 L
402.067 538.535 L
402.933 538.767 L
403.799 539 L
404.665 539.236 L
405.531 539.473 L
406.397 539.712 L
407.263 539.953 L
408.129 540.195 L
408.995 540.44 L
409.861 540.686 L
410.727 540.934 L
S
GR
GS
[0.75 0 0 0.75 0 0.25] CT
0 0.447 0.741 RC
2 LJ
6.667 LW
N
410.727 540.934 M
411.593 541.184 L
412.458 541.436 L
413.324 541.69 L
414.19 541.945 L
415.056 542.203 L
415.922 542.462 L
416.788 542.723 L
417.654 542.985 L
418.52 543.25 L
419.386 543.516 L
420.252 543.785 L
421.118 544.055 L
421.984 544.327 L
422.85 544.6 L
423.716 544.876 L
424.582 545.152 L
425.448 545.431 L
426.314 545.711 L
427.18 545.992 L
428.046 546.274 L
428.912 546.557 L
429.778 546.842 L
430.643 547.127 L
431.509 547.413 L
432.375 547.7 L
433.241 547.988 L
434.107 548.277 L
434.973 548.566 L
435.839 548.855 L
436.705 549.145 L
437.571 549.435 L
438.437 549.725 L
439.303 550.016 L
440.169 550.306 L
441.035 550.597 L
441.901 550.887 L
442.767 551.177 L
443.633 551.467 L
444.499 551.757 L
445.365 552.046 L
446.231 552.334 L
447.097 552.622 L
447.963 552.909 L
448.828 553.196 L
449.694 553.481 L
450.56 553.766 L
451.426 554.049 L
452.292 554.332 L
453.158 554.613 L
S
GR
GS
[0.75 0 0 0.75 0 0.25] CT
0 0.447 0.741 RC
2 LJ
6.667 LW
N
453.158 554.613 M
454.024 554.893 L
454.89 555.171 L
455.756 555.448 L
456.622 555.723 L
457.488 555.997 L
458.354 556.269 L
459.22 556.54 L
460.086 556.808 L
460.952 557.074 L
461.818 557.339 L
462.684 557.601 L
463.55 557.861 L
464.416 558.119 L
465.282 558.374 L
466.148 558.627 L
467.013 558.877 L
467.879 559.125 L
468.745 559.37 L
469.611 559.612 L
470.477 559.851 L
471.343 560.087 L
472.209 560.32 L
473.075 560.55 L
473.941 560.777 L
474.807 561 L
475.673 561.22 L
476.539 561.437 L
477.405 561.65 L
478.271 561.859 L
479.137 562.065 L
480.003 562.267 L
480.869 562.465 L
481.735 562.659 L
482.601 562.848 L
483.467 563.034 L
484.333 563.215 L
485.198 563.393 L
486.064 563.565 L
486.93 563.733 L
487.796 563.897 L
488.662 564.056 L
489.528 564.21 L
490.394 564.36 L
491.26 564.504 L
492.126 564.644 L
492.992 564.778 L
493.858 564.907 L
494.724 565.031 L
495.59 565.15 L
S
GR
GS
[0.75 0 0 0.75 0 0.25] CT
0 0.447 0.741 RC
2 LJ
6.667 LW
N
495.59 565.15 M
496.456 565.263 L
497.322 565.371 L
498.188 565.473 L
499.054 565.569 L
499.92 565.66 L
500.786 565.745 L
501.652 565.824 L
502.518 565.897 L
503.383 565.964 L
504.249 566.025 L
505.115 566.079 L
505.981 566.127 L
506.847 566.169 L
507.713 566.204 L
508.579 566.232 L
509.445 566.254 L
510.311 566.27 L
511.177 566.278 L
512.043 566.279 L
512.909 566.274 L
513.775 566.262 L
514.641 566.243 L
515.507 566.218 L
516.373 566.186 L
517.239 566.148 L
518.105 566.103 L
518.971 566.052 L
519.837 565.995 L
520.703 565.931 L
521.568 565.862 L
522.434 565.786 L
523.3 565.705 L
524.166 565.617 L
525.032 565.524 L
525.898 565.425 L
526.764 565.32 L
527.63 565.209 L
528.496 565.093 L
529.362 564.971 L
530.228 564.844 L
531.094 564.712 L
531.96 564.574 L
532.826 564.431 L
533.692 564.283 L
534.558 564.129 L
535.424 563.971 L
536.29 563.807 L
537.156 563.639 L
538.022 563.466 L
S
GR
GS
[0.75 0 0 0.75 0 0.25] CT
0 0.447 0.741 RC
2 LJ
6.667 LW
N
538.022 563.466 M
538.888 563.288 L
539.753 563.105 L
540.619 562.917 L
541.485 562.725 L
542.351 562.529 L
543.217 562.328 L
544.083 562.122 L
544.949 561.913 L
545.815 561.699 L
546.681 561.48 L
547.547 561.258 L
548.413 561.032 L
549.279 560.801 L
550.145 560.567 L
551.011 560.329 L
551.877 560.087 L
552.743 559.841 L
553.609 559.592 L
554.475 559.339 L
555.341 559.082 L
556.207 558.822 L
557.073 558.559 L
557.938 558.292 L
558.804 558.022 L
559.67 557.749 L
560.536 557.472 L
561.402 557.193 L
562.268 556.91 L
563.134 556.625 L
564 556.337 L
564.866 556.046 L
565.732 555.752 L
566.598 555.455 L
567.464 555.156 L
568.33 554.855 L
569.196 554.551 L
570.062 554.244 L
570.928 553.935 L
571.794 553.624 L
572.66 553.311 L
573.526 552.995 L
574.392 552.678 L
575.258 552.358 L
576.123 552.037 L
576.989 551.713 L
577.855 551.388 L
578.721 551.061 L
579.587 550.733 L
580.453 550.403 L
S
GR
GS
[0.75 0 0 0.75 0 0.25] CT
0 0.447 0.741 RC
2 LJ
6.667 LW
N
580.453 550.403 M
581.319 550.071 L
582.185 549.738 L
583.051 549.403 L
583.917 549.067 L
584.783 548.73 L
585.649 548.391 L
586.515 548.052 L
587.381 547.711 L
588.247 547.369 L
589.113 547.026 L
589.979 546.683 L
590.845 546.338 L
591.711 545.993 L
592.577 545.648 L
593.443 545.301 L
594.308 544.954 L
595.174 544.607 L
596.04 544.259 L
596.906 543.911 L
597.772 543.562 L
598.638 543.213 L
599.504 542.864 L
600.37 542.515 L
601.236 542.062 L
602.102 541.713 L
602.968 541.364 L
603.834 541.015 L
604.7 540.666 L
605.566 540.317 L
606.432 539.968 L
607.298 539.619 L
608.164 539.27 L
609.03 538.921 L
609.896 538.572 L
610.762 538.223 L
611.628 537.874 L
612.493 537.525 L
613.359 537.176 L
614.225 536.827 L
615.091 536.478 L
615.957 536.129 L
616.823 535.78 L
617.689 535.431 L
618.555 535.082 L
619.421 534.733 L
620.287 534.384 L
621.153 534.035 L
622.019 533.686 L
622.885 533.337 L
S
GR
GS
[0.75 0 0 0.75 0 0.25] CT
0 0.447 0.741 RC
2 LJ
6.667 LW
N
622.885 533.337 M
623.751 532.988 L
624.617 532.639 L
625.483 532.29 L
626.349 531.941 L
627.215 531.591 L
628.081 531.242 L
628.947 530.893 L
629.813 530.544 L
630.678 530.195 L
631.544 529.846 L
632.41 529.497 L
633.276 529.148 L
634.142 528.799 L
635.008 528.45 L
635.874 528.101 L
636.74 527.752 L
637.606 527.403 L
638.472 527.054 L
639.338 526.705 L
640.204 526.356 L
641.07 526.007 L
641.936 525.658 L
642.802 525.309 L
643.668 524.96 L
644.534 524.611 L
645.4 524.262 L
646.266 523.913 L
647.132 523.564 L
647.997 523.215 L
648.863 522.866 L
649.729 522.516 L
650.595 522.167 L
651.461 521.818 L
652.327 521.469 L
653.193 521.12 L
654.059 520.771 L
654.925 520.422 L
655.791 520.073 L
656.657 519.724 L
657.523 519.375 L
658.389 519.026 L
659.255 518.677 L
660.121 518.328 L
660.987 517.979 L
661.853 517.63 L
662.719 517.281 L
663.585 516.932 L
664.451 516.583 L
665.317 516.234 L
S
GR
GS
[0.75 0 0 0.75 0 0.25] CT
0 0.447 0.741 RC
2 LJ
6.667 LW
N
665.317 516.234 M
666.182 515.885 L
667.048 515.535 L
667.914 515.186 L
668.78 514.837 L
669.646 514.488 L
670.512 514.139 L
671.378 513.79 L
672.244 513.441 L
673.11 513.092 L
673.976 512.743 L
674.842 512.394 L
675.708 512.045 L
676.574 511.696 L
677.44 511.347 L
678.306 510.998 L
679.172 510.649 L
680.038 510.3 L
680.904 509.951 L
681.77 509.602 L
682.636 509.252 L
683.501 508.903 L
684.367 508.554 L
685.233 508.205 L
686.099 507.856 L
686.965 507.507 L
687.831 507.158 L
688.697 506.809 L
689.563 506.46 L
690.429 506.111 L
691.295 505.762 L
692.161 505.413 L
693.027 505.064 L
693.893 504.715 L
694.759 504.366 L
695.625 504.017 L
696.491 503.668 L
697.357 503.318 L
698.223 502.969 L
699.089 502.62 L
699.955 502.271 L
700.821 501.922 L
701.687 501.573 L
702.552 501.224 L
703.418 500.875 L
704.284 500.526 L
705.15 500.177 L
706.016 499.828 L
706.882 499.479 L
707.748 499.13 L
S
GR
GS
[0.75 0 0 0.75 0 0.25] CT
0 0.447 0.741 RC
2 LJ
6.667 LW
N
707.748 499.13 M
708.614 498.781 L
709.48 498.432 L
710.346 498.083 L
711.212 497.734 L
712.078 497.384 L
712.944 497.035 L
713.81 496.686 L
714.676 496.337 L
715.542 495.988 L
716.408 495.639 L
717.274 495.29 L
718.14 494.941 L
719.006 494.592 L
719.871 494.243 L
720.737 493.894 L
721.603 493.545 L
722.469 493.196 L
723.335 492.847 L
724.201 492.498 L
725.067 492.149 L
725.933 491.8 L
726.799 491.45 L
727.665 491.101 L
728.531 490.752 L
729.397 490.403 L
730.263 490.054 L
731.129 489.705 L
731.995 489.356 L
732.861 489.007 L
733.727 488.658 L
734.593 488.309 L
735.459 487.96 L
736.325 487.611 L
737.191 487.262 L
738.056 486.913 L
738.922 486.564 L
739.788 486.215 L
740.654 485.866 L
741.52 485.516 L
742.386 485.167 L
743.252 484.818 L
744.118 484.469 L
744.984 484.12 L
745.85 483.771 L
746.716 483.422 L
747.582 483.073 L
748.448 482.724 L
749.314 482.375 L
750.18 482.026 L
S
GR
GS
[0.75 0 0 0.75 0 0.25] CT
0 0.447 0.741 RC
2 LJ
6.667 LW
N
750.18 482.026 M
751.046 481.677 L
751.912 481.328 L
752.778 480.979 L
753.644 480.63 L
754.51 480.281 L
755.375 479.932 L
756.242 479.582 L
757.107 479.233 L
757.973 478.884 L
758.839 478.535 L
759.705 478.186 L
760.571 477.837 L
761.437 477.488 L
762.303 477.139 L
763.169 476.79 L
764.035 476.441 L
764.901 476.092 L
765.767 475.743 L
766.633 475.394 L
767.499 475.045 L
768.365 474.696 L
769.231 474.347 L
770.097 473.997 L
770.963 473.648 L
771.829 473.299 L
772.695 472.95 L
773.561 472.601 L
774.426 472.252 L
775.292 471.903 L
776.158 471.554 L
777.024 471.205 L
777.89 470.856 L
778.756 470.507 L
779.622 470.158 L
780.488 469.809 L
781.354 469.46 L
782.22 469.111 L
783.086 468.762 L
783.952 468.413 L
784.818 468.063 L
785.684 467.714 L
786.55 467.365 L
787.416 467.016 L
788.282 466.667 L
789.148 466.318 L
790.014 465.969 L
790.88 465.62 L
791.745 465.271 L
792.612 464.922 L
S
GR
GS
[0.75 0 0 0.75 0 0.25] CT
0 0.447 0.741 RC
2 LJ
6.667 LW
N
792.612 464.922 M
793.477 464.573 L
794.343 464.224 L
795.209 463.875 L
796.075 463.526 L
796.941 463.177 L
797.807 462.828 L
798.673 462.479 L
799.539 462.129 L
800.405 461.78 L
801.271 461.431 L
802.137 461.082 L
803.003 460.733 L
803.869 460.384 L
804.735 460.035 L
805.601 459.686 L
806.467 459.337 L
807.333 458.988 L
808.199 458.639 L
809.065 458.29 L
809.931 457.941 L
810.796 457.592 L
811.662 457.243 L
812.528 456.894 L
813.394 456.544 L
814.26 456.195 L
815.126 455.846 L
815.992 455.497 L
816.858 455.148 L
817.724 454.799 L
818.59 454.45 L
819.456 454.101 L
820.322 453.752 L
821.188 453.403 L
822.054 453.054 L
822.92 452.705 L
823.786 452.356 L
824.652 452.007 L
825.518 451.658 L
826.384 451.309 L
827.25 450.96 L
828.115 450.61 L
828.981 450.261 L
829.847 449.912 L
830.713 449.563 L
831.579 449.214 L
832.445 448.865 L
833.311 448.516 L
834.177 448.167 L
835.043 447.818 L
S
GR
GS
[0.75 0 0 0.75 0 0.25] CT
0 0.447 0.741 RC
2 LJ
6.667 LW
N
835.043 447.818 M
835.909 447.469 L
836.775 447.12 L
837.641 446.771 L
838.507 446.422 L
839.373 446.073 L
840.239 445.724 L
841.105 445.375 L
841.971 445.026 L
842.837 444.676 L
843.703 444.327 L
844.569 443.978 L
845.435 443.629 L
846.3 443.28 L
847.166 442.931 L
848.032 442.582 L
848.898 442.233 L
849.764 441.884 L
850.63 441.535 L
851.496 441.186 L
852.362 440.837 L
853.228 440.488 L
854.094 440.139 L
854.96 439.79 L
855.826 439.441 L
856.692 439.091 L
857.558 438.742 L
858.424 438.393 L
859.29 438.044 L
860.156 437.695 L
861.022 437.346 L
861.888 436.997 L
862.754 436.648 L
863.62 436.299 L
864.486 435.95 L
865.351 435.601 L
866.217 435.252 L
867.083 434.903 L
867.949 434.554 L
868.815 434.205 L
869.681 433.856 L
870.547 433.507 L
871.413 433.157 L
872.279 432.808 L
873.145 432.459 L
874.011 432.11 L
874.877 431.761 L
875.743 431.412 L
876.609 431.063 L
877.475 430.714 L
S
GR
GS
[0.75 0 0 0.75 0 0.25] CT
0 0.447 0.741 RC
2 LJ
6.667 LW
N
877.475 430.714 M
878.341 430.365 L
879.207 430.016 L
880.073 429.667 L
880.939 429.318 L
881.805 428.969 L
882.67 428.62 L
883.536 428.271 L
884.402 427.922 L
885.268 427.573 L
886.134 427.223 L
887 426.874 L
887.866 426.525 L
888.732 426.176 L
889.598 425.827 L
890.464 425.478 L
891.33 425.129 L
892.196 424.78 L
893.062 424.431 L
893.928 424.082 L
894.794 423.733 L
895.66 423.384 L
896.526 423.035 L
897.392 422.686 L
898.258 422.337 L
899.124 421.988 L
899.99 421.638 L
900.855 421.289 L
901.721 420.94 L
902.587 420.591 L
903.453 420.242 L
904.319 419.893 L
905.185 419.544 L
906.051 419.195 L
906.917 418.846 L
907.783 418.497 L
908.649 418.148 L
909.515 417.799 L
910.381 417.45 L
911.247 417.101 L
912.113 416.752 L
912.979 416.403 L
913.845 416.054 L
914.711 415.704 L
915.577 415.355 L
916.443 415.006 L
917.309 414.657 L
918.174 414.308 L
919.04 413.959 L
919.906 413.61 L
S
GR
GS
[0.75 0 0 0.75 0 0.25] CT
0 0.447 0.741 RC
2 LJ
6.667 LW
N
919.906 413.61 M
920.772 413.261 L
921.638 412.912 L
922.504 412.563 L
923.37 412.214 L
924.236 411.865 L
925.102 411.516 L
925.968 411.167 L
926.834 410.818 L
927.7 410.469 L
928.566 410.12 L
929.432 409.77 L
930.298 409.421 L
931.164 409.072 L
932.03 408.723 L
932.896 408.374 L
933.762 408.025 L
934.628 407.676 L
935.494 407.327 L
936.359 406.978 L
937.225 406.629 L
938.091 406.28 L
938.957 405.931 L
939.823 405.582 L
940.689 405.233 L
941.555 404.884 L
942.421 404.535 L
943.287 404.185 L
944.153 403.836 L
945.019 403.487 L
945.885 403.138 L
946.751 402.789 L
947.617 402.44 L
948.483 402.091 L
949.349 401.742 L
950.215 401.393 L
951.081 401.044 L
951.947 400.695 L
952.813 400.346 L
953.679 399.997 L
954.544 399.648 L
955.41 399.299 L
956.276 398.95 L
957.142 398.601 L
958.008 398.251 L
958.874 397.902 L
959.74 397.553 L
960.26 395.972 L
961.126 394.703 L
961.992 393.435 L
S
GR
GS
[0.75 0 0 0.75 0 0.25] CT
0 0.447 0.741 RC
2 LJ
6.667 LW
N
961.992 393.435 M
962.858 392.168 L
963.724 390.901 L
964.59 389.635 L
965.456 388.37 L
966.321 387.106 L
967.187 385.843 L
968.053 384.581 L
968.919 383.321 L
969.785 382.061 L
970.651 380.803 L
971.517 379.546 L
972.383 378.291 L
973.249 377.037 L
974.115 375.784 L
974.981 374.534 L
975.847 373.284 L
976.713 372.037 L
977.579 370.791 L
978.445 369.547 L
979.311 368.306 L
980.177 367.066 L
981.043 365.828 L
981.909 364.592 L
982.775 363.358 L
983.64 362.127 L
984.506 360.898 L
985.372 359.671 L
986.238 358.447 L
987.104 357.225 L
987.97 356.005 L
988.836 354.788 L
989.702 353.574 L
990.568 352.363 L
991.434 351.154 L
992.3 349.948 L
993.166 348.745 L
994.032 347.545 L
994.898 346.348 L
995.764 345.155 L
996.63 343.964 L
997.496 342.776 L
998.362 341.592 L
999.228 340.411 L
1000.094 339.233 L
1000.96 338.059 L
1001.826 336.888 L
1002.691 335.721 L
1003.557 334.558 L
1004.423 333.398 L
S
GR
GS
[0.75 0 0 0.75 0 0.25] CT
0 0.447 0.741 RC
2 LJ
6.667 LW
N
1004.423 333.398 M
1005.289 332.241 L
1006.155 331.089 L
1007.021 329.94 L
1007.887 328.796 L
1008.753 327.655 L
1009.619 326.518 L
1010.485 325.385 L
1011.351 324.257 L
1012.217 323.132 L
1013.083 322.012 L
1013.949 320.896 L
1014.815 319.785 L
1015.681 318.677 L
1016.547 317.574 L
1017.413 316.476 L
1018.279 315.382 L
1019.145 314.293 L
1020.01 313.209 L
1020.876 312.129 L
1021.742 311.054 L
1022.608 309.983 L
1023.474 308.918 L
1024.34 307.858 L
1025.206 306.802 L
1026.072 305.752 L
1026.938 304.706 L
1027.804 303.666 L
1028.67 302.631 L
1029.536 301.601 L
1030.402 300.576 L
1031.268 299.556 L
1032.134 298.542 L
1033 297.534 L
1033.866 296.531 L
1034.732 295.533 L
1035.598 294.541 L
1036.464 293.554 L
1037.329 292.573 L
1038.195 291.598 L
1039.061 290.629 L
1039.927 289.665 L
1040.793 288.707 L
1041.659 287.755 L
1042.525 286.809 L
1043.391 285.869 L
1044.257 284.935 L
1045.123 284.007 L
1045.989 283.085 L
1046.855 282.169 L
S
GR
GS
[0.75 0 0 0.75 0 0.25] CT
0 0.447 0.741 RC
2 LJ
6.667 LW
N
1046.855 282.169 M
1047.721 281.259 L
1048.587 280.356 L
1049.453 279.458 L
1050.319 278.567 L
1051.185 277.683 L
1052.051 276.805 L
1052.917 275.933 L
1053.783 275.067 L
1054.649 274.209 L
1055.515 273.356 L
1056.38 272.51 L
1057.246 271.671 L
1058.112 270.839 L
1058.978 270.013 L
1059.844 269.194 L
1060.71 268.381 L
1061.576 267.576 L
1062.442 266.777 L
1063.308 265.985 L
1064.174 265.2 L
1065.04 264.422 L
1065.906 263.651 L
1066.772 262.887 L
1067.638 262.13 L
1068.504 261.38 L
1069.37 260.637 L
1070.236 259.901 L
1071.102 259.173 L
1071.968 258.451 L
1072.834 257.737 L
1073.699 257.03 L
1074.565 256.331 L
1075.431 255.638 L
1076.297 254.953 L
1077.163 254.276 L
1078.029 253.605 L
1078.895 252.942 L
1079.761 252.287 L
1080.627 251.639 L
1081.493 250.999 L
1082.359 250.366 L
1083.225 249.74 L
1084.091 249.123 L
1084.957 248.512 L
1085.823 247.91 L
1086.689 247.315 L
1087.555 246.728 L
1088.421 246.148 L
1089.287 245.576 L
S
GR
GS
[0.75 0 0 0.75 0 0.25] CT
0 0.447 0.741 RC
2 LJ
6.667 LW
N
1089.287 245.576 M
1090.153 245.012 L
1091.019 244.456 L
1091.885 243.907 L
1092.75 243.366 L
1093.616 242.834 L
1094.482 242.308 L
1095.348 241.791 L
1096.214 241.282 L
1097.08 240.78 L
1097.946 240.287 L
1098.812 239.801 L
1099.678 239.323 L
1100.544 238.853 L
1101.41 238.392 L
1102.276 237.938 L
1103.142 237.492 L
1104.008 237.054 L
1104.874 236.625 L
1105.74 236.203 L
1106.606 235.789 L
1107.472 235.384 L
1108.338 234.986 L
1109.203 234.597 L
1110.069 234.215 L
1110.936 233.842 L
1111.801 233.477 L
1112.667 233.12 L
1113.533 232.772 L
1114.399 232.431 L
1115.265 232.099 L
1116.131 231.774 L
1116.997 231.458 L
1117.863 231.15 L
1118.729 230.851 L
1119.595 230.559 L
1120.461 230.276 L
1121.327 230.001 L
1122.193 229.734 L
1123.059 229.475 L
1123.925 229.225 L
1124.791 228.983 L
1125.657 228.749 L
1126.523 228.523 L
1127.389 228.306 L
1128.255 228.096 L
1129.12 227.895 L
1129.986 227.703 L
1130.852 227.518 L
1131.718 227.342 L
S
GR
GS
[0.75 0 0 0.75 0 0.25] CT
0 0.447 0.741 RC
2 LJ
6.667 LW
N
1131.718 227.342 M
1132.584 227.174 L
1133.45 227.014 L
1134.316 226.863 L
1135.182 226.719 L
1136.048 226.584 L
1136.914 226.457 L
1137.78 226.339 L
1138.646 226.228 L
1139.512 226.126 L
1140.378 226.032 L
1141.244 225.947 L
1142.11 225.869 L
1142.976 225.8 L
1143.842 225.739 L
1144.708 225.686 L
1145.573 225.641 L
1146.44 225.604 L
1147.305 225.576 L
1148.171 225.556 L
1149.037 225.544 L
1149.903 225.54 L
1150.769 225.544 L
1151.635 225.556 L
1152.501 225.577 L
1153.367 225.605 L
1154.233 225.642 L
1155.099 225.687 L
1155.965 225.739 L
1156.831 225.8 L
1157.697 225.869 L
1158.563 225.946 L
1159.429 226.031 L
1160.295 226.124 L
1161.161 226.225 L
1162.027 226.334 L
1162.893 226.451 L
1163.759 226.576 L
1164.624 226.708 L
1165.49 226.849 L
1166.356 226.998 L
1167.222 227.154 L
1168.088 227.318 L
1168.954 227.491 L
1169.82 227.671 L
1170.686 227.859 L
1171.552 228.054 L
1172.418 228.258 L
1173.284 228.469 L
1174.15 228.688 L
S
GR
GS
[0.75 0 0 0.75 0 0.25] CT
0 0.447 0.741 RC
2 LJ
6.667 LW
N
1174.15 228.688 M
1175.016 228.914 L
1175.882 229.148 L
1176.748 229.39 L
1177.614 229.64 L
1178.48 229.897 L
1179.346 230.162 L
1180.212 230.435 L
1181.078 230.715 L
1181.943 231.002 L
1182.809 231.297 L
1183.675 231.6 L
1184.541 231.91 L
1185.407 232.227 L
1186.273 232.552 L
1187.139 232.884 L
1188.005 233.224 L
1188.871 233.571 L
1189.737 233.925 L
1190.603 234.287 L
1191.469 234.656 L
1192.335 235.032 L
1193.201 235.416 L
1194.067 235.806 L
1194.933 236.204 L
1195.799 236.609 L
1196.665 237.021 L
1197.531 237.44 L
1198.397 237.866 L
1199.263 238.299 L
1200.129 238.739 L
1200.995 239.186 L
1201.86 239.64 L
1202.726 240.101 L
1203.592 240.568 L
1204.458 241.043 L
1205.324 241.524 L
1206.19 242.013 L
1207.056 242.507 L
1207.922 243.009 L
1208.788 243.517 L
1209.654 244.032 L
1210.52 244.554 L
1211.386 245.082 L
1212.252 245.617 L
1213.118 246.158 L
1213.984 246.706 L
1214.85 247.26 L
1215.716 247.82 L
1216.582 248.387 L
S
GR
GS
[0.75 0 0 0.75 0 0.25] CT
0 0.447 0.741 RC
2 LJ
6.667 LW
N
1216.582 248.387 M
1217.448 248.96 L
1218.313 249.54 L
1219.179 250.126 L
1220.045 250.718 L
1220.911 251.316 L
1221.777 251.921 L
1222.643 252.531 L
1223.509 253.148 L
1224.375 253.771 L
1225.241 254.4 L
1226.107 255.034 L
1226.973 255.675 L
1227.839 256.322 L
1228.705 256.974 L
1229.571 257.633 L
1230.437 258.297 L
1231.303 258.967 L
1232.169 259.642 L
1233.035 260.324 L
1233.901 261.011 L
1234.767 261.703 L
1235.633 262.401 L
1236.499 263.105 L
1237.364 263.814 L
1238.23 264.529 L
1239.096 265.249 L
1239.962 265.975 L
1240.828 266.705 L
1241.694 267.442 L
1242.56 268.183 L
1243.426 268.93 L
1244.292 269.681 L
1245.158 270.438 L
1246.024 271.2 L
1246.89 271.967 L
1247.756 272.739 L
1248.622 273.516 L
1249.488 274.298 L
1250.354 275.085 L
1251.22 275.877 L
1252.086 276.674 L
1252.952 277.475 L
1253.818 278.281 L
1254.684 279.092 L
1255.549 279.907 L
1256.415 280.727 L
1257.281 281.552 L
1258.147 282.381 L
1259.013 283.215 L
S
GR
GS
[0.75 0 0 0.75 0 0.25] CT
0 0.447 0.741 RC
2 LJ
6.667 LW
N
1259.013 283.215 M
1259.879 284.053 L
1260.745 284.895 L
1261.611 285.742 L
1262.477 286.593 L
1263.343 287.448 L
1264.209 288.308 L
1265.075 289.172 L
1265.941 290.04 L
1266.807 290.912 L
1267.673 291.788 L
1268.539 292.668 L
1269.405 293.552 L
1270.271 294.44 L
1271.137 295.332 L
1272.003 296.228 L
1272.868 297.127 L
1273.734 298.031 L
1274.6 298.938 L
1275.466 299.848 L
1276.332 300.763 L
1277.198 301.681 L
1278.064 302.602 L
1278.93 303.527 L
1279.796 304.456 L
1280.662 305.388 L
1281.528 306.323 L
1282.394 307.262 L
1283.26 308.203 L
1284.126 309.149 L
1284.992 310.097 L
1285.858 311.048 L
1286.724 312.003 L
1287.59 312.961 L
1288.456 313.922 L
1289.322 314.885 L
1290.188 315.852 L
1291.053 316.822 L
1291.919 317.794 L
1292.785 318.769 L
1293.651 319.747 L
1294.517 320.728 L
1295.383 321.712 L
1296.249 322.698 L
1297.115 323.686 L
1297.981 324.678 L
1298.847 325.672 L
1299.713 326.668 L
1300.579 327.667 L
1301.445 328.668 L
S
GR
GS
[0.75 0 0 0.75 0 0.25] CT
0 0.447 0.741 RC
2 LJ
6.667 LW
N
1301.445 328.668 M
1302.311 329.671 L
1303.177 330.677 L
1304.043 331.685 L
1304.909 332.696 L
1305.775 333.708 L
1306.641 334.723 L
1307.507 335.74 L
1308.372 336.758 L
1309.239 337.779 L
1310.104 338.802 L
1310.97 339.827 L
1311.836 340.853 L
1312.702 341.882 L
1313.568 342.912 L
1314.434 343.944 L
1315.3 344.978 L
1316.166 346.014 L
1317.032 347.051 L
1317.898 348.09 L
1318.764 349.13 L
1319.63 350.172 L
1320.496 350.901 L
1321.362 351.942 L
1322.228 352.983 L
1323.094 354.023 L
1323.96 355.063 L
1324.826 356.101 L
1325.692 357.139 L
1326.557 358.176 L
1327.423 359.212 L
1328.289 360.246 L
1329.155 361.278 L
1330.021 362.309 L
1330.887 363.337 L
1331.753 364.364 L
1332.619 365.388 L
1333.485 366.409 L
1334.351 367.428 L
1335.217 368.445 L
1336.083 369.458 L
1336.949 370.468 L
1337.815 371.475 L
1338.681 372.478 L
1339.547 373.478 L
1340.413 374.473 L
1341.279 375.465 L
1342.145 376.453 L
1343.011 377.436 L
1343.877 378.415 L
S
GR
GS
[0.75 0 0 0.75 0 0.25] CT
0 0.447 0.741 RC
2 LJ
6.667 LW
N
1343.877 378.415 M
1344.743 379.389 L
1345.608 380.358 L
1346.474 381.323 L
1347.34 382.282 L
1348.206 383.236 L
1349.072 384.184 L
1349.938 385.126 L
1350.804 386.063 L
1351.67 386.994 L
1352.536 387.918 L
1353.402 388.837 L
1354.268 389.748 L
1355.134 390.653 L
1356 391.551 L
1356.866 392.442 L
1357.732 393.326 L
1358.598 394.203 L
1359.464 395.072 L
1360.33 395.933 L
1361.196 396.786 L
1362.062 397.632 L
1362.927 398.469 L
1363.793 399.298 L
1364.659 400.118 L
1365.525 400.93 L
1366.391 401.732 L
1367.257 402.526 L
1368.123 403.31 L
1368.989 404.085 L
1369.855 404.851 L
1370.721 405.606 L
1371.587 406.352 L
1372.453 407.088 L
1373.319 407.814 L
1374.185 408.529 L
1375.051 409.233 L
1375.917 409.927 L
1376.783 410.61 L
1377.649 411.282 L
1378.515 411.942 L
1379.381 412.592 L
1380.247 413.229 L
1381.112 413.855 L
1381.978 414.469 L
1382.844 415.071 L
1383.71 415.661 L
1384.576 416.238 L
1385.442 416.803 L
1386.308 417.354 L
S
GR
GS
[0.75 0 0 0.75 0 0.25] CT
0 0.447 0.741 RC
2 LJ
6.667 LW
N
1386.308 417.354 M
1387.174 417.893 L
1388.04 418.419 L
1388.906 418.932 L
1389.772 419.431 L
1390.638 419.917 L
1391.504 420.388 L
1392.37 420.846 L
1393.236 421.29 L
1394.102 421.719 L
1394.968 422.134 L
1395.834 422.535 L
1396.7 422.92 L
1397.566 423.291 L
1398.432 423.647 L
1399.297 423.987 L
1400.163 424.312 L
1401.029 424.621 L
1401.895 424.914 L
1402.761 425.192 L
1403.627 425.453 L
1404.493 425.698 L
1405.359 425.927 L
1406.225 426.139 L
1407.091 426.334 L
1407.957 426.512 L
1408.823 426.673 L
1409.689 426.817 L
1410.555 426.943 L
1411.421 427.052 L
1412.287 427.144 L
1413.153 427.219 L
1414.019 427.278 L
1414.885 427.32 L
1415.751 427.347 L
1416.616 427.357 L
1417.483 427.352 L
1418.348 427.332 L
1419.214 427.296 L
1420.08 427.246 L
1420.946 427.182 L
1421.812 427.102 L
1422.678 427.009 L
1423.544 426.902 L
1424.41 426.782 L
1425.276 426.648 L
1426.142 426.501 L
1427.008 426.341 L
1427.874 426.169 L
1428.74 425.984 L
S
GR
GS
[0.75 0 0 0.75 0 0.25] CT
0 0.447 0.741 RC
2 LJ
6.667 LW
N
1428.74 425.984 M
1429.606 425.788 L
1430.472 425.579 L
1431.338 425.359 L
1432.204 425.128 L
1433.07 424.885 L
1433.936 424.631 L
1434.802 424.367 L
1435.667 424.093 L
1436.533 423.809 L
1437.399 423.514 L
1438.265 423.21 L
1439.131 422.897 L
1439.997 422.574 L
1440.863 422.243 L
1441.729 421.903 L
1442.595 421.555 L
1443.461 421.199 L
1444.327 420.834 L
1445.193 420.462 L
1446.059 420.083 L
1446.925 419.696 L
1447.791 419.303 L
1448.657 418.903 L
1449.523 418.497 L
1450.389 418.084 L
1451.255 417.666 L
1452.12 417.242 L
1452.987 416.812 L
1453.852 416.378 L
1454.718 415.938 L
1455.584 415.494 L
1456.45 415.045 L
1457.316 414.592 L
1458.182 414.136 L
1459.048 413.675 L
1459.914 413.212 L
1460.78 412.745 L
1461.646 412.275 L
1462.512 411.802 L
1463.378 411.327 L
1464.244 410.85 L
1465.11 410.371 L
1465.976 409.89 L
1466.842 409.408 L
1467.708 408.924 L
1468.574 408.44 L
1469.44 407.955 L
1470.306 407.469 L
1471.172 406.983 L
S
GR
GS
[0.75 0 0 0.75 0 0.25] CT
0 0.447 0.741 RC
2 LJ
6.667 LW
N
1471.172 406.983 M
1472.037 406.497 L
1472.903 406.012 L
1473.769 405.527 L
1474.635 405.043 L
1475.501 404.56 L
1476.367 404.078 L
1477.233 403.598 L
1478.099 403.119 L
1478.965 402.643 L
1479.831 402.168 L
1480.697 401.697 L
1481.563 401.228 L
1482.429 400.762 L
1483.295 400.299 L
1484.161 399.84 L
1485.027 399.384 L
1485.893 398.933 L
1486.759 398.486 L
1487.625 398.043 L
1488.491 397.605 L
1489.356 397.172 L
1490.222 396.744 L
1491.089 396.322 L
1491.954 395.905 L
1492.82 395.495 L
1493.686 395.09 L
1494.552 394.692 L
1495.418 394.301 L
1496.284 393.917 L
1497.15 393.54 L
1498.016 393.171 L
1498.882 392.809 L
1499.748 392.455 L
1500.614 392.109 L
1501.48 391.772 L
1502.346 391.442 L
1503.212 391.121 L
1504.078 390.807 L
1504.944 390.501 L
1505.81 390.203 L
1506.676 389.913 L
1507.542 389.63 L
1508.407 389.355 L
1509.273 389.087 L
1510.139 388.827 L
1511.005 388.574 L
1511.871 388.328 L
1512.737 388.09 L
1513.603 387.858 L
S
GR
GS
[0.75 0 0 0.75 0 0.25] CT
0 0.447 0.741 RC
2 LJ
6.667 LW
N
1513.603 387.858 M
1514.469 387.634 L
1515.335 387.417 L
1516.201 387.206 L
1517.067 387.003 L
1517.933 386.806 L
1518.799 386.616 L
1519.665 386.432 L
1520.531 386.255 L
1521.397 386.084 L
1522.263 385.92 L
1523.129 385.763 L
1523.995 385.611 L
1524.86 385.466 L
1525.727 385.327 L
1526.592 385.193 L
1527.458 385.066 L
1528.324 384.945 L
1529.19 384.83 L
1530.056 384.72 L
1530.922 384.616 L
1531.788 384.518 L
1532.654 384.425 L
1533.52 384.338 L
1534.386 384.256 L
1535.252 384.179 L
1536.118 384.108 L
1536.984 384.042 L
1537.85 383.981 L
1538.716 383.925 L
1539.582 383.874 L
1540.448 383.828 L
1541.314 383.787 L
1542.18 383.75 L
1543.046 383.719 L
1543.911 383.691 L
1544.777 383.669 L
1545.643 383.651 L
1546.509 383.637 L
1547.375 383.628 L
1548.241 383.623 L
1549.107 383.622 L
1549.973 383.625 L
1550.839 383.633 L
1551.705 383.644 L
1552.571 383.659 L
1553.437 383.678 L
1554.303 383.701 L
1555.169 383.728 L
1556.035 383.758 L
S
GR
GS
[0.75 0 0 0.75 0 0.25] CT
0 0.447 0.741 RC
2 LJ
6.667 LW
N
1556.035 383.758 M
1556.901 383.792 L
1557.767 383.829 L
1558.633 383.869 L
1559.499 383.913 L
1560.365 383.961 L
1561.231 384.011 L
1562.096 384.065 L
1562.962 384.121 L
1563.828 384.181 L
1564.694 384.243 L
1565.56 384.309 L
1566.426 384.377 L
1567.292 384.448 L
1568.158 384.521 L
1569.024 384.597 L
1569.89 384.676 L
1570.756 384.757 L
1571.622 384.84 L
1572.488 384.926 L
1573.354 385.013 L
1574.22 385.103 L
1575.086 385.195 L
1575.952 385.289 L
1576.818 385.385 L
1577.684 385.483 L
1578.55 385.582 L
1579.416 385.683 L
1580.281 385.786 L
1581.147 385.891 L
1582.013 385.996 L
1582.879 386.104 L
1583.745 386.212 L
1584.611 386.322 L
1585.477 386.433 L
1586.343 386.546 L
1587.209 386.659 L
1588.075 386.773 L
1588.941 386.888 L
1589.807 387.004 L
1590.673 387.121 L
1591.539 387.239 L
1592.405 387.357 L
1593.271 387.476 L
1594.137 387.596 L
1595.003 387.717 L
1595.869 387.838 L
1596.735 387.961 L
1597.6 388.083 L
1598.466 388.207 L
S
GR
GS
[0.75 0 0 0.75 0 0.25] CT
0 0.447 0.741 RC
2 LJ
6.667 LW
N
1598.466 388.207 M
1599.333 388.331 L
1600.198 388.456 L
1601.064 388.582 L
1601.93 388.709 L
1602.796 388.836 L
1603.662 388.964 L
1604.528 389.092 L
1605.394 389.221 L
1606.26 389.351 L
1607.126 389.481 L
1607.992 389.612 L
1608.858 389.744 L
1609.724 389.876 L
1610.59 390.009 L
1611.456 390.143 L
1612.322 390.277 L
1613.188 390.412 L
1614.054 390.547 L
1614.92 390.683 L
1615.786 390.819 L
1616.651 390.956 L
1617.517 391.094 L
1618.383 391.232 L
1619.249 391.371 L
1620.115 391.51 L
1620.981 391.649 L
1621.847 391.79 L
1622.713 391.93 L
1623.579 392.072 L
1624.445 392.213 L
1625.311 392.356 L
1626.177 392.498 L
1627.043 392.641 L
1627.909 392.785 L
1628.775 392.929 L
1629.641 393.074 L
1630.507 393.219 L
1631.373 393.364 L
1632.239 393.51 L
1633.104 393.656 L
1633.97 393.803 L
1634.836 393.95 L
1635.702 394.097 L
1636.568 394.245 L
1637.434 394.393 L
1638.3 394.542 L
1639.166 394.691 L
1640.032 394.84 L
1640.898 394.99 L
S
GR
GS
[0.75 0 0 0.75 0 0.25] CT
0 0.447 0.741 RC
2 LJ
6.667 LW
N
1640.898 394.99 M
1641.764 395.14 L
1642.63 395.29 L
1643.496 395.44 L
1644.362 395.591 L
1645.228 395.743 L
1646.094 395.894 L
1646.96 396.046 L
1647.826 396.198 L
1648.692 396.351 L
1649.558 396.503 L
1650.424 396.656 L
1651.29 396.81 L
1652.156 396.963 L
1653.021 397.117 L
1653.887 397.271 L
1654.753 397.425 L
1655.619 397.579 L
1656.485 397.734 L
1657.351 397.889 L
1658.217 398.044 L
1659.083 398.199 L
1659.949 398.354 L
1660.815 398.51 L
1661.681 398.665 L
1662.547 398.821 L
1663.413 398.977 L
1664.279 399.133 L
1665.145 399.29 L
1666.011 399.446 L
1666.877 399.603 L
1667.743 399.759 L
1668.609 399.916 L
1669.475 400.073 L
1670.34 400.23 L
1671.206 400.387 L
1672.072 400.544 L
1672.938 400.701 L
1673.804 400.858 L
1674.67 401.015 L
1675.536 401.173 L
1676.402 401.33 L
1677.268 401.487 L
1678.134 401.645 L
1679 401.802 L
S
GR
GS
[0.75 0 0 0.75 0 0.25] CT
0.851 0.325 0.098 RC
2 LJ
6.667 LW
N
241 648.91 M
241.866 646.653 L
242.732 644.539 L
243.598 642.561 L
244.464 640.713 L
245.33 638.988 L
246.196 637.382 L
247.062 635.888 L
247.928 634.502 L
248.794 633.217 L
249.66 632.029 L
250.525 630.932 L
251.391 629.924 L
252.257 628.998 L
253.123 628.151 L
253.989 627.379 L
254.855 626.678 L
255.721 626.044 L
256.587 625.474 L
257.453 624.964 L
258.319 624.511 L
259.185 624.111 L
260.051 623.762 L
260.917 623.461 L
261.783 623.206 L
262.649 622.992 L
263.515 622.819 L
264.381 622.683 L
265.247 622.582 L
266.113 622.514 L
266.979 622.477 L
267.845 622.469 L
268.71 622.488 L
269.576 622.532 L
270.442 622.599 L
271.308 622.688 L
272.174 622.797 L
273.04 622.924 L
273.906 623.068 L
274.772 623.229 L
275.638 623.403 L
276.504 623.59 L
277.37 623.789 L
278.236 623.999 L
279.102 624.219 L
279.968 624.447 L
280.834 624.683 L
281.7 624.925 L
282.566 625.174 L
283.432 625.427 L
S
GR
GS
[0.75 0 0 0.75 0 0.25] CT
0.851 0.325 0.098 RC
2 LJ
6.667 LW
N
283.432 625.427 M
284.298 625.684 L
285.164 625.945 L
286.03 626.208 L
286.895 626.473 L
287.761 626.74 L
288.627 627.008 L
289.493 627.275 L
290.359 627.543 L
291.225 627.809 L
292.091 628.074 L
292.957 628.337 L
293.823 628.599 L
294.689 628.857 L
295.555 629.112 L
296.421 629.365 L
297.287 629.613 L
298.153 629.858 L
299.019 630.098 L
299.885 630.334 L
300.751 630.565 L
301.617 630.791 L
302.483 631.012 L
303.349 631.227 L
304.215 631.437 L
305.08 631.641 L
305.946 631.839 L
306.812 632.031 L
307.678 632.218 L
308.544 632.397 L
309.41 632.571 L
310.276 632.738 L
311.142 632.899 L
312.008 633.053 L
312.874 633.2 L
313.74 633.341 L
314.606 633.475 L
315.472 633.602 L
316.338 633.722 L
317.204 633.836 L
318.07 633.943 L
318.936 634.043 L
319.802 634.136 L
320.668 634.222 L
321.534 634.302 L
322.4 634.375 L
323.265 634.441 L
324.131 634.5 L
324.997 634.553 L
325.863 634.599 L
S
GR
GS
[0.75 0 0 0.75 0 0.25] CT
0.851 0.325 0.098 RC
2 LJ
6.667 LW
N
325.863 634.599 M
326.729 634.638 L
327.595 634.671 L
328.461 634.698 L
329.327 634.717 L
330.193 634.731 L
331.059 634.738 L
331.925 634.739 L
332.791 634.733 L
333.657 634.721 L
334.523 634.703 L
335.389 634.68 L
336.255 634.65 L
337.121 634.614 L
337.987 634.572 L
338.853 634.525 L
339.719 634.471 L
340.585 634.412 L
341.45 634.348 L
342.316 634.278 L
343.182 634.203 L
344.048 634.122 L
344.914 634.036 L
345.78 633.945 L
346.646 633.848 L
347.512 633.747 L
348.378 633.64 L
349.244 633.529 L
350.11 633.413 L
350.976 633.292 L
351.842 633.166 L
352.708 633.036 L
353.574 632.901 L
354.44 632.762 L
355.306 632.618 L
356.172 632.47 L
357.038 632.318 L
357.904 632.162 L
358.77 632.001 L
359.635 631.837 L
360.501 631.668 L
361.367 631.496 L
362.233 631.32 L
363.099 631.14 L
363.965 630.956 L
364.831 630.769 L
365.697 630.578 L
366.563 630.384 L
367.429 630.186 L
368.295 629.985 L
S
GR
GS
[0.75 0 0 0.75 0 0.25] CT
0.851 0.325 0.098 RC
2 LJ
6.667 LW
N
368.295 629.985 M
369.161 629.781 L
370.027 629.574 L
370.893 629.363 L
371.759 629.149 L
372.625 628.932 L
373.491 628.713 L
374.357 628.49 L
375.223 628.264 L
376.089 628.036 L
376.954 627.805 L
377.82 627.571 L
378.686 627.334 L
379.552 627.095 L
380.418 626.854 L
381.284 626.609 L
382.15 626.363 L
383.016 626.114 L
383.882 625.863 L
384.748 625.609 L
385.614 625.353 L
386.48 625.095 L
387.346 624.835 L
388.212 624.573 L
389.078 624.309 L
389.944 624.043 L
390.81 623.774 L
391.676 623.504 L
392.542 623.232 L
393.408 622.958 L
394.274 622.683 L
395.139 622.405 L
396.005 622.126 L
396.871 621.845 L
397.737 621.563 L
398.603 621.278 L
399.469 620.993 L
400.335 620.706 L
401.201 620.417 L
402.067 620.127 L
402.933 619.835 L
403.799 619.542 L
404.665 619.247 L
405.531 618.952 L
406.397 618.655 L
407.263 618.356 L
408.129 618.057 L
408.995 617.756 L
409.861 617.454 L
410.727 617.15 L
S
GR
GS
[0.75 0 0 0.75 0 0.25] CT
0.851 0.325 0.098 RC
2 LJ
6.667 LW
N
410.727 617.15 M
411.593 616.846 L
412.458 616.541 L
413.324 616.234 L
414.19 615.926 L
415.056 615.618 L
415.922 615.308 L
416.788 614.997 L
417.654 614.686 L
418.52 614.373 L
419.386 614.06 L
420.252 613.745 L
421.118 613.43 L
421.984 613.114 L
422.85 612.797 L
423.716 612.479 L
424.582 612.161 L
425.448 611.841 L
426.314 611.521 L
427.18 611.2 L
428.046 610.879 L
428.912 610.556 L
429.778 610.233 L
430.643 609.91 L
431.509 609.585 L
432.375 609.26 L
433.241 608.935 L
434.107 608.609 L
434.973 608.282 L
435.839 607.955 L
436.705 607.627 L
437.571 607.298 L
438.437 606.969 L
439.303 606.64 L
440.169 606.31 L
441.035 605.979 L
441.901 605.648 L
442.767 605.317 L
443.633 604.985 L
444.499 604.652 L
445.365 604.319 L
446.231 603.986 L
447.097 603.652 L
447.963 603.318 L
448.828 602.984 L
449.694 602.649 L
450.56 602.314 L
451.426 601.978 L
452.292 601.642 L
453.158 601.306 L
S
GR
GS
[0.75 0 0 0.75 0 0.25] CT
0.851 0.325 0.098 RC
2 LJ
6.667 LW
N
453.158 601.306 M
454.024 600.969 L
454.89 600.632 L
455.756 600.295 L
456.622 599.957 L
457.488 599.619 L
458.354 599.281 L
459.22 598.942 L
460.086 598.604 L
460.952 598.265 L
461.818 597.925 L
462.684 597.586 L
463.55 597.246 L
464.416 596.906 L
465.282 596.565 L
466.148 596.225 L
467.013 595.884 L
467.879 595.543 L
468.745 595.201 L
469.611 594.86 L
470.477 594.518 L
471.343 594.176 L
472.209 593.834 L
473.075 593.492 L
473.941 593.15 L
474.807 592.807 L
475.673 592.464 L
476.539 592.121 L
477.405 591.778 L
478.271 591.435 L
479.137 591.091 L
480.003 590.748 L
480.869 590.404 L
481.735 590.06 L
482.601 589.716 L
483.467 589.372 L
484.333 589.027 L
485.198 588.683 L
486.064 588.338 L
486.93 587.993 L
487.796 587.649 L
488.662 587.304 L
489.528 586.959 L
490.394 586.613 L
491.26 586.268 L
492.126 585.923 L
492.992 585.577 L
493.858 585.232 L
494.724 584.886 L
495.59 584.54 L
S
GR
GS
[0.75 0 0 0.75 0 0.25] CT
0.851 0.325 0.098 RC
2 LJ
6.667 LW
N
495.59 584.54 M
496.456 584.194 L
497.322 583.848 L
498.188 583.502 L
499.054 583.156 L
499.92 582.81 L
500.786 582.463 L
501.652 582.117 L
502.518 581.771 L
503.383 581.424 L
504.249 581.077 L
505.115 580.731 L
505.981 580.384 L
506.847 580.037 L
507.713 579.69 L
508.579 579.343 L
509.445 578.996 L
510.311 578.649 L
511.177 578.302 L
512.043 577.955 L
512.909 577.608 L
513.775 577.261 L
514.641 576.913 L
515.507 576.566 L
516.373 576.219 L
517.239 575.871 L
518.105 575.523 L
518.971 575.176 L
519.837 574.828 L
520.703 574.481 L
521.568 574.133 L
522.434 573.785 L
523.3 573.438 L
524.166 573.09 L
525.032 572.742 L
525.898 572.394 L
526.764 572.046 L
527.63 571.698 L
528.496 571.35 L
529.362 571.002 L
530.228 570.654 L
531.094 570.306 L
531.96 569.958 L
532.826 569.61 L
533.692 569.262 L
534.558 568.914 L
535.424 568.565 L
536.29 568.217 L
537.156 567.869 L
538.022 567.521 L
S
GR
GS
[0.75 0 0 0.75 0 0.25] CT
0.851 0.325 0.098 RC
2 LJ
6.667 LW
N
538.022 567.521 M
538.888 567.172 L
539.753 566.824 L
540.619 566.476 L
541.485 566.127 L
542.351 565.779 L
543.217 565.43 L
544.083 565.082 L
544.949 564.734 L
545.815 564.385 L
546.681 564.037 L
547.547 563.688 L
548.413 563.34 L
549.279 562.991 L
550.145 562.643 L
551.011 562.294 L
551.877 561.945 L
552.743 561.597 L
553.609 561.248 L
554.475 560.9 L
555.341 560.551 L
556.207 560.202 L
557.073 559.854 L
557.938 559.505 L
558.804 559.156 L
559.67 558.808 L
560.536 558.459 L
561.402 558.11 L
562.268 557.761 L
563.134 557.413 L
564 557.064 L
564.866 556.715 L
565.732 556.366 L
566.598 556.018 L
567.464 555.669 L
568.33 555.32 L
569.196 554.971 L
570.062 554.622 L
570.928 554.274 L
571.794 553.925 L
572.66 553.576 L
573.526 553.227 L
574.392 552.878 L
575.258 552.53 L
576.123 552.181 L
576.989 551.832 L
577.855 551.483 L
578.721 551.134 L
579.587 550.785 L
580.453 550.436 L
S
GR
GS
[0.75 0 0 0.75 0 0.25] CT
0.851 0.325 0.098 RC
2 LJ
6.667 LW
N
580.453 550.436 M
581.319 550.087 L
582.185 549.739 L
583.051 549.39 L
583.917 549.041 L
584.783 548.692 L
585.649 548.343 L
586.515 547.994 L
587.381 547.645 L
588.247 547.296 L
589.113 546.947 L
589.979 546.598 L
590.845 546.249 L
591.711 545.9 L
592.577 545.551 L
593.443 545.202 L
594.308 544.854 L
595.174 544.505 L
596.04 544.156 L
596.906 543.807 L
597.772 543.458 L
598.638 543.109 L
599.504 542.76 L
600.37 542.411 L
601.236 542.062 L
602.102 541.713 L
602.968 541.364 L
603.834 541.015 L
604.7 540.666 L
605.566 540.317 L
606.432 539.968 L
607.298 539.619 L
608.164 539.27 L
609.03 538.921 L
609.896 538.572 L
610.762 538.223 L
611.628 537.874 L
612.493 537.525 L
613.359 537.176 L
614.225 536.827 L
615.091 536.478 L
615.957 536.129 L
616.823 535.78 L
617.689 535.431 L
618.555 535.082 L
619.421 534.733 L
620.287 534.384 L
621.153 534.035 L
622.019 533.686 L
622.885 533.337 L
S
GR
GS
[0.75 0 0 0.75 0 0.25] CT
0.851 0.325 0.098 RC
2 LJ
6.667 LW
N
622.885 533.337 M
623.751 532.988 L
624.617 532.639 L
625.483 532.29 L
626.349 531.941 L
627.215 531.591 L
628.081 531.242 L
628.947 530.893 L
629.813 530.544 L
630.678 530.195 L
631.544 529.846 L
632.41 529.497 L
633.276 529.148 L
634.142 528.799 L
635.008 528.45 L
635.874 528.101 L
636.74 527.752 L
637.606 527.403 L
638.472 527.054 L
639.338 526.705 L
640.204 526.356 L
641.07 526.007 L
641.936 525.658 L
642.802 525.309 L
643.668 524.96 L
644.534 524.611 L
645.4 524.262 L
646.266 523.913 L
647.132 523.564 L
647.997 523.215 L
648.863 522.866 L
649.729 522.516 L
650.595 522.167 L
651.461 521.818 L
652.327 521.469 L
653.193 521.12 L
654.059 520.771 L
654.925 520.422 L
655.791 520.073 L
656.657 519.724 L
657.523 519.375 L
658.389 519.026 L
659.255 518.677 L
660.121 518.328 L
660.987 517.979 L
661.853 517.63 L
662.719 517.281 L
663.585 516.932 L
664.451 516.583 L
665.317 516.234 L
S
GR
GS
[0.75 0 0 0.75 0 0.25] CT
0.851 0.325 0.098 RC
2 LJ
6.667 LW
N
665.317 516.234 M
666.182 515.885 L
667.048 515.535 L
667.914 515.186 L
668.78 514.837 L
669.646 514.488 L
670.512 514.139 L
671.378 513.79 L
672.244 513.441 L
673.11 513.092 L
673.976 512.743 L
674.842 512.394 L
675.708 512.045 L
676.574 511.696 L
677.44 511.347 L
678.306 510.998 L
679.172 510.649 L
680.038 510.3 L
680.904 509.951 L
681.77 509.602 L
682.636 509.252 L
683.501 508.903 L
684.367 508.554 L
685.233 508.205 L
686.099 507.856 L
686.965 507.507 L
687.831 507.158 L
688.697 506.809 L
689.563 506.46 L
690.429 506.111 L
691.295 505.762 L
692.161 505.413 L
693.027 505.064 L
693.893 504.715 L
694.759 504.366 L
695.625 504.017 L
696.491 503.668 L
697.357 503.318 L
698.223 502.969 L
699.089 502.62 L
699.955 502.271 L
700.821 501.922 L
701.687 501.573 L
702.552 501.224 L
703.418 500.875 L
704.284 500.526 L
705.15 500.177 L
706.016 499.828 L
706.882 499.479 L
707.748 499.13 L
S
GR
GS
[0.75 0 0 0.75 0 0.25] CT
0.851 0.325 0.098 RC
2 LJ
6.667 LW
N
707.748 499.13 M
708.614 498.781 L
709.48 498.432 L
710.346 498.083 L
711.212 497.734 L
712.078 497.384 L
712.944 497.035 L
713.81 496.686 L
714.676 496.337 L
715.542 495.988 L
716.408 495.639 L
717.274 495.29 L
718.14 494.941 L
719.006 494.592 L
719.871 494.243 L
720.737 493.894 L
721.603 493.545 L
722.469 493.196 L
723.335 492.847 L
724.201 492.498 L
725.067 492.149 L
725.933 491.8 L
726.799 491.45 L
727.665 491.101 L
728.531 490.752 L
729.397 490.403 L
730.263 490.054 L
731.129 489.705 L
731.995 489.356 L
732.861 489.007 L
733.727 488.658 L
734.593 488.309 L
735.459 487.96 L
736.325 487.611 L
737.191 487.262 L
738.056 486.913 L
738.922 486.564 L
739.788 486.215 L
740.654 485.866 L
741.52 485.516 L
742.386 485.167 L
743.252 484.818 L
744.118 484.469 L
744.984 484.12 L
745.85 483.771 L
746.716 483.422 L
747.582 483.073 L
748.448 482.724 L
749.314 482.375 L
750.18 482.026 L
S
GR
GS
[0.75 0 0 0.75 0 0.25] CT
0.851 0.325 0.098 RC
2 LJ
6.667 LW
N
750.18 482.026 M
751.046 481.677 L
751.912 481.328 L
752.778 480.979 L
753.644 480.63 L
754.51 480.281 L
755.375 479.932 L
756.242 479.582 L
757.107 479.233 L
757.973 478.884 L
758.839 478.535 L
759.705 478.186 L
760.571 477.837 L
761.437 477.488 L
762.303 477.139 L
763.169 476.79 L
764.035 476.441 L
764.901 476.092 L
765.767 475.743 L
766.633 475.394 L
767.499 475.045 L
768.365 474.696 L
769.231 474.347 L
770.097 473.997 L
770.963 473.648 L
771.829 473.299 L
772.695 472.95 L
773.561 472.601 L
774.426 472.252 L
775.292 471.903 L
776.158 471.554 L
777.024 471.205 L
777.89 470.856 L
778.756 470.507 L
779.622 470.158 L
780.488 469.809 L
781.354 469.46 L
782.22 469.111 L
783.086 468.762 L
783.952 468.413 L
784.818 468.063 L
785.684 467.714 L
786.55 467.365 L
787.416 467.016 L
788.282 466.667 L
789.148 466.318 L
790.014 465.969 L
790.88 465.62 L
791.745 465.271 L
792.612 464.922 L
S
GR
GS
[0.75 0 0 0.75 0 0.25] CT
0.851 0.325 0.098 RC
2 LJ
6.667 LW
N
792.612 464.922 M
793.477 464.573 L
794.343 464.224 L
795.209 463.875 L
796.075 463.526 L
796.941 463.177 L
797.807 462.828 L
798.673 462.479 L
799.539 462.129 L
800.405 461.78 L
801.271 461.431 L
802.137 461.082 L
803.003 460.733 L
803.869 460.384 L
804.735 460.035 L
805.601 459.686 L
806.467 459.337 L
807.333 458.988 L
808.199 458.639 L
809.065 458.29 L
809.931 457.941 L
810.796 457.592 L
811.662 457.243 L
812.528 456.894 L
813.394 456.544 L
814.26 456.195 L
815.126 455.846 L
815.992 455.497 L
816.858 455.148 L
817.724 454.799 L
818.59 454.45 L
819.456 454.101 L
820.322 453.752 L
821.188 453.403 L
822.054 453.054 L
822.92 452.705 L
823.786 452.356 L
824.652 452.007 L
825.518 451.658 L
826.384 451.309 L
827.25 450.96 L
828.115 450.61 L
828.981 450.261 L
829.847 449.912 L
830.713 449.563 L
831.579 449.214 L
832.445 448.865 L
833.311 448.516 L
834.177 448.167 L
835.043 447.818 L
S
GR
GS
[0.75 0 0 0.75 0 0.25] CT
0.851 0.325 0.098 RC
2 LJ
6.667 LW
N
835.043 447.818 M
835.909 447.469 L
836.775 447.12 L
837.641 446.771 L
838.507 446.422 L
839.373 446.073 L
840.239 445.724 L
841.105 445.375 L
841.971 445.026 L
842.837 444.676 L
843.703 444.327 L
844.569 443.978 L
845.435 443.629 L
846.3 443.28 L
847.166 442.931 L
848.032 442.582 L
848.898 442.233 L
849.764 441.884 L
850.63 441.535 L
851.496 441.186 L
852.362 440.837 L
853.228 440.488 L
854.094 440.139 L
854.96 439.79 L
855.826 439.441 L
856.692 439.091 L
857.558 438.742 L
858.424 438.393 L
859.29 438.044 L
860.156 437.695 L
861.022 437.346 L
861.888 436.997 L
862.754 436.648 L
863.62 436.299 L
864.486 435.95 L
865.351 435.601 L
866.217 435.252 L
867.083 434.903 L
867.949 434.554 L
868.815 434.205 L
869.681 433.856 L
870.547 433.507 L
871.413 433.157 L
872.279 432.808 L
873.145 432.459 L
874.011 432.11 L
874.877 431.761 L
875.743 431.412 L
876.609 431.063 L
877.475 430.714 L
S
GR
GS
[0.75 0 0 0.75 0 0.25] CT
0.851 0.325 0.098 RC
2 LJ
6.667 LW
N
877.475 430.714 M
878.341 430.365 L
879.207 430.016 L
880.073 429.667 L
880.939 429.318 L
881.805 428.969 L
882.67 428.62 L
883.536 428.271 L
884.402 427.922 L
885.268 427.573 L
886.134 427.223 L
887 426.874 L
887.866 426.525 L
888.732 426.176 L
889.598 425.827 L
890.464 425.478 L
891.33 425.129 L
892.196 424.78 L
893.062 424.431 L
893.928 424.082 L
894.794 423.733 L
895.66 423.384 L
896.526 423.035 L
897.392 422.686 L
898.258 422.337 L
899.124 421.988 L
899.99 421.638 L
900.855 421.289 L
901.721 420.94 L
902.587 420.591 L
903.453 420.242 L
904.319 419.893 L
905.185 419.544 L
906.051 419.195 L
906.917 418.846 L
907.783 418.497 L
908.649 418.148 L
909.515 417.799 L
910.381 417.45 L
911.247 417.101 L
912.113 416.752 L
912.979 416.403 L
913.845 416.054 L
914.711 415.704 L
915.577 415.355 L
916.443 415.006 L
917.309 414.657 L
918.174 414.308 L
919.04 413.959 L
919.906 413.61 L
S
GR
GS
[0.75 0 0 0.75 0 0.25] CT
0.851 0.325 0.098 RC
2 LJ
6.667 LW
N
919.906 413.61 M
920.772 413.261 L
921.638 412.912 L
922.504 412.563 L
923.37 412.214 L
924.236 411.865 L
925.102 411.516 L
925.968 411.167 L
926.834 410.818 L
927.7 410.469 L
928.566 410.12 L
929.432 409.77 L
930.298 409.421 L
931.164 409.072 L
932.03 408.723 L
932.896 408.374 L
933.762 408.025 L
934.628 407.676 L
935.494 407.327 L
936.359 406.978 L
937.225 406.629 L
938.091 406.28 L
938.957 405.931 L
939.823 405.582 L
940.689 405.233 L
941.555 404.884 L
942.421 404.535 L
943.287 404.185 L
944.153 403.836 L
945.019 403.487 L
945.885 403.138 L
946.751 402.789 L
947.617 402.44 L
948.483 402.091 L
949.349 401.742 L
950.215 401.393 L
951.081 401.044 L
951.947 400.695 L
952.813 400.346 L
953.679 399.997 L
954.544 399.648 L
955.41 399.299 L
956.276 398.95 L
957.142 398.601 L
958.008 398.251 L
958.874 397.902 L
959.74 397.553 L
960.26 395.972 L
961.126 394.703 L
961.992 393.435 L
S
GR
GS
[0.75 0 0 0.75 0 0.25] CT
0.851 0.325 0.098 RC
2 LJ
6.667 LW
N
961.992 393.435 M
962.858 392.168 L
963.724 390.901 L
964.59 389.635 L
965.456 388.37 L
966.321 387.106 L
967.187 385.843 L
968.053 384.581 L
968.919 383.321 L
969.785 382.061 L
970.651 380.803 L
971.517 379.546 L
972.383 378.291 L
973.249 377.037 L
974.115 375.784 L
974.981 374.534 L
975.847 373.284 L
976.713 372.037 L
977.579 370.791 L
978.445 369.547 L
979.311 368.306 L
980.177 367.066 L
981.043 365.828 L
981.909 364.592 L
982.775 363.358 L
983.64 362.127 L
984.506 360.898 L
985.372 359.671 L
986.238 358.447 L
987.104 357.225 L
987.97 356.005 L
988.836 354.788 L
989.702 353.574 L
990.568 352.363 L
991.434 351.154 L
992.3 349.948 L
993.166 348.745 L
994.032 347.545 L
994.898 346.348 L
995.764 345.155 L
996.63 343.964 L
997.496 342.776 L
998.362 341.592 L
999.228 340.411 L
1000.094 339.233 L
1000.96 338.059 L
1001.826 336.888 L
1002.691 335.721 L
1003.557 334.558 L
1004.423 333.398 L
S
GR
GS
[0.75 0 0 0.75 0 0.25] CT
0.851 0.325 0.098 RC
2 LJ
6.667 LW
N
1004.423 333.398 M
1005.289 332.241 L
1006.155 331.089 L
1007.021 329.94 L
1007.887 328.796 L
1008.753 327.655 L
1009.619 326.518 L
1010.485 325.385 L
1011.351 324.257 L
1012.217 323.132 L
1013.083 322.012 L
1013.949 320.896 L
1014.815 319.785 L
1015.681 318.677 L
1016.547 317.574 L
1017.413 316.476 L
1018.279 315.382 L
1019.145 314.293 L
1020.01 313.209 L
1020.876 312.129 L
1021.742 311.054 L
1022.608 309.983 L
1023.474 308.918 L
1024.34 307.858 L
1025.206 306.802 L
1026.072 305.752 L
1026.938 304.706 L
1027.804 303.666 L
1028.67 302.631 L
1029.536 301.601 L
1030.402 300.576 L
1031.268 299.556 L
1032.134 298.542 L
1033 297.534 L
1033.866 296.531 L
1034.732 295.533 L
1035.598 294.541 L
1036.464 293.554 L
1037.329 292.573 L
1038.195 291.598 L
1039.061 290.629 L
1039.927 289.665 L
1040.793 288.707 L
1041.659 287.755 L
1042.525 286.809 L
1043.391 285.869 L
1044.257 284.935 L
1045.123 284.007 L
1045.989 283.085 L
1046.855 282.169 L
S
GR
GS
[0.75 0 0 0.75 0 0.25] CT
0.851 0.325 0.098 RC
2 LJ
6.667 LW
N
1046.855 282.169 M
1047.721 281.259 L
1048.587 280.356 L
1049.453 279.458 L
1050.319 278.567 L
1051.185 277.683 L
1052.051 276.805 L
1052.917 275.933 L
1053.783 275.067 L
1054.649 274.209 L
1055.515 273.356 L
1056.38 272.51 L
1057.246 271.671 L
1058.112 270.839 L
1058.978 270.013 L
1059.844 269.194 L
1060.71 268.381 L
1061.576 267.576 L
1062.442 266.777 L
1063.308 265.985 L
1064.174 265.2 L
1065.04 264.422 L
1065.906 263.651 L
1066.772 262.887 L
1067.638 262.13 L
1068.504 261.38 L
1069.37 260.637 L
1070.236 259.901 L
1071.102 259.173 L
1071.968 258.451 L
1072.834 257.737 L
1073.699 257.03 L
1074.565 256.331 L
1075.431 255.638 L
1076.297 254.953 L
1077.163 254.276 L
1078.029 253.605 L
1078.895 252.942 L
1079.761 252.287 L
1080.627 251.639 L
1081.493 250.999 L
1082.359 250.366 L
1083.225 249.74 L
1084.091 249.123 L
1084.957 248.512 L
1085.823 247.91 L
1086.689 247.315 L
1087.555 246.728 L
1088.421 246.148 L
1089.287 245.576 L
S
GR
GS
[0.75 0 0 0.75 0 0.25] CT
0.851 0.325 0.098 RC
2 LJ
6.667 LW
N
1089.287 245.576 M
1090.153 245.012 L
1091.019 244.456 L
1091.885 243.907 L
1092.75 243.366 L
1093.616 242.834 L
1094.482 242.308 L
1095.348 241.791 L
1096.214 241.282 L
1097.08 240.78 L
1097.946 240.287 L
1098.812 239.801 L
1099.678 239.323 L
1100.544 238.853 L
1101.41 238.392 L
1102.276 237.938 L
1103.142 237.492 L
1104.008 237.054 L
1104.874 236.625 L
1105.74 236.203 L
1106.606 235.789 L
1107.472 235.384 L
1108.338 234.986 L
1109.203 234.597 L
1110.069 234.215 L
1110.936 233.842 L
1111.801 233.477 L
1112.667 233.12 L
1113.533 232.772 L
1114.399 232.431 L
1115.265 232.099 L
1116.131 231.774 L
1116.997 231.458 L
1117.863 231.15 L
1118.729 230.851 L
1119.595 230.559 L
1120.461 230.276 L
1121.327 230.001 L
1122.193 229.734 L
1123.059 229.475 L
1123.925 229.225 L
1124.791 228.983 L
1125.657 228.749 L
1126.523 228.523 L
1127.389 228.306 L
1128.255 228.096 L
1129.12 227.895 L
1129.986 227.703 L
1130.852 227.518 L
1131.718 227.342 L
S
GR
GS
[0.75 0 0 0.75 0 0.25] CT
0.851 0.325 0.098 RC
2 LJ
6.667 LW
N
1131.718 227.342 M
1132.584 227.174 L
1133.45 227.014 L
1134.316 226.863 L
1135.182 226.719 L
1136.048 226.584 L
1136.914 226.457 L
1137.78 226.339 L
1138.646 226.228 L
1139.512 226.126 L
1140.378 226.032 L
1141.244 225.947 L
1142.11 225.869 L
1142.976 225.8 L
1143.842 225.739 L
1144.708 225.686 L
1145.573 225.641 L
1146.44 225.604 L
1147.305 225.576 L
1148.171 225.556 L
1149.037 225.544 L
1149.903 225.54 L
1150.769 225.544 L
1151.635 225.556 L
1152.501 225.577 L
1153.367 225.605 L
1154.233 225.642 L
1155.099 225.687 L
1155.965 225.739 L
1156.831 225.8 L
1157.697 225.869 L
1158.563 225.946 L
1159.429 226.031 L
1160.295 226.124 L
1161.161 226.225 L
1162.027 226.334 L
1162.893 226.451 L
1163.759 226.576 L
1164.624 226.708 L
1165.49 226.849 L
1166.356 226.998 L
1167.222 227.154 L
1168.088 227.318 L
1168.954 227.491 L
1169.82 227.671 L
1170.686 227.859 L
1171.552 228.054 L
1172.418 228.258 L
1173.284 228.469 L
1174.15 228.688 L
S
GR
GS
[0.75 0 0 0.75 0 0.25] CT
0.851 0.325 0.098 RC
2 LJ
6.667 LW
N
1174.15 228.688 M
1175.016 228.914 L
1175.882 229.148 L
1176.748 229.39 L
1177.614 229.64 L
1178.48 229.897 L
1179.346 230.162 L
1180.212 230.435 L
1181.078 230.715 L
1181.943 231.002 L
1182.809 231.297 L
1183.675 231.6 L
1184.541 231.91 L
1185.407 232.227 L
1186.273 232.552 L
1187.139 232.884 L
1188.005 233.224 L
1188.871 233.571 L
1189.737 233.925 L
1190.603 234.287 L
1191.469 234.656 L
1192.335 235.032 L
1193.201 235.416 L
1194.067 235.806 L
1194.933 236.204 L
1195.799 236.609 L
1196.665 237.021 L
1197.531 237.44 L
1198.397 237.866 L
1199.263 238.299 L
1200.129 238.739 L
1200.995 239.186 L
1201.86 239.64 L
1202.726 240.101 L
1203.592 240.568 L
1204.458 241.043 L
1205.324 241.524 L
1206.19 242.013 L
1207.056 242.507 L
1207.922 243.009 L
1208.788 243.517 L
1209.654 244.032 L
1210.52 244.554 L
1211.386 245.082 L
1212.252 245.617 L
1213.118 246.158 L
1213.984 246.706 L
1214.85 247.26 L
1215.716 247.82 L
1216.582 248.387 L
S
GR
GS
[0.75 0 0 0.75 0 0.25] CT
0.851 0.325 0.098 RC
2 LJ
6.667 LW
N
1216.582 248.387 M
1217.448 248.96 L
1218.313 249.54 L
1219.179 250.126 L
1220.045 250.718 L
1220.911 251.316 L
1221.777 251.921 L
1222.643 252.531 L
1223.509 253.148 L
1224.375 253.771 L
1225.241 254.4 L
1226.107 255.034 L
1226.973 255.675 L
1227.839 256.322 L
1228.705 256.974 L
1229.571 257.633 L
1230.437 258.297 L
1231.303 258.967 L
1232.169 259.642 L
1233.035 260.324 L
1233.901 261.011 L
1234.767 261.703 L
1235.633 262.401 L
1236.499 263.105 L
1237.364 263.814 L
1238.23 264.529 L
1239.096 265.249 L
1239.962 265.975 L
1240.828 266.705 L
1241.694 267.442 L
1242.56 268.183 L
1243.426 268.93 L
1244.292 269.681 L
1245.158 270.438 L
1246.024 271.2 L
1246.89 271.967 L
1247.756 272.739 L
1248.622 273.516 L
1249.488 274.298 L
1250.354 275.085 L
1251.22 275.877 L
1252.086 276.674 L
1252.952 277.475 L
1253.818 278.281 L
1254.684 279.092 L
1255.549 279.907 L
1256.415 280.727 L
1257.281 281.552 L
1258.147 282.381 L
1259.013 283.215 L
S
GR
GS
[0.75 0 0 0.75 0 0.25] CT
0.851 0.325 0.098 RC
2 LJ
6.667 LW
N
1259.013 283.215 M
1259.879 284.053 L
1260.745 284.895 L
1261.611 285.742 L
1262.477 286.593 L
1263.343 287.448 L
1264.209 288.308 L
1265.075 289.172 L
1265.941 290.04 L
1266.807 290.912 L
1267.673 291.788 L
1268.539 292.668 L
1269.405 293.552 L
1270.271 294.44 L
1271.137 295.332 L
1272.003 296.228 L
1272.868 297.127 L
1273.734 298.031 L
1274.6 298.938 L
1275.466 299.848 L
1276.332 300.763 L
1277.198 301.681 L
1278.064 302.602 L
1278.93 303.527 L
1279.796 304.456 L
1280.662 305.388 L
1281.528 306.323 L
1282.394 307.262 L
1283.26 308.203 L
1284.126 309.149 L
1284.992 310.097 L
1285.858 311.048 L
1286.724 312.003 L
1287.59 312.961 L
1288.456 313.922 L
1289.322 314.885 L
1290.188 315.852 L
1291.053 316.822 L
1291.919 317.794 L
1292.785 318.769 L
1293.651 319.747 L
1294.517 320.728 L
1295.383 321.712 L
1296.249 322.698 L
1297.115 323.686 L
1297.981 324.678 L
1298.847 325.672 L
1299.713 326.668 L
1300.579 327.667 L
1301.445 328.668 L
S
GR
GS
[0.75 0 0 0.75 0 0.25] CT
0.851 0.325 0.098 RC
2 LJ
6.667 LW
N
1301.445 328.668 M
1302.311 329.671 L
1303.177 330.677 L
1304.043 331.685 L
1304.909 332.696 L
1305.775 333.708 L
1306.641 334.723 L
1307.507 335.74 L
1308.372 336.758 L
1309.239 337.779 L
1310.104 338.802 L
1310.97 339.827 L
1311.836 340.853 L
1312.702 341.882 L
1313.568 342.912 L
1314.434 343.944 L
1315.3 344.978 L
1316.166 346.014 L
1317.032 347.051 L
1317.898 348.09 L
1318.764 349.13 L
1319.63 350.172 L
1320.496 351.215 L
1321.362 352.26 L
1322.228 353.307 L
1323.094 354.354 L
1323.96 355.403 L
1324.826 356.453 L
1325.692 357.505 L
1326.557 358.558 L
1327.423 359.612 L
1328.289 360.667 L
1329.155 361.723 L
1330.021 362.78 L
1330.887 363.838 L
1331.753 364.897 L
1332.619 365.957 L
1333.485 367.018 L
1334.351 368.08 L
1335.217 369.143 L
1336.083 370.207 L
1336.949 371.271 L
1337.815 372.336 L
1338.681 373.402 L
1339.547 374.468 L
1340.413 375.535 L
1341.279 376.602 L
1342.145 377.67 L
1343.011 378.739 L
1343.877 379.808 L
S
GR
GS
[0.75 0 0 0.75 0 0.25] CT
0.851 0.325 0.098 RC
2 LJ
6.667 LW
N
1343.877 379.808 M
1344.743 380.877 L
1345.608 381.947 L
1346.474 383.017 L
1347.34 384.087 L
1348.206 385.158 L
1349.072 386.229 L
1349.938 387.3 L
1350.804 388.372 L
1351.67 389.443 L
1352.536 390.515 L
1353.402 391.586 L
1354.268 392.658 L
1355.134 393.73 L
1356 394.801 L
1356.866 395.873 L
1357.732 396.944 L
1358.598 398.016 L
1359.464 399.087 L
1360.33 400.158 L
1361.196 401.229 L
1362.062 402.299 L
1362.927 403.369 L
1363.793 404.439 L
1364.659 405.509 L
1365.525 406.578 L
1366.391 407.646 L
1367.257 408.715 L
1368.123 409.782 L
1368.989 410.85 L
1369.855 411.916 L
1370.721 412.983 L
1371.587 414.048 L
1372.453 415.113 L
1373.319 416.177 L
1374.185 417.241 L
1375.051 418.303 L
1375.917 419.365 L
1376.783 420.427 L
1377.649 421.487 L
1378.515 422.547 L
1379.381 423.605 L
1380.247 424.663 L
1381.112 425.72 L
1381.978 426.776 L
1382.844 427.831 L
1383.71 428.885 L
1384.576 429.938 L
1385.442 430.989 L
1386.308 432.04 L
S
GR
GS
[0.75 0 0 0.75 0 0.25] CT
0.851 0.325 0.098 RC
2 LJ
6.667 LW
N
1386.308 432.04 M
1387.174 433.09 L
1388.04 434.138 L
1388.906 435.186 L
1389.772 436.232 L
1390.638 437.277 L
1391.504 438.32 L
1392.37 439.363 L
1393.236 440.404 L
1394.102 441.443 L
1394.968 442.482 L
1395.834 443.519 L
1396.7 444.555 L
1397.566 445.589 L
1398.432 446.622 L
1399.297 447.653 L
1400.163 448.683 L
1401.029 449.711 L
1401.895 450.738 L
1402.761 451.763 L
1403.627 452.787 L
1404.493 453.809 L
1405.359 454.829 L
1406.225 455.848 L
1407.091 456.865 L
1407.957 457.881 L
1408.823 458.895 L
1409.689 459.907 L
1410.555 460.917 L
1411.421 461.926 L
1412.287 462.932 L
1413.153 463.937 L
1414.019 464.94 L
1414.885 465.942 L
1415.751 466.941 L
1416.616 467.939 L
1417.483 468.934 L
1418.348 469.928 L
1419.214 470.92 L
1420.08 471.909 L
1420.946 472.897 L
1421.812 473.883 L
1422.678 474.867 L
1423.544 475.849 L
1424.41 476.829 L
1425.276 477.806 L
1426.142 478.782 L
1427.008 479.755 L
1427.874 480.727 L
1428.74 481.696 L
S
GR
GS
[0.75 0 0 0.75 0 0.25] CT
0.851 0.325 0.098 RC
2 LJ
6.667 LW
N
1428.74 481.696 M
1429.606 482.663 L
1430.472 483.628 L
1431.338 484.591 L
1432.204 485.552 L
1433.07 486.51 L
1433.936 487.467 L
1434.802 488.421 L
1435.667 489.372 L
1436.533 490.322 L
1437.399 491.269 L
1438.265 492.214 L
1439.131 493.157 L
1439.997 494.097 L
1440.863 495.035 L
1441.729 495.971 L
1442.595 496.904 L
1443.461 497.835 L
1444.327 498.764 L
1445.193 499.69 L
1446.059 500.614 L
1446.925 501.535 L
1447.791 502.454 L
1448.657 503.371 L
1449.523 504.285 L
1450.389 505.197 L
1451.255 506.106 L
1452.12 507.013 L
1452.987 507.917 L
1453.852 508.819 L
1454.718 509.718 L
1455.584 510.615 L
1456.45 511.509 L
1457.316 512.401 L
1458.182 513.29 L
1459.048 514.176 L
1459.914 515.06 L
1460.78 515.942 L
1461.646 516.821 L
1462.512 517.697 L
1463.378 518.571 L
1464.244 519.442 L
1465.11 520.311 L
1465.976 521.177 L
1466.842 522.04 L
1467.708 522.901 L
1468.574 523.759 L
1469.44 524.614 L
1470.306 525.467 L
1471.172 526.317 L
S
GR
GS
[0.75 0 0 0.75 0 0.25] CT
0.851 0.325 0.098 RC
2 LJ
6.667 LW
N
1471.172 526.317 M
1472.037 527.164 L
1472.903 528.009 L
1473.769 528.851 L
1474.635 529.69 L
1475.501 530.527 L
1476.367 531.361 L
1477.233 532.193 L
1478.099 533.021 L
1478.965 533.847 L
1479.831 534.67 L
1480.697 535.491 L
1481.563 536.309 L
1482.429 537.124 L
1483.295 537.936 L
1484.161 538.745 L
1485.027 539.552 L
1485.893 540.356 L
1486.759 541.158 L
1487.625 541.956 L
1488.491 542.752 L
1489.356 543.545 L
1490.222 544.336 L
1491.089 545.123 L
1491.954 545.908 L
1492.82 546.69 L
1493.686 547.469 L
1494.552 548.246 L
1495.418 549.019 L
1496.284 549.79 L
1497.15 550.558 L
1498.016 551.324 L
1498.882 552.086 L
1499.748 552.846 L
1500.614 553.603 L
1501.48 554.357 L
1502.346 555.108 L
1503.212 555.857 L
1504.078 556.603 L
1504.944 557.346 L
1505.81 558.086 L
1506.676 558.823 L
1507.542 559.558 L
1508.407 560.289 L
1509.273 561.018 L
1510.139 561.744 L
1511.005 562.468 L
1511.871 563.188 L
1512.737 563.906 L
1513.603 564.621 L
S
GR
GS
[0.75 0 0 0.75 0 0.25] CT
0.851 0.325 0.098 RC
2 LJ
6.667 LW
N
1513.603 564.621 M
1514.469 565.333 L
1515.335 566.042 L
1516.201 566.749 L
1517.067 567.452 L
1517.933 568.153 L
1518.799 568.851 L
1519.665 569.546 L
1520.531 570.238 L
1521.397 570.928 L
1522.263 571.615 L
1523.129 572.299 L
1523.995 572.98 L
1524.86 573.658 L
1525.727 574.333 L
1526.592 575.006 L
1527.458 575.676 L
1528.324 576.343 L
1529.19 577.007 L
1530.056 577.668 L
1530.922 578.327 L
1531.788 578.983 L
1532.654 579.636 L
1533.52 580.286 L
1534.386 580.933 L
1535.252 581.578 L
1536.118 582.219 L
1536.984 582.858 L
1537.85 583.494 L
1538.716 584.127 L
1539.582 584.758 L
1540.448 585.385 L
1541.314 586.01 L
1542.18 586.632 L
1543.046 587.252 L
1543.911 587.868 L
1544.777 588.482 L
1545.643 589.092 L
1546.509 589.7 L
1547.375 590.306 L
1548.241 590.908 L
1549.107 591.508 L
1549.973 592.104 L
1550.839 592.698 L
1551.705 593.29 L
1552.571 593.878 L
1553.437 594.464 L
1554.303 595.047 L
1555.169 595.627 L
1556.035 596.204 L
S
GR
GS
[0.75 0 0 0.75 0 0.25] CT
0.851 0.325 0.098 RC
2 LJ
6.667 LW
N
1556.035 596.204 M
1556.901 596.778 L
1557.767 597.35 L
1558.633 597.919 L
1559.499 598.485 L
1560.365 599.048 L
1561.231 599.609 L
1562.096 600.166 L
1562.962 600.721 L
1563.828 601.273 L
1564.694 601.823 L
1565.56 602.369 L
1566.426 602.913 L
1567.292 603.454 L
1568.158 603.992 L
1569.024 604.528 L
1569.89 605.06 L
1570.756 605.59 L
1571.622 606.117 L
1572.488 606.642 L
1573.354 607.163 L
1574.22 607.682 L
1575.086 608.198 L
1575.952 608.711 L
1576.818 609.221 L
1577.684 609.729 L
1578.55 610.234 L
1579.416 610.736 L
1580.281 611.235 L
1581.147 611.732 L
1582.013 612.225 L
1582.879 612.716 L
1583.745 613.204 L
1584.611 613.69 L
1585.477 614.172 L
1586.343 614.652 L
1587.209 615.129 L
1588.075 615.603 L
1588.941 616.074 L
1589.807 616.543 L
1590.673 617.009 L
1591.539 617.472 L
1592.405 617.932 L
1593.271 618.389 L
1594.137 618.844 L
1595.003 619.296 L
1595.869 619.745 L
1596.735 620.191 L
1597.6 620.635 L
1598.466 621.075 L
S
GR
GS
[0.75 0 0 0.75 0 0.25] CT
0.851 0.325 0.098 RC
2 LJ
6.667 LW
N
1598.466 621.075 M
1599.333 621.513 L
1600.198 621.948 L
1601.064 622.38 L
1601.93 622.81 L
1602.796 623.236 L
1603.662 623.66 L
1604.528 624.081 L
1605.394 624.499 L
1606.26 624.914 L
1607.126 625.327 L
1607.992 625.736 L
1608.858 626.143 L
1609.724 626.547 L
1610.59 626.948 L
1611.456 627.347 L
1612.322 627.742 L
1613.188 628.135 L
1614.054 628.525 L
1614.92 628.912 L
1615.786 629.296 L
1616.651 629.677 L
1617.517 630.055 L
1618.383 630.431 L
1619.249 630.803 L
1620.115 631.173 L
1620.981 631.54 L
1621.847 631.904 L
1622.713 632.265 L
1623.579 632.623 L
1624.445 632.978 L
1625.311 633.331 L
1626.177 633.68 L
1627.043 634.027 L
1627.909 634.371 L
1628.775 634.711 L
1629.641 635.049 L
1630.507 635.384 L
1631.373 635.716 L
1632.239 636.045 L
1633.104 636.371 L
1633.97 636.694 L
1634.836 637.014 L
1635.702 637.331 L
1636.568 637.646 L
1637.434 637.957 L
1638.3 638.265 L
1639.166 638.57 L
1640.032 638.873 L
1640.898 639.172 L
S
GR
GS
[0.75 0 0 0.75 0 0.25] CT
0.851 0.325 0.098 RC
2 LJ
6.667 LW
N
1640.898 639.172 M
1641.764 639.468 L
1642.63 639.762 L
1643.496 640.052 L
1644.362 640.339 L
1645.228 640.623 L
1646.094 640.904 L
1646.96 641.182 L
1647.826 641.457 L
1648.692 641.729 L
1649.558 641.998 L
1650.424 642.264 L
1651.29 642.527 L
1652.156 642.786 L
1653.021 643.043 L
1653.887 643.296 L
1654.753 643.546 L
1655.619 643.794 L
1656.485 644.038 L
1657.351 644.278 L
1658.217 644.516 L
1659.083 644.751 L
1659.949 644.982 L
1660.815 645.21 L
1661.681 645.435 L
1662.547 645.657 L
1663.413 645.875 L
1664.279 646.091 L
1665.145 646.303 L
1666.011 646.512 L
1666.877 646.717 L
1667.743 646.92 L
1668.609 647.119 L
1669.475 647.315 L
1670.34 647.507 L
1671.206 647.697 L
1672.072 647.883 L
1672.938 648.065 L
1673.804 648.245 L
1674.67 648.42 L
1675.536 648.593 L
1676.402 648.762 L
1677.268 648.928 L
1678.134 649.091 L
1679 649.25 L
S
GR
GS
[0.75 0 0 0.75 914.25 55.875] CT
/Helvetica 48 F
GS
[1 0 0 1 0 0] CT
0 16.5 moveto 
1 -1 scale
(Imposed condition) t 
GR
GR
GS
[0.75 0 0 0.75 0 0.25] CT
0 0.447 0.741 RC
2 setlinecap
10.0 ML
6.667 LW
N
1175 74.167 M
1215 74.167 L
S
GR
GS
[0.75 0 0 0.75 914.25 99.125] CT
/Helvetica 48 F
GS
[1 0 0 1 0 0] CT
0 16.5 moveto 
1 -1 scale
(Flat ground) t 
GR
GR
GS
[0.75 0 0 0.75 0 0.25] CT
0.851 0.325 0.098 RC
2 setlinecap
10.0 ML
6.667 LW
N
1175 131.833 M
1215 131.833 L
S
GR
%%Trailer
%%Pages: 1
%%EOF
