%!PS-Adobe-3.0 EPSF-3.0
%%Creator: (MATLAB, The Mathworks, Inc. Version 8.5.0.197613 \(R2015a\). Operating System: Linux)
%%Title: /home/victor/Documents/MATLAB/prosthetic_onedomain_gaitgeneration_ampro2/flatTile.eps
%%CreationDate: 2016-03-04T13:43:48
%%Pages: (atend)
%%BoundingBox: 0 0 1043 233
%%LanguageLevel: 2
%%EndComments
%%BeginProlog
%%BeginResource: procset (Apache XML Graphics Std ProcSet) 1.2 0
%%Version: 1.2 0
%%Copyright: (Copyright 2001-2003,2010 The Apache Software Foundation. License terms: http://www.apache.org/licenses/LICENSE-2.0)
/bd{bind def}bind def
/ld{load def}bd
/GR/grestore ld
/M/moveto ld
/LJ/setlinejoin ld
/C/curveto ld
/f/fill ld
/LW/setlinewidth ld
/GC/setgray ld
/t/show ld
/N/newpath ld
/CT/concat ld
/cp/closepath ld
/S/stroke ld
/L/lineto ld
/CC/setcmykcolor ld
/A/ashow ld
/GS/gsave ld
/RC/setrgbcolor ld
/RM/rmoveto ld
/ML/setmiterlimit ld
/re {4 2 roll M
1 index 0 rlineto
0 exch rlineto
neg 0 rlineto
cp } bd
/_ctm matrix def
/_tm matrix def
/BT { _ctm currentmatrix pop matrix _tm copy pop 0 0 moveto } bd
/ET { _ctm setmatrix } bd
/iTm { _ctm setmatrix _tm concat } bd
/Tm { _tm astore pop iTm 0 0 moveto } bd
/ux 0.0 def
/uy 0.0 def
/F {
  /Tp exch def
  /Tf exch def
  Tf findfont Tp scalefont setfont
  /cf Tf def  /cs Tp def
} bd
/ULS {currentpoint /uy exch def /ux exch def} bd
/ULE {
  /Tcx currentpoint pop def
  gsave
  newpath
  cf findfont cs scalefont dup
  /FontMatrix get 0 get /Ts exch def /FontInfo get dup
  /UnderlinePosition get Ts mul /To exch def
  /UnderlineThickness get Ts mul /Tt exch def
  ux uy To add moveto  Tcx uy To add lineto
  Tt setlinewidth stroke
  grestore
} bd
/OLE {
  /Tcx currentpoint pop def
  gsave
  newpath
  cf findfont cs scalefont dup
  /FontMatrix get 0 get /Ts exch def /FontInfo get dup
  /UnderlinePosition get Ts mul /To exch def
  /UnderlineThickness get Ts mul /Tt exch def
  ux uy To add cs add moveto Tcx uy To add cs add lineto
  Tt setlinewidth stroke
  grestore
} bd
/SOE {
  /Tcx currentpoint pop def
  gsave
  newpath
  cf findfont cs scalefont dup
  /FontMatrix get 0 get /Ts exch def /FontInfo get dup
  /UnderlinePosition get Ts mul /To exch def
  /UnderlineThickness get Ts mul /Tt exch def
  ux uy To add cs 10 mul 26 idiv add moveto Tcx uy To add cs 10 mul 26 idiv add lineto
  Tt setlinewidth stroke
  grestore
} bd
/QT {
/Y22 exch store
/X22 exch store
/Y21 exch store
/X21 exch store
currentpoint
/Y21 load 2 mul add 3 div exch
/X21 load 2 mul add 3 div exch
/X21 load 2 mul /X22 load add 3 div
/Y21 load 2 mul /Y22 load add 3 div
/X22 load /Y22 load curveto
} bd
/SSPD {
dup length /d exch dict def
{
/v exch def
/k exch def
currentpagedevice k known {
/cpdv currentpagedevice k get def
v cpdv ne {
/upd false def
/nullv v type /nulltype eq def
/nullcpdv cpdv type /nulltype eq def
nullv nullcpdv or
{
/upd true def
} {
/sametype v type cpdv type eq def
sametype {
v type /arraytype eq {
/vlen v length def
/cpdvlen cpdv length def
vlen cpdvlen eq {
0 1 vlen 1 sub {
/i exch def
/obj v i get def
/cpdobj cpdv i get def
obj cpdobj ne {
/upd true def
exit
} if
} for
} {
/upd true def
} ifelse
} {
v type /dicttype eq {
v {
/dv exch def
/dk exch def
/cpddv cpdv dk get def
dv cpddv ne {
/upd true def
exit
} if
} forall
} {
/upd true def
} ifelse
} ifelse
} if
} ifelse
upd true eq {
d k v put
} if
} if
} if
} forall
d length 0 gt {
d setpagedevice
} if
} bd
%%EndResource
%%BeginResource: procset (Apache XML Graphics EPS ProcSet) 1.0 0
%%Version: 1.0 0
%%Copyright: (Copyright 2002-2003 The Apache Software Foundation. License terms: http://www.apache.org/licenses/LICENSE-2.0)
/BeginEPSF { %def
/b4_Inc_state save def         % Save state for cleanup
/dict_count countdictstack def % Count objects on dict stack
/op_count count 1 sub def      % Count objects on operand stack
userdict begin                 % Push userdict on dict stack
/showpage { } def              % Redefine showpage, { } = null proc
0 setgray 0 setlinecap         % Prepare graphics state
1 setlinewidth 0 setlinejoin
10 setmiterlimit [ ] 0 setdash newpath
/languagelevel where           % If level not equal to 1 then
{pop languagelevel             % set strokeadjust and
1 ne                           % overprint to their defaults.
{false setstrokeadjust false setoverprint
} if
} if
} bd
/EndEPSF { %def
count op_count sub {pop} repeat            % Clean up stacks
countdictstack dict_count sub {end} repeat
b4_Inc_state restore
} bd
%%EndResource
%FOPBeginFontDict
%%IncludeResource: font Courier-Bold
%%IncludeResource: font Helvetica
%%IncludeResource: font Courier-BoldOblique
%%IncludeResource: font Courier-Oblique
%%IncludeResource: font Times-Roman
%%IncludeResource: font Helvetica-BoldOblique
%%IncludeResource: font Helvetica-Bold
%%IncludeResource: font Helvetica-Oblique
%%IncludeResource: font Times-BoldItalic
%%IncludeResource: font Courier
%%IncludeResource: font Times-Italic
%%IncludeResource: font Times-Bold
%%IncludeResource: font Symbol
%%IncludeResource: font ZapfDingbats
%FOPEndFontDict
%%BeginResource: encoding WinAnsiEncoding
/WinAnsiEncoding [
/.notdef /.notdef /.notdef /.notdef /.notdef
/.notdef /.notdef /.notdef /.notdef /.notdef
/.notdef /.notdef /.notdef /.notdef /.notdef
/.notdef /.notdef /.notdef /.notdef /.notdef
/.notdef /.notdef /.notdef /.notdef /.notdef
/.notdef /.notdef /.notdef /.notdef /.notdef
/.notdef /.notdef /space /exclam /quotedbl
/numbersign /dollar /percent /ampersand /quotesingle
/parenleft /parenright /asterisk /plus /comma
/hyphen /period /slash /zero /one
/two /three /four /five /six
/seven /eight /nine /colon /semicolon
/less /equal /greater /question /at
/A /B /C /D /E
/F /G /H /I /J
/K /L /M /N /O
/P /Q /R /S /T
/U /V /W /X /Y
/Z /bracketleft /backslash /bracketright /asciicircum
/underscore /quoteleft /a /b /c
/d /e /f /g /h
/i /j /k /l /m
/n /o /p /q /r
/s /t /u /v /w
/x /y /z /braceleft /bar
/braceright /asciitilde /bullet /Euro /bullet
/quotesinglbase /florin /quotedblbase /ellipsis /dagger
/daggerdbl /circumflex /perthousand /Scaron /guilsinglleft
/OE /bullet /Zcaron /bullet /bullet
/quoteleft /quoteright /quotedblleft /quotedblright /bullet
/endash /emdash /asciitilde /trademark /scaron
/guilsinglright /oe /bullet /zcaron /Ydieresis
/space /exclamdown /cent /sterling /currency
/yen /brokenbar /section /dieresis /copyright
/ordfeminine /guillemotleft /logicalnot /sfthyphen /registered
/macron /degree /plusminus /twosuperior /threesuperior
/acute /mu /paragraph /middot /cedilla
/onesuperior /ordmasculine /guillemotright /onequarter /onehalf
/threequarters /questiondown /Agrave /Aacute /Acircumflex
/Atilde /Adieresis /Aring /AE /Ccedilla
/Egrave /Eacute /Ecircumflex /Edieresis /Igrave
/Iacute /Icircumflex /Idieresis /Eth /Ntilde
/Ograve /Oacute /Ocircumflex /Otilde /Odieresis
/multiply /Oslash /Ugrave /Uacute /Ucircumflex
/Udieresis /Yacute /Thorn /germandbls /agrave
/aacute /acircumflex /atilde /adieresis /aring
/ae /ccedilla /egrave /eacute /ecircumflex
/edieresis /igrave /iacute /icircumflex /idieresis
/eth /ntilde /ograve /oacute /ocircumflex
/otilde /odieresis /divide /oslash /ugrave
/uacute /ucircumflex /udieresis /yacute /thorn
/ydieresis
] def
%%EndResource
%FOPBeginFontReencode
/Courier-Bold findfont
dup length dict begin
  {1 index /FID ne {def} {pop pop} ifelse} forall
  /Encoding WinAnsiEncoding def
  currentdict
end
/Courier-Bold exch definefont pop
/Helvetica findfont
dup length dict begin
  {1 index /FID ne {def} {pop pop} ifelse} forall
  /Encoding WinAnsiEncoding def
  currentdict
end
/Helvetica exch definefont pop
/Courier-BoldOblique findfont
dup length dict begin
  {1 index /FID ne {def} {pop pop} ifelse} forall
  /Encoding WinAnsiEncoding def
  currentdict
end
/Courier-BoldOblique exch definefont pop
/Courier-Oblique findfont
dup length dict begin
  {1 index /FID ne {def} {pop pop} ifelse} forall
  /Encoding WinAnsiEncoding def
  currentdict
end
/Courier-Oblique exch definefont pop
/Times-Roman findfont
dup length dict begin
  {1 index /FID ne {def} {pop pop} ifelse} forall
  /Encoding WinAnsiEncoding def
  currentdict
end
/Times-Roman exch definefont pop
/Helvetica-BoldOblique findfont
dup length dict begin
  {1 index /FID ne {def} {pop pop} ifelse} forall
  /Encoding WinAnsiEncoding def
  currentdict
end
/Helvetica-BoldOblique exch definefont pop
/Helvetica-Bold findfont
dup length dict begin
  {1 index /FID ne {def} {pop pop} ifelse} forall
  /Encoding WinAnsiEncoding def
  currentdict
end
/Helvetica-Bold exch definefont pop
/Helvetica-Oblique findfont
dup length dict begin
  {1 index /FID ne {def} {pop pop} ifelse} forall
  /Encoding WinAnsiEncoding def
  currentdict
end
/Helvetica-Oblique exch definefont pop
/Times-BoldItalic findfont
dup length dict begin
  {1 index /FID ne {def} {pop pop} ifelse} forall
  /Encoding WinAnsiEncoding def
  currentdict
end
/Times-BoldItalic exch definefont pop
/Courier findfont
dup length dict begin
  {1 index /FID ne {def} {pop pop} ifelse} forall
  /Encoding WinAnsiEncoding def
  currentdict
end
/Courier exch definefont pop
/Times-Italic findfont
dup length dict begin
  {1 index /FID ne {def} {pop pop} ifelse} forall
  /Encoding WinAnsiEncoding def
  currentdict
end
/Times-Italic exch definefont pop
/Times-Bold findfont
dup length dict begin
  {1 index /FID ne {def} {pop pop} ifelse} forall
  /Encoding WinAnsiEncoding def
  currentdict
end
/Times-Bold exch definefont pop
%FOPEndFontReencode
%%EndProlog
%%Page: 1 1
%%PageBoundingBox: 0 0 1043 233
%%BeginPageSetup
[1 0 0 -1 0 233] CT
%%EndPageSetup
GS
[0.75 0 0 0.75 0 0.5] CT
N
0 0 M
1390 0 L
1390 310 L
0 310 L
0 0 L
cp
clip
1 GC
N
0 0 1390 310 re
f
GR
GS
[0.75 0 0 0.75 0 0.5] CT
1 GC
N
0 0 1390 310 re
f
GR
GS
[0.75 0 0 0.75 0 0.5] CT
1 GC
N
181 276 M
1258 276 L
1258 23 L
181 23 L
cp
f
GR
GS
[0.75 0 0 0.75 0 0.5] CT
0.149 GC
2 setlinecap
10.0 ML
N
181 276 M
1258 276 L
S
GR
GS
[0.75 0 0 0.75 0 0.5] CT
0.149 GC
2 setlinecap
10.0 ML
N
181 23 M
1258 23 L
S
GR
GS
[0.75 0 0 0.75 0 0.5] CT
0.149 GC
2 setlinecap
10.0 ML
N
181 276 M
181 23 L
S
GR
GS
[0.75 0 0 0.75 0 0.5] CT
0.149 GC
2 setlinecap
10.0 ML
N
1258 276 M
1258 23 L
S
GR
GS
[0.75 0 0 0.75 0 0.5] CT
0 0 1 RC
[10 6] 0 setdash
2 LJ
N
248.313 244.375 M
1258 244.375 L
S
GR
GS
[0.75 0 0 0.75 0 0.5] CT
1 0 0 RC
2 setlinecap
10.0 ML
2.667 LW
N
309.823 230.302 M
299.591 244.375 L
335.536 244.375 L
309.823 230.302 L
304.291 164.844 L
286.144 97.286 L
285.023 56.195 L
S
GR
GS
[0.75 0 0 0.75 0 0.5] CT
2 setlinecap
10.0 ML
2.667 LW
N
285.023 56.195 M
286.144 97.286 L
276.291 167.175 L
261.696 230.681 L
287.489 244.551 L
251.545 244.835 L
261.696 230.681 L
S
GR
GS
[0.75 0 0 0.75 0 0.5] CT
1 0 0 RC
2 setlinecap
10.0 ML
2.667 LW
N
444.448 230.302 M
434.216 244.375 L
470.161 244.375 L
444.448 230.302 L
440.067 164.723 L
426.404 95.725 L
426.935 54.618 L
S
GR
GS
[0.75 0 0 0.75 0 0.5] CT
2 setlinecap
10.0 ML
2.667 LW
N
426.935 54.618 M
426.404 95.725 L
422.071 166.382 L
397.621 225.563 L
423.111 240.186 L
387.172 239.413 L
397.621 225.563 L
S
GR
GS
[0.75 0 0 0.75 0 0.5] CT
1 0 0 RC
2 setlinecap
10.0 ML
2.667 LW
N
579.073 230.302 M
568.841 244.375 L
604.786 244.375 L
579.073 230.302 L
576.32 164.601 L
567.153 94.584 L
567.291 53.472 L
S
GR
GS
[0.75 0 0 0.75 0 0.5] CT
2 setlinecap
10.0 ML
2.667 LW
N
567.291 53.472 M
567.153 94.584 L
576.485 164.571 L
542.547 216.898 L
566.411 234.914 L
530.794 229.222 L
542.547 216.898 L
S
GR
GS
[0.75 0 0 0.75 0 0.5] CT
1 0 0 RC
2 setlinecap
10.0 ML
2.667 LW
N
713.698 230.302 M
703.466 244.375 L
739.411 244.375 L
713.698 230.302 L
714.621 164.531 L
709.608 93.936 L
708.333 52.851 L
S
GR
GS
[0.75 0 0 0.75 0 0.5] CT
2 setlinecap
10.0 ML
2.667 LW
N
708.333 52.851 M
709.608 93.936 L
734.191 158.624 L
696.976 207.78 L
718.277 229.786 L
683.785 217.902 L
696.976 207.78 L
S
GR
GS
[0.75 0 0 0.75 0 0.5] CT
1 0 0 RC
2 setlinecap
10.0 ML
2.667 LW
N
848.322 230.302 M
838.091 244.375 L
874.036 244.375 L
848.322 230.302 L
851.66 164.639 L
849.248 93.855 L
847.575 52.79 L
S
GR
GS
[0.75 0 0 0.75 0 0.5] CT
2 setlinecap
10.0 ML
2.667 LW
N
847.575 52.79 M
849.248 93.855 L
877.59 156.387 L
844.968 209.856 L
866.021 232.188 L
831.666 219.773 L
844.968 209.856 L
S
GR
GS
[0.75 0 0 0.75 0 0.5] CT
1 0 0 RC
2 setlinecap
10.0 ML
2.667 LW
N
982.947 230.302 M
972.716 244.375 L
1008.661 244.374 L
982.947 230.302 L
990.208 165.077 L
992.04 94.27 L
990.689 53.188 L
S
GR
GS
[0.75 0 0 0.75 0 0.5] CT
2 setlinecap
10.0 ML
2.667 LW
N
990.689 53.188 M
992.04 94.27 L
1017.015 158.751 L
1002.089 222.152 L
1025.666 240.682 L
990.144 234.219 L
1002.089 222.152 L
S
GR
GS
[0.75 0 0 0.75 0 0.5] CT
1 0 0 RC
2 setlinecap
10.0 ML
2.667 LW
N
1117.572 230.302 M
1107.341 244.376 L
1143.286 244.374 L
1117.572 230.302 L
1132.521 166.909 L
1142.76 97.097 L
1141.875 55.998 L
S
GR
GS
[0.75 0 0 0.75 0 0.5] CT
2 setlinecap
10.0 ML
2.667 LW
N
1141.875 55.998 M
1142.76 97.097 L
1160.511 164.8 L
1165.672 230.3 L
1191.312 244.555 L
1155.368 244.3 L
1165.672 230.3 L
S
GR
%%Trailer
%%Pages: 1
%%EOF
