%!PS-Adobe-3.0 EPSF-3.0
%%Creator: (MATLAB, The Mathworks, Inc. Version 8.5.0.197613 \(R2015a\). Operating System: Linux)
%%Title: (/home/victor/ampro/AMPRO II/Upslope Walking/figures/Thesis/FlatgroundNonSplines/AnkleTrackingTwoSteps.eps)
%%CreationDate: 2016-02-18T16:19:08
%%Pages: (atend)
%%BoundingBox: 0 0 1391 751
%%LanguageLevel: 2
%%EndComments
%%BeginProlog
%%BeginResource: procset (Apache XML Graphics Std ProcSet) 1.2 0
%%Version: 1.2 0
%%Copyright: (Copyright 2001-2003,2010 The Apache Software Foundation. License terms: http://www.apache.org/licenses/LICENSE-2.0)
/bd{bind def}bind def
/ld{load def}bd
/GR/grestore ld
/M/moveto ld
/LJ/setlinejoin ld
/C/curveto ld
/f/fill ld
/LW/setlinewidth ld
/GC/setgray ld
/t/show ld
/N/newpath ld
/CT/concat ld
/cp/closepath ld
/S/stroke ld
/L/lineto ld
/CC/setcmykcolor ld
/A/ashow ld
/GS/gsave ld
/RC/setrgbcolor ld
/RM/rmoveto ld
/ML/setmiterlimit ld
/re {4 2 roll M
1 index 0 rlineto
0 exch rlineto
neg 0 rlineto
cp } bd
/_ctm matrix def
/_tm matrix def
/BT { _ctm currentmatrix pop matrix _tm copy pop 0 0 moveto } bd
/ET { _ctm setmatrix } bd
/iTm { _ctm setmatrix _tm concat } bd
/Tm { _tm astore pop iTm 0 0 moveto } bd
/ux 0.0 def
/uy 0.0 def
/F {
  /Tp exch def
  /Tf exch def
  Tf findfont Tp scalefont setfont
  /cf Tf def  /cs Tp def
} bd
/ULS {currentpoint /uy exch def /ux exch def} bd
/ULE {
  /Tcx currentpoint pop def
  gsave
  newpath
  cf findfont cs scalefont dup
  /FontMatrix get 0 get /Ts exch def /FontInfo get dup
  /UnderlinePosition get Ts mul /To exch def
  /UnderlineThickness get Ts mul /Tt exch def
  ux uy To add moveto  Tcx uy To add lineto
  Tt setlinewidth stroke
  grestore
} bd
/OLE {
  /Tcx currentpoint pop def
  gsave
  newpath
  cf findfont cs scalefont dup
  /FontMatrix get 0 get /Ts exch def /FontInfo get dup
  /UnderlinePosition get Ts mul /To exch def
  /UnderlineThickness get Ts mul /Tt exch def
  ux uy To add cs add moveto Tcx uy To add cs add lineto
  Tt setlinewidth stroke
  grestore
} bd
/SOE {
  /Tcx currentpoint pop def
  gsave
  newpath
  cf findfont cs scalefont dup
  /FontMatrix get 0 get /Ts exch def /FontInfo get dup
  /UnderlinePosition get Ts mul /To exch def
  /UnderlineThickness get Ts mul /Tt exch def
  ux uy To add cs 10 mul 26 idiv add moveto Tcx uy To add cs 10 mul 26 idiv add lineto
  Tt setlinewidth stroke
  grestore
} bd
/QT {
/Y22 exch store
/X22 exch store
/Y21 exch store
/X21 exch store
currentpoint
/Y21 load 2 mul add 3 div exch
/X21 load 2 mul add 3 div exch
/X21 load 2 mul /X22 load add 3 div
/Y21 load 2 mul /Y22 load add 3 div
/X22 load /Y22 load curveto
} bd
/SSPD {
dup length /d exch dict def
{
/v exch def
/k exch def
currentpagedevice k known {
/cpdv currentpagedevice k get def
v cpdv ne {
/upd false def
/nullv v type /nulltype eq def
/nullcpdv cpdv type /nulltype eq def
nullv nullcpdv or
{
/upd true def
} {
/sametype v type cpdv type eq def
sametype {
v type /arraytype eq {
/vlen v length def
/cpdvlen cpdv length def
vlen cpdvlen eq {
0 1 vlen 1 sub {
/i exch def
/obj v i get def
/cpdobj cpdv i get def
obj cpdobj ne {
/upd true def
exit
} if
} for
} {
/upd true def
} ifelse
} {
v type /dicttype eq {
v {
/dv exch def
/dk exch def
/cpddv cpdv dk get def
dv cpddv ne {
/upd true def
exit
} if
} forall
} {
/upd true def
} ifelse
} ifelse
} if
} ifelse
upd true eq {
d k v put
} if
} if
} if
} forall
d length 0 gt {
d setpagedevice
} if
} bd
%%EndResource
%%BeginResource: procset (Apache XML Graphics EPS ProcSet) 1.0 0
%%Version: 1.0 0
%%Copyright: (Copyright 2002-2003 The Apache Software Foundation. License terms: http://www.apache.org/licenses/LICENSE-2.0)
/BeginEPSF { %def
/b4_Inc_state save def         % Save state for cleanup
/dict_count countdictstack def % Count objects on dict stack
/op_count count 1 sub def      % Count objects on operand stack
userdict begin                 % Push userdict on dict stack
/showpage { } def              % Redefine showpage, { } = null proc
0 setgray 0 setlinecap         % Prepare graphics state
1 setlinewidth 0 setlinejoin
10 setmiterlimit [ ] 0 setdash newpath
/languagelevel where           % If level not equal to 1 then
{pop languagelevel             % set strokeadjust and
1 ne                           % overprint to their defaults.
{false setstrokeadjust false setoverprint
} if
} if
} bd
/EndEPSF { %def
count op_count sub {pop} repeat            % Clean up stacks
countdictstack dict_count sub {end} repeat
b4_Inc_state restore
} bd
%%EndResource
%FOPBeginFontDict
%%IncludeResource: font Courier-Bold
%%IncludeResource: font Helvetica
%%IncludeResource: font Courier-BoldOblique
%%IncludeResource: font Courier-Oblique
%%IncludeResource: font Times-Roman
%%IncludeResource: font Helvetica-BoldOblique
%%IncludeResource: font Helvetica-Bold
%%IncludeResource: font Helvetica-Oblique
%%IncludeResource: font Times-BoldItalic
%%IncludeResource: font Courier
%%IncludeResource: font Times-Italic
%%IncludeResource: font Times-Bold
%%IncludeResource: font Symbol
%%IncludeResource: font ZapfDingbats
%FOPEndFontDict
%%BeginResource: encoding WinAnsiEncoding
/WinAnsiEncoding [
/.notdef /.notdef /.notdef /.notdef /.notdef
/.notdef /.notdef /.notdef /.notdef /.notdef
/.notdef /.notdef /.notdef /.notdef /.notdef
/.notdef /.notdef /.notdef /.notdef /.notdef
/.notdef /.notdef /.notdef /.notdef /.notdef
/.notdef /.notdef /.notdef /.notdef /.notdef
/.notdef /.notdef /space /exclam /quotedbl
/numbersign /dollar /percent /ampersand /quotesingle
/parenleft /parenright /asterisk /plus /comma
/hyphen /period /slash /zero /one
/two /three /four /five /six
/seven /eight /nine /colon /semicolon
/less /equal /greater /question /at
/A /B /C /D /E
/F /G /H /I /J
/K /L /M /N /O
/P /Q /R /S /T
/U /V /W /X /Y
/Z /bracketleft /backslash /bracketright /asciicircum
/underscore /quoteleft /a /b /c
/d /e /f /g /h
/i /j /k /l /m
/n /o /p /q /r
/s /t /u /v /w
/x /y /z /braceleft /bar
/braceright /asciitilde /bullet /Euro /bullet
/quotesinglbase /florin /quotedblbase /ellipsis /dagger
/daggerdbl /circumflex /perthousand /Scaron /guilsinglleft
/OE /bullet /Zcaron /bullet /bullet
/quoteleft /quoteright /quotedblleft /quotedblright /bullet
/endash /emdash /asciitilde /trademark /scaron
/guilsinglright /oe /bullet /zcaron /Ydieresis
/space /exclamdown /cent /sterling /currency
/yen /brokenbar /section /dieresis /copyright
/ordfeminine /guillemotleft /logicalnot /sfthyphen /registered
/macron /degree /plusminus /twosuperior /threesuperior
/acute /mu /paragraph /middot /cedilla
/onesuperior /ordmasculine /guillemotright /onequarter /onehalf
/threequarters /questiondown /Agrave /Aacute /Acircumflex
/Atilde /Adieresis /Aring /AE /Ccedilla
/Egrave /Eacute /Ecircumflex /Edieresis /Igrave
/Iacute /Icircumflex /Idieresis /Eth /Ntilde
/Ograve /Oacute /Ocircumflex /Otilde /Odieresis
/multiply /Oslash /Ugrave /Uacute /Ucircumflex
/Udieresis /Yacute /Thorn /germandbls /agrave
/aacute /acircumflex /atilde /adieresis /aring
/ae /ccedilla /egrave /eacute /ecircumflex
/edieresis /igrave /iacute /icircumflex /idieresis
/eth /ntilde /ograve /oacute /ocircumflex
/otilde /odieresis /divide /oslash /ugrave
/uacute /ucircumflex /udieresis /yacute /thorn
/ydieresis
] def
%%EndResource
%FOPBeginFontReencode
/Courier-Bold findfont
dup length dict begin
  {1 index /FID ne {def} {pop pop} ifelse} forall
  /Encoding WinAnsiEncoding def
  currentdict
end
/Courier-Bold exch definefont pop
/Helvetica findfont
dup length dict begin
  {1 index /FID ne {def} {pop pop} ifelse} forall
  /Encoding WinAnsiEncoding def
  currentdict
end
/Helvetica exch definefont pop
/Courier-BoldOblique findfont
dup length dict begin
  {1 index /FID ne {def} {pop pop} ifelse} forall
  /Encoding WinAnsiEncoding def
  currentdict
end
/Courier-BoldOblique exch definefont pop
/Courier-Oblique findfont
dup length dict begin
  {1 index /FID ne {def} {pop pop} ifelse} forall
  /Encoding WinAnsiEncoding def
  currentdict
end
/Courier-Oblique exch definefont pop
/Times-Roman findfont
dup length dict begin
  {1 index /FID ne {def} {pop pop} ifelse} forall
  /Encoding WinAnsiEncoding def
  currentdict
end
/Times-Roman exch definefont pop
/Helvetica-BoldOblique findfont
dup length dict begin
  {1 index /FID ne {def} {pop pop} ifelse} forall
  /Encoding WinAnsiEncoding def
  currentdict
end
/Helvetica-BoldOblique exch definefont pop
/Helvetica-Bold findfont
dup length dict begin
  {1 index /FID ne {def} {pop pop} ifelse} forall
  /Encoding WinAnsiEncoding def
  currentdict
end
/Helvetica-Bold exch definefont pop
/Helvetica-Oblique findfont
dup length dict begin
  {1 index /FID ne {def} {pop pop} ifelse} forall
  /Encoding WinAnsiEncoding def
  currentdict
end
/Helvetica-Oblique exch definefont pop
/Times-BoldItalic findfont
dup length dict begin
  {1 index /FID ne {def} {pop pop} ifelse} forall
  /Encoding WinAnsiEncoding def
  currentdict
end
/Times-BoldItalic exch definefont pop
/Courier findfont
dup length dict begin
  {1 index /FID ne {def} {pop pop} ifelse} forall
  /Encoding WinAnsiEncoding def
  currentdict
end
/Courier exch definefont pop
/Times-Italic findfont
dup length dict begin
  {1 index /FID ne {def} {pop pop} ifelse} forall
  /Encoding WinAnsiEncoding def
  currentdict
end
/Times-Italic exch definefont pop
/Times-Bold findfont
dup length dict begin
  {1 index /FID ne {def} {pop pop} ifelse} forall
  /Encoding WinAnsiEncoding def
  currentdict
end
/Times-Bold exch definefont pop
%FOPEndFontReencode
%%EndProlog
%%Page: 1 1
%%PageBoundingBox: 0 0 1391 751
%%BeginPageSetup
[1 0 0 -1 0 751] CT
%%EndPageSetup
GS
[0.75 0 0 0.75 0 0.25] CT
N
0 0 M
1855 0 L
1855 1001 L
0 1001 L
0 0 L
cp
clip
1 GC
N
0 0 1855 1001 re
f
GR
GS
[0.75 0 0 0.75 0 0.25] CT
1 GC
N
0 0 1855 1001 re
f
GR
GS
[0.75 0 0 0.75 0 0.25] CT
1 GC
N
241 721 M
1679 721 L
1679 30 L
241 30 L
cp
f
GR
GS
[0.75 0 0 0.75 0 0.25] CT
0.873 GC
2 setlinecap
10.0 ML
N
241 721 M
241 30 L
S
GR
GS
[0.75 0 0 0.75 0 0.25] CT
0.873 GC
2 setlinecap
10.0 ML
N
564.792 721 M
564.792 30 L
S
GR
GS
[0.75 0 0 0.75 0 0.25] CT
0.873 GC
2 setlinecap
10.0 ML
N
888.584 721 M
888.584 30 L
S
GR
GS
[0.75 0 0 0.75 0 0.25] CT
0.873 GC
2 setlinecap
10.0 ML
N
1212.376 721 M
1212.376 30 L
S
GR
GS
[0.75 0 0 0.75 0 0.25] CT
0.873 GC
2 setlinecap
10.0 ML
N
1536.168 721 M
1536.168 30 L
S
GR
GS
[0.75 0 0 0.75 0 0.25] CT
0.873 GC
2 setlinecap
10.0 ML
N
1679 721 M
241 721 L
S
GR
GS
[0.75 0 0 0.75 0 0.25] CT
0.873 GC
2 setlinecap
10.0 ML
N
1679 605.833 M
241 605.833 L
S
GR
GS
[0.75 0 0 0.75 0 0.25] CT
0.873 GC
2 setlinecap
10.0 ML
N
1679 490.667 M
241 490.667 L
S
GR
GS
[0.75 0 0 0.75 0 0.25] CT
0.873 GC
2 setlinecap
10.0 ML
N
1679 375.5 M
241 375.5 L
S
GR
GS
[0.75 0 0 0.75 0 0.25] CT
0.873 GC
2 setlinecap
10.0 ML
N
1679 260.333 M
241 260.333 L
S
GR
GS
[0.75 0 0 0.75 0 0.25] CT
0.873 GC
2 setlinecap
10.0 ML
N
1679 145.167 M
241 145.167 L
S
GR
GS
[0.75 0 0 0.75 0 0.25] CT
0.873 GC
2 setlinecap
10.0 ML
N
1679 30 M
241 30 L
S
GR
GS
[0.75 0 0 0.75 720.00055 599.25002] CT
0.149 GC
/Helvetica 59 F
GS
[1 0 0 1 0 0] CT
-121 55 moveto 
1 -1 scale
(Time \(s\)) t 
GR
GR
GS
[0.75 0 0 0.75 0 0.25] CT
0.149 GC
2 setlinecap
10.0 ML
N
241 721 M
1679 721 L
S
GR
GS
[0.75 0 0 0.75 0 0.25] CT
0.149 GC
2 setlinecap
10.0 ML
N
241 30 M
1679 30 L
S
GR
GS
[0.75 0 0 0.75 0 0.25] CT
0.149 GC
2 setlinecap
10.0 ML
N
241 721 M
241 706.62 L
S
GR
GS
[0.75 0 0 0.75 0 0.25] CT
0.149 GC
2 setlinecap
10.0 ML
N
564.792 721 M
564.792 706.62 L
S
GR
GS
[0.75 0 0 0.75 0 0.25] CT
0.149 GC
2 setlinecap
10.0 ML
N
888.584 721 M
888.584 706.62 L
S
GR
GS
[0.75 0 0 0.75 0 0.25] CT
0.149 GC
2 setlinecap
10.0 ML
N
1212.376 721 M
1212.376 706.62 L
S
GR
GS
[0.75 0 0 0.75 0 0.25] CT
0.149 GC
2 setlinecap
10.0 ML
N
1536.168 721 M
1536.168 706.62 L
S
GR
GS
[0.75 0 0 0.75 0 0.25] CT
0.149 GC
2 setlinecap
10.0 ML
N
241 30 M
241 44.38 L
S
GR
GS
[0.75 0 0 0.75 0 0.25] CT
0.149 GC
2 setlinecap
10.0 ML
N
564.792 30 M
564.792 44.38 L
S
GR
GS
[0.75 0 0 0.75 0 0.25] CT
0.149 GC
2 setlinecap
10.0 ML
N
888.584 30 M
888.584 44.38 L
S
GR
GS
[0.75 0 0 0.75 0 0.25] CT
0.149 GC
2 setlinecap
10.0 ML
N
1212.376 30 M
1212.376 44.38 L
S
GR
GS
[0.75 0 0 0.75 0 0.25] CT
0.149 GC
2 setlinecap
10.0 ML
N
1536.168 30 M
1536.168 44.38 L
S
GR
GS
[0.75 0 0 0.75 180.75 550.99998] CT
0.149 GC
/Helvetica 53 F
GS
[1 0 0 1 0 0] CT
-17 50 moveto 
1 -1 scale
(0) t 
GR
GR
GS
[0.75 0 0 0.75 423.59395 550.99998] CT
0.149 GC
/Helvetica 53 F
GS
[1 0 0 1 0 0] CT
-17 50 moveto 
1 -1 scale
(1) t 
GR
GR
GS
[0.75 0 0 0.75 666.4379 550.99998] CT
0.149 GC
/Helvetica 53 F
GS
[1 0 0 1 0 0] CT
-17 50 moveto 
1 -1 scale
(2) t 
GR
GR
GS
[0.75 0 0 0.75 909.2818 550.99998] CT
0.149 GC
/Helvetica 53 F
GS
[1 0 0 1 0 0] CT
-17 50 moveto 
1 -1 scale
(3) t 
GR
GR
GS
[0.75 0 0 0.75 1152.12579 550.99998] CT
0.149 GC
/Helvetica 53 F
GS
[1 0 0 1 0 0] CT
-17 50 moveto 
1 -1 scale
(4) t 
GR
GR
GS
[0 -0.75 0.75 0 104 281.87473] CT
0.149 GC
/Helvetica 59 F
GS
[1 0 0 1 0 0] CT
-255 -14 moveto 
1 -1 scale
(Ankle angle \(rad\)) t 
GR
GR
GS
[0.75 0 0 0.75 0 0.25] CT
0.149 GC
2 setlinecap
10.0 ML
N
241 721 M
241 30 L
S
GR
GS
[0.75 0 0 0.75 0 0.25] CT
0.149 GC
2 setlinecap
10.0 ML
N
1679 721 M
1679 30 L
S
GR
GS
[0.75 0 0 0.75 0 0.25] CT
0.149 GC
2 setlinecap
10.0 ML
N
241 721 M
255.38 721 L
S
GR
GS
[0.75 0 0 0.75 0 0.25] CT
0.149 GC
2 setlinecap
10.0 ML
N
241 605.833 M
255.38 605.833 L
S
GR
GS
[0.75 0 0 0.75 0 0.25] CT
0.149 GC
2 setlinecap
10.0 ML
N
241 490.667 M
255.38 490.667 L
S
GR
GS
[0.75 0 0 0.75 0 0.25] CT
0.149 GC
2 setlinecap
10.0 ML
N
241 375.5 M
255.38 375.5 L
S
GR
GS
[0.75 0 0 0.75 0 0.25] CT
0.149 GC
2 setlinecap
10.0 ML
N
241 260.333 M
255.38 260.333 L
S
GR
GS
[0.75 0 0 0.75 0 0.25] CT
0.149 GC
2 setlinecap
10.0 ML
N
241 145.167 M
255.38 145.167 L
S
GR
GS
[0.75 0 0 0.75 0 0.25] CT
0.149 GC
2 setlinecap
10.0 ML
N
241 30 M
255.38 30 L
S
GR
GS
[0.75 0 0 0.75 0 0.25] CT
0.149 GC
2 setlinecap
10.0 ML
N
1679 721 M
1664.62 721 L
S
GR
GS
[0.75 0 0 0.75 0 0.25] CT
0.149 GC
2 setlinecap
10.0 ML
N
1679 605.833 M
1664.62 605.833 L
S
GR
GS
[0.75 0 0 0.75 0 0.25] CT
0.149 GC
2 setlinecap
10.0 ML
N
1679 490.667 M
1664.62 490.667 L
S
GR
GS
[0.75 0 0 0.75 0 0.25] CT
0.149 GC
2 setlinecap
10.0 ML
N
1679 375.5 M
1664.62 375.5 L
S
GR
GS
[0.75 0 0 0.75 0 0.25] CT
0.149 GC
2 setlinecap
10.0 ML
N
1679 260.333 M
1664.62 260.333 L
S
GR
GS
[0.75 0 0 0.75 0 0.25] CT
0.149 GC
2 setlinecap
10.0 ML
N
1679 145.167 M
1664.62 145.167 L
S
GR
GS
[0.75 0 0 0.75 0 0.25] CT
0.149 GC
2 setlinecap
10.0 ML
N
1679 30 M
1664.62 30 L
S
GR
GS
[0.75 0 0 0.75 170.75 541] CT
0.149 GC
/Helvetica 53 F
GS
[1 0 0 1 0 0] CT
-34 18.5 moveto 
1 -1 scale
(0) t 
GR
GR
GS
[0.75 0 0 0.75 170.75 454.62498] CT
0.149 GC
/Helvetica 53 F
GS
[1 0 0 1 0 0] CT
-85 18.5 moveto 
1 -1 scale
(0.1) t 
GR
GR
GS
[0.75 0 0 0.75 170.75 368.24999] CT
0.149 GC
/Helvetica 53 F
GS
[1 0 0 1 0 0] CT
-85 18.5 moveto 
1 -1 scale
(0.2) t 
GR
GR
GS
[0.75 0 0 0.75 170.75 281.875] CT
0.149 GC
/Helvetica 53 F
GS
[1 0 0 1 0 0] CT
-85 18.5 moveto 
1 -1 scale
(0.3) t 
GR
GR
GS
[0.75 0 0 0.75 170.75 195.49998] CT
0.149 GC
/Helvetica 53 F
GS
[1 0 0 1 0 0] CT
-85 18.5 moveto 
1 -1 scale
(0.4) t 
GR
GR
GS
[0.75 0 0 0.75 170.75 109.125] CT
0.149 GC
/Helvetica 53 F
GS
[1 0 0 1 0 0] CT
-85 18.5 moveto 
1 -1 scale
(0.5) t 
GR
GR
GS
[0.75 0 0 0.75 170.75 22.74998] CT
0.149 GC
/Helvetica 53 F
GS
[1 0 0 1 0 0] CT
-85 18.5 moveto 
1 -1 scale
(0.6) t 
GR
GR
GS
[0.75 0 0 0.75 0 0.25] CT
0 0 1 RC
2 LJ
6.667 LW
N
241 617.029 M
242.62 625.121 L
244.157 631.503 L
245.776 636.825 L
247.395 640.958 L
249.014 644.121 L
250.632 646.466 L
252.333 648.166 L
253.872 649.491 L
255.49 650.551 L
257.11 651.686 L
258.728 653.025 L
260.306 654.332 L
261.965 655.454 L
263.585 656.129 L
265.244 656.576 L
266.903 656.898 L
268.443 657.229 L
270.223 657.688 L
271.681 658.241 L
273.299 657.843 L
274.958 659.738 L
276.537 660.444 L
278.156 661.107 L
284.267 662.123 L
285.765 662.503 L
289.488 662.511 L
292.565 662.511 L
294.709 662.503 L
296.571 662.436 L
299.849 662.021 L
302.399 661.222 L
305.677 659.667 L
306.812 656.977 L
308.43 655.591 L
310.09 654.495 L
311.668 653.793 L
313.368 653.44 L
314.986 653.378 L
316.686 653.431 L
318.224 653.475 L
319.763 653.528 L
321.462 653.603 L
323 653.722 L
324.66 653.895 L
326.32 654.138 L
327.938 654.433 L
329.76 654.725 L
331.177 654.893 L
332.876 654.977 L
S
GR
GS
[0.75 0 0 0.75 0 0.25] CT
0 0 1 RC
2 LJ
6.667 LW
N
332.876 654.977 M
334.333 654.977 L
336.074 654.968 L
337.733 654.959 L
339.231 654.937 L
340.891 654.88 L
342.59 654.8 L
344.128 654.716 L
345.666 654.637 L
347.285 654.579 L
349.106 654.553 L
350.522 654.544 L
352.141 654.535 L
353.841 654.513 L
355.46 654.464 L
357.082 654.38 L
358.7 654.23 L
360.237 653.987 L
362.098 653.594 L
363.678 652.98 L
365.256 652.287 L
366.874 651.39 L
368.494 650.189 L
370.112 648.652 L
372.096 646.713 L
373.188 645.203 L
374.969 643.127 L
376.548 640.875 L
378.207 638.525 L
379.827 636.096 L
381.445 633.649 L
383.064 631.185 L
384.602 628.8 L
386.221 626.485 L
387.88 624.264 L
389.379 622.153 L
391.2 620.156 L
392.779 618.275 L
394.478 616.486 L
396.016 614.658 L
397.675 613.077 L
399.173 611.442 L
400.832 609.83 L
402.492 608.196 L
403.99 606.62 L
405.608 604.963 L
407.228 603.484 L
408.806 601.991 L
410.505 600.542 L
412.043 599.133 L
S
GR
GS
[0.75 0 0 0.75 0 0.25] CT
0 0 1 RC
2 LJ
6.667 LW
N
412.043 599.133 M
413.824 597.702 L
415.402 596.497 L
416.941 595.317 L
418.559 594.156 L
420.219 592.985 L
421.878 591.806 L
423.416 590.64 L
424.956 589.479 L
426.777 588.163 L
428.354 586.842 L
430.053 585.451 L
431.593 583.98 L
433.212 582.514 L
434.831 580.765 L
436.45 579.02 L
437.947 577.161 L
439.687 575.195 L
441.185 573.128 L
442.925 570.969 L
444.504 568.721 L
446.203 566.411 L
447.783 564.039 L
449.362 561.641 L
451.02 559.344 L
453.611 556.827 L
454.663 553.757 L
455.837 552.088 L
457.495 549.698 L
459.238 547.292 L
460.815 544.725 L
462.433 542.402 L
463.851 539.894 L
465.753 537.23 L
467.21 534.748 L
468.707 532.09 L
470.407 529.387 L
472.067 526.693 L
473.766 524.007 L
475.304 521.366 L
476.842 518.752 L
478.623 516.185 L
480.162 513.69 L
481.659 511.274 L
483.399 508.969 L
484.977 506.707 L
486.638 504.53 L
488.216 502.344 L
489.835 500.18 L
491.493 498.029 L
S
GR
GS
[0.75 0 0 0.75 0 0.25] CT
0 0 1 RC
2 LJ
6.667 LW
N
491.493 498.029 M
492.992 495.834 L
494.853 493.612 L
496.23 491.395 L
498.942 489.129 L
500.115 486.069 L
501.087 484.549 L
502.786 482.248 L
504.486 479.93 L
506.065 477.545 L
507.562 475.248 L
509.342 472.642 L
511.004 470.098 L
512.541 467.435 L
514.2 464.666 L
515.818 461.751 L
517.519 458.752 L
519.057 455.652 L
520.675 452.569 L
522.294 449.429 L
523.873 446.372 L
525.573 443.201 L
527.232 440.348 L
528.772 437.323 L
530.47 434.306 L
532.171 431.241 L
533.627 428.11 L
535.732 423.72 L
536.865 421.397 L
538.484 418.243 L
540.103 414.922 L
541.722 411.596 L
543.503 408.284 L
544.96 404.976 L
546.661 401.655 L
548.198 398.276 L
549.817 394.831 L
551.395 391.315 L
553.014 387.932 L
554.672 384.196 L
556.254 380.685 L
557.912 377.204 L
559.53 373.786 L
561.231 370.42 L
562.85 367.135 L
564.469 363.888 L
565.966 360.607 L
567.706 357.096 L
569.244 353.858 L
570.863 350.374 L
S
GR
GS
[0.75 0 0 0.75 0 0.25] CT
0 0 1 RC
2 LJ
6.667 LW
N
570.863 350.374 M
572.482 346.814 L
574.102 343.175 L
575.882 339.465 L
577.177 335.9 L
578.958 331.97 L
580.578 328.207 L
582.034 324.594 L
583.734 320.694 L
585.272 316.724 L
587.012 312.656 L
588.51 308.535 L
590.533 303.849 L
591.99 299.976 L
593.366 296.381 L
595.229 292.45 L
596.767 288.48 L
598.387 284.204 L
600.004 280.092 L
601.664 276.14 L
603.08 271.935 L
604.781 267.722 L
606.561 263.212 L
608.18 260.125 L
609.557 257.223 L
611.175 254.785 L
612.876 252.626 L
614.414 250.66 L
616.842 248.788 L
617.975 246.677 L
619.351 245.201 L
620.889 243.585 L
622.913 241.867 L
624.127 240.732 L
625.909 239.42 L
627.568 237.98 L
629.066 233.065 L
630.806 225.517 L
632.222 216.949 L
633.962 208.27 L
635.46 199.671 L
637.16 191.31 L
638.859 183.263 L
640.398 175.839 L
642.017 169.157 L
643.555 163.318 L
645.335 158.332 L
646.793 154.118 L
648.573 150.589 L
650.112 147.692 L
S
GR
GS
[0.75 0 0 0.75 0 0.25] CT
0 0 1 RC
2 LJ
6.667 LW
N
650.112 147.692 M
651.811 145.232 L
653.349 143.373 L
655.211 141.836 L
656.506 140.723 L
658.126 140.06 L
659.947 139.888 L
661.404 140.104 L
663.104 140.687 L
664.601 141.619 L
666.301 142.9 L
667.92 144.583 L
669.459 146.672 L
671.077 149.136 L
672.776 151.954 L
674.435 155.28 L
675.934 158.65 L
677.634 162.112 L
679.293 165.637 L
680.792 169.108 L
682.531 172.553 L
683.988 175.971 L
685.688 179.372 L
687.388 182.866 L
689.047 186.32 L
690.626 189.707 L
692.205 193.019 L
693.864 196.327 L
695.483 199.808 L
696.94 202.762 L
699.652 207.63 L
700.785 210.001 L
701.999 212.74 L
703.456 215.937 L
705.237 219.413 L
706.734 222.973 L
708.279 226.639 L
709.892 230.481 L
711.511 234.438 L
713.13 238.254 L
714.754 242.49 L
716.408 246.531 L
718.027 250.585 L
719.848 254.653 L
721.305 258.645 L
722.844 262.59 L
724.543 266.419 L
726.163 270.12 L
727.706 273.746 L
729.441 277.473 L
S
GR
GS
[0.75 0 0 0.75 0 0.25] CT
0 0 1 RC
2 LJ
6.667 LW
N
729.441 277.473 M
730.938 280.764 L
732.598 284.138 L
734.181 287.371 L
736.118 290.639 L
737.414 293.422 L
739.235 296.288 L
740.656 298.748 L
742.271 301.177 L
743.89 303.933 L
745.55 306.605 L
747.168 309.198 L
748.746 311.826 L
750.366 314.392 L
751.984 317.271 L
753.684 319.996 L
755.223 322.682 L
756.963 325.12 L
758.501 327.655 L
760.084 330.203 L
761.82 332.539 L
763.317 334.849 L
764.937 337.097 L
766.636 339.372 L
768.255 341.611 L
769.873 343.652 L
771.614 345.798 L
773.112 347.728 L
774.69 349.517 L
776.471 351.164 L
777.889 352.569 L
780.681 353.924 L
781.814 355.523 L
783.069 356.517 L
784.647 357.59 L
786.144 358.416 L
787.642 359.264 L
789.383 360.099 L
791.001 360.867 L
792.499 361.552 L
794.402 362.117 L
795.737 362.758 L
797.437 363.478 L
798.94 364.162 L
800.634 364.86 L
802.212 365.584 L
803.953 366.282 L
805.612 367.064 L
807.11 367.859 L
808.931 368.667 L
S
GR
GS
[0.75 0 0 0.75 0 0.25] CT
0 0 1 RC
2 LJ
6.667 LW
N
808.931 368.667 M
810.43 369.391 L
812.007 370.098 L
813.626 370.955 L
815.245 371.843 L
816.824 372.66 L
818.564 373.269 L
820.264 373.768 L
821.883 374.311 L
823.504 374.828 L
824.96 375.208 L
826.781 375.544 L
828.238 375.813 L
829.736 376.074 L
831.476 376.286 L
833.095 376.356 L
834.754 376.361 L
836.333 376.356 L
838.114 376.348 L
839.53 376.312 L
841.15 376.246 L
842.767 376.166 L
844.387 376.03 L
846.005 375.857 L
847.665 375.659 L
849.324 375.42 L
851.064 375.062 L
852.482 374.669 L
854.061 374.197 L
855.761 373.755 L
857.541 373.402 L
858.877 373.039 L
860.495 372.598 L
863.005 372.147 L
864.097 372.077 L
865.393 372.086 L
867.052 372.165 L
868.63 372.267 L
870.25 372.417 L
871.868 372.62 L
873.446 372.858 L
875.067 373.163 L
876.686 373.627 L
878.425 374.351 L
879.963 375.323 L
881.623 376.515 L
883.444 377.889 L
884.901 379.245 L
886.44 380.777 L
888.058 382.681 L
S
GR
GS
[0.75 0 0 0.75 0 0.25] CT
0 0 1 RC
2 LJ
6.667 LW
N
888.058 382.681 M
889.678 384.894 L
891.417 387.327 L
892.956 390.101 L
894.736 393.36 L
896.194 396.147 L
897.812 399.548 L
899.431 402.98 L
901.09 406.566 L
902.588 410.121 L
904.248 414.021 L
905.866 418.08 L
907.527 422.254 L
909.105 426.498 L
910.765 430.791 L
912.423 435.503 L
914.002 440.269 L
915.863 445.127 L
917.32 450.838 L
918.778 456.491 L
920.438 463.054 L
922.219 470.368 L
923.675 477.214 L
925.376 484.479 L
926.873 491.673 L
928.735 499.204 L
930.151 505.97 L
931.77 513.036 L
933.471 520.474 L
935.008 527.214 L
936.668 534.302 L
938.327 541.762 L
939.986 548.435 L
941.443 555.409 L
943.953 562.763 L
945.046 570.518 L
946.34 576.618 L
948.243 583.967 L
949.661 591.881 L
951.238 599.089 L
952.776 606.774 L
954.678 614.587 L
956.054 622.462 L
957.795 630.8 L
959.292 637.982 L
960.911 643.648 L
962.53 647.539 L
964.189 650.233 L
966.093 651.845 L
967.387 652.737 L
S
GR
GS
[0.75 0 0 0.75 0 0.25] CT
0 0 1 RC
2 LJ
6.667 LW
N
967.387 652.737 M
968.966 653.36 L
970.585 653.7 L
972.324 653.815 L
973.822 653.811 L
975.562 653.797 L
977.061 653.797 L
978.638 653.797 L
980.582 653.797 L
981.956 653.797 L
984.71 653.797 L
985.844 653.797 L
987.099 653.797 L
988.476 653.797 L
990.093 653.797 L
991.672 653.797 L
993.29 653.797 L
994.95 653.797 L
996.488 653.802 L
998.433 654.23 L
999.847 654.959 L
1001.427 655.811 L
1003.046 656.333 L
1004.625 656.589 L
1006.167 656.721 L
1007.78 656.77 L
1009.561 656.779 L
1011.058 656.849 L
1012.96 657.119 L
1014.417 657.768 L
1015.957 658.62 L
1017.575 659.535 L
1019.195 660.546 L
1020.812 661.584 L
1022.513 662.768 L
1024.131 663.828 L
1026.44 665.338 L
1027.612 666.129 L
1028.827 667.012 L
1030.607 667.878 L
1032.073 668.602 L
1033.684 669.291 L
1035.303 669.918 L
1037.003 670.558 L
1038.702 671.057 L
1040.159 671.521 L
1041.859 672.003 L
1043.397 672.338 L
1045.097 672.413 L
1046.715 672.259 L
S
GR
GS
[0.75 0 0 0.75 0 0.25] CT
0 0 1 RC
2 LJ
6.667 LW
N
1046.715 672.259 M
1048.255 671.905 L
1049.954 671.327 L
1051.573 670.457 L
1053.476 669.207 L
1054.852 667.608 L
1056.552 665.749 L
1057.97 663.62 L
1059.669 661.319 L
1061.286 658.907 L
1063.027 656.62 L
1064.449 653.877 L
1066.144 650.088 L
1067.844 645.892 L
1069.382 642.076 L
1071.082 639.046 L
1072.579 636.979 L
1074.239 635.853 L
1075.776 635.469 L
1077.398 635.544 L
1079.215 635.672 L
1080.715 635.689 L
1082.455 635.703 L
1083.993 635.769 L
1085.773 635.91 L
1087.15 636.122 L
1088.889 636.378 L
1090.387 636.657 L
1092.087 636.997 L
1093.585 637.416 L
1095.534 637.889 L
1097.026 638.291 L
1098.483 638.516 L
1100.264 638.626 L
1101.72 638.68 L
1103.461 638.693 L
1104.959 638.702 L
1107.469 638.732 L
1108.601 638.763 L
1109.816 638.772 L
1111.717 638.768 L
1113.055 638.737 L
1114.916 638.644 L
1116.373 638.428 L
1117.991 638.061 L
1119.53 637.575 L
1121.23 636.939 L
1122.768 636.18 L
1124.467 635.067 L
1126.248 633.711 L
S
GR
GS
[0.75 0 0 0.75 0 0.25] CT
0 0 1 RC
2 LJ
6.667 LW
N
1126.248 633.711 M
1127.664 632.306 L
1129.243 630.518 L
1130.862 628.504 L
1132.562 626.158 L
1134.141 623.932 L
1135.8 621.358 L
1137.419 618.827 L
1138.957 616.42 L
1140.656 613.929 L
1142.235 611.482 L
1144.137 608.85 L
1145.432 606.765 L
1147.34 604.455 L
1148.711 602.455 L
1150.33 600.494 L
1152.151 598.466 L
1153.527 596.89 L
1155.268 595.242 L
1156.765 593.644 L
1158.505 592.031 L
1160.165 590.433 L
1161.703 588.728 L
1163.281 587.125 L
1164.9 585.349 L
1166.478 583.525 L
1168.139 581.626 L
1169.838 579.652 L
1171.377 577.607 L
1172.995 575.518 L
1174.614 573.389 L
1176.556 570.863 L
1177.894 569.078 L
1179.553 567.162 L
1181.09 565.183 L
1182.709 563.213 L
1184.409 561.31 L
1185.946 559.388 L
1187.606 557.467 L
1189.671 555.056 L
1190.884 553.439 L
1192.503 551.417 L
1194.042 549.199 L
1195.661 546.81 L
1197.279 544.279 L
1198.979 541.607 L
1200.477 538.794 L
1202.217 535.866 L
1203.755 532.849 L
1205.455 529.647 L
S
GR
GS
[0.75 0 0 0.75 0 0.25] CT
0 0 1 RC
2 LJ
6.667 LW
N
1205.455 529.647 M
1206.993 526.75 L
1208.936 523.747 L
1210.191 520.827 L
1211.852 517.956 L
1213.591 515.139 L
1215.128 512.321 L
1216.79 509.525 L
1218.327 506.663 L
1220.027 503.603 L
1221.564 500.719 L
1223.183 497.587 L
1224.924 494.345 L
1226.421 490.865 L
1228.08 487.676 L
1229.66 484.302 L
1231.237 480.946 L
1232.856 477.562 L
1234.597 473.985 L
1236.135 470.65 L
1237.754 467.038 L
1239.373 463.359 L
1241.274 459.622 L
1242.692 455.917 L
1244.23 452.207 L
1246.091 448.356 L
1247.468 444.946 L
1249.168 441.267 L
1250.706 437.99 L
1252.249 434.589 L
1253.903 431.157 L
1255.562 427.668 L
1257.263 424.104 L
1258.881 420.346 L
1260.5 416.993 L
1262.04 413.518 L
1263.657 409.905 L
1265.2 406.65 L
1266.814 403.231 L
1268.474 399.848 L
1270.984 396.5 L
1272.076 392.667 L
1273.653 389.836 L
1275.071 386.523 L
1276.649 383.259 L
1278.309 379.912 L
1279.887 376.975 L
1281.425 374.011 L
1283.044 371.114 L
1284.703 368.27 L
S
GR
GS
[0.75 0 0 0.75 0 0.25] CT
0 0 1 RC
2 LJ
6.667 LW
N
1284.703 368.27 M
1286.282 365.288 L
1287.942 362.466 L
1289.56 359.569 L
1291.103 356.614 L
1292.799 353.527 L
1294.377 350.312 L
1295.955 346.973 L
1297.579 343.546 L
1299.355 340.096 L
1300.933 336.589 L
1302.431 333.047 L
1304.172 329.448 L
1306.234 325.632 L
1307.451 321.887 L
1308.908 318.247 L
1310.688 314.37 L
1312.145 310.452 L
1313.804 306.504 L
1315.383 302.856 L
1317.01 300.148 L
1318.702 297.971 L
1320.24 295.979 L
1321.939 293.969 L
1323.518 291.81 L
1325.177 289.592 L
1326.959 287.3 L
1328.334 284.977 L
1329.958 282.76 L
1331.573 279.885 L
1333.353 273.945 L
1334.85 265.959 L
1336.591 257.223 L
1338.09 248.267 L
1339.828 239.204 L
1341.327 229.955 L
1342.91 220.623 L
1344.566 211.198 L
1346.143 201.875 L
1347.843 192.975 L
1349.422 184.73 L
1351.121 176.74 L
1353.185 168.666 L
1354.321 163.397 L
1355.898 157.36 L
1357.476 151.848 L
1359.217 146.959 L
1360.714 142.71 L
1362.535 139.005 L
1364.113 135.745 L
S
GR
GS
[0.75 0 0 0.75 0 0.25] CT
0 0 1 RC
2 LJ
6.667 LW
N
1364.113 135.745 M
1365.733 133.175 L
1367.23 131.276 L
1368.849 129.942 L
1370.468 129.111 L
1372.208 128.895 L
1373.949 129.151 L
1375.289 129.619 L
1377.146 130.313 L
1378.522 131.236 L
1380.222 132.154 L
1381.8 133.157 L
1383.46 134.438 L
1385.038 136.368 L
1386.945 139.579 L
1388.479 143.2 L
1389.936 147.383 L
1391.595 151.985 L
1393.133 156.485 L
1394.793 161.176 L
1396.371 165.526 L
1398.031 170.389 L
1399.61 175.486 L
1401.229 180.578 L
1402.847 185.533 L
1404.667 191.125 L
1406.207 195.197 L
1407.746 199.87 L
1409.363 204.538 L
1410.942 209.321 L
1412.641 214.352 L
1414.221 218.755 L
1415.799 223.379 L
1417.539 228.03 L
1419.036 232.689 L
1420.939 237.627 L
1422.275 242.079 L
1424.015 246.906 L
1425.513 251.27 L
1427.172 255.925 L
1428.75 260.576 L
1430.409 265.195 L
1432.109 269.744 L
1434.538 274.086 L
1435.59 278.944 L
1437.089 282.844 L
1438.586 286.58 L
1440.084 290.167 L
1441.823 293.903 L
1443.32 297.11 L
S
GR
GS
[0.75 0 0 0.75 0 0.25] CT
0 0 1 RC
2 LJ
6.667 LW
N
1443.32 297.11 M
1444.98 300.387 L
1446.68 303.553 L
1448.218 306.689 L
1449.837 309.763 L
1451.496 312.775 L
1453.318 316.035 L
1454.694 318.596 L
1456.313 321.401 L
1457.932 324.166 L
1459.512 326.855 L
1461.251 329.523 L
1462.789 332.085 L
1464.488 334.496 L
1465.986 336.775 L
1467.727 339.027 L
1469.467 340.913 L
1471.775 343.762 L
1472.826 345.224 L
1474.324 346.955 L
1475.741 348.62 L
1477.441 350.559 L
1478.938 352.198 L
1480.557 353.933 L
1482.256 355.682 L
1483.835 357.294 L
1485.618 358.708 L
1487.073 360.112 L
1488.773 361.539 L
1490.27 362.714 L
1491.93 363.813 L
1493.508 364.869 L
1495.168 365.854 L
1496.827 366.755 L
1498.406 367.554 L
1500.024 368.203 L
1501.969 368.817 L
1503.344 369.365 L
1504.963 369.807 L
1506.5 370.253 L
1508.12 370.769 L
1509.739 371.211 L
1511.398 371.507 L
1512.977 371.737 L
1514.595 371.962 L
1516.497 372.165 L
1518.076 372.236 L
1519.453 372.24 L
1521.071 372.24 L
1522.649 372.24 L
S
GR
GS
[0.75 0 0 0.75 0 0.25] CT
0 0 1 RC
2 LJ
6.667 LW
N
1522.649 372.24 M
1524.31 372.24 L
1526.05 372.24 L
1527.547 372.24 L
1529.247 372.24 L
1530.744 372.24 L
1532.444 372.24 L
1534.307 372.236 L
1535.643 372.218 L
1537.343 372.214 L
1538.88 372.214 L
1540.458 372.214 L
1542.199 372.214 L
1543.818 372.214 L
1545.558 372.214 L
1546.975 372.214 L
1548.715 372.205 L
1550.335 372.183 L
1551.751 372.147 L
1553.451 372.108 L
1555.11 372.059 L
1556.647 371.997 L
1558.347 371.922 L
1559.886 371.843 L
1561.545 371.728 L
1563.164 371.622 L
1564.702 371.498 L
1566.888 371.361 L
1567.981 371.224 L
1569.762 371.07 L
1571.3 370.937 L
1572.959 370.827 L
1574.416 370.774 L
1576.156 370.769 L
1577.694 370.769 L
1579.313 370.774 L
1580.973 370.836 L
1582.715 370.981 L
1584.17 371.149 L
1585.83 371.436 L
1587.489 371.927 L
1588.992 372.642 L
1590.687 373.393 L
1592.305 374.219 L
1593.884 375.093 L
1595.467 376.038 L
1597.85 377.319 L
1598.904 378.11 L
1600.36 379.174 L
1602.263 380.345 L
S
GR
GS
[0.75 0 0 0.75 0 0.25] CT
0 0 1 RC
2 LJ
6.667 LW
N
1602.263 380.345 M
1603.557 381.563 L
1605.298 382.95 L
1606.795 384.624 L
1608.454 386.448 L
1610.074 388.714 L
1611.692 391.09 L
1613.392 393.409 L
1614.972 395.825 L
1616.59 398.377 L
1618.169 401.01 L
1619.949 403.699 L
1621.37 406.398 L
1623.026 409.114 L
1624.684 411.941 L
1626.223 415.05 L
1627.882 418.477 L
1629.46 422.183 L
1631.242 426.273 L
1632.861 430.791 L
1634.642 436.13 L
1635.977 441.422 L
1637.717 447.194 L
1639.255 453.254 L
1640.875 459.631 L
1642.452 466.225 L
1644.031 472.841 L
1645.772 479.426 L
1647.31 485.945 L
1648.969 492.407 L
1650.588 498.952 L
1652.165 505.586 L
1653.752 512.237 L
1655.365 518.972 L
1657.146 525.906 L
1658.642 533.057 L
1660.423 540.428 L
1661.839 547.95 L
1663.622 555.493 L
1665.443 563.792 L
1667.021 570.633 L
1668.397 578.344 L
1670.096 586.224 L
1671.756 594.266 L
1673.294 602.353 L
1675.115 610.51 L
1676.532 618.646 L
1679 626.794 L
S
GR
GS
[0.75 0 0 0.75 0 0.25] CT
1 0 0 RC
[24 24] 0 setdash
2 LJ
6.667 LW
N
241 677.585 M
242.62 672.801 L
244.157 669.523 L
245.776 667.091 L
247.395 665.57 L
249.014 664.691 L
250.632 664.287 L
252.333 664.262 L
253.872 664.367 L
255.49 664.537 L
257.11 664.497 L
258.728 664.096 L
260.306 663.606 L
261.965 663.122 L
263.585 662.92 L
265.244 662.79 L
266.903 662.671 L
268.443 662.458 L
270.223 662.019 L
271.681 661.406 L
273.299 661.697 L
274.958 659.769 L
276.537 659.036 L
278.156 658.327 L
284.267 657.209 L
285.765 656.751 L
289.488 656.601 L
292.565 656.353 L
294.709 656.273 L
296.571 656.228 L
299.849 656.232 L
302.399 656.359 L
305.677 656.915 L
306.812 658.804 L
308.43 660.424 L
310.09 662.55 L
311.668 665.14 L
313.368 668.048 L
314.986 670.935 L
316.686 674.109 L
318.224 677.581 L
319.763 680.677 L
321.462 683.875 L
323 686.5 L
324.66 688.585 L
326.32 690.051 L
327.938 690.898 L
329.76 691.15 L
331.177 690.857 L
332.876 690.078 L
334.333 688.912 L
336.074 687.49 L
337.733 685.913 L
339.231 684.257 L
340.891 682.562 L
342.59 680.875 L
344.128 679.235 L
345.666 677.685 L
347.285 676.254 L
349.106 674.962 L
350.522 673.862 L
352.141 672.811 L
353.841 671.864 L
355.46 670.986 L
357.082 670.151 L
358.7 669.34 L
360.237 668.497 L
362.098 667.554 L
363.678 666.429 L
365.256 665.296 L
366.874 663.942 L
368.494 662.291 L
370.112 660.295 L
372.096 657.869 L
373.188 656.005 L
374.969 653.487 L
376.548 650.819 L
378.207 648.067 L
379.827 645.278 L
381.445 642.531 L
383.064 639.808 L
384.602 637.26 L
386.221 634.874 L
387.88 632.637 L
389.379 630.549 L
391.2 628.599 L
392.779 626.776 L
394.478 625.039 L
396.016 623.255 L
397.675 621.708 L
399.173 620.108 L
400.832 618.523 L
402.492 616.915 L
403.99 615.356 L
405.608 613.711 L
407.228 612.234 L
408.806 610.735 L
410.505 609.272 L
412.043 607.848 L
413.824 606.402 L
415.402 605.179 L
416.941 603.983 L
418.559 602.804 L
420.219 601.613 L
421.878 600.409 L
423.416 599.213 L
424.956 598.012 L
426.777 596.643 L
428.354 595.25 L
430.053 593.762 L
431.593 592.165 L
433.212 590.537 L
434.831 588.613 L
436.45 586.715 L
437.947 584.738 L
439.687 582.674 L
441.185 580.519 L
442.925 578.266 L
444.504 575.932 L
446.203 573.555 L
447.783 571.155 L
449.362 568.76 L
451.02 566.479 L
453.611 563.977 L
454.663 560.928 L
455.837 559.269 L
457.495 556.896 L
459.238 554.507 L
460.815 551.959 L
462.433 549.654 L
463.851 547.161 L
465.753 544.517 L
467.21 542.052 L
468.707 539.417 L
470.407 536.742 L
472.067 534.08 L
473.766 531.436 L
475.304 528.845 L
476.842 526.291 L
478.623 523.801 L
480.162 521.395 L
481.659 519.078 L
483.399 516.879 L
484.977 514.712 L
486.638 512.604 L
488.216 510.462 L
489.835 508.325 L
491.493 506.19 L
492.992 504.002 L
494.853 501.781 L
496.23 499.564 L
498.942 497.296 L
500.115 494.231 L
501.087 492.712 L
502.786 490.406 L
504.486 488.081 L
506.065 485.685 L
507.562 483.38 L
509.342 480.765 L
511.004 478.217 L
512.541 475.547 L
514.2 472.776 L
515.818 469.861 L
517.519 466.864 L
519.057 463.764 L
520.675 460.681 L
522.294 457.541 L
523.873 454.485 L
525.573 451.314 L
527.232 448.458 L
528.772 445.431 L
530.47 442.408 L
532.171 439.334 L
533.627 436.191 L
535.732 431.794 L
536.865 429.471 L
538.484 426.318 L
540.103 422.997 L
541.722 419.671 L
543.503 416.358 L
544.96 413.05 L
546.661 409.729 L
548.198 406.35 L
549.817 402.908 L
551.395 399.392 L
553.014 396.009 L
554.672 392.273 L
556.254 388.761 L
557.912 385.281 L
559.53 381.863 L
561.231 378.497 L
562.85 375.209 L
564.469 371.961 L
565.966 368.673 L
567.706 365.15 L
569.244 361.895 L
570.863 358.386 L
572.482 354.802 L
574.102 351.138 L
575.882 347.404 L
577.177 343.819 L
578.958 339.873 L
580.578 336.097 L
582.034 332.473 L
583.734 328.56 L
585.272 324.578 L
587.012 320.501 L
588.51 316.374 L
590.533 311.679 L
591.99 307.793 L
593.366 304.184 L
595.229 300.236 L
596.767 296.245 L
598.387 291.943 L
600.004 287.802 L
601.664 283.814 L
603.08 279.571 L
604.781 275.784 L
606.561 275.784 L
608.18 275.784 L
609.557 275.784 L
611.175 275.784 L
612.876 275.784 L
614.414 275.784 L
616.842 275.784 L
617.975 275.784 L
619.351 275.784 L
620.889 275.784 L
622.913 275.784 L
624.127 275.784 L
625.909 221.487 L
627.568 199.902 L
629.066 180.06 L
630.806 162.23 L
632.222 145.755 L
633.962 132.36 L
635.46 121.045 L
637.16 111.164 L
638.859 102.887 L
640.398 96.775 L
642.017 92.996 L
643.555 90.253 L
645.335 88.563 L
646.793 87.908 L
648.573 87.881 L
650.112 88.345 L
651.811 89.446 L
653.349 91.191 L
655.211 93.065 L
656.506 95.084 L
658.126 98.731 L
659.947 103.526 L
661.404 108.555 L
663.104 113.2 L
664.601 117.93 L
666.301 122.352 L
667.92 127.756 L
669.459 133.855 L
671.077 139.56 L
672.776 144.853 L
674.435 144.853 L
675.934 149.77 L
677.634 149.77 L
679.293 154.524 L
680.792 159.343 L
682.531 159.343 L
683.988 168.332 L
685.688 168.332 L
687.388 173.668 L
689.047 173.668 L
690.626 178.991 L
692.205 184.103 L
693.864 184.103 L
695.483 188.816 L
696.94 188.816 L
699.652 202.14 L
700.785 206.412 L
701.999 210.867 L
703.456 214.973 L
705.237 219.27 L
706.734 222.705 L
708.279 231.316 L
709.892 234.932 L
711.511 238.281 L
713.13 242.577 L
714.754 246.526 L
716.408 251.192 L
718.027 255.585 L
719.848 259.288 L
721.305 263.736 L
722.844 267.53 L
724.543 270.98 L
726.163 274.631 L
727.706 277.743 L
729.441 281.385 L
730.938 284.642 L
732.598 287.54 L
734.181 290.136 L
736.118 292.303 L
737.414 295.73 L
739.235 298.708 L
740.656 302.309 L
742.271 306.555 L
743.89 310.195 L
745.55 314.733 L
747.168 319.726 L
748.746 324.35 L
750.366 329.027 L
751.984 333.455 L
753.684 337.827 L
755.223 341.618 L
756.963 345.114 L
758.501 348.974 L
760.084 352.329 L
761.82 355.304 L
763.317 358.409 L
764.937 360.771 L
766.636 364.526 L
768.255 366.404 L
769.873 366.404 L
771.614 369.934 L
773.112 371.003 L
774.69 372.133 L
776.471 373.35 L
777.889 374.013 L
780.681 374.524 L
781.814 373.87 L
783.069 374.09 L
784.647 374.09 L
786.144 374.969 L
787.642 374.989 L
789.383 374.771 L
791.001 374.449 L
792.499 374.377 L
794.402 374.485 L
795.737 374.439 L
797.437 374.524 L
798.94 374.78 L
800.634 374.97 L
802.212 375.074 L
803.953 375.4 L
805.612 376.181 L
807.11 376.933 L
808.931 377.679 L
810.43 378.495 L
812.007 379.349 L
813.626 379.951 L
815.245 380.472 L
816.824 380.937 L
818.564 381.335 L
820.264 381.335 L
821.883 381.809 L
823.504 382.034 L
824.96 382.292 L
826.781 382.445 L
828.238 382.537 L
829.736 382.593 L
831.476 382.658 L
833.095 382.655 L
834.754 382.563 L
836.333 382.371 L
838.114 382.126 L
839.53 381.747 L
841.15 381.055 L
842.767 380.529 L
844.387 379.862 L
846.005 379.092 L
847.665 378.074 L
849.324 377.134 L
851.064 376.189 L
852.482 375.153 L
854.061 374.155 L
855.761 373.066 L
857.541 372.058 L
858.877 371.369 L
860.495 370.978 L
863.005 370.578 L
864.097 370.552 L
865.393 370.552 L
867.052 371.012 L
868.63 371.413 L
870.25 372.004 L
871.868 372.832 L
873.446 373.965 L
875.067 375.257 L
876.686 377.118 L
878.425 379.137 L
879.963 381.124 L
881.623 383.213 L
883.444 385.656 L
884.901 388.82 L
886.44 392.693 L
888.058 396.982 L
889.678 401.104 L
891.417 405.164 L
892.956 408.676 L
894.736 412.814 L
896.194 417.035 L
897.812 421.518 L
899.431 426.028 L
901.09 431.196 L
902.588 435.904 L
904.248 440.671 L
905.866 445.478 L
907.527 449.809 L
909.105 454.525 L
910.765 459.222 L
912.423 465.557 L
914.002 471.915 L
915.863 478.608 L
917.32 494.023 L
918.778 500.847 L
920.438 506.93 L
922.219 512.389 L
923.675 517.526 L
925.376 523.632 L
926.873 530.28 L
928.735 536.553 L
930.151 543.521 L
931.77 550.534 L
933.471 556.28 L
935.008 562.986 L
936.668 569.792 L
938.327 577.035 L
939.986 586.219 L
941.443 595.701 L
943.953 606.012 L
945.046 622.035 L
946.34 633.047 L
948.243 633.047 L
949.661 648.884 L
951.238 660.837 L
952.776 672.704 L
954.678 683.345 L
956.054 683.618 L
957.795 656.571 L
959.292 655.97 L
960.911 657.143 L
962.53 658.73 L
964.189 660.062 L
966.093 660.489 L
967.387 660.317 L
968.966 660.017 L
970.585 659.602 L
972.324 659.083 L
973.822 658.664 L
975.562 658.428 L
977.061 658.309 L
978.638 658.198 L
980.582 658.075 L
981.956 657.955 L
984.71 657.832 L
985.844 657.705 L
987.099 657.643 L
988.476 657.584 L
990.093 657.524 L
991.672 657.469 L
993.29 657.413 L
994.95 657.355 L
996.488 657.294 L
998.433 657.565 L
999.847 658.108 L
1001.427 658.864 L
1003.046 659.39 L
1004.625 659.695 L
1006.167 659.862 L
1007.78 659.921 L
1009.561 659.931 L
1011.058 660.053 L
1012.96 660.489 L
1014.417 661.739 L
1015.957 663.907 L
1017.575 665.204 L
1019.195 665.204 L
1020.812 665.204 L
1022.513 665.204 L
1024.131 665.204 L
1026.44 665.204 L
1027.612 665.204 L
1028.827 665.204 L
1030.607 665.204 L
1032.073 665.204 L
1033.684 665.204 L
1035.303 665.204 L
1037.003 665.204 L
1038.702 665.204 L
1040.159 665.204 L
1041.859 665.204 L
1043.397 665.204 L
1045.097 665.204 L
1046.715 665.204 L
1048.255 665.204 L
1049.954 665.204 L
1051.573 665.204 L
1053.476 665.204 L
1054.852 665.204 L
1056.552 665.204 L
1057.97 665.204 L
1059.669 665.204 L
1061.286 665.204 L
1063.027 662.703 L
1064.449 658.15 L
1066.144 656.008 L
1067.844 656.771 L
1069.382 660.125 L
1071.082 665.074 L
1072.579 670.128 L
1074.239 675.006 L
1075.776 678.871 L
1077.398 682.362 L
1079.215 685.647 L
1080.715 688.257 L
1082.455 690.089 L
1083.993 691.023 L
1085.773 691.072 L
1087.15 690.417 L
1088.889 689.071 L
1090.387 687.436 L
1092.087 685.312 L
1093.585 683.278 L
1095.534 680.985 L
1097.026 678.807 L
1098.483 676.698 L
1100.264 674.374 L
1101.72 672.356 L
1103.461 670.257 L
1104.959 668.523 L
1107.469 666.823 L
1108.601 665.239 L
1109.816 664.138 L
1111.717 662.911 L
1113.055 661.886 L
1114.916 660.864 L
1116.373 659.746 L
1117.991 658.581 L
1119.53 657.364 L
1121.23 655.923 L
1122.768 654.437 L
1124.467 652.54 L
1126.248 650.386 L
1127.664 648.299 L
1129.243 645.764 L
1130.862 643.017 L
1132.562 639.931 L
1134.141 637.098 L
1135.8 633.915 L
1137.419 630.862 L
1138.957 628.021 L
1140.656 625.213 L
1142.235 622.484 L
1144.137 619.645 L
1145.432 617.427 L
1147.34 615.017 L
1148.711 612.955 L
1150.33 610.972 L
1152.151 608.951 L
1153.527 607.389 L
1155.268 605.753 L
1156.765 604.158 L
1158.505 602.539 L
1160.165 600.919 L
1161.703 599.173 L
1163.281 597.514 L
1164.9 595.658 L
1166.478 593.718 L
1168.139 591.664 L
1169.838 589.504 L
1171.377 587.288 L
1172.995 585.077 L
1174.614 582.868 L
1176.556 580.28 L
1177.894 578.462 L
1179.553 576.506 L
1181.09 574.489 L
1182.709 572.473 L
1184.409 570.518 L
1185.946 568.543 L
1187.606 566.564 L
1189.671 564.083 L
1190.884 562.425 L
1192.503 560.354 L
1194.042 558.09 L
1195.661 555.657 L
1197.279 553.089 L
1198.979 550.388 L
1200.477 547.56 L
1202.217 544.629 L
1203.755 541.617 L
1205.455 538.423 L
1206.993 535.536 L
1208.936 532.545 L
1210.191 529.644 L
1211.852 526.792 L
1213.591 523.993 L
1215.128 521.189 L
1216.79 518.401 L
1218.327 515.539 L
1220.027 512.479 L
1221.564 509.596 L
1223.183 506.465 L
1224.924 503.223 L
1226.421 499.743 L
1228.08 496.555 L
1229.66 493.183 L
1231.237 489.826 L
1232.856 486.446 L
1234.597 482.868 L
1236.135 479.539 L
1237.754 475.933 L
1239.373 472.267 L
1241.274 468.546 L
1242.692 464.861 L
1244.23 461.171 L
1246.091 457.337 L
1247.468 453.939 L
1249.168 450.262 L
1250.706 446.985 L
1252.249 443.584 L
1253.903 440.153 L
1255.562 436.664 L
1257.263 433.099 L
1258.881 429.341 L
1260.5 425.989 L
1262.04 422.513 L
1263.657 418.902 L
1265.2 415.647 L
1266.814 412.229 L
1268.474 408.846 L
1270.984 405.498 L
1272.076 401.664 L
1273.653 398.833 L
1275.071 395.521 L
1276.649 392.257 L
1278.309 388.909 L
1279.887 385.975 L
1281.425 383.011 L
1283.044 380.114 L
1284.703 377.269 L
1286.282 374.288 L
1287.942 371.464 L
1289.56 368.564 L
1291.103 365.605 L
1292.799 362.511 L
1294.377 359.289 L
1295.955 355.942 L
1297.579 352.505 L
1299.355 349.045 L
1300.933 345.525 L
1302.431 341.972 L
1304.172 338.361 L
1306.234 334.534 L
1307.451 330.78 L
1308.908 327.132 L
1310.688 323.24 L
1312.145 319.312 L
1313.804 275.787 L
1315.383 275.787 L
1317.01 275.787 L
1318.702 275.787 L
1320.24 275.787 L
1321.939 275.787 L
1323.518 275.787 L
1325.177 275.787 L
1326.959 275.787 L
1328.334 275.787 L
1329.958 275.017 L
1331.573 252.868 L
1333.353 234.76 L
1334.85 218.242 L
1336.591 200.028 L
1338.09 182.165 L
1339.828 167.311 L
1341.327 153.608 L
1342.91 142.421 L
1344.566 132.069 L
1346.143 122.986 L
1347.843 117.301 L
1349.422 111.635 L
1351.121 105.125 L
1353.185 98.265 L
1354.321 98.265 L
1355.898 93.008 L
1357.476 90.664 L
1359.217 88.752 L
1360.714 87.959 L
1362.535 87.851 L
1364.113 88.371 L
1365.733 89.962 L
1367.23 92.045 L
1368.849 94.631 L
1370.468 97.523 L
1372.208 102.186 L
1373.949 106.825 L
1375.289 109.64 L
1377.146 115.459 L
1378.522 118.338 L
1380.222 117.645 L
1381.8 121.687 L
1383.46 133.785 L
1385.038 146.147 L
1386.945 155.979 L
1388.479 165.258 L
1389.936 171.637 L
1391.595 174.423 L
1393.133 178.728 L
1394.793 185.263 L
1396.371 192.927 L
1398.031 200.045 L
1399.61 204.954 L
1401.229 207.858 L
1402.847 211.09 L
1404.667 215.878 L
1406.207 215.878 L
1407.746 225.942 L
1409.363 230.743 L
1410.942 234.944 L
1412.641 239.546 L
1414.221 244.873 L
1415.799 250.372 L
1417.539 254.468 L
1419.036 264.024 L
1420.939 267.115 L
1422.275 269.447 L
1424.015 273.967 L
1425.513 279.316 L
1427.172 284.027 L
1428.75 288.192 L
1430.409 291.642 L
1432.109 295.194 L
1434.538 299.253 L
1435.59 301.385 L
1437.089 301.385 L
1438.586 308.319 L
1440.084 309.708 L
1441.823 311.212 L
1443.32 312.787 L
1444.98 315.703 L
1446.68 318.53 L
1448.218 321.492 L
1449.837 324.228 L
1451.496 327.106 L
1453.318 329.193 L
1454.694 332.102 L
1456.313 334.147 L
1457.932 336.264 L
1459.512 337.749 L
1461.251 340.329 L
1462.789 342.202 L
1464.488 343.867 L
1465.986 346.164 L
1467.727 347.958 L
1469.467 350.093 L
1471.775 352.737 L
1472.826 355.017 L
1474.324 355.017 L
1475.741 359.036 L
1477.441 361.463 L
1478.938 363.509 L
1480.557 365.366 L
1482.256 367.436 L
1483.835 369.377 L
1485.618 371.07 L
1487.073 372.495 L
1488.773 373.579 L
1490.27 374.676 L
1491.93 376.011 L
1493.508 376.011 L
1495.168 377.771 L
1496.827 377.771 L
1498.406 379.082 L
1500.024 379.66 L
1501.969 380.331 L
1503.344 380.886 L
1504.963 381.326 L
1506.5 381.769 L
1508.12 382.122 L
1509.739 382.451 L
1511.398 382.611 L
1512.977 382.669 L
1514.595 382.617 L
1516.497 382.417 L
1518.076 382.417 L
1519.453 381.92 L
1521.071 381.62 L
1522.649 381.62 L
1524.31 381.008 L
1526.05 380.732 L
1527.547 380.457 L
1529.247 380.446 L
1530.744 380.446 L
1532.444 379.933 L
1534.307 379.685 L
1535.643 379.474 L
1537.343 379.32 L
1538.88 379.332 L
1540.458 379.284 L
1542.199 379.041 L
1543.818 378.878 L
1545.558 378.562 L
1546.975 377.942 L
1548.715 377.389 L
1550.335 376.826 L
1551.751 376.205 L
1553.451 375.676 L
1555.11 375.076 L
1556.647 374.487 L
1558.347 374.008 L
1559.886 373.573 L
1561.545 372.96 L
1563.164 372.749 L
1564.702 372.639 L
1566.888 372.639 L
1567.981 372.076 L
1569.762 371.696 L
1571.3 371.204 L
1572.959 370.876 L
1574.416 370.614 L
1576.156 370.485 L
1577.694 370.572 L
1579.313 371.046 L
1580.973 371.046 L
1582.715 371.923 L
1584.17 372.725 L
1585.83 374.123 L
1587.489 374.123 L
1588.992 376.1 L
1590.687 376.1 L
1592.305 377.309 L
1593.884 378.755 L
1595.467 378.755 L
1597.85 380.502 L
1598.904 381.727 L
1600.36 381.727 L
1602.263 384.03 L
1603.557 386.384 L
1605.298 390.681 L
1606.795 390.681 L
1608.454 394.863 L
1610.074 394.863 L
1611.692 398.163 L
1613.392 400.11 L
1614.972 401.835 L
1616.59 404.481 L
1618.169 406.816 L
1619.949 409.696 L
1621.37 413.017 L
1623.026 416.674 L
1624.684 421.022 L
1626.223 425.87 L
1627.882 431.612 L
1629.46 436.668 L
1631.242 445.828 L
1632.861 456.002 L
1634.642 456.002 L
1635.977 465.151 L
1637.717 471.717 L
1639.255 477.552 L
1640.875 482.09 L
1642.452 493.966 L
1644.031 498.259 L
1645.772 504.184 L
1647.31 510.556 L
1648.969 517.62 L
1650.588 526.339 L
1652.165 532.382 L
1653.752 547.754 L
1655.365 559.351 L
1657.146 571.616 L
1658.642 583.996 L
1660.423 594.244 L
1661.839 600.611 L
1663.622 612.69 L
1665.443 621.335 L
1667.021 633.392 L
1668.397 644.567 L
1670.096 653.546 L
1671.756 661.556 L
1673.294 670.891 L
1675.115 682.735 L
1676.532 683.618 L
1679 667.64 L
S
GR
GS
[0.75 0 0 0.75 378.5625 664.12502] CT
/Helvetica 48 F
GS
[1 0 0 1 0 0] CT
0 16.5 moveto 
1 -1 scale
(Actual) t 
GR
GR
GS
[0.75 0 0 0.75 0 0.25] CT
0 0 1 RC
2 setlinecap
10.0 ML
6.667 LW
N
460.962 885.167 M
500.769 885.167 L
S
GR
GS
[0.75 0 0 0.75 922.5 664.12502] CT
/Helvetica 48 F
GS
[1 0 0 1 0 0] CT
0 16.5 moveto 
1 -1 scale
(Desired) t 
GR
GR
GS
[0.75 0 0 0.75 0 0.25] CT
1 0 0 RC
[24 24] 0 setdash
2 LJ
6.667 LW
N
1186 885.167 M
1226 885.167 L
S
GR
%%Trailer
%%Pages: 1
%%EOF
