%!PS-Adobe-3.0 EPSF-3.0
%%Creator: (MATLAB, The Mathworks, Inc. Version 8.5.0.197613 \(R2015a\). Operating System: Linux)
%%Title: (/home/victor/ampro/AMPRO II/Upslope Walking/figures/Thesis/FlatgroundNonSplines/AnkleTracking.eps)
%%CreationDate: 2016-02-19T15:20:54
%%Pages: (atend)
%%BoundingBox: 0 0 1391 751
%%LanguageLevel: 2
%%EndComments
%%BeginProlog
%%BeginResource: procset (Apache XML Graphics Std ProcSet) 1.2 0
%%Version: 1.2 0
%%Copyright: (Copyright 2001-2003,2010 The Apache Software Foundation. License terms: http://www.apache.org/licenses/LICENSE-2.0)
/bd{bind def}bind def
/ld{load def}bd
/GR/grestore ld
/M/moveto ld
/LJ/setlinejoin ld
/C/curveto ld
/f/fill ld
/LW/setlinewidth ld
/GC/setgray ld
/t/show ld
/N/newpath ld
/CT/concat ld
/cp/closepath ld
/S/stroke ld
/L/lineto ld
/CC/setcmykcolor ld
/A/ashow ld
/GS/gsave ld
/RC/setrgbcolor ld
/RM/rmoveto ld
/ML/setmiterlimit ld
/re {4 2 roll M
1 index 0 rlineto
0 exch rlineto
neg 0 rlineto
cp } bd
/_ctm matrix def
/_tm matrix def
/BT { _ctm currentmatrix pop matrix _tm copy pop 0 0 moveto } bd
/ET { _ctm setmatrix } bd
/iTm { _ctm setmatrix _tm concat } bd
/Tm { _tm astore pop iTm 0 0 moveto } bd
/ux 0.0 def
/uy 0.0 def
/F {
  /Tp exch def
  /Tf exch def
  Tf findfont Tp scalefont setfont
  /cf Tf def  /cs Tp def
} bd
/ULS {currentpoint /uy exch def /ux exch def} bd
/ULE {
  /Tcx currentpoint pop def
  gsave
  newpath
  cf findfont cs scalefont dup
  /FontMatrix get 0 get /Ts exch def /FontInfo get dup
  /UnderlinePosition get Ts mul /To exch def
  /UnderlineThickness get Ts mul /Tt exch def
  ux uy To add moveto  Tcx uy To add lineto
  Tt setlinewidth stroke
  grestore
} bd
/OLE {
  /Tcx currentpoint pop def
  gsave
  newpath
  cf findfont cs scalefont dup
  /FontMatrix get 0 get /Ts exch def /FontInfo get dup
  /UnderlinePosition get Ts mul /To exch def
  /UnderlineThickness get Ts mul /Tt exch def
  ux uy To add cs add moveto Tcx uy To add cs add lineto
  Tt setlinewidth stroke
  grestore
} bd
/SOE {
  /Tcx currentpoint pop def
  gsave
  newpath
  cf findfont cs scalefont dup
  /FontMatrix get 0 get /Ts exch def /FontInfo get dup
  /UnderlinePosition get Ts mul /To exch def
  /UnderlineThickness get Ts mul /Tt exch def
  ux uy To add cs 10 mul 26 idiv add moveto Tcx uy To add cs 10 mul 26 idiv add lineto
  Tt setlinewidth stroke
  grestore
} bd
/QT {
/Y22 exch store
/X22 exch store
/Y21 exch store
/X21 exch store
currentpoint
/Y21 load 2 mul add 3 div exch
/X21 load 2 mul add 3 div exch
/X21 load 2 mul /X22 load add 3 div
/Y21 load 2 mul /Y22 load add 3 div
/X22 load /Y22 load curveto
} bd
/SSPD {
dup length /d exch dict def
{
/v exch def
/k exch def
currentpagedevice k known {
/cpdv currentpagedevice k get def
v cpdv ne {
/upd false def
/nullv v type /nulltype eq def
/nullcpdv cpdv type /nulltype eq def
nullv nullcpdv or
{
/upd true def
} {
/sametype v type cpdv type eq def
sametype {
v type /arraytype eq {
/vlen v length def
/cpdvlen cpdv length def
vlen cpdvlen eq {
0 1 vlen 1 sub {
/i exch def
/obj v i get def
/cpdobj cpdv i get def
obj cpdobj ne {
/upd true def
exit
} if
} for
} {
/upd true def
} ifelse
} {
v type /dicttype eq {
v {
/dv exch def
/dk exch def
/cpddv cpdv dk get def
dv cpddv ne {
/upd true def
exit
} if
} forall
} {
/upd true def
} ifelse
} ifelse
} if
} ifelse
upd true eq {
d k v put
} if
} if
} if
} forall
d length 0 gt {
d setpagedevice
} if
} bd
%%EndResource
%%BeginResource: procset (Apache XML Graphics EPS ProcSet) 1.0 0
%%Version: 1.0 0
%%Copyright: (Copyright 2002-2003 The Apache Software Foundation. License terms: http://www.apache.org/licenses/LICENSE-2.0)
/BeginEPSF { %def
/b4_Inc_state save def         % Save state for cleanup
/dict_count countdictstack def % Count objects on dict stack
/op_count count 1 sub def      % Count objects on operand stack
userdict begin                 % Push userdict on dict stack
/showpage { } def              % Redefine showpage, { } = null proc
0 setgray 0 setlinecap         % Prepare graphics state
1 setlinewidth 0 setlinejoin
10 setmiterlimit [ ] 0 setdash newpath
/languagelevel where           % If level not equal to 1 then
{pop languagelevel             % set strokeadjust and
1 ne                           % overprint to their defaults.
{false setstrokeadjust false setoverprint
} if
} if
} bd
/EndEPSF { %def
count op_count sub {pop} repeat            % Clean up stacks
countdictstack dict_count sub {end} repeat
b4_Inc_state restore
} bd
%%EndResource
%FOPBeginFontDict
%%IncludeResource: font Courier-Bold
%%IncludeResource: font Helvetica
%%IncludeResource: font Courier-BoldOblique
%%IncludeResource: font Courier-Oblique
%%IncludeResource: font Times-Roman
%%IncludeResource: font Helvetica-BoldOblique
%%IncludeResource: font Helvetica-Bold
%%IncludeResource: font Helvetica-Oblique
%%IncludeResource: font Times-BoldItalic
%%IncludeResource: font Courier
%%IncludeResource: font Times-Italic
%%IncludeResource: font Times-Bold
%%IncludeResource: font Symbol
%%IncludeResource: font ZapfDingbats
%FOPEndFontDict
%%BeginResource: encoding WinAnsiEncoding
/WinAnsiEncoding [
/.notdef /.notdef /.notdef /.notdef /.notdef
/.notdef /.notdef /.notdef /.notdef /.notdef
/.notdef /.notdef /.notdef /.notdef /.notdef
/.notdef /.notdef /.notdef /.notdef /.notdef
/.notdef /.notdef /.notdef /.notdef /.notdef
/.notdef /.notdef /.notdef /.notdef /.notdef
/.notdef /.notdef /space /exclam /quotedbl
/numbersign /dollar /percent /ampersand /quotesingle
/parenleft /parenright /asterisk /plus /comma
/hyphen /period /slash /zero /one
/two /three /four /five /six
/seven /eight /nine /colon /semicolon
/less /equal /greater /question /at
/A /B /C /D /E
/F /G /H /I /J
/K /L /M /N /O
/P /Q /R /S /T
/U /V /W /X /Y
/Z /bracketleft /backslash /bracketright /asciicircum
/underscore /quoteleft /a /b /c
/d /e /f /g /h
/i /j /k /l /m
/n /o /p /q /r
/s /t /u /v /w
/x /y /z /braceleft /bar
/braceright /asciitilde /bullet /Euro /bullet
/quotesinglbase /florin /quotedblbase /ellipsis /dagger
/daggerdbl /circumflex /perthousand /Scaron /guilsinglleft
/OE /bullet /Zcaron /bullet /bullet
/quoteleft /quoteright /quotedblleft /quotedblright /bullet
/endash /emdash /asciitilde /trademark /scaron
/guilsinglright /oe /bullet /zcaron /Ydieresis
/space /exclamdown /cent /sterling /currency
/yen /brokenbar /section /dieresis /copyright
/ordfeminine /guillemotleft /logicalnot /sfthyphen /registered
/macron /degree /plusminus /twosuperior /threesuperior
/acute /mu /paragraph /middot /cedilla
/onesuperior /ordmasculine /guillemotright /onequarter /onehalf
/threequarters /questiondown /Agrave /Aacute /Acircumflex
/Atilde /Adieresis /Aring /AE /Ccedilla
/Egrave /Eacute /Ecircumflex /Edieresis /Igrave
/Iacute /Icircumflex /Idieresis /Eth /Ntilde
/Ograve /Oacute /Ocircumflex /Otilde /Odieresis
/multiply /Oslash /Ugrave /Uacute /Ucircumflex
/Udieresis /Yacute /Thorn /germandbls /agrave
/aacute /acircumflex /atilde /adieresis /aring
/ae /ccedilla /egrave /eacute /ecircumflex
/edieresis /igrave /iacute /icircumflex /idieresis
/eth /ntilde /ograve /oacute /ocircumflex
/otilde /odieresis /divide /oslash /ugrave
/uacute /ucircumflex /udieresis /yacute /thorn
/ydieresis
] def
%%EndResource
%FOPBeginFontReencode
/Courier-Bold findfont
dup length dict begin
  {1 index /FID ne {def} {pop pop} ifelse} forall
  /Encoding WinAnsiEncoding def
  currentdict
end
/Courier-Bold exch definefont pop
/Helvetica findfont
dup length dict begin
  {1 index /FID ne {def} {pop pop} ifelse} forall
  /Encoding WinAnsiEncoding def
  currentdict
end
/Helvetica exch definefont pop
/Courier-BoldOblique findfont
dup length dict begin
  {1 index /FID ne {def} {pop pop} ifelse} forall
  /Encoding WinAnsiEncoding def
  currentdict
end
/Courier-BoldOblique exch definefont pop
/Courier-Oblique findfont
dup length dict begin
  {1 index /FID ne {def} {pop pop} ifelse} forall
  /Encoding WinAnsiEncoding def
  currentdict
end
/Courier-Oblique exch definefont pop
/Times-Roman findfont
dup length dict begin
  {1 index /FID ne {def} {pop pop} ifelse} forall
  /Encoding WinAnsiEncoding def
  currentdict
end
/Times-Roman exch definefont pop
/Helvetica-BoldOblique findfont
dup length dict begin
  {1 index /FID ne {def} {pop pop} ifelse} forall
  /Encoding WinAnsiEncoding def
  currentdict
end
/Helvetica-BoldOblique exch definefont pop
/Helvetica-Bold findfont
dup length dict begin
  {1 index /FID ne {def} {pop pop} ifelse} forall
  /Encoding WinAnsiEncoding def
  currentdict
end
/Helvetica-Bold exch definefont pop
/Helvetica-Oblique findfont
dup length dict begin
  {1 index /FID ne {def} {pop pop} ifelse} forall
  /Encoding WinAnsiEncoding def
  currentdict
end
/Helvetica-Oblique exch definefont pop
/Times-BoldItalic findfont
dup length dict begin
  {1 index /FID ne {def} {pop pop} ifelse} forall
  /Encoding WinAnsiEncoding def
  currentdict
end
/Times-BoldItalic exch definefont pop
/Courier findfont
dup length dict begin
  {1 index /FID ne {def} {pop pop} ifelse} forall
  /Encoding WinAnsiEncoding def
  currentdict
end
/Courier exch definefont pop
/Times-Italic findfont
dup length dict begin
  {1 index /FID ne {def} {pop pop} ifelse} forall
  /Encoding WinAnsiEncoding def
  currentdict
end
/Times-Italic exch definefont pop
/Times-Bold findfont
dup length dict begin
  {1 index /FID ne {def} {pop pop} ifelse} forall
  /Encoding WinAnsiEncoding def
  currentdict
end
/Times-Bold exch definefont pop
%FOPEndFontReencode
%%EndProlog
%%Page: 1 1
%%PageBoundingBox: 0 0 1391 751
%%BeginPageSetup
[1 0 0 -1 0 751] CT
%%EndPageSetup
GS
[0.75 0 0 0.75 0 0.25] CT
N
0 0 M
1855 0 L
1855 1001 L
0 1001 L
0 0 L
cp
clip
1 GC
N
0 0 1855 1001 re
f
GR
GS
[0.75 0 0 0.75 0 0.25] CT
1 GC
N
0 0 1855 1001 re
f
GR
GS
[0.75 0 0 0.75 0 0.25] CT
1 GC
N
241 721 M
1679 721 L
1679 30 L
241 30 L
cp
f
GR
GS
[0.75 0 0 0.75 0 0.25] CT
0.873 GC
2 setlinecap
10.0 ML
N
241 721 M
241 30 L
S
GR
GS
[0.75 0 0 0.75 0 0.25] CT
0.873 GC
2 setlinecap
10.0 ML
N
565.788 721 M
565.788 30 L
S
GR
GS
[0.75 0 0 0.75 0 0.25] CT
0.873 GC
2 setlinecap
10.0 ML
N
890.576 721 M
890.576 30 L
S
GR
GS
[0.75 0 0 0.75 0 0.25] CT
0.873 GC
2 setlinecap
10.0 ML
N
1215.364 721 M
1215.364 30 L
S
GR
GS
[0.75 0 0 0.75 0 0.25] CT
0.873 GC
2 setlinecap
10.0 ML
N
1540.152 721 M
1540.152 30 L
S
GR
GS
[0.75 0 0 0.75 0 0.25] CT
0.873 GC
2 setlinecap
10.0 ML
N
1679 721 M
241 721 L
S
GR
GS
[0.75 0 0 0.75 0 0.25] CT
0.873 GC
2 setlinecap
10.0 ML
N
1679 622.286 M
241 622.286 L
S
GR
GS
[0.75 0 0 0.75 0 0.25] CT
0.873 GC
2 setlinecap
10.0 ML
N
1679 523.571 M
241 523.571 L
S
GR
GS
[0.75 0 0 0.75 0 0.25] CT
0.873 GC
2 setlinecap
10.0 ML
N
1679 424.857 M
241 424.857 L
S
GR
GS
[0.75 0 0 0.75 0 0.25] CT
0.873 GC
2 setlinecap
10.0 ML
N
1679 326.143 M
241 326.143 L
S
GR
GS
[0.75 0 0 0.75 0 0.25] CT
0.873 GC
2 setlinecap
10.0 ML
N
1679 227.429 M
241 227.429 L
S
GR
GS
[0.75 0 0 0.75 0 0.25] CT
0.873 GC
2 setlinecap
10.0 ML
N
1679 128.714 M
241 128.714 L
S
GR
GS
[0.75 0 0 0.75 0 0.25] CT
0.873 GC
2 setlinecap
10.0 ML
N
1679 30 M
241 30 L
S
GR
GS
[0.75 0 0 0.75 720.0005 599.25002] CT
0.149 GC
/Helvetica 59 F
GS
[1 0 0 1 0 0] CT
-121 55 moveto 
1 -1 scale
(Time \(s\)) t 
GR
GR
GS
[0.75 0 0 0.75 0 0.25] CT
0.149 GC
2 setlinecap
10.0 ML
N
241 721 M
1679 721 L
S
GR
GS
[0.75 0 0 0.75 0 0.25] CT
0.149 GC
2 setlinecap
10.0 ML
N
241 30 M
1679 30 L
S
GR
GS
[0.75 0 0 0.75 0 0.25] CT
0.149 GC
2 setlinecap
10.0 ML
N
241 721 M
241 706.62 L
S
GR
GS
[0.75 0 0 0.75 0 0.25] CT
0.149 GC
2 setlinecap
10.0 ML
N
565.788 721 M
565.788 706.62 L
S
GR
GS
[0.75 0 0 0.75 0 0.25] CT
0.149 GC
2 setlinecap
10.0 ML
N
890.576 721 M
890.576 706.62 L
S
GR
GS
[0.75 0 0 0.75 0 0.25] CT
0.149 GC
2 setlinecap
10.0 ML
N
1215.364 721 M
1215.364 706.62 L
S
GR
GS
[0.75 0 0 0.75 0 0.25] CT
0.149 GC
2 setlinecap
10.0 ML
N
1540.152 721 M
1540.152 706.62 L
S
GR
GS
[0.75 0 0 0.75 0 0.25] CT
0.149 GC
2 setlinecap
10.0 ML
N
241 30 M
241 44.38 L
S
GR
GS
[0.75 0 0 0.75 0 0.25] CT
0.149 GC
2 setlinecap
10.0 ML
N
565.788 30 M
565.788 44.38 L
S
GR
GS
[0.75 0 0 0.75 0 0.25] CT
0.149 GC
2 setlinecap
10.0 ML
N
890.576 30 M
890.576 44.38 L
S
GR
GS
[0.75 0 0 0.75 0 0.25] CT
0.149 GC
2 setlinecap
10.0 ML
N
1215.364 30 M
1215.364 44.38 L
S
GR
GS
[0.75 0 0 0.75 0 0.25] CT
0.149 GC
2 setlinecap
10.0 ML
N
1540.152 30 M
1540.152 44.38 L
S
GR
GS
[0.75 0 0 0.75 180.75 550.99998] CT
0.149 GC
/Helvetica 53 F
GS
[1 0 0 1 0 0] CT
-17 50 moveto 
1 -1 scale
(0) t 
GR
GR
GS
[0.75 0 0 0.75 424.34102 550.99998] CT
0.149 GC
/Helvetica 53 F
GS
[1 0 0 1 0 0] CT
-42.5 50 moveto 
1 -1 scale
(0.5) t 
GR
GR
GS
[0.75 0 0 0.75 667.93204 550.99998] CT
0.149 GC
/Helvetica 53 F
GS
[1 0 0 1 0 0] CT
-17 50 moveto 
1 -1 scale
(1) t 
GR
GR
GS
[0.75 0 0 0.75 911.5231 550.99998] CT
0.149 GC
/Helvetica 53 F
GS
[1 0 0 1 0 0] CT
-42.5 50 moveto 
1 -1 scale
(1.5) t 
GR
GR
GS
[0.75 0 0 0.75 1155.11407 550.99998] CT
0.149 GC
/Helvetica 53 F
GS
[1 0 0 1 0 0] CT
-17 50 moveto 
1 -1 scale
(2) t 
GR
GR
GS
[0 -0.75 0.75 0 89.75 281.87473] CT
0.149 GC
/Helvetica 59 F
GS
[1 0 0 1 0 0] CT
-255 -14 moveto 
1 -1 scale
(Ankle angle \(rad\)) t 
GR
GR
GS
[0.75 0 0 0.75 0 0.25] CT
0.149 GC
2 setlinecap
10.0 ML
N
241 721 M
241 30 L
S
GR
GS
[0.75 0 0 0.75 0 0.25] CT
0.149 GC
2 setlinecap
10.0 ML
N
1679 721 M
1679 30 L
S
GR
GS
[0.75 0 0 0.75 0 0.25] CT
0.149 GC
2 setlinecap
10.0 ML
N
241 721 M
255.38 721 L
S
GR
GS
[0.75 0 0 0.75 0 0.25] CT
0.149 GC
2 setlinecap
10.0 ML
N
241 622.286 M
255.38 622.286 L
S
GR
GS
[0.75 0 0 0.75 0 0.25] CT
0.149 GC
2 setlinecap
10.0 ML
N
241 523.571 M
255.38 523.571 L
S
GR
GS
[0.75 0 0 0.75 0 0.25] CT
0.149 GC
2 setlinecap
10.0 ML
N
241 424.857 M
255.38 424.857 L
S
GR
GS
[0.75 0 0 0.75 0 0.25] CT
0.149 GC
2 setlinecap
10.0 ML
N
241 326.143 M
255.38 326.143 L
S
GR
GS
[0.75 0 0 0.75 0 0.25] CT
0.149 GC
2 setlinecap
10.0 ML
N
241 227.429 M
255.38 227.429 L
S
GR
GS
[0.75 0 0 0.75 0 0.25] CT
0.149 GC
2 setlinecap
10.0 ML
N
241 128.714 M
255.38 128.714 L
S
GR
GS
[0.75 0 0 0.75 0 0.25] CT
0.149 GC
2 setlinecap
10.0 ML
N
241 30 M
255.38 30 L
S
GR
GS
[0.75 0 0 0.75 0 0.25] CT
0.149 GC
2 setlinecap
10.0 ML
N
1679 721 M
1664.62 721 L
S
GR
GS
[0.75 0 0 0.75 0 0.25] CT
0.149 GC
2 setlinecap
10.0 ML
N
1679 622.286 M
1664.62 622.286 L
S
GR
GS
[0.75 0 0 0.75 0 0.25] CT
0.149 GC
2 setlinecap
10.0 ML
N
1679 523.571 M
1664.62 523.571 L
S
GR
GS
[0.75 0 0 0.75 0 0.25] CT
0.149 GC
2 setlinecap
10.0 ML
N
1679 424.857 M
1664.62 424.857 L
S
GR
GS
[0.75 0 0 0.75 0 0.25] CT
0.149 GC
2 setlinecap
10.0 ML
N
1679 326.143 M
1664.62 326.143 L
S
GR
GS
[0.75 0 0 0.75 0 0.25] CT
0.149 GC
2 setlinecap
10.0 ML
N
1679 227.429 M
1664.62 227.429 L
S
GR
GS
[0.75 0 0 0.75 0 0.25] CT
0.149 GC
2 setlinecap
10.0 ML
N
1679 128.714 M
1664.62 128.714 L
S
GR
GS
[0.75 0 0 0.75 0 0.25] CT
0.149 GC
2 setlinecap
10.0 ML
N
1679 30 M
1664.62 30 L
S
GR
GS
[0.75 0 0 0.75 170.75 541] CT
0.149 GC
/Helvetica 53 F
GS
[1 0 0 1 0 0] CT
-104 18.5 moveto 
1 -1 scale
(-0.1) t 
GR
GR
GS
[0.75 0 0 0.75 170.75 466.96428] CT
0.149 GC
/Helvetica 53 F
GS
[1 0 0 1 0 0] CT
-34 18.5 moveto 
1 -1 scale
(0) t 
GR
GR
GS
[0.75 0 0 0.75 170.75 392.92856] CT
0.149 GC
/Helvetica 53 F
GS
[1 0 0 1 0 0] CT
-85 18.5 moveto 
1 -1 scale
(0.1) t 
GR
GR
GS
[0.75 0 0 0.75 170.75 318.89286] CT
0.149 GC
/Helvetica 53 F
GS
[1 0 0 1 0 0] CT
-85 18.5 moveto 
1 -1 scale
(0.2) t 
GR
GR
GS
[0.75 0 0 0.75 170.75 244.85714] CT
0.149 GC
/Helvetica 53 F
GS
[1 0 0 1 0 0] CT
-85 18.5 moveto 
1 -1 scale
(0.3) t 
GR
GR
GS
[0.75 0 0 0.75 170.75 170.82142] CT
0.149 GC
/Helvetica 53 F
GS
[1 0 0 1 0 0] CT
-85 18.5 moveto 
1 -1 scale
(0.4) t 
GR
GR
GS
[0.75 0 0 0.75 170.75 96.78571] CT
0.149 GC
/Helvetica 53 F
GS
[1 0 0 1 0 0] CT
-85 18.5 moveto 
1 -1 scale
(0.5) t 
GR
GR
GS
[0.75 0 0 0.75 170.75 22.74998] CT
0.149 GC
/Helvetica 53 F
GS
[1 0 0 1 0 0] CT
-85 18.5 moveto 
1 -1 scale
(0.6) t 
GR
GR
GS
[0.75 0 0 0.75 0 0.25] CT
0 0 1 RC
2 LJ
6.667 LW
N
241 631.882 M
244.249 638.818 L
247.333 644.288 L
250.581 648.85 L
253.83 652.393 L
257.077 655.103 L
260.324 657.114 L
263.736 658.571 L
266.823 659.707 L
270.07 660.615 L
273.318 661.588 L
276.564 662.735 L
279.732 663.856 L
283.059 664.817 L
286.308 665.397 L
289.638 665.779 L
292.965 666.055 L
296.055 666.339 L
299.627 666.733 L
302.55 667.206 L
305.796 666.865 L
309.125 668.49 L
312.293 669.095 L
315.54 669.663 L
327.8 670.534 L
330.806 670.859 L
338.274 670.867 L
344.446 670.867 L
348.748 670.859 L
352.484 670.803 L
359.06 670.447 L
364.175 669.761 L
370.752 668.429 L
373.029 666.123 L
376.276 664.935 L
379.605 663.996 L
382.772 663.394 L
386.181 663.091 L
389.428 663.038 L
392.838 663.084 L
395.923 663.121 L
399.01 663.167 L
402.419 663.231 L
405.505 663.333 L
408.836 663.481 L
412.165 663.689 L
415.412 663.943 L
419.067 664.193 L
421.908 664.337 L
425.318 664.409 L
S
GR
GS
[0.75 0 0 0.75 0 0.25] CT
0 0 1 RC
2 LJ
6.667 LW
N
425.318 664.409 M
428.241 664.409 L
431.734 664.401 L
435.062 664.393 L
438.065 664.375 L
441.396 664.325 L
444.806 664.257 L
447.89 664.185 L
450.975 664.117 L
454.224 664.068 L
457.877 664.045 L
460.718 664.038 L
463.967 664.03 L
467.377 664.011 L
470.624 663.969 L
473.878 663.898 L
477.124 663.769 L
480.208 663.561 L
483.942 663.224 L
487.111 662.698 L
490.276 662.103 L
493.523 661.335 L
496.772 660.305 L
500.019 658.988 L
503.999 657.326 L
506.19 656.031 L
509.763 654.252 L
512.929 652.321 L
516.258 650.307 L
519.507 648.225 L
522.755 646.128 L
526.001 644.015 L
529.087 641.971 L
532.335 639.987 L
535.663 638.083 L
538.671 636.274 L
542.324 634.563 L
545.491 632.95 L
548.9 631.417 L
551.987 629.849 L
555.314 628.494 L
558.319 627.094 L
561.648 625.712 L
564.978 624.311 L
567.983 622.96 L
571.229 621.54 L
574.478 620.272 L
577.644 618.992 L
581.053 617.75 L
584.138 616.543 L
S
GR
GS
[0.75 0 0 0.75 0 0.25] CT
0 0 1 RC
2 LJ
6.667 LW
N
584.138 616.543 M
587.712 615.316 L
590.877 614.283 L
593.964 613.272 L
597.211 612.276 L
600.54 611.273 L
603.869 610.263 L
606.955 609.263 L
610.044 608.267 L
613.696 607.139 L
616.862 606.007 L
620.27 604.815 L
623.359 603.554 L
626.606 602.297 L
629.854 600.798 L
633.102 599.303 L
636.105 597.709 L
639.597 596.025 L
642.601 594.253 L
646.092 592.402 L
649.259 590.475 L
652.669 588.495 L
655.839 586.462 L
659.005 584.407 L
662.333 582.438 L
667.53 580.28 L
669.64 577.649 L
671.996 576.218 L
675.322 574.17 L
678.818 572.107 L
681.982 569.908 L
685.228 567.916 L
688.073 565.766 L
691.889 563.483 L
694.811 561.356 L
697.815 559.077 L
701.225 556.76 L
704.555 554.451 L
707.964 552.149 L
711.05 549.885 L
714.135 547.644 L
717.708 545.445 L
720.796 543.306 L
723.799 541.235 L
727.29 539.259 L
730.455 537.321 L
733.787 535.454 L
736.953 533.58 L
740.201 531.726 L
743.527 529.882 L
S
GR
GS
[0.75 0 0 0.75 0 0.25] CT
0 0 1 RC
2 LJ
6.667 LW
N
743.527 529.882 M
746.534 528 L
750.267 526.096 L
753.031 524.196 L
758.471 522.254 L
760.824 519.63 L
762.773 518.328 L
766.183 516.356 L
769.594 514.368 L
772.76 512.324 L
775.764 510.356 L
779.336 508.122 L
782.668 505.941 L
785.752 503.659 L
789.08 501.285 L
792.328 498.787 L
795.739 496.216 L
798.825 493.559 L
802.072 490.916 L
805.32 488.225 L
808.487 485.605 L
811.897 482.887 L
815.224 480.441 L
818.314 477.848 L
821.722 475.263 L
825.134 472.635 L
828.055 469.951 L
832.278 466.188 L
834.55 464.197 L
837.798 461.494 L
841.046 458.647 L
844.295 455.797 L
847.867 452.958 L
850.79 450.122 L
854.202 447.275 L
857.285 444.379 L
860.534 441.427 L
863.7 438.413 L
866.948 435.513 L
870.275 432.311 L
873.447 429.301 L
876.773 426.318 L
880.02 423.388 L
883.433 420.503 L
886.68 417.687 L
889.928 414.904 L
892.931 412.092 L
896.422 409.082 L
899.508 406.307 L
902.756 403.32 L
S
GR
GS
[0.75 0 0 0.75 0 0.25] CT
0 0 1 RC
2 LJ
6.667 LW
N
902.756 403.32 M
906.004 400.269 L
909.253 397.15 L
912.824 393.97 L
915.423 390.915 L
918.995 387.545 L
922.245 384.32 L
925.167 381.223 L
928.577 377.881 L
931.661 374.477 L
935.153 370.991 L
938.157 367.459 L
942.217 363.442 L
945.14 360.122 L
947.899 357.041 L
951.638 353.671 L
954.723 350.268 L
957.973 346.604 L
961.217 343.079 L
964.547 339.691 L
967.388 336.087 L
970.8 332.476 L
974.371 328.611 L
977.62 325.964 L
980.383 323.477 L
983.629 321.387 L
987.04 319.536 L
990.125 317.852 L
994.997 316.247 L
997.269 314.437 L
1000.031 313.173 L
1003.115 311.787 L
1007.176 310.314 L
1009.611 309.342 L
1013.186 308.217 L
1016.514 306.983 L
1019.52 302.77 L
1023.011 296.3 L
1025.85 288.956 L
1029.342 281.517 L
1032.347 274.146 L
1035.757 266.98 L
1039.166 260.083 L
1042.253 253.719 L
1045.502 247.991 L
1048.588 242.987 L
1052.159 238.713 L
1055.083 235.101 L
1058.654 232.077 L
1061.74 229.593 L
S
GR
GS
[0.75 0 0 0.75 0 0.25] CT
0 0 1 RC
2 LJ
6.667 LW
N
1061.74 229.593 M
1065.149 227.485 L
1068.235 225.891 L
1071.971 224.573 L
1074.568 223.619 L
1077.818 223.052 L
1081.472 222.904 L
1084.395 223.089 L
1087.805 223.589 L
1090.809 224.388 L
1094.218 225.486 L
1097.466 226.928 L
1100.554 228.719 L
1103.8 230.831 L
1107.21 233.246 L
1110.538 236.097 L
1113.544 238.985 L
1116.954 241.953 L
1120.282 244.974 L
1123.289 247.95 L
1126.78 250.903 L
1129.702 253.833 L
1133.112 256.748 L
1136.523 259.742 L
1139.851 262.702 L
1143.018 265.606 L
1146.186 268.445 L
1149.515 271.281 L
1152.763 274.264 L
1155.685 276.796 L
1161.125 280.968 L
1163.399 283.001 L
1165.834 285.348 L
1168.757 288.089 L
1172.331 291.068 L
1175.333 294.119 L
1178.433 297.262 L
1181.668 300.555 L
1184.916 303.947 L
1188.164 307.218 L
1191.422 310.848 L
1194.742 314.312 L
1197.988 317.787 L
1201.643 321.274 L
1204.566 324.696 L
1207.653 328.077 L
1211.062 331.359 L
1214.31 334.531 L
1217.407 337.639 L
1220.888 340.834 L
S
GR
GS
[0.75 0 0 0.75 0 0.25] CT
0 0 1 RC
2 LJ
6.667 LW
N
1220.888 340.834 M
1223.891 343.655 L
1227.22 346.547 L
1230.396 349.318 L
1234.283 352.119 L
1236.882 354.504 L
1240.535 356.961 L
1243.387 359.07 L
1246.625 361.152 L
1249.873 363.514 L
1253.204 365.804 L
1256.45 368.027 L
1259.616 370.279 L
1262.865 372.479 L
1266.112 374.947 L
1269.522 377.283 L
1272.609 379.584 L
1276.1 381.674 L
1279.186 383.847 L
1282.363 386.031 L
1285.845 388.034 L
1288.848 390.014 L
1292.097 391.941 L
1295.507 393.89 L
1298.754 395.809 L
1302.001 397.558 L
1305.493 399.398 L
1308.498 401.053 L
1311.663 402.586 L
1315.236 403.998 L
1318.081 405.202 L
1323.683 406.364 L
1325.955 407.734 L
1328.473 408.586 L
1331.638 409.506 L
1334.643 410.214 L
1337.647 410.941 L
1341.14 411.656 L
1344.386 412.315 L
1347.391 412.902 L
1351.208 413.386 L
1353.888 413.935 L
1357.297 414.552 L
1360.313 415.139 L
1363.712 415.737 L
1366.877 416.358 L
1370.369 416.956 L
1373.698 417.626 L
1376.703 418.308 L
1380.357 419 L
S
GR
GS
[0.75 0 0 0.75 0 0.25] CT
0 0 1 RC
2 LJ
6.667 LW
N
1380.357 419 M
1383.363 419.621 L
1386.528 420.227 L
1389.776 420.961 L
1393.023 421.722 L
1396.191 422.423 L
1399.682 422.945 L
1403.093 423.373 L
1406.34 423.838 L
1409.592 424.281 L
1412.513 424.607 L
1416.165 424.895 L
1419.089 425.126 L
1422.094 425.349 L
1425.586 425.531 L
1428.832 425.591 L
1432.162 425.595 L
1435.33 425.591 L
1438.902 425.584 L
1441.743 425.553 L
1444.992 425.497 L
1448.237 425.428 L
1451.486 425.311 L
1454.732 425.163 L
1458.063 424.993 L
1461.391 424.789 L
1464.882 424.482 L
1467.727 424.145 L
1470.894 423.74 L
1474.304 423.361 L
1477.876 423.059 L
1480.556 422.748 L
1483.802 422.37 L
1488.837 421.983 L
1491.028 421.923 L
1493.627 421.93 L
1496.955 421.999 L
1500.122 422.086 L
1503.371 422.214 L
1506.618 422.388 L
1509.784 422.593 L
1513.035 422.854 L
1516.282 423.252 L
1519.773 423.872 L
1522.858 424.705 L
1526.187 425.727 L
1529.841 426.905 L
1532.763 428.067 L
1535.85 429.381 L
1539.098 431.012 L
S
GR
GS
[0.75 0 0 0.75 0 0.25] CT
0 0 1 RC
2 LJ
6.667 LW
N
1539.098 431.012 M
1542.347 432.909 L
1545.836 434.995 L
1548.923 437.372 L
1552.495 440.166 L
1555.418 442.555 L
1558.666 445.47 L
1561.913 448.411 L
1565.242 451.485 L
1568.246 454.532 L
1571.576 457.875 L
1574.823 461.354 L
1578.154 464.932 L
1581.32 468.57 L
1584.65 472.249 L
1587.978 476.289 L
1591.144 480.373 L
1594.879 484.537 L
1597.802 489.432 L
1600.726 494.278 L
1604.056 499.903 L
1607.628 506.172 L
1610.551 512.04 L
1613.964 518.268 L
1616.965 524.434 L
1620.701 530.889 L
1623.541 536.688 L
1626.789 542.746 L
1630.202 549.121 L
1633.286 554.897 L
1636.615 560.973 L
1639.945 567.367 L
1643.272 573.087 L
1646.196 579.065 L
1651.23 585.368 L
1653.423 592.016 L
1656.021 597.244 L
1659.837 603.543 L
1662.682 610.327 L
1665.845 616.505 L
1668.931 623.092 L
1672.748 629.789 L
1675.508 636.539 L
1679 643.686 L
S
GR
GS
[0.75 0 0 0.75 0 0.25] CT
1 0 0 RC
[24 24] 0 setdash
2 LJ
6.667 LW
N
241 683.787 M
244.249 679.687 L
247.333 676.877 L
250.581 674.793 L
253.83 673.488 L
257.077 672.735 L
260.324 672.389 L
263.736 672.367 L
266.823 672.458 L
270.07 672.603 L
273.318 672.569 L
276.564 672.225 L
279.732 671.805 L
283.059 671.39 L
286.308 671.217 L
289.638 671.105 L
292.965 671.004 L
296.055 670.821 L
299.627 670.445 L
302.55 669.92 L
305.796 670.169 L
309.125 668.516 L
312.293 667.888 L
315.54 667.28 L
327.8 666.322 L
330.806 665.929 L
338.274 665.801 L
344.446 665.588 L
348.748 665.519 L
352.484 665.481 L
359.06 665.485 L
364.175 665.594 L
370.752 666.07 L
373.029 667.689 L
376.276 669.078 L
379.605 670.9 L
382.772 673.12 L
386.181 675.613 L
389.428 678.087 L
392.838 680.808 L
395.923 683.783 L
399.01 686.438 L
402.419 689.178 L
405.505 691.429 L
408.836 693.216 L
412.165 694.473 L
415.412 695.198 L
419.067 695.414 L
421.908 695.163 L
425.318 694.495 L
428.241 693.496 L
431.734 692.277 L
435.062 690.925 L
438.065 689.506 L
441.396 688.053 L
444.806 686.607 L
447.89 685.202 L
450.975 683.873 L
454.224 682.647 L
457.877 681.539 L
460.718 680.596 L
463.967 679.695 L
467.377 678.883 L
470.624 678.131 L
473.878 677.415 L
477.124 676.72 L
480.208 675.997 L
483.942 675.189 L
487.111 674.225 L
490.276 673.254 L
493.523 672.093 L
496.772 670.678 L
500.019 668.967 L
503.999 666.888 L
506.19 665.29 L
509.763 663.132 L
512.929 660.845 L
516.258 658.486 L
519.507 656.096 L
522.755 653.741 L
526.001 651.407 L
529.087 649.223 L
532.335 647.178 L
535.663 645.261 L
538.671 643.47 L
542.324 641.8 L
545.491 640.237 L
548.9 638.748 L
551.987 637.219 L
555.314 635.892 L
558.319 634.521 L
561.648 633.163 L
564.978 631.784 L
567.983 630.448 L
571.229 629.038 L
574.478 627.772 L
577.644 626.487 L
581.053 625.233 L
584.138 624.012 L
587.712 622.773 L
590.877 621.724 L
593.964 620.699 L
597.211 619.689 L
600.54 618.668 L
603.869 617.636 L
606.955 616.611 L
610.044 615.581 L
613.696 614.409 L
616.862 613.214 L
620.27 611.939 L
623.359 610.57 L
626.606 609.174 L
629.854 607.525 L
633.102 605.899 L
636.105 604.204 L
639.597 602.435 L
642.601 600.588 L
646.092 598.657 L
649.259 596.656 L
652.669 594.618 L
655.839 592.562 L
659.005 590.509 L
662.333 588.553 L
667.53 586.409 L
669.64 583.795 L
671.996 582.374 L
675.322 580.34 L
678.818 578.292 L
681.982 576.108 L
685.228 574.132 L
688.073 571.995 L
691.889 569.729 L
694.811 567.616 L
697.815 565.357 L
701.225 563.065 L
704.555 560.783 L
707.964 558.516 L
711.05 556.295 L
714.135 554.106 L
717.708 551.972 L
720.796 549.91 L
723.799 547.924 L
727.29 546.039 L
730.455 544.182 L
733.787 542.375 L
736.953 540.539 L
740.201 538.707 L
743.527 536.877 L
746.534 535.002 L
750.267 533.098 L
753.031 531.198 L
758.471 529.254 L
760.824 526.627 L
762.773 525.324 L
766.183 523.348 L
769.594 521.355 L
772.76 519.302 L
775.764 517.326 L
779.336 515.084 L
782.668 512.9 L
785.752 510.612 L
789.08 508.236 L
792.328 505.738 L
795.739 503.169 L
798.825 500.512 L
802.072 497.87 L
805.32 495.178 L
808.487 492.558 L
811.897 489.84 L
815.224 487.393 L
818.314 484.798 L
821.722 482.207 L
825.134 479.572 L
828.055 476.878 L
832.278 473.109 L
834.55 471.118 L
837.798 468.415 L
841.046 465.569 L
844.295 462.718 L
847.867 459.879 L
850.79 457.043 L
854.202 454.196 L
857.285 451.3 L
860.534 448.35 L
863.7 445.336 L
866.948 442.436 L
870.275 439.234 L
873.447 436.224 L
876.773 433.241 L
880.02 430.311 L
883.433 427.426 L
886.68 424.608 L
889.928 421.824 L
892.931 419.005 L
896.422 415.986 L
899.508 413.196 L
902.756 410.188 L
906.004 407.116 L
909.253 403.975 L
912.824 400.775 L
915.423 397.702 L
918.995 394.32 L
922.245 391.083 L
925.167 387.977 L
928.577 384.623 L
931.661 381.21 L
935.153 377.716 L
938.157 374.178 L
942.217 370.154 L
945.14 366.822 L
947.899 363.729 L
951.638 360.345 L
954.723 356.924 L
957.973 353.237 L
961.217 349.688 L
964.547 346.269 L
967.388 342.633 L
970.8 339.387 L
974.371 339.387 L
977.62 339.387 L
980.383 339.387 L
983.629 339.387 L
987.04 339.387 L
990.125 339.387 L
994.997 339.387 L
997.269 339.387 L
1000.031 339.387 L
1003.115 339.387 L
1007.176 339.387 L
1009.611 339.387 L
1013.186 292.846 L
1016.514 274.344 L
1019.52 257.337 L
1023.011 242.054 L
1025.85 227.933 L
1029.342 216.452 L
1032.347 206.753 L
1035.757 198.284 L
1039.166 191.189 L
1042.253 185.95 L
1045.502 182.711 L
1048.588 180.36 L
1052.159 178.911 L
1055.083 178.349 L
1058.654 178.326 L
1061.74 178.725 L
1065.149 179.668 L
1068.235 181.163 L
1071.971 182.77 L
1074.568 184.501 L
1077.818 187.627 L
1081.472 191.737 L
1084.395 196.047 L
1087.805 200.028 L
1090.809 204.083 L
1094.218 207.873 L
1097.466 212.505 L
1100.554 217.733 L
1103.8 222.623 L
1107.21 227.16 L
1110.538 227.16 L
1113.544 231.374 L
1116.954 231.374 L
1120.282 235.449 L
1123.289 239.58 L
1126.78 239.58 L
1129.702 247.285 L
1133.112 247.285 L
1136.523 251.859 L
1139.851 251.859 L
1143.018 256.421 L
1146.186 260.802 L
1149.515 260.802 L
1152.763 264.843 L
1155.685 264.843 L
1161.125 276.263 L
1163.399 279.925 L
1165.834 283.743 L
1168.757 287.262 L
1172.331 290.945 L
1175.333 293.89 L
1178.433 301.27 L
1181.668 304.37 L
1184.916 307.241 L
1188.164 310.923 L
1191.422 314.308 L
1194.742 318.308 L
1197.988 322.073 L
1201.643 325.247 L
1204.566 329.059 L
1207.653 332.311 L
1211.062 335.269 L
1214.31 338.398 L
1217.407 341.066 L
1220.888 344.187 L
1223.891 346.978 L
1227.22 349.463 L
1230.396 351.688 L
1234.283 353.546 L
1236.882 356.483 L
1240.535 359.036 L
1243.387 362.122 L
1246.625 365.761 L
1249.873 368.882 L
1253.204 372.772 L
1256.45 377.051 L
1259.616 381.014 L
1262.865 385.023 L
1266.112 388.819 L
1269.522 392.566 L
1272.609 395.815 L
1276.1 398.812 L
1279.186 402.121 L
1282.363 404.996 L
1285.845 407.546 L
1288.848 410.208 L
1292.097 412.232 L
1295.507 415.451 L
1298.754 417.061 L
1302.001 417.061 L
1305.493 420.086 L
1308.498 421.002 L
1311.663 421.971 L
1315.236 423.014 L
1318.081 423.582 L
1323.683 424.021 L
1325.955 423.46 L
1328.473 423.648 L
1331.638 423.648 L
1334.643 424.402 L
1337.647 424.419 L
1341.14 424.232 L
1344.386 423.956 L
1347.391 423.895 L
1351.208 423.987 L
1353.888 423.948 L
1357.297 424.02 L
1360.313 424.24 L
1363.712 424.403 L
1366.877 424.492 L
1370.369 424.772 L
1373.698 425.441 L
1376.703 426.086 L
1380.357 426.725 L
1383.363 427.424 L
1386.528 428.156 L
1389.776 428.672 L
1393.023 429.119 L
1396.191 429.517 L
1399.682 429.858 L
1403.093 429.858 L
1406.34 430.265 L
1409.592 430.458 L
1412.513 430.679 L
1416.165 430.81 L
1419.089 430.889 L
1422.094 430.937 L
1425.586 430.992 L
1428.832 430.99 L
1432.162 430.912 L
1435.33 430.747 L
1438.902 430.536 L
1441.743 430.212 L
1444.992 429.619 L
1448.237 429.167 L
1451.486 428.596 L
1454.732 427.936 L
1458.063 427.063 L
1461.391 426.258 L
1464.882 425.448 L
1467.727 424.559 L
1470.894 423.705 L
1474.304 422.771 L
1477.876 421.907 L
1480.556 421.317 L
1483.802 420.981 L
1488.837 420.638 L
1491.028 420.616 L
1493.627 420.616 L
1496.955 421.01 L
1500.122 421.354 L
1503.371 421.861 L
1506.618 422.57 L
1509.784 423.541 L
1513.035 424.649 L
1516.282 426.244 L
1519.773 427.975 L
1522.858 429.678 L
1526.187 431.468 L
1529.841 433.563 L
1532.763 436.274 L
1535.85 439.594 L
1539.098 443.271 L
1542.347 446.803 L
1545.836 450.283 L
1548.923 453.294 L
1552.495 456.841 L
1555.418 460.459 L
1558.666 464.301 L
1561.913 468.166 L
1565.242 472.596 L
1568.246 476.632 L
1571.576 480.718 L
1574.823 484.838 L
1578.154 488.551 L
1581.32 492.592 L
1584.65 496.619 L
1587.978 502.049 L
1591.144 507.499 L
1594.879 513.236 L
1597.802 526.448 L
1600.726 532.298 L
1604.056 537.512 L
1607.628 542.19 L
1610.551 546.594 L
1613.964 551.828 L
1616.965 557.525 L
1620.701 562.902 L
1623.541 568.875 L
1626.789 574.886 L
1630.202 579.811 L
1633.286 585.559 L
1636.615 591.393 L
1639.945 597.602 L
1643.272 605.474 L
1646.196 613.601 L
1651.23 622.439 L
1653.423 636.173 L
1656.021 645.611 L
1659.837 645.611 L
1662.682 659.186 L
1665.845 669.431 L
1668.931 679.604 L
1672.748 688.724 L
1675.508 688.958 L
1679 665.775 L
S
GR
GS
[0.75 0 0 0.75 378.5625 664.12502] CT
/Helvetica 48 F
GS
[1 0 0 1 0 0] CT
0 16.5 moveto 
1 -1 scale
(Actual) t 
GR
GR
GS
[0.75 0 0 0.75 0 0.25] CT
0 0 1 RC
2 setlinecap
10.0 ML
6.667 LW
N
460.962 885.167 M
500.769 885.167 L
S
GR
GS
[0.75 0 0 0.75 922.5 664.12502] CT
/Helvetica 48 F
GS
[1 0 0 1 0 0] CT
0 16.5 moveto 
1 -1 scale
(Desired) t 
GR
GR
GS
[0.75 0 0 0.75 0 0.25] CT
1 0 0 RC
[24 24] 0 setdash
2 LJ
6.667 LW
N
1186 885.167 M
1226 885.167 L
S
GR
%%Trailer
%%Pages: 1
%%EOF
