%!PS-Adobe-3.0 EPSF-3.0
%%Creator: (MATLAB, The Mathworks, Inc. Version 8.5.0.197613 \(R2015a\). Operating System: Linux)
%%Title: (/home/victor/ampro/AMPRO II/Upslope Walking/figures/Thesis/FlatgroundNonSplines/KneeTrackingTwoSteps.eps)
%%CreationDate: 2016-02-18T16:19:19
%%Pages: (atend)
%%BoundingBox: 0 0 1391 751
%%LanguageLevel: 2
%%EndComments
%%BeginProlog
%%BeginResource: procset (Apache XML Graphics Std ProcSet) 1.2 0
%%Version: 1.2 0
%%Copyright: (Copyright 2001-2003,2010 The Apache Software Foundation. License terms: http://www.apache.org/licenses/LICENSE-2.0)
/bd{bind def}bind def
/ld{load def}bd
/GR/grestore ld
/M/moveto ld
/LJ/setlinejoin ld
/C/curveto ld
/f/fill ld
/LW/setlinewidth ld
/GC/setgray ld
/t/show ld
/N/newpath ld
/CT/concat ld
/cp/closepath ld
/S/stroke ld
/L/lineto ld
/CC/setcmykcolor ld
/A/ashow ld
/GS/gsave ld
/RC/setrgbcolor ld
/RM/rmoveto ld
/ML/setmiterlimit ld
/re {4 2 roll M
1 index 0 rlineto
0 exch rlineto
neg 0 rlineto
cp } bd
/_ctm matrix def
/_tm matrix def
/BT { _ctm currentmatrix pop matrix _tm copy pop 0 0 moveto } bd
/ET { _ctm setmatrix } bd
/iTm { _ctm setmatrix _tm concat } bd
/Tm { _tm astore pop iTm 0 0 moveto } bd
/ux 0.0 def
/uy 0.0 def
/F {
  /Tp exch def
  /Tf exch def
  Tf findfont Tp scalefont setfont
  /cf Tf def  /cs Tp def
} bd
/ULS {currentpoint /uy exch def /ux exch def} bd
/ULE {
  /Tcx currentpoint pop def
  gsave
  newpath
  cf findfont cs scalefont dup
  /FontMatrix get 0 get /Ts exch def /FontInfo get dup
  /UnderlinePosition get Ts mul /To exch def
  /UnderlineThickness get Ts mul /Tt exch def
  ux uy To add moveto  Tcx uy To add lineto
  Tt setlinewidth stroke
  grestore
} bd
/OLE {
  /Tcx currentpoint pop def
  gsave
  newpath
  cf findfont cs scalefont dup
  /FontMatrix get 0 get /Ts exch def /FontInfo get dup
  /UnderlinePosition get Ts mul /To exch def
  /UnderlineThickness get Ts mul /Tt exch def
  ux uy To add cs add moveto Tcx uy To add cs add lineto
  Tt setlinewidth stroke
  grestore
} bd
/SOE {
  /Tcx currentpoint pop def
  gsave
  newpath
  cf findfont cs scalefont dup
  /FontMatrix get 0 get /Ts exch def /FontInfo get dup
  /UnderlinePosition get Ts mul /To exch def
  /UnderlineThickness get Ts mul /Tt exch def
  ux uy To add cs 10 mul 26 idiv add moveto Tcx uy To add cs 10 mul 26 idiv add lineto
  Tt setlinewidth stroke
  grestore
} bd
/QT {
/Y22 exch store
/X22 exch store
/Y21 exch store
/X21 exch store
currentpoint
/Y21 load 2 mul add 3 div exch
/X21 load 2 mul add 3 div exch
/X21 load 2 mul /X22 load add 3 div
/Y21 load 2 mul /Y22 load add 3 div
/X22 load /Y22 load curveto
} bd
/SSPD {
dup length /d exch dict def
{
/v exch def
/k exch def
currentpagedevice k known {
/cpdv currentpagedevice k get def
v cpdv ne {
/upd false def
/nullv v type /nulltype eq def
/nullcpdv cpdv type /nulltype eq def
nullv nullcpdv or
{
/upd true def
} {
/sametype v type cpdv type eq def
sametype {
v type /arraytype eq {
/vlen v length def
/cpdvlen cpdv length def
vlen cpdvlen eq {
0 1 vlen 1 sub {
/i exch def
/obj v i get def
/cpdobj cpdv i get def
obj cpdobj ne {
/upd true def
exit
} if
} for
} {
/upd true def
} ifelse
} {
v type /dicttype eq {
v {
/dv exch def
/dk exch def
/cpddv cpdv dk get def
dv cpddv ne {
/upd true def
exit
} if
} forall
} {
/upd true def
} ifelse
} ifelse
} if
} ifelse
upd true eq {
d k v put
} if
} if
} if
} forall
d length 0 gt {
d setpagedevice
} if
} bd
%%EndResource
%%BeginResource: procset (Apache XML Graphics EPS ProcSet) 1.0 0
%%Version: 1.0 0
%%Copyright: (Copyright 2002-2003 The Apache Software Foundation. License terms: http://www.apache.org/licenses/LICENSE-2.0)
/BeginEPSF { %def
/b4_Inc_state save def         % Save state for cleanup
/dict_count countdictstack def % Count objects on dict stack
/op_count count 1 sub def      % Count objects on operand stack
userdict begin                 % Push userdict on dict stack
/showpage { } def              % Redefine showpage, { } = null proc
0 setgray 0 setlinecap         % Prepare graphics state
1 setlinewidth 0 setlinejoin
10 setmiterlimit [ ] 0 setdash newpath
/languagelevel where           % If level not equal to 1 then
{pop languagelevel             % set strokeadjust and
1 ne                           % overprint to their defaults.
{false setstrokeadjust false setoverprint
} if
} if
} bd
/EndEPSF { %def
count op_count sub {pop} repeat            % Clean up stacks
countdictstack dict_count sub {end} repeat
b4_Inc_state restore
} bd
%%EndResource
%FOPBeginFontDict
%%IncludeResource: font Courier-Bold
%%IncludeResource: font Helvetica
%%IncludeResource: font Courier-BoldOblique
%%IncludeResource: font Courier-Oblique
%%IncludeResource: font Times-Roman
%%IncludeResource: font Helvetica-BoldOblique
%%IncludeResource: font Helvetica-Bold
%%IncludeResource: font Helvetica-Oblique
%%IncludeResource: font Times-BoldItalic
%%IncludeResource: font Courier
%%IncludeResource: font Times-Italic
%%IncludeResource: font Times-Bold
%%IncludeResource: font Symbol
%%IncludeResource: font ZapfDingbats
%FOPEndFontDict
%%BeginResource: encoding WinAnsiEncoding
/WinAnsiEncoding [
/.notdef /.notdef /.notdef /.notdef /.notdef
/.notdef /.notdef /.notdef /.notdef /.notdef
/.notdef /.notdef /.notdef /.notdef /.notdef
/.notdef /.notdef /.notdef /.notdef /.notdef
/.notdef /.notdef /.notdef /.notdef /.notdef
/.notdef /.notdef /.notdef /.notdef /.notdef
/.notdef /.notdef /space /exclam /quotedbl
/numbersign /dollar /percent /ampersand /quotesingle
/parenleft /parenright /asterisk /plus /comma
/hyphen /period /slash /zero /one
/two /three /four /five /six
/seven /eight /nine /colon /semicolon
/less /equal /greater /question /at
/A /B /C /D /E
/F /G /H /I /J
/K /L /M /N /O
/P /Q /R /S /T
/U /V /W /X /Y
/Z /bracketleft /backslash /bracketright /asciicircum
/underscore /quoteleft /a /b /c
/d /e /f /g /h
/i /j /k /l /m
/n /o /p /q /r
/s /t /u /v /w
/x /y /z /braceleft /bar
/braceright /asciitilde /bullet /Euro /bullet
/quotesinglbase /florin /quotedblbase /ellipsis /dagger
/daggerdbl /circumflex /perthousand /Scaron /guilsinglleft
/OE /bullet /Zcaron /bullet /bullet
/quoteleft /quoteright /quotedblleft /quotedblright /bullet
/endash /emdash /asciitilde /trademark /scaron
/guilsinglright /oe /bullet /zcaron /Ydieresis
/space /exclamdown /cent /sterling /currency
/yen /brokenbar /section /dieresis /copyright
/ordfeminine /guillemotleft /logicalnot /sfthyphen /registered
/macron /degree /plusminus /twosuperior /threesuperior
/acute /mu /paragraph /middot /cedilla
/onesuperior /ordmasculine /guillemotright /onequarter /onehalf
/threequarters /questiondown /Agrave /Aacute /Acircumflex
/Atilde /Adieresis /Aring /AE /Ccedilla
/Egrave /Eacute /Ecircumflex /Edieresis /Igrave
/Iacute /Icircumflex /Idieresis /Eth /Ntilde
/Ograve /Oacute /Ocircumflex /Otilde /Odieresis
/multiply /Oslash /Ugrave /Uacute /Ucircumflex
/Udieresis /Yacute /Thorn /germandbls /agrave
/aacute /acircumflex /atilde /adieresis /aring
/ae /ccedilla /egrave /eacute /ecircumflex
/edieresis /igrave /iacute /icircumflex /idieresis
/eth /ntilde /ograve /oacute /ocircumflex
/otilde /odieresis /divide /oslash /ugrave
/uacute /ucircumflex /udieresis /yacute /thorn
/ydieresis
] def
%%EndResource
%FOPBeginFontReencode
/Courier-Bold findfont
dup length dict begin
  {1 index /FID ne {def} {pop pop} ifelse} forall
  /Encoding WinAnsiEncoding def
  currentdict
end
/Courier-Bold exch definefont pop
/Helvetica findfont
dup length dict begin
  {1 index /FID ne {def} {pop pop} ifelse} forall
  /Encoding WinAnsiEncoding def
  currentdict
end
/Helvetica exch definefont pop
/Courier-BoldOblique findfont
dup length dict begin
  {1 index /FID ne {def} {pop pop} ifelse} forall
  /Encoding WinAnsiEncoding def
  currentdict
end
/Courier-BoldOblique exch definefont pop
/Courier-Oblique findfont
dup length dict begin
  {1 index /FID ne {def} {pop pop} ifelse} forall
  /Encoding WinAnsiEncoding def
  currentdict
end
/Courier-Oblique exch definefont pop
/Times-Roman findfont
dup length dict begin
  {1 index /FID ne {def} {pop pop} ifelse} forall
  /Encoding WinAnsiEncoding def
  currentdict
end
/Times-Roman exch definefont pop
/Helvetica-BoldOblique findfont
dup length dict begin
  {1 index /FID ne {def} {pop pop} ifelse} forall
  /Encoding WinAnsiEncoding def
  currentdict
end
/Helvetica-BoldOblique exch definefont pop
/Helvetica-Bold findfont
dup length dict begin
  {1 index /FID ne {def} {pop pop} ifelse} forall
  /Encoding WinAnsiEncoding def
  currentdict
end
/Helvetica-Bold exch definefont pop
/Helvetica-Oblique findfont
dup length dict begin
  {1 index /FID ne {def} {pop pop} ifelse} forall
  /Encoding WinAnsiEncoding def
  currentdict
end
/Helvetica-Oblique exch definefont pop
/Times-BoldItalic findfont
dup length dict begin
  {1 index /FID ne {def} {pop pop} ifelse} forall
  /Encoding WinAnsiEncoding def
  currentdict
end
/Times-BoldItalic exch definefont pop
/Courier findfont
dup length dict begin
  {1 index /FID ne {def} {pop pop} ifelse} forall
  /Encoding WinAnsiEncoding def
  currentdict
end
/Courier exch definefont pop
/Times-Italic findfont
dup length dict begin
  {1 index /FID ne {def} {pop pop} ifelse} forall
  /Encoding WinAnsiEncoding def
  currentdict
end
/Times-Italic exch definefont pop
/Times-Bold findfont
dup length dict begin
  {1 index /FID ne {def} {pop pop} ifelse} forall
  /Encoding WinAnsiEncoding def
  currentdict
end
/Times-Bold exch definefont pop
%FOPEndFontReencode
%%EndProlog
%%Page: 1 1
%%PageBoundingBox: 0 0 1391 751
%%BeginPageSetup
[1 0 0 -1 0 751] CT
%%EndPageSetup
GS
[0.75 0 0 0.75 0 0.25] CT
N
0 0 M
1855 0 L
1855 1001 L
0 1001 L
0 0 L
cp
clip
1 GC
N
0 0 1855 1001 re
f
GR
GS
[0.75 0 0 0.75 0 0.25] CT
1 GC
N
0 0 1855 1001 re
f
GR
GS
[0.75 0 0 0.75 0 0.25] CT
1 GC
N
241 721 M
1679 721 L
1679 30 L
241 30 L
cp
f
GR
GS
[0.75 0 0 0.75 0 0.25] CT
0.873 GC
2 setlinecap
10.0 ML
N
241 721 M
241 30 L
S
GR
GS
[0.75 0 0 0.75 0 0.25] CT
0.873 GC
2 setlinecap
10.0 ML
N
564.792 721 M
564.792 30 L
S
GR
GS
[0.75 0 0 0.75 0 0.25] CT
0.873 GC
2 setlinecap
10.0 ML
N
888.584 721 M
888.584 30 L
S
GR
GS
[0.75 0 0 0.75 0 0.25] CT
0.873 GC
2 setlinecap
10.0 ML
N
1212.376 721 M
1212.376 30 L
S
GR
GS
[0.75 0 0 0.75 0 0.25] CT
0.873 GC
2 setlinecap
10.0 ML
N
1536.168 721 M
1536.168 30 L
S
GR
GS
[0.75 0 0 0.75 0 0.25] CT
0.873 GC
2 setlinecap
10.0 ML
N
1679 721 M
241 721 L
S
GR
GS
[0.75 0 0 0.75 0 0.25] CT
0.873 GC
2 setlinecap
10.0 ML
N
1679 605.833 M
241 605.833 L
S
GR
GS
[0.75 0 0 0.75 0 0.25] CT
0.873 GC
2 setlinecap
10.0 ML
N
1679 490.667 M
241 490.667 L
S
GR
GS
[0.75 0 0 0.75 0 0.25] CT
0.873 GC
2 setlinecap
10.0 ML
N
1679 375.5 M
241 375.5 L
S
GR
GS
[0.75 0 0 0.75 0 0.25] CT
0.873 GC
2 setlinecap
10.0 ML
N
1679 260.333 M
241 260.333 L
S
GR
GS
[0.75 0 0 0.75 0 0.25] CT
0.873 GC
2 setlinecap
10.0 ML
N
1679 145.167 M
241 145.167 L
S
GR
GS
[0.75 0 0 0.75 0 0.25] CT
0.873 GC
2 setlinecap
10.0 ML
N
1679 30 M
241 30 L
S
GR
GS
[0.75 0 0 0.75 720.00055 599.25002] CT
0.149 GC
/Helvetica 59 F
GS
[1 0 0 1 0 0] CT
-121 55 moveto 
1 -1 scale
(Time \(s\)) t 
GR
GR
GS
[0.75 0 0 0.75 0 0.25] CT
0.149 GC
2 setlinecap
10.0 ML
N
241 721 M
1679 721 L
S
GR
GS
[0.75 0 0 0.75 0 0.25] CT
0.149 GC
2 setlinecap
10.0 ML
N
241 30 M
1679 30 L
S
GR
GS
[0.75 0 0 0.75 0 0.25] CT
0.149 GC
2 setlinecap
10.0 ML
N
241 721 M
241 706.62 L
S
GR
GS
[0.75 0 0 0.75 0 0.25] CT
0.149 GC
2 setlinecap
10.0 ML
N
564.792 721 M
564.792 706.62 L
S
GR
GS
[0.75 0 0 0.75 0 0.25] CT
0.149 GC
2 setlinecap
10.0 ML
N
888.584 721 M
888.584 706.62 L
S
GR
GS
[0.75 0 0 0.75 0 0.25] CT
0.149 GC
2 setlinecap
10.0 ML
N
1212.376 721 M
1212.376 706.62 L
S
GR
GS
[0.75 0 0 0.75 0 0.25] CT
0.149 GC
2 setlinecap
10.0 ML
N
1536.168 721 M
1536.168 706.62 L
S
GR
GS
[0.75 0 0 0.75 0 0.25] CT
0.149 GC
2 setlinecap
10.0 ML
N
241 30 M
241 44.38 L
S
GR
GS
[0.75 0 0 0.75 0 0.25] CT
0.149 GC
2 setlinecap
10.0 ML
N
564.792 30 M
564.792 44.38 L
S
GR
GS
[0.75 0 0 0.75 0 0.25] CT
0.149 GC
2 setlinecap
10.0 ML
N
888.584 30 M
888.584 44.38 L
S
GR
GS
[0.75 0 0 0.75 0 0.25] CT
0.149 GC
2 setlinecap
10.0 ML
N
1212.376 30 M
1212.376 44.38 L
S
GR
GS
[0.75 0 0 0.75 0 0.25] CT
0.149 GC
2 setlinecap
10.0 ML
N
1536.168 30 M
1536.168 44.38 L
S
GR
GS
[0.75 0 0 0.75 180.75 550.99998] CT
0.149 GC
/Helvetica 53 F
GS
[1 0 0 1 0 0] CT
-17 50 moveto 
1 -1 scale
(0) t 
GR
GR
GS
[0.75 0 0 0.75 423.59395 550.99998] CT
0.149 GC
/Helvetica 53 F
GS
[1 0 0 1 0 0] CT
-17 50 moveto 
1 -1 scale
(1) t 
GR
GR
GS
[0.75 0 0 0.75 666.4379 550.99998] CT
0.149 GC
/Helvetica 53 F
GS
[1 0 0 1 0 0] CT
-17 50 moveto 
1 -1 scale
(2) t 
GR
GR
GS
[0.75 0 0 0.75 909.2818 550.99998] CT
0.149 GC
/Helvetica 53 F
GS
[1 0 0 1 0 0] CT
-17 50 moveto 
1 -1 scale
(3) t 
GR
GR
GS
[0.75 0 0 0.75 1152.12579 550.99998] CT
0.149 GC
/Helvetica 53 F
GS
[1 0 0 1 0 0] CT
-17 50 moveto 
1 -1 scale
(4) t 
GR
GR
GS
[0 -0.75 0.75 0 104 281.87473] CT
0.149 GC
/Helvetica 59 F
GS
[1 0 0 1 0 0] CT
-247 -14 moveto 
1 -1 scale
(Knee angle \(rad\)) t 
GR
GR
GS
[0.75 0 0 0.75 0 0.25] CT
0.149 GC
2 setlinecap
10.0 ML
N
241 721 M
241 30 L
S
GR
GS
[0.75 0 0 0.75 0 0.25] CT
0.149 GC
2 setlinecap
10.0 ML
N
1679 721 M
1679 30 L
S
GR
GS
[0.75 0 0 0.75 0 0.25] CT
0.149 GC
2 setlinecap
10.0 ML
N
241 721 M
255.38 721 L
S
GR
GS
[0.75 0 0 0.75 0 0.25] CT
0.149 GC
2 setlinecap
10.0 ML
N
241 605.833 M
255.38 605.833 L
S
GR
GS
[0.75 0 0 0.75 0 0.25] CT
0.149 GC
2 setlinecap
10.0 ML
N
241 490.667 M
255.38 490.667 L
S
GR
GS
[0.75 0 0 0.75 0 0.25] CT
0.149 GC
2 setlinecap
10.0 ML
N
241 375.5 M
255.38 375.5 L
S
GR
GS
[0.75 0 0 0.75 0 0.25] CT
0.149 GC
2 setlinecap
10.0 ML
N
241 260.333 M
255.38 260.333 L
S
GR
GS
[0.75 0 0 0.75 0 0.25] CT
0.149 GC
2 setlinecap
10.0 ML
N
241 145.167 M
255.38 145.167 L
S
GR
GS
[0.75 0 0 0.75 0 0.25] CT
0.149 GC
2 setlinecap
10.0 ML
N
241 30 M
255.38 30 L
S
GR
GS
[0.75 0 0 0.75 0 0.25] CT
0.149 GC
2 setlinecap
10.0 ML
N
1679 721 M
1664.62 721 L
S
GR
GS
[0.75 0 0 0.75 0 0.25] CT
0.149 GC
2 setlinecap
10.0 ML
N
1679 605.833 M
1664.62 605.833 L
S
GR
GS
[0.75 0 0 0.75 0 0.25] CT
0.149 GC
2 setlinecap
10.0 ML
N
1679 490.667 M
1664.62 490.667 L
S
GR
GS
[0.75 0 0 0.75 0 0.25] CT
0.149 GC
2 setlinecap
10.0 ML
N
1679 375.5 M
1664.62 375.5 L
S
GR
GS
[0.75 0 0 0.75 0 0.25] CT
0.149 GC
2 setlinecap
10.0 ML
N
1679 260.333 M
1664.62 260.333 L
S
GR
GS
[0.75 0 0 0.75 0 0.25] CT
0.149 GC
2 setlinecap
10.0 ML
N
1679 145.167 M
1664.62 145.167 L
S
GR
GS
[0.75 0 0 0.75 0 0.25] CT
0.149 GC
2 setlinecap
10.0 ML
N
1679 30 M
1664.62 30 L
S
GR
GS
[0.75 0 0 0.75 170.75 541] CT
0.149 GC
/Helvetica 53 F
GS
[1 0 0 1 0 0] CT
-34 18.5 moveto 
1 -1 scale
(0) t 
GR
GR
GS
[0.75 0 0 0.75 170.75 454.62498] CT
0.149 GC
/Helvetica 53 F
GS
[1 0 0 1 0 0] CT
-85 18.5 moveto 
1 -1 scale
(0.2) t 
GR
GR
GS
[0.75 0 0 0.75 170.75 368.24999] CT
0.149 GC
/Helvetica 53 F
GS
[1 0 0 1 0 0] CT
-85 18.5 moveto 
1 -1 scale
(0.4) t 
GR
GR
GS
[0.75 0 0 0.75 170.75 281.875] CT
0.149 GC
/Helvetica 53 F
GS
[1 0 0 1 0 0] CT
-85 18.5 moveto 
1 -1 scale
(0.6) t 
GR
GR
GS
[0.75 0 0 0.75 170.75 195.49998] CT
0.149 GC
/Helvetica 53 F
GS
[1 0 0 1 0 0] CT
-85 18.5 moveto 
1 -1 scale
(0.8) t 
GR
GR
GS
[0.75 0 0 0.75 170.75 109.125] CT
0.149 GC
/Helvetica 53 F
GS
[1 0 0 1 0 0] CT
-34 18.5 moveto 
1 -1 scale
(1) t 
GR
GR
GS
[0.75 0 0 0.75 170.75 22.74998] CT
0.149 GC
/Helvetica 53 F
GS
[1 0 0 1 0 0] CT
-85 18.5 moveto 
1 -1 scale
(1.2) t 
GR
GR
GS
[0.75 0 0 0.75 0 0.25] CT
0 0 1 RC
2 LJ
6.667 LW
N
241 593.02 M
242.62 596.554 L
244.157 599.992 L
245.776 603.152 L
247.395 605.915 L
249.014 608.269 L
250.632 610.232 L
252.333 611.897 L
253.872 613.308 L
255.49 614.514 L
257.11 615.605 L
258.728 616.57 L
260.306 617.418 L
261.965 618.082 L
263.585 618.564 L
265.244 618.884 L
266.903 619.092 L
268.443 619.217 L
270.223 619.251 L
271.681 619.195 L
273.299 619.089 L
274.958 618.964 L
276.537 618.822 L
278.156 618.595 L
284.267 617.965 L
285.765 617.504 L
289.488 617.197 L
292.565 616.594 L
294.709 616.358 L
296.571 616.155 L
299.849 615.757 L
302.399 615.331 L
305.677 615.008 L
306.812 615.099 L
308.43 615.556 L
310.09 616.592 L
311.668 618.274 L
313.368 620.485 L
314.986 622.949 L
316.686 625.849 L
318.224 629.201 L
319.763 632.505 L
321.462 636.447 L
323 640.444 L
324.66 644.626 L
326.32 648.932 L
327.938 653.32 L
329.76 657.931 L
331.177 662.005 L
332.876 666.144 L
S
GR
GS
[0.75 0 0 0.75 0 0.25] CT
0 0 1 RC
2 LJ
6.667 LW
N
332.876 666.144 M
334.333 670.059 L
336.074 673.72 L
337.733 677.121 L
339.231 680.252 L
340.891 683.13 L
342.59 685.767 L
344.128 688.174 L
345.666 690.344 L
347.285 692.29 L
349.106 694.021 L
350.522 695.474 L
352.141 696.837 L
353.841 698.031 L
355.46 699.096 L
357.082 700.059 L
358.7 700.915 L
360.237 701.708 L
362.098 702.463 L
363.678 703.205 L
365.256 703.864 L
366.874 704.564 L
368.494 705.286 L
370.112 706.043 L
372.096 706.851 L
373.188 707.425 L
374.969 708.134 L
376.548 708.797 L
378.207 709.422 L
379.827 709.978 L
381.445 710.449 L
383.064 710.855 L
384.602 711.14 L
386.221 711.314 L
387.88 711.416 L
389.379 711.467 L
391.2 711.482 L
392.779 711.478 L
394.478 711.473 L
396.016 711.473 L
397.675 711.476 L
399.173 711.476 L
400.832 711.48 L
402.492 711.484 L
403.99 711.493 L
405.608 711.509 L
407.228 711.529 L
408.806 711.555 L
410.505 711.588 L
412.043 711.621 L
S
GR
GS
[0.75 0 0 0.75 0 0.25] CT
0 0 1 RC
2 LJ
6.667 LW
N
412.043 711.621 M
413.824 711.652 L
415.402 711.683 L
416.941 711.712 L
418.559 711.741 L
420.219 711.771 L
421.878 711.807 L
423.416 711.846 L
424.956 711.895 L
426.777 711.957 L
428.354 712.039 L
430.053 712.145 L
431.593 712.279 L
433.212 712.449 L
434.831 712.633 L
436.45 712.794 L
437.947 712.92 L
439.687 713.026 L
441.185 713.121 L
442.925 713.22 L
444.504 713.313 L
446.203 713.386 L
447.783 713.419 L
449.362 713.421 L
451.02 713.41 L
453.611 713.399 L
454.663 713.383 L
455.837 713.375 L
457.495 713.361 L
459.238 713.346 L
460.815 713.331 L
462.433 713.315 L
463.851 713.302 L
465.753 713.284 L
467.21 713.269 L
468.707 713.247 L
470.407 713.22 L
472.067 713.189 L
473.766 713.149 L
475.304 713.101 L
476.842 713.041 L
478.623 712.966 L
480.162 712.878 L
481.659 712.781 L
483.399 712.675 L
484.977 712.582 L
486.638 712.513 L
488.216 712.469 L
489.835 712.443 L
491.493 712.427 L
S
GR
GS
[0.75 0 0 0.75 0 0.25] CT
0 0 1 RC
2 LJ
6.667 LW
N
491.493 712.427 M
492.992 712.421 L
494.853 712.421 L
496.23 712.421 L
498.942 712.423 L
500.115 712.427 L
501.087 712.427 L
502.786 712.432 L
504.486 712.438 L
506.065 712.449 L
507.562 712.458 L
509.342 712.467 L
511.004 712.471 L
512.541 712.478 L
514.2 712.48 L
515.818 712.48 L
517.519 712.478 L
519.057 712.478 L
520.675 712.478 L
522.294 712.478 L
523.873 712.478 L
525.573 712.478 L
527.232 712.48 L
528.772 712.482 L
530.47 712.489 L
532.171 712.498 L
533.627 712.509 L
535.732 712.516 L
536.865 712.516 L
538.484 712.516 L
540.103 712.516 L
541.722 712.516 L
543.503 712.516 L
544.96 712.516 L
546.661 712.516 L
548.198 712.516 L
549.817 712.513 L
551.395 712.513 L
553.014 712.513 L
554.672 712.513 L
556.254 712.513 L
557.912 712.513 L
559.53 712.513 L
561.231 712.513 L
562.85 712.516 L
564.469 712.518 L
565.966 712.524 L
567.706 712.536 L
569.244 712.553 L
570.863 712.577 L
S
GR
GS
[0.75 0 0 0.75 0 0.25] CT
0 0 1 RC
2 LJ
6.667 LW
N
570.863 712.577 M
572.482 712.602 L
574.102 712.626 L
575.882 712.65 L
577.177 712.67 L
578.958 712.686 L
580.578 712.699 L
582.034 712.71 L
583.734 712.723 L
585.272 712.734 L
587.012 712.743 L
588.51 712.75 L
590.533 712.759 L
591.99 712.772 L
593.366 712.785 L
595.229 712.803 L
596.767 712.823 L
598.387 712.849 L
600.004 712.878 L
601.664 712.913 L
603.08 712.951 L
604.781 713.001 L
606.561 713.059 L
608.18 713.123 L
609.557 713.209 L
611.175 713.311 L
612.876 713.436 L
614.414 713.542 L
616.842 713.64 L
617.975 713.717 L
619.351 713.768 L
620.889 713.819 L
622.913 713.885 L
624.127 713.949 L
625.909 714.039 L
627.568 713.878 L
629.066 711.922 L
630.806 707.967 L
632.222 703.459 L
633.962 697.983 L
635.46 692.564 L
637.16 687.156 L
638.859 681.668 L
640.398 676.152 L
642.017 669.575 L
643.555 662.818 L
645.335 655.65 L
646.793 648.135 L
648.573 640.285 L
650.112 632.094 L
S
GR
GS
[0.75 0 0 0.75 0 0.25] CT
0 0 1 RC
2 LJ
6.667 LW
N
650.112 632.094 M
651.811 623.649 L
653.349 615.059 L
655.211 606.352 L
656.506 597.47 L
658.126 588.88 L
659.947 579.289 L
661.404 570.065 L
663.104 561.117 L
664.601 551.465 L
666.301 541.671 L
667.92 531.818 L
669.459 521.889 L
671.077 511.857 L
672.776 501.811 L
674.435 491.728 L
675.934 481.625 L
677.634 471.664 L
679.293 461.905 L
680.792 452.354 L
682.531 442.907 L
683.988 433.573 L
685.688 424.413 L
687.388 415.301 L
689.047 406.274 L
690.626 396.937 L
692.205 388.667 L
693.864 380.055 L
695.483 370.665 L
696.94 363.148 L
699.652 350.936 L
700.785 344.987 L
701.999 338.247 L
703.456 331.055 L
705.237 323.112 L
706.734 315.244 L
708.279 307.435 L
709.892 299.724 L
711.511 292.077 L
713.13 284.546 L
714.754 277.146 L
716.408 269.837 L
718.027 262.633 L
719.848 255.637 L
721.305 248.878 L
722.844 242.591 L
724.543 238.117 L
726.163 235.014 L
727.706 232.541 L
729.441 230.14 L
S
GR
GS
[0.75 0 0 0.75 0 0.25] CT
0 0 1 RC
2 LJ
6.667 LW
N
729.441 230.14 M
730.938 228.003 L
732.598 225.79 L
734.181 223.624 L
736.118 221.323 L
737.414 219.538 L
739.235 217.447 L
740.656 215.813 L
742.271 214.049 L
743.89 212.362 L
745.55 210.809 L
747.168 209.38 L
748.746 208.013 L
750.366 206.68 L
751.984 205.416 L
753.684 204.189 L
755.223 203.016 L
756.963 201.863 L
758.501 200.755 L
760.084 199.673 L
761.82 198.588 L
763.317 197.553 L
764.937 196.526 L
766.636 195.519 L
768.255 194.532 L
769.873 193.556 L
771.614 192.562 L
773.112 191.732 L
774.69 190.873 L
776.471 190.016 L
777.889 189.289 L
780.681 188.503 L
781.814 187.578 L
783.069 187.019 L
784.647 186.363 L
786.144 185.736 L
787.642 185.109 L
789.383 184.486 L
791.001 183.89 L
792.499 183.298 L
794.402 182.662 L
795.737 182.081 L
797.437 181.487 L
798.94 180.997 L
800.634 180.507 L
802.212 179.973 L
803.953 179.401 L
805.612 178.908 L
807.11 178.449 L
808.931 177.989 L
S
GR
GS
[0.75 0 0 0.75 0 0.25] CT
0 0 1 RC
2 LJ
6.667 LW
N
808.931 177.989 M
810.43 177.537 L
812.007 177.086 L
813.626 176.622 L
815.245 176.165 L
816.824 175.755 L
818.564 175.359 L
820.264 174.96 L
821.883 174.525 L
823.504 174.096 L
824.96 173.661 L
826.781 173.246 L
828.238 172.884 L
829.736 172.517 L
831.476 172.124 L
833.095 171.749 L
834.754 171.402 L
836.333 171.044 L
838.114 170.673 L
839.53 170.578 L
841.15 172.144 L
842.767 175.026 L
844.387 178.458 L
846.005 182.042 L
847.665 185.668 L
849.324 189.331 L
851.064 193.293 L
852.482 197.007 L
854.061 201.062 L
855.761 205.288 L
857.541 209.924 L
858.877 214.287 L
860.495 218.852 L
863.005 226.223 L
864.097 229.977 L
865.393 234.701 L
867.052 240.807 L
868.63 246.435 L
870.25 252.727 L
871.868 258.804 L
873.446 264.926 L
875.067 270.795 L
876.686 277.38 L
878.425 283.745 L
879.963 290.199 L
881.623 296.745 L
883.444 303.694 L
884.901 310.379 L
886.44 316.745 L
888.058 323.169 L
S
GR
GS
[0.75 0 0 0.75 0 0.25] CT
0 0 1 RC
2 LJ
6.667 LW
N
888.058 323.169 M
889.678 329.982 L
891.417 337.289 L
892.956 344.402 L
894.736 351.93 L
896.194 358.734 L
897.812 365.849 L
899.431 372.975 L
901.09 380.09 L
902.588 387.194 L
904.248 394.301 L
905.866 401.343 L
907.527 408.328 L
909.105 415.317 L
910.765 422.324 L
912.423 429.227 L
914.002 436.028 L
915.863 442.439 L
917.32 449.497 L
918.778 456.199 L
920.438 462.95 L
922.219 469.685 L
923.675 475.999 L
925.376 482.88 L
926.873 489.293 L
928.735 495.595 L
930.151 501.8 L
931.77 507.851 L
933.471 513.718 L
935.008 519.405 L
936.668 524.939 L
938.327 530.334 L
939.986 535.554 L
941.443 540.633 L
943.953 545.628 L
945.046 551.047 L
946.34 555.161 L
948.243 560.112 L
949.661 564.706 L
951.238 569.191 L
952.776 573.557 L
954.678 577.752 L
956.054 581.581 L
957.795 585.645 L
959.292 589.291 L
960.911 592.248 L
962.53 594.52 L
964.189 596.24 L
966.093 597.574 L
967.387 598.565 L
S
GR
GS
[0.75 0 0 0.75 0 0.25] CT
0 0 1 RC
2 LJ
6.667 LW
N
967.387 598.565 M
968.966 599.374 L
970.585 599.988 L
972.324 600.476 L
973.822 600.8 L
975.562 600.986 L
977.061 601.09 L
978.638 601.189 L
980.582 601.304 L
981.956 601.419 L
984.71 601.54 L
985.844 601.67 L
987.099 601.737 L
988.476 601.801 L
990.093 601.867 L
991.672 601.929 L
993.29 601.993 L
994.95 602.061 L
996.488 602.138 L
998.433 602.251 L
999.847 602.426 L
1001.427 602.627 L
1003.046 602.75 L
1004.625 602.792 L
1006.167 602.812 L
1007.78 602.821 L
1009.561 602.823 L
1011.058 602.814 L
1012.96 602.81 L
1014.417 602.752 L
1015.957 602.574 L
1017.575 602.306 L
1019.195 601.968 L
1020.812 601.659 L
1022.513 601.33 L
1024.131 601.094 L
1026.44 600.886 L
1027.612 600.816 L
1028.827 600.73 L
1030.607 600.632 L
1032.073 600.555 L
1033.684 600.5 L
1035.303 600.471 L
1037.003 600.456 L
1038.702 600.445 L
1040.159 600.427 L
1041.859 600.396 L
1043.397 600.352 L
1045.097 600.299 L
1046.715 600.259 L
S
GR
GS
[0.75 0 0 0.75 0 0.25] CT
0 0 1 RC
2 LJ
6.667 LW
N
1046.715 600.259 M
1048.255 600.239 L
1049.954 600.246 L
1051.573 600.266 L
1053.476 600.321 L
1054.852 600.416 L
1056.552 600.537 L
1057.97 600.663 L
1059.669 600.796 L
1061.286 600.944 L
1063.027 601.132 L
1064.449 601.313 L
1066.144 601.074 L
1067.844 601.052 L
1069.382 601.818 L
1071.082 603.574 L
1072.579 605.959 L
1074.239 609.227 L
1075.776 612.635 L
1077.398 616.603 L
1079.215 621.161 L
1080.715 625.829 L
1082.455 630.765 L
1083.993 635.894 L
1085.773 641.075 L
1087.15 645.936 L
1088.889 651.127 L
1090.387 655.665 L
1092.087 660.471 L
1093.585 664.582 L
1095.534 668.805 L
1097.026 672.497 L
1098.483 675.728 L
1100.264 678.994 L
1101.72 681.681 L
1103.461 684.351 L
1104.959 686.5 L
1107.469 688.589 L
1108.601 690.503 L
1109.816 691.806 L
1111.717 693.231 L
1113.055 694.381 L
1114.916 695.459 L
1116.373 696.514 L
1117.991 697.464 L
1119.53 698.343 L
1121.23 699.312 L
1122.768 700.196 L
1124.467 701.165 L
1126.248 702.152 L
S
GR
GS
[0.75 0 0 0.75 0 0.25] CT
0 0 1 RC
2 LJ
6.667 LW
N
1126.248 702.152 M
1127.664 703 L
1129.243 703.925 L
1130.862 704.829 L
1132.562 705.736 L
1134.141 706.476 L
1135.8 707.214 L
1137.419 707.843 L
1138.957 708.364 L
1140.656 708.757 L
1142.235 709.104 L
1144.137 709.371 L
1145.432 709.545 L
1147.34 709.687 L
1148.711 709.78 L
1150.33 709.83 L
1152.151 709.85 L
1153.527 709.855 L
1155.268 709.861 L
1156.765 709.875 L
1158.505 709.897 L
1160.165 709.932 L
1161.703 709.987 L
1163.281 710.056 L
1164.9 710.148 L
1166.478 710.276 L
1168.139 710.442 L
1169.838 710.639 L
1171.377 710.82 L
1172.995 710.95 L
1174.614 711.038 L
1176.556 711.109 L
1177.894 711.149 L
1179.553 711.193 L
1181.09 711.237 L
1182.709 711.288 L
1184.409 711.343 L
1185.946 711.4 L
1187.606 711.462 L
1189.671 711.535 L
1190.884 711.579 L
1192.503 711.63 L
1194.042 711.679 L
1195.661 711.725 L
1197.279 711.765 L
1198.979 711.796 L
1200.477 711.813 L
1202.217 711.818 L
1203.755 711.816 L
1205.455 711.809 L
S
GR
GS
[0.75 0 0 0.75 0 0.25] CT
0 0 1 RC
2 LJ
6.667 LW
N
1205.455 711.809 M
1206.993 711.8 L
1208.936 711.789 L
1210.191 711.771 L
1211.852 711.754 L
1213.591 711.736 L
1215.128 711.723 L
1216.79 711.716 L
1218.327 711.716 L
1220.027 711.716 L
1221.564 711.716 L
1223.183 711.716 L
1224.924 711.716 L
1226.421 711.716 L
1228.08 711.716 L
1229.66 711.714 L
1231.237 711.714 L
1232.856 711.712 L
1234.597 711.712 L
1236.135 711.707 L
1237.754 711.701 L
1239.373 711.688 L
1241.274 711.672 L
1242.692 711.652 L
1244.23 711.632 L
1246.091 711.615 L
1247.468 711.604 L
1249.168 711.601 L
1250.706 711.601 L
1252.249 711.601 L
1253.903 711.601 L
1255.562 711.601 L
1257.263 711.601 L
1258.881 711.601 L
1260.5 711.601 L
1262.04 711.601 L
1263.657 711.599 L
1265.2 711.599 L
1266.814 711.599 L
1268.474 711.599 L
1270.984 711.599 L
1272.076 711.599 L
1273.653 711.599 L
1275.071 711.599 L
1276.649 711.599 L
1278.309 711.599 L
1279.887 711.597 L
1281.425 711.597 L
1283.044 711.597 L
1284.703 711.597 L
S
GR
GS
[0.75 0 0 0.75 0 0.25] CT
0 0 1 RC
2 LJ
6.667 LW
N
1284.703 711.597 M
1286.282 711.597 L
1287.942 711.599 L
1289.56 711.601 L
1291.103 711.606 L
1292.799 711.612 L
1294.377 711.619 L
1295.955 711.628 L
1297.579 711.637 L
1299.355 711.648 L
1300.933 711.661 L
1302.431 711.672 L
1304.172 711.683 L
1306.234 711.694 L
1307.451 711.703 L
1308.908 711.712 L
1310.688 711.725 L
1312.145 711.736 L
1313.804 711.749 L
1315.383 711.758 L
1317.01 711.758 L
1318.702 711.769 L
1320.24 711.798 L
1321.939 711.851 L
1323.518 711.915 L
1325.177 712.001 L
1326.959 712.112 L
1328.334 712.259 L
1329.958 712.445 L
1331.573 712.295 L
1333.353 710.396 L
1334.85 707.222 L
1336.591 703.265 L
1338.09 699.498 L
1339.828 695.284 L
1341.327 691.413 L
1342.91 687.233 L
1344.566 682.86 L
1346.143 678.197 L
1347.843 673.17 L
1349.422 667.811 L
1351.121 661.906 L
1353.185 654.875 L
1354.321 650.308 L
1355.898 643.983 L
1357.476 637.429 L
1359.217 630.597 L
1360.714 623.513 L
1362.535 616.196 L
1364.113 608.302 L
S
GR
GS
[0.75 0 0 0.75 0 0.25] CT
0 0 1 RC
2 LJ
6.667 LW
N
1364.113 608.302 M
1365.733 600.579 L
1367.23 593.062 L
1368.849 584.918 L
1370.468 576.584 L
1372.208 567.643 L
1373.949 558.933 L
1375.289 550.453 L
1377.146 541.382 L
1378.522 532.233 L
1380.222 522.468 L
1381.8 513.575 L
1383.46 504.377 L
1385.038 495.257 L
1386.945 484.913 L
1388.479 475.623 L
1389.936 466.143 L
1391.595 456.042 L
1393.133 445.855 L
1394.793 435.211 L
1396.371 425.716 L
1398.031 415.776 L
1399.61 405.812 L
1401.229 395.866 L
1402.847 386.022 L
1404.667 375.314 L
1406.207 366.684 L
1407.746 357.263 L
1409.363 348.032 L
1410.942 338.899 L
1412.641 329.386 L
1414.221 320.928 L
1415.799 312.156 L
1417.539 303.498 L
1419.036 294.98 L
1420.939 286.556 L
1422.275 280.836 L
1424.015 276.164 L
1425.513 272.637 L
1427.172 269.148 L
1428.75 265.687 L
1430.409 262.28 L
1432.109 258.959 L
1434.538 255.73 L
1435.59 252.151 L
1437.089 249.306 L
1438.586 246.557 L
1440.084 243.878 L
1441.823 241.016 L
1443.32 238.525 L
S
GR
GS
[0.75 0 0 0.75 0 0.25] CT
0 0 1 RC
2 LJ
6.667 LW
N
1443.32 238.525 M
1444.98 235.984 L
1446.68 233.55 L
1448.218 231.282 L
1449.837 229.2 L
1451.496 227.232 L
1453.318 225.189 L
1454.694 223.522 L
1456.313 221.915 L
1457.932 220.212 L
1459.512 218.739 L
1461.251 217.158 L
1462.789 215.65 L
1464.488 214.13 L
1465.986 212.591 L
1467.727 211.063 L
1469.467 209.537 L
1471.775 207.448 L
1472.826 206.353 L
1474.324 205.076 L
1475.741 203.78 L
1477.441 202.497 L
1478.938 201.267 L
1480.557 200.09 L
1482.256 198.962 L
1483.835 197.919 L
1485.618 196.928 L
1487.073 195.934 L
1488.773 194.969 L
1490.27 194.033 L
1491.93 193.11 L
1493.508 192.226 L
1495.168 191.378 L
1496.827 190.537 L
1498.406 189.795 L
1500.024 189.066 L
1501.969 188.366 L
1503.344 187.633 L
1504.963 186.977 L
1506.5 186.403 L
1508.12 185.769 L
1509.739 185.135 L
1511.398 184.559 L
1512.977 184.005 L
1514.595 183.462 L
1516.497 182.821 L
1518.076 182.311 L
1519.453 181.783 L
1521.071 181.516 L
1522.649 182.72 L
S
GR
GS
[0.75 0 0 0.75 0 0.25] CT
0 0 1 RC
2 LJ
6.667 LW
N
1522.649 182.72 M
1524.31 184.988 L
1526.05 187.578 L
1527.547 190.155 L
1529.247 192.63 L
1530.744 194.98 L
1532.444 197.281 L
1534.307 199.288 L
1535.643 201.43 L
1537.343 203.718 L
1538.88 205.748 L
1540.458 207.766 L
1542.199 209.72 L
1543.818 211.374 L
1545.558 213.26 L
1546.975 214.941 L
1548.715 216.966 L
1550.335 218.993 L
1551.751 221.555 L
1553.451 224.487 L
1555.11 227.729 L
1556.647 231.108 L
1558.347 234.539 L
1559.886 238.013 L
1561.545 241.719 L
1563.164 245.108 L
1564.702 248.723 L
1566.888 252.555 L
1567.981 256.039 L
1569.762 259.866 L
1571.3 263.351 L
1572.959 267.081 L
1574.416 270.934 L
1576.156 275.093 L
1577.694 278.964 L
1579.313 283.166 L
1580.973 287.53 L
1582.715 292.096 L
1584.17 296.758 L
1585.83 301.539 L
1587.489 306.435 L
1588.992 311.454 L
1590.687 316.763 L
1592.305 321.641 L
1593.884 326.751 L
1595.467 331.854 L
1597.85 338.839 L
1598.904 342.456 L
1600.36 347.339 L
1602.263 352.716 L
S
GR
GS
[0.75 0 0 0.75 0 0.25] CT
0 0 1 RC
2 LJ
6.667 LW
N
1602.263 352.716 M
1603.557 357.51 L
1605.298 362.788 L
1606.795 367.64 L
1608.454 372.88 L
1610.074 378.129 L
1611.692 383.389 L
1613.392 388.643 L
1614.972 393.892 L
1616.59 399.095 L
1618.169 404.256 L
1619.949 409.666 L
1621.37 414.588 L
1623.026 419.758 L
1624.684 424.927 L
1626.223 430.128 L
1627.882 435.362 L
1629.46 440.644 L
1631.242 445.977 L
1632.861 451.646 L
1634.642 457.422 L
1635.977 462.484 L
1637.717 468.362 L
1639.255 473.636 L
1640.875 479.225 L
1642.452 484.841 L
1644.031 490.414 L
1645.772 496.03 L
1647.31 501.652 L
1648.969 507.476 L
1650.588 512.674 L
1652.165 518.047 L
1653.752 523.38 L
1655.365 528.766 L
1657.146 534.189 L
1658.642 539.613 L
1660.423 544.986 L
1661.839 550.281 L
1663.622 555.714 L
1665.443 561.217 L
1667.021 565.516 L
1668.397 570.039 L
1670.096 574.411 L
1671.756 578.638 L
1673.294 582.681 L
1675.115 586.508 L
1676.532 590.163 L
1679 593.674 L
S
GR
GS
[0.75 0 0 0.75 0 0.25] CT
1 0 0 RC
[24 24] 0 setdash
2 LJ
6.667 LW
N
241 653.142 M
242.62 643.893 L
244.157 637.74 L
245.776 633.202 L
247.395 630.35 L
249.014 628.692 L
250.632 627.926 L
252.333 627.877 L
253.872 628.077 L
255.49 628.399 L
257.11 628.323 L
258.728 627.562 L
260.306 626.625 L
261.965 625.696 L
263.585 625.306 L
265.244 625.054 L
266.903 624.823 L
268.443 624.408 L
270.223 623.55 L
271.681 622.338 L
273.299 622.916 L
274.958 618.994 L
276.537 617.424 L
278.156 615.835 L
284.267 613.087 L
285.765 611.793 L
289.488 611.329 L
292.565 610.48 L
294.709 610.172 L
296.571 609.99 L
299.849 610.01 L
302.399 610.503 L
305.677 612.276 L
306.812 616.912 L
308.43 620.355 L
310.09 624.589 L
311.668 629.54 L
313.368 634.989 L
314.986 640.381 L
316.686 646.379 L
318.224 653.134 L
319.763 659.46 L
321.462 666.501 L
323 672.987 L
324.66 679.068 L
326.32 684.589 L
327.938 689.523 L
329.76 694.095 L
331.177 697.712 L
332.876 700.993 L
334.333 703.752 L
336.074 706.01 L
337.733 707.853 L
339.231 709.362 L
340.891 710.614 L
342.59 711.655 L
344.128 712.517 L
345.666 713.228 L
347.285 713.81 L
349.106 714.284 L
350.522 714.654 L
352.141 714.982 L
353.841 715.258 L
355.46 715.499 L
357.082 715.716 L
358.7 715.917 L
360.237 716.114 L
362.098 716.323 L
363.678 716.558 L
365.256 716.779 L
366.874 717.025 L
368.494 717.301 L
370.112 717.602 L
372.096 717.928 L
373.188 718.151 L
374.969 718.42 L
376.548 718.67 L
378.207 718.896 L
379.827 719.095 L
381.445 719.267 L
383.064 719.417 L
384.602 719.54 L
386.221 719.643 L
387.88 719.73 L
389.379 719.803 L
391.2 719.865 L
392.779 719.918 L
394.478 719.965 L
396.016 720.009 L
397.675 720.045 L
399.173 720.079 L
400.832 720.111 L
402.492 720.141 L
403.99 720.167 L
405.608 720.194 L
407.228 720.216 L
408.806 720.237 L
410.505 720.256 L
412.043 720.273 L
413.824 720.29 L
415.402 720.303 L
416.941 720.315 L
418.559 720.326 L
420.219 720.337 L
421.878 720.348 L
423.416 720.358 L
424.956 720.367 L
426.777 720.377 L
428.354 720.386 L
430.053 720.396 L
431.593 720.406 L
433.212 720.415 L
434.831 720.425 L
436.45 720.434 L
437.947 720.442 L
439.687 720.45 L
441.185 720.458 L
442.925 720.465 L
444.504 720.472 L
446.203 720.479 L
447.783 720.484 L
449.362 720.489 L
451.02 720.494 L
453.611 720.498 L
454.663 720.502 L
455.837 720.505 L
457.495 720.507 L
459.238 720.51 L
460.815 720.513 L
462.433 720.515 L
463.851 720.517 L
465.753 720.518 L
467.21 720.52 L
468.707 720.521 L
470.407 720.523 L
472.067 720.524 L
473.766 720.525 L
475.304 720.526 L
476.842 720.526 L
478.623 720.527 L
480.162 720.528 L
481.659 720.528 L
483.399 720.529 L
484.977 720.529 L
486.638 720.529 L
488.216 720.53 L
489.835 720.53 L
491.493 720.53 L
492.992 720.53 L
494.853 720.531 L
496.23 720.531 L
498.942 720.531 L
500.115 720.531 L
501.087 720.531 L
502.786 720.531 L
504.486 720.531 L
506.065 720.532 L
507.562 720.532 L
509.342 720.532 L
511.004 720.532 L
512.541 720.532 L
514.2 720.532 L
515.818 720.532 L
517.519 720.532 L
519.057 720.532 L
520.675 720.532 L
522.294 720.532 L
523.873 720.532 L
525.573 720.532 L
527.232 720.532 L
528.772 720.532 L
530.47 720.532 L
532.171 720.532 L
533.627 720.532 L
535.732 720.532 L
536.865 720.532 L
538.484 720.532 L
540.103 720.532 L
541.722 720.532 L
543.503 720.532 L
544.96 720.532 L
546.661 720.532 L
548.198 720.532 L
549.817 720.532 L
551.395 720.532 L
553.014 720.532 L
554.672 720.532 L
556.254 720.532 L
557.912 720.532 L
559.53 720.532 L
561.231 720.532 L
562.85 720.532 L
564.469 720.532 L
565.966 720.532 L
567.706 720.532 L
569.244 720.532 L
570.863 720.532 L
572.482 720.532 L
574.102 720.532 L
575.882 720.532 L
577.177 720.532 L
578.958 720.532 L
580.578 720.532 L
582.034 720.532 L
583.734 720.532 L
585.272 720.532 L
587.012 720.532 L
588.51 720.532 L
590.533 720.532 L
591.99 720.532 L
593.366 720.532 L
595.229 720.532 L
596.767 720.532 L
598.387 720.532 L
600.004 720.532 L
601.664 720.532 L
603.08 720.532 L
604.781 720.532 L
606.561 720.532 L
608.18 720.532 L
609.557 720.532 L
611.175 720.532 L
612.876 720.532 L
614.414 720.532 L
616.842 720.532 L
617.975 720.532 L
619.351 720.532 L
620.889 720.532 L
622.913 720.532 L
624.127 720.532 L
625.909 695.906 L
627.568 682.837 L
629.066 668.551 L
630.806 653.287 L
632.222 636.408 L
633.962 619.914 L
635.46 603.129 L
637.16 585.165 L
638.859 566.113 L
640.398 547.628 L
642.017 532.268 L
643.555 516.573 L
645.335 500.88 L
646.793 487.663 L
648.573 476.115 L
650.112 464.506 L
651.811 451.345 L
653.349 437.809 L
655.211 426.73 L
656.506 416.766 L
658.126 401.664 L
659.947 385.085 L
661.404 370.096 L
663.104 357.702 L
664.601 346.126 L
666.301 336.051 L
667.92 324.524 L
669.459 312.361 L
671.077 301.654 L
672.776 292.212 L
674.435 292.212 L
675.934 283.809 L
677.634 283.809 L
679.293 275.987 L
680.792 268.329 L
682.531 268.329 L
683.988 254.698 L
685.688 254.698 L
687.388 246.966 L
689.047 246.966 L
690.626 239.495 L
692.205 232.53 L
693.864 232.53 L
695.483 226.28 L
696.94 226.28 L
699.652 209.427 L
700.785 204.259 L
701.999 198.986 L
703.456 194.226 L
705.237 189.344 L
706.734 185.512 L
708.279 176.18 L
709.892 172.373 L
711.511 168.905 L
713.13 164.54 L
714.754 160.605 L
716.408 156.054 L
718.027 151.865 L
719.848 148.407 L
721.305 145.167 L
722.844 145.167 L
724.543 145.167 L
726.163 145.167 L
727.706 145.167 L
729.441 145.167 L
730.938 145.167 L
732.598 145.167 L
734.181 145.167 L
736.118 145.167 L
737.414 145.167 L
739.235 145.167 L
740.656 145.167 L
742.271 145.167 L
743.89 145.167 L
745.55 145.167 L
747.168 145.167 L
748.746 145.167 L
750.366 145.167 L
751.984 145.167 L
753.684 145.167 L
755.223 145.167 L
756.963 145.167 L
758.501 145.167 L
760.084 145.167 L
761.82 145.167 L
763.317 145.167 L
764.937 145.167 L
766.636 145.167 L
768.255 145.167 L
769.873 145.167 L
771.614 145.167 L
773.112 145.167 L
774.69 145.167 L
776.471 145.167 L
777.889 145.167 L
780.681 145.167 L
781.814 145.167 L
783.069 145.167 L
784.647 145.167 L
786.144 145.167 L
787.642 145.167 L
789.383 145.167 L
791.001 145.167 L
792.499 145.167 L
794.402 145.167 L
795.737 145.167 L
797.437 145.167 L
798.94 145.167 L
800.634 145.167 L
802.212 145.167 L
803.953 145.167 L
805.612 145.167 L
807.11 145.167 L
808.931 145.167 L
810.43 145.167 L
812.007 145.167 L
813.626 145.167 L
815.245 145.167 L
816.824 145.167 L
818.564 145.167 L
820.264 145.167 L
821.883 145.167 L
823.504 145.167 L
824.96 145.167 L
826.781 145.167 L
828.238 145.167 L
829.736 145.167 L
831.476 145.167 L
833.095 145.167 L
834.754 145.167 L
836.333 145.167 L
838.114 145.452 L
839.53 150.736 L
841.15 158.718 L
842.767 164.086 L
844.387 170.424 L
846.005 177.381 L
847.665 186.279 L
849.324 194.424 L
851.064 202.722 L
852.482 212.148 L
854.061 221.788 L
855.761 233.416 L
857.541 246.072 L
858.877 256.913 L
860.495 264.911 L
863.005 277.806 L
864.097 295.654 L
865.393 295.654 L
867.052 309.663 L
868.63 316.655 L
870.25 324.452 L
871.868 332.975 L
873.446 342.289 L
875.067 351.033 L
876.686 361.533 L
878.425 371.162 L
879.963 379.435 L
881.623 387.203 L
883.444 395.383 L
884.901 404.87 L
886.44 415.208 L
888.058 425.421 L
889.678 434.29 L
891.417 442.305 L
892.956 448.758 L
894.736 455.874 L
896.194 462.667 L
897.812 469.436 L
899.431 475.843 L
901.09 482.75 L
902.588 488.687 L
904.248 494.388 L
905.866 499.857 L
907.527 504.564 L
909.105 509.472 L
910.765 514.154 L
912.423 520.17 L
914.002 525.895 L
915.863 531.613 L
917.32 543.731 L
918.778 548.681 L
920.438 552.902 L
922.219 556.546 L
923.675 559.858 L
925.376 563.655 L
926.873 567.625 L
928.735 571.225 L
930.151 575.066 L
931.77 578.773 L
933.471 581.697 L
935.008 584.988 L
936.668 588.2 L
938.327 591.484 L
939.986 595.457 L
941.443 599.348 L
943.953 603.349 L
945.046 609.124 L
946.34 612.8 L
948.243 612.8 L
949.661 617.697 L
951.238 621.107 L
952.776 624.261 L
954.678 626.902 L
956.054 626.967 L
957.795 611.231 L
959.292 607.15 L
960.911 605.646 L
962.53 605.631 L
964.189 605.998 L
966.093 606.156 L
967.387 606.09 L
968.966 605.982 L
970.585 605.847 L
972.324 605.706 L
973.822 605.619 L
975.562 605.583 L
977.061 605.569 L
978.638 605.558 L
980.582 605.55 L
981.956 605.546 L
984.71 605.546 L
985.844 605.55 L
987.099 605.555 L
988.476 605.56 L
990.093 605.566 L
991.672 605.574 L
993.29 605.582 L
994.95 605.593 L
996.488 605.606 L
998.433 605.562 L
999.847 605.552 L
1001.427 605.657 L
1003.046 605.785 L
1004.625 605.876 L
1006.167 605.93 L
1007.78 605.95 L
1009.561 605.953 L
1011.058 605.995 L
1012.96 606.156 L
1014.417 606.695 L
1015.957 607.822 L
1017.575 608.578 L
1019.195 608.578 L
1020.812 608.578 L
1022.513 608.578 L
1024.131 608.578 L
1026.44 608.578 L
1027.612 608.578 L
1028.827 608.578 L
1030.607 608.578 L
1032.073 608.578 L
1033.684 608.578 L
1035.303 608.578 L
1037.003 608.578 L
1038.702 608.578 L
1040.159 608.578 L
1041.859 608.578 L
1043.397 608.578 L
1045.097 608.578 L
1046.715 608.578 L
1048.255 608.578 L
1049.954 608.578 L
1051.573 608.578 L
1053.476 608.578 L
1054.852 608.578 L
1056.552 608.578 L
1057.97 608.578 L
1059.669 608.578 L
1061.286 608.578 L
1063.027 607.171 L
1064.449 605.555 L
1066.144 606.952 L
1067.844 611.853 L
1069.382 619.738 L
1071.082 629.415 L
1072.579 638.87 L
1074.239 648.1 L
1075.776 655.726 L
1077.398 663.086 L
1079.215 670.778 L
1080.715 678.021 L
1082.455 684.762 L
1083.993 690.753 L
1085.773 695.841 L
1087.15 699.841 L
1088.889 703.443 L
1090.387 706.081 L
1092.087 708.44 L
1093.585 710.115 L
1095.534 711.592 L
1097.026 712.723 L
1098.483 713.636 L
1100.264 714.485 L
1101.72 715.117 L
1103.461 715.689 L
1104.959 716.108 L
1107.469 716.478 L
1108.601 716.79 L
1109.816 716.991 L
1111.717 717.2 L
1113.055 717.365 L
1114.916 717.52 L
1116.373 717.68 L
1117.991 717.837 L
1119.53 717.99 L
1121.23 718.16 L
1122.768 718.322 L
1124.467 718.513 L
1126.248 718.708 L
1127.664 718.878 L
1129.243 719.062 L
1130.862 719.238 L
1132.562 719.41 L
1134.141 719.547 L
1135.8 719.681 L
1137.419 719.792 L
1138.957 719.882 L
1140.656 719.96 L
1142.235 720.027 L
1144.137 720.089 L
1145.432 720.131 L
1147.34 720.173 L
1148.711 720.205 L
1150.33 720.233 L
1152.151 720.26 L
1153.527 720.278 L
1155.268 720.297 L
1156.765 720.313 L
1158.505 720.329 L
1160.165 720.343 L
1161.703 720.358 L
1163.281 720.371 L
1164.9 720.384 L
1166.478 720.396 L
1168.139 720.409 L
1169.838 720.42 L
1171.377 720.431 L
1172.995 720.441 L
1174.614 720.45 L
1176.556 720.459 L
1177.894 720.465 L
1179.553 720.471 L
1181.09 720.476 L
1182.709 720.481 L
1184.409 720.486 L
1185.946 720.49 L
1187.606 720.493 L
1189.671 720.498 L
1190.884 720.5 L
1192.503 720.503 L
1194.042 720.506 L
1195.661 720.509 L
1197.279 720.512 L
1198.979 720.514 L
1200.477 720.516 L
1202.217 720.518 L
1203.755 720.52 L
1205.455 720.522 L
1206.993 720.523 L
1208.936 720.524 L
1210.191 720.525 L
1211.852 720.526 L
1213.591 720.527 L
1215.128 720.528 L
1216.79 720.528 L
1218.327 720.529 L
1220.027 720.529 L
1221.564 720.53 L
1223.183 720.53 L
1224.924 720.53 L
1226.421 720.531 L
1228.08 720.531 L
1229.66 720.531 L
1231.237 720.531 L
1232.856 720.532 L
1234.597 720.532 L
1236.135 720.532 L
1237.754 720.532 L
1239.373 720.532 L
1241.274 720.532 L
1242.692 720.532 L
1244.23 720.532 L
1246.091 720.532 L
1247.468 720.532 L
1249.168 720.532 L
1250.706 720.532 L
1252.249 720.532 L
1253.903 720.532 L
1255.562 720.532 L
1257.263 720.532 L
1258.881 720.532 L
1260.5 720.532 L
1262.04 720.532 L
1263.657 720.532 L
1265.2 720.532 L
1266.814 720.532 L
1268.474 720.532 L
1270.984 720.532 L
1272.076 720.532 L
1273.653 720.532 L
1275.071 720.532 L
1276.649 720.532 L
1278.309 720.532 L
1279.887 720.532 L
1281.425 720.532 L
1283.044 720.532 L
1284.703 720.532 L
1286.282 720.532 L
1287.942 720.532 L
1289.56 720.532 L
1291.103 720.532 L
1292.799 720.532 L
1294.377 720.532 L
1295.955 720.532 L
1297.579 720.532 L
1299.355 720.532 L
1300.933 720.532 L
1302.431 720.532 L
1304.172 720.532 L
1306.234 720.532 L
1307.451 720.532 L
1308.908 720.532 L
1310.688 720.532 L
1312.145 720.532 L
1313.804 720.535 L
1315.383 720.535 L
1317.01 720.535 L
1318.702 720.535 L
1320.24 720.535 L
1321.939 720.535 L
1323.518 720.535 L
1325.177 720.535 L
1326.959 720.535 L
1328.334 720.535 L
1329.958 720.252 L
1331.573 711.365 L
1333.353 702.901 L
1334.85 694.082 L
1336.591 682.92 L
1338.09 670.188 L
1339.828 657.913 L
1341.327 644.847 L
1342.91 632.575 L
1344.566 619.519 L
1346.143 606.248 L
1347.843 596.772 L
1349.422 586.117 L
1351.121 571.77 L
1353.185 552.662 L
1354.321 552.662 L
1355.898 532.326 L
1357.476 519.377 L
1359.217 503.234 L
1360.714 489.515 L
1362.535 478.007 L
1364.113 464.088 L
1365.733 446.812 L
1367.23 432.465 L
1368.849 418.876 L
1370.468 406.359 L
1372.208 389.447 L
1373.949 375.04 L
1375.289 367.095 L
1377.146 352.059 L
1378.522 345.169 L
1380.222 346.799 L
1381.8 337.527 L
1383.46 312.495 L
1385.038 289.968 L
1386.945 273.646 L
1388.479 259.27 L
1389.936 249.879 L
1391.595 245.892 L
1393.133 239.859 L
1394.793 230.977 L
1396.371 220.956 L
1398.031 212.002 L
1399.61 206.011 L
1401.229 202.536 L
1402.847 198.725 L
1404.667 193.189 L
1406.207 193.189 L
1407.746 181.959 L
1409.363 176.789 L
1410.942 172.36 L
1412.641 167.61 L
1414.221 162.242 L
1415.799 156.847 L
1417.539 152.922 L
1419.036 145.167 L
1420.939 145.167 L
1422.275 145.167 L
1424.015 145.167 L
1425.513 145.167 L
1427.172 145.167 L
1428.75 145.167 L
1430.409 145.167 L
1432.109 145.167 L
1434.538 145.167 L
1435.59 145.167 L
1437.089 145.167 L
1438.586 145.167 L
1440.084 145.167 L
1441.823 145.167 L
1443.32 145.167 L
1444.98 145.167 L
1446.68 145.167 L
1448.218 145.167 L
1449.837 145.167 L
1451.496 145.167 L
1453.318 145.167 L
1454.694 145.167 L
1456.313 145.167 L
1457.932 145.167 L
1459.512 145.167 L
1461.251 145.167 L
1462.789 145.167 L
1464.488 145.167 L
1465.986 145.167 L
1467.727 145.167 L
1469.467 145.167 L
1471.775 145.167 L
1472.826 145.167 L
1474.324 145.167 L
1475.741 145.167 L
1477.441 145.167 L
1478.938 145.167 L
1480.557 145.167 L
1482.256 145.167 L
1483.835 145.167 L
1485.618 145.167 L
1487.073 145.167 L
1488.773 145.167 L
1490.27 145.167 L
1491.93 145.167 L
1493.508 145.167 L
1495.168 145.167 L
1496.827 145.167 L
1498.406 145.167 L
1500.024 145.167 L
1501.969 145.167 L
1503.344 145.167 L
1504.963 145.167 L
1506.5 145.167 L
1508.12 145.167 L
1509.739 145.167 L
1511.398 145.167 L
1512.977 145.167 L
1514.595 145.167 L
1516.497 145.167 L
1518.076 145.167 L
1519.453 148.456 L
1521.071 152.323 L
1522.649 152.323 L
1524.31 159.222 L
1526.05 162.06 L
1527.547 164.786 L
1529.247 164.897 L
1530.744 164.897 L
1532.444 169.764 L
1534.307 172.052 L
1535.643 173.963 L
1537.343 175.349 L
1538.88 175.243 L
1540.458 175.667 L
1542.199 177.826 L
1543.818 179.272 L
1545.558 182.04 L
1546.975 187.421 L
1548.715 192.211 L
1550.335 197.107 L
1551.751 202.583 L
1553.451 207.331 L
1555.11 212.868 L
1556.647 218.496 L
1558.347 223.281 L
1559.886 227.82 L
1561.545 234.647 L
1563.164 237.14 L
1564.702 238.482 L
1566.888 238.482 L
1567.981 245.823 L
1569.762 251.429 L
1571.3 260.034 L
1572.959 267.453 L
1574.416 276.103 L
1576.156 286.503 L
1577.694 296.747 L
1579.313 310.346 L
1580.973 310.346 L
1582.715 323.492 L
1584.17 331.982 L
1585.83 343.447 L
1587.489 343.447 L
1588.992 356.034 L
1590.687 356.034 L
1592.305 362.51 L
1593.884 369.45 L
1595.467 369.45 L
1597.85 376.949 L
1598.904 381.762 L
1600.36 381.762 L
1602.263 390.035 L
1603.557 397.663 L
1605.298 409.99 L
1606.795 409.99 L
1608.454 420.516 L
1610.074 420.516 L
1611.692 428.045 L
1613.392 432.224 L
1614.972 435.781 L
1616.59 441.001 L
1618.169 445.391 L
1619.949 450.556 L
1621.37 456.211 L
1623.026 462.102 L
1624.684 468.708 L
1626.223 475.625 L
1627.882 483.288 L
1629.46 489.62 L
1631.242 500.245 L
1632.861 510.966 L
1634.642 510.966 L
1635.977 519.795 L
1637.717 525.721 L
1639.255 530.731 L
1640.875 534.473 L
1642.452 543.689 L
1644.031 546.831 L
1645.772 551.018 L
1647.31 555.337 L
1648.969 559.917 L
1650.588 565.292 L
1652.165 568.847 L
1653.752 577.322 L
1655.365 583.22 L
1657.146 589.04 L
1658.642 594.514 L
1660.423 598.763 L
1661.839 601.282 L
1663.622 605.82 L
1665.443 608.883 L
1667.021 612.912 L
1668.397 616.407 L
1670.096 619.056 L
1671.756 621.304 L
1673.294 623.793 L
1675.115 626.755 L
1676.532 626.967 L
1679 634.227 L
S
GR
GS
[0.75 0 0 0.75 378.5625 664.12502] CT
/Helvetica 48 F
GS
[1 0 0 1 0 0] CT
0 16.5 moveto 
1 -1 scale
(Actual) t 
GR
GR
GS
[0.75 0 0 0.75 0 0.25] CT
0 0 1 RC
2 setlinecap
10.0 ML
6.667 LW
N
460.962 885.167 M
500.769 885.167 L
S
GR
GS
[0.75 0 0 0.75 922.5 664.12502] CT
/Helvetica 48 F
GS
[1 0 0 1 0 0] CT
0 16.5 moveto 
1 -1 scale
(Desired) t 
GR
GR
GS
[0.75 0 0 0.75 0 0.25] CT
1 0 0 RC
[24 24] 0 setdash
2 LJ
6.667 LW
N
1186 885.167 M
1226 885.167 L
S
GR
%%Trailer
%%Pages: 1
%%EOF
