%!PS-Adobe-3.0 EPSF-3.0
%%Creator: (MATLAB, The Mathworks, Inc. Version 8.5.0.197613 \(R2015a\). Operating System: Linux)
%%Title: (/home/victor/ampro/AMPRO II/Upslope Walking/figures/Thesis/FlatgroundNonSplines/KneeTracking.eps)
%%CreationDate: 2016-02-19T15:21:06
%%Pages: (atend)
%%BoundingBox: 0 0 1391 751
%%LanguageLevel: 2
%%EndComments
%%BeginProlog
%%BeginResource: procset (Apache XML Graphics Std ProcSet) 1.2 0
%%Version: 1.2 0
%%Copyright: (Copyright 2001-2003,2010 The Apache Software Foundation. License terms: http://www.apache.org/licenses/LICENSE-2.0)
/bd{bind def}bind def
/ld{load def}bd
/GR/grestore ld
/M/moveto ld
/LJ/setlinejoin ld
/C/curveto ld
/f/fill ld
/LW/setlinewidth ld
/GC/setgray ld
/t/show ld
/N/newpath ld
/CT/concat ld
/cp/closepath ld
/S/stroke ld
/L/lineto ld
/CC/setcmykcolor ld
/A/ashow ld
/GS/gsave ld
/RC/setrgbcolor ld
/RM/rmoveto ld
/ML/setmiterlimit ld
/re {4 2 roll M
1 index 0 rlineto
0 exch rlineto
neg 0 rlineto
cp } bd
/_ctm matrix def
/_tm matrix def
/BT { _ctm currentmatrix pop matrix _tm copy pop 0 0 moveto } bd
/ET { _ctm setmatrix } bd
/iTm { _ctm setmatrix _tm concat } bd
/Tm { _tm astore pop iTm 0 0 moveto } bd
/ux 0.0 def
/uy 0.0 def
/F {
  /Tp exch def
  /Tf exch def
  Tf findfont Tp scalefont setfont
  /cf Tf def  /cs Tp def
} bd
/ULS {currentpoint /uy exch def /ux exch def} bd
/ULE {
  /Tcx currentpoint pop def
  gsave
  newpath
  cf findfont cs scalefont dup
  /FontMatrix get 0 get /Ts exch def /FontInfo get dup
  /UnderlinePosition get Ts mul /To exch def
  /UnderlineThickness get Ts mul /Tt exch def
  ux uy To add moveto  Tcx uy To add lineto
  Tt setlinewidth stroke
  grestore
} bd
/OLE {
  /Tcx currentpoint pop def
  gsave
  newpath
  cf findfont cs scalefont dup
  /FontMatrix get 0 get /Ts exch def /FontInfo get dup
  /UnderlinePosition get Ts mul /To exch def
  /UnderlineThickness get Ts mul /Tt exch def
  ux uy To add cs add moveto Tcx uy To add cs add lineto
  Tt setlinewidth stroke
  grestore
} bd
/SOE {
  /Tcx currentpoint pop def
  gsave
  newpath
  cf findfont cs scalefont dup
  /FontMatrix get 0 get /Ts exch def /FontInfo get dup
  /UnderlinePosition get Ts mul /To exch def
  /UnderlineThickness get Ts mul /Tt exch def
  ux uy To add cs 10 mul 26 idiv add moveto Tcx uy To add cs 10 mul 26 idiv add lineto
  Tt setlinewidth stroke
  grestore
} bd
/QT {
/Y22 exch store
/X22 exch store
/Y21 exch store
/X21 exch store
currentpoint
/Y21 load 2 mul add 3 div exch
/X21 load 2 mul add 3 div exch
/X21 load 2 mul /X22 load add 3 div
/Y21 load 2 mul /Y22 load add 3 div
/X22 load /Y22 load curveto
} bd
/SSPD {
dup length /d exch dict def
{
/v exch def
/k exch def
currentpagedevice k known {
/cpdv currentpagedevice k get def
v cpdv ne {
/upd false def
/nullv v type /nulltype eq def
/nullcpdv cpdv type /nulltype eq def
nullv nullcpdv or
{
/upd true def
} {
/sametype v type cpdv type eq def
sametype {
v type /arraytype eq {
/vlen v length def
/cpdvlen cpdv length def
vlen cpdvlen eq {
0 1 vlen 1 sub {
/i exch def
/obj v i get def
/cpdobj cpdv i get def
obj cpdobj ne {
/upd true def
exit
} if
} for
} {
/upd true def
} ifelse
} {
v type /dicttype eq {
v {
/dv exch def
/dk exch def
/cpddv cpdv dk get def
dv cpddv ne {
/upd true def
exit
} if
} forall
} {
/upd true def
} ifelse
} ifelse
} if
} ifelse
upd true eq {
d k v put
} if
} if
} if
} forall
d length 0 gt {
d setpagedevice
} if
} bd
%%EndResource
%%BeginResource: procset (Apache XML Graphics EPS ProcSet) 1.0 0
%%Version: 1.0 0
%%Copyright: (Copyright 2002-2003 The Apache Software Foundation. License terms: http://www.apache.org/licenses/LICENSE-2.0)
/BeginEPSF { %def
/b4_Inc_state save def         % Save state for cleanup
/dict_count countdictstack def % Count objects on dict stack
/op_count count 1 sub def      % Count objects on operand stack
userdict begin                 % Push userdict on dict stack
/showpage { } def              % Redefine showpage, { } = null proc
0 setgray 0 setlinecap         % Prepare graphics state
1 setlinewidth 0 setlinejoin
10 setmiterlimit [ ] 0 setdash newpath
/languagelevel where           % If level not equal to 1 then
{pop languagelevel             % set strokeadjust and
1 ne                           % overprint to their defaults.
{false setstrokeadjust false setoverprint
} if
} if
} bd
/EndEPSF { %def
count op_count sub {pop} repeat            % Clean up stacks
countdictstack dict_count sub {end} repeat
b4_Inc_state restore
} bd
%%EndResource
%FOPBeginFontDict
%%IncludeResource: font Courier-Bold
%%IncludeResource: font Helvetica
%%IncludeResource: font Courier-BoldOblique
%%IncludeResource: font Courier-Oblique
%%IncludeResource: font Times-Roman
%%IncludeResource: font Helvetica-BoldOblique
%%IncludeResource: font Helvetica-Bold
%%IncludeResource: font Helvetica-Oblique
%%IncludeResource: font Times-BoldItalic
%%IncludeResource: font Courier
%%IncludeResource: font Times-Italic
%%IncludeResource: font Times-Bold
%%IncludeResource: font Symbol
%%IncludeResource: font ZapfDingbats
%FOPEndFontDict
%%BeginResource: encoding WinAnsiEncoding
/WinAnsiEncoding [
/.notdef /.notdef /.notdef /.notdef /.notdef
/.notdef /.notdef /.notdef /.notdef /.notdef
/.notdef /.notdef /.notdef /.notdef /.notdef
/.notdef /.notdef /.notdef /.notdef /.notdef
/.notdef /.notdef /.notdef /.notdef /.notdef
/.notdef /.notdef /.notdef /.notdef /.notdef
/.notdef /.notdef /space /exclam /quotedbl
/numbersign /dollar /percent /ampersand /quotesingle
/parenleft /parenright /asterisk /plus /comma
/hyphen /period /slash /zero /one
/two /three /four /five /six
/seven /eight /nine /colon /semicolon
/less /equal /greater /question /at
/A /B /C /D /E
/F /G /H /I /J
/K /L /M /N /O
/P /Q /R /S /T
/U /V /W /X /Y
/Z /bracketleft /backslash /bracketright /asciicircum
/underscore /quoteleft /a /b /c
/d /e /f /g /h
/i /j /k /l /m
/n /o /p /q /r
/s /t /u /v /w
/x /y /z /braceleft /bar
/braceright /asciitilde /bullet /Euro /bullet
/quotesinglbase /florin /quotedblbase /ellipsis /dagger
/daggerdbl /circumflex /perthousand /Scaron /guilsinglleft
/OE /bullet /Zcaron /bullet /bullet
/quoteleft /quoteright /quotedblleft /quotedblright /bullet
/endash /emdash /asciitilde /trademark /scaron
/guilsinglright /oe /bullet /zcaron /Ydieresis
/space /exclamdown /cent /sterling /currency
/yen /brokenbar /section /dieresis /copyright
/ordfeminine /guillemotleft /logicalnot /sfthyphen /registered
/macron /degree /plusminus /twosuperior /threesuperior
/acute /mu /paragraph /middot /cedilla
/onesuperior /ordmasculine /guillemotright /onequarter /onehalf
/threequarters /questiondown /Agrave /Aacute /Acircumflex
/Atilde /Adieresis /Aring /AE /Ccedilla
/Egrave /Eacute /Ecircumflex /Edieresis /Igrave
/Iacute /Icircumflex /Idieresis /Eth /Ntilde
/Ograve /Oacute /Ocircumflex /Otilde /Odieresis
/multiply /Oslash /Ugrave /Uacute /Ucircumflex
/Udieresis /Yacute /Thorn /germandbls /agrave
/aacute /acircumflex /atilde /adieresis /aring
/ae /ccedilla /egrave /eacute /ecircumflex
/edieresis /igrave /iacute /icircumflex /idieresis
/eth /ntilde /ograve /oacute /ocircumflex
/otilde /odieresis /divide /oslash /ugrave
/uacute /ucircumflex /udieresis /yacute /thorn
/ydieresis
] def
%%EndResource
%FOPBeginFontReencode
/Courier-Bold findfont
dup length dict begin
  {1 index /FID ne {def} {pop pop} ifelse} forall
  /Encoding WinAnsiEncoding def
  currentdict
end
/Courier-Bold exch definefont pop
/Helvetica findfont
dup length dict begin
  {1 index /FID ne {def} {pop pop} ifelse} forall
  /Encoding WinAnsiEncoding def
  currentdict
end
/Helvetica exch definefont pop
/Courier-BoldOblique findfont
dup length dict begin
  {1 index /FID ne {def} {pop pop} ifelse} forall
  /Encoding WinAnsiEncoding def
  currentdict
end
/Courier-BoldOblique exch definefont pop
/Courier-Oblique findfont
dup length dict begin
  {1 index /FID ne {def} {pop pop} ifelse} forall
  /Encoding WinAnsiEncoding def
  currentdict
end
/Courier-Oblique exch definefont pop
/Times-Roman findfont
dup length dict begin
  {1 index /FID ne {def} {pop pop} ifelse} forall
  /Encoding WinAnsiEncoding def
  currentdict
end
/Times-Roman exch definefont pop
/Helvetica-BoldOblique findfont
dup length dict begin
  {1 index /FID ne {def} {pop pop} ifelse} forall
  /Encoding WinAnsiEncoding def
  currentdict
end
/Helvetica-BoldOblique exch definefont pop
/Helvetica-Bold findfont
dup length dict begin
  {1 index /FID ne {def} {pop pop} ifelse} forall
  /Encoding WinAnsiEncoding def
  currentdict
end
/Helvetica-Bold exch definefont pop
/Helvetica-Oblique findfont
dup length dict begin
  {1 index /FID ne {def} {pop pop} ifelse} forall
  /Encoding WinAnsiEncoding def
  currentdict
end
/Helvetica-Oblique exch definefont pop
/Times-BoldItalic findfont
dup length dict begin
  {1 index /FID ne {def} {pop pop} ifelse} forall
  /Encoding WinAnsiEncoding def
  currentdict
end
/Times-BoldItalic exch definefont pop
/Courier findfont
dup length dict begin
  {1 index /FID ne {def} {pop pop} ifelse} forall
  /Encoding WinAnsiEncoding def
  currentdict
end
/Courier exch definefont pop
/Times-Italic findfont
dup length dict begin
  {1 index /FID ne {def} {pop pop} ifelse} forall
  /Encoding WinAnsiEncoding def
  currentdict
end
/Times-Italic exch definefont pop
/Times-Bold findfont
dup length dict begin
  {1 index /FID ne {def} {pop pop} ifelse} forall
  /Encoding WinAnsiEncoding def
  currentdict
end
/Times-Bold exch definefont pop
%FOPEndFontReencode
%%EndProlog
%%Page: 1 1
%%PageBoundingBox: 0 0 1391 751
%%BeginPageSetup
[1 0 0 -1 0 751] CT
%%EndPageSetup
GS
[0.75 0 0 0.75 0 0.25] CT
N
0 0 M
1855 0 L
1855 1001 L
0 1001 L
0 0 L
cp
clip
1 GC
N
0 0 1855 1001 re
f
GR
GS
[0.75 0 0 0.75 0 0.25] CT
1 GC
N
0 0 1855 1001 re
f
GR
GS
[0.75 0 0 0.75 0 0.25] CT
1 GC
N
241 721 M
1679 721 L
1679 30 L
241 30 L
cp
f
GR
GS
[0.75 0 0 0.75 0 0.25] CT
0.873 GC
2 setlinecap
10.0 ML
N
241 721 M
241 30 L
S
GR
GS
[0.75 0 0 0.75 0 0.25] CT
0.873 GC
2 setlinecap
10.0 ML
N
565.788 721 M
565.788 30 L
S
GR
GS
[0.75 0 0 0.75 0 0.25] CT
0.873 GC
2 setlinecap
10.0 ML
N
890.576 721 M
890.576 30 L
S
GR
GS
[0.75 0 0 0.75 0 0.25] CT
0.873 GC
2 setlinecap
10.0 ML
N
1215.364 721 M
1215.364 30 L
S
GR
GS
[0.75 0 0 0.75 0 0.25] CT
0.873 GC
2 setlinecap
10.0 ML
N
1540.152 721 M
1540.152 30 L
S
GR
GS
[0.75 0 0 0.75 0 0.25] CT
0.873 GC
2 setlinecap
10.0 ML
N
1679 721 M
241 721 L
S
GR
GS
[0.75 0 0 0.75 0 0.25] CT
0.873 GC
2 setlinecap
10.0 ML
N
1679 605.833 M
241 605.833 L
S
GR
GS
[0.75 0 0 0.75 0 0.25] CT
0.873 GC
2 setlinecap
10.0 ML
N
1679 490.667 M
241 490.667 L
S
GR
GS
[0.75 0 0 0.75 0 0.25] CT
0.873 GC
2 setlinecap
10.0 ML
N
1679 375.5 M
241 375.5 L
S
GR
GS
[0.75 0 0 0.75 0 0.25] CT
0.873 GC
2 setlinecap
10.0 ML
N
1679 260.333 M
241 260.333 L
S
GR
GS
[0.75 0 0 0.75 0 0.25] CT
0.873 GC
2 setlinecap
10.0 ML
N
1679 145.167 M
241 145.167 L
S
GR
GS
[0.75 0 0 0.75 0 0.25] CT
0.873 GC
2 setlinecap
10.0 ML
N
1679 30 M
241 30 L
S
GR
GS
[0.75 0 0 0.75 720.0005 599.25002] CT
0.149 GC
/Helvetica 59 F
GS
[1 0 0 1 0 0] CT
-121 55 moveto 
1 -1 scale
(Time \(s\)) t 
GR
GR
GS
[0.75 0 0 0.75 0 0.25] CT
0.149 GC
2 setlinecap
10.0 ML
N
241 721 M
1679 721 L
S
GR
GS
[0.75 0 0 0.75 0 0.25] CT
0.149 GC
2 setlinecap
10.0 ML
N
241 30 M
1679 30 L
S
GR
GS
[0.75 0 0 0.75 0 0.25] CT
0.149 GC
2 setlinecap
10.0 ML
N
241 721 M
241 706.62 L
S
GR
GS
[0.75 0 0 0.75 0 0.25] CT
0.149 GC
2 setlinecap
10.0 ML
N
565.788 721 M
565.788 706.62 L
S
GR
GS
[0.75 0 0 0.75 0 0.25] CT
0.149 GC
2 setlinecap
10.0 ML
N
890.576 721 M
890.576 706.62 L
S
GR
GS
[0.75 0 0 0.75 0 0.25] CT
0.149 GC
2 setlinecap
10.0 ML
N
1215.364 721 M
1215.364 706.62 L
S
GR
GS
[0.75 0 0 0.75 0 0.25] CT
0.149 GC
2 setlinecap
10.0 ML
N
1540.152 721 M
1540.152 706.62 L
S
GR
GS
[0.75 0 0 0.75 0 0.25] CT
0.149 GC
2 setlinecap
10.0 ML
N
241 30 M
241 44.38 L
S
GR
GS
[0.75 0 0 0.75 0 0.25] CT
0.149 GC
2 setlinecap
10.0 ML
N
565.788 30 M
565.788 44.38 L
S
GR
GS
[0.75 0 0 0.75 0 0.25] CT
0.149 GC
2 setlinecap
10.0 ML
N
890.576 30 M
890.576 44.38 L
S
GR
GS
[0.75 0 0 0.75 0 0.25] CT
0.149 GC
2 setlinecap
10.0 ML
N
1215.364 30 M
1215.364 44.38 L
S
GR
GS
[0.75 0 0 0.75 0 0.25] CT
0.149 GC
2 setlinecap
10.0 ML
N
1540.152 30 M
1540.152 44.38 L
S
GR
GS
[0.75 0 0 0.75 180.75 550.99998] CT
0.149 GC
/Helvetica 53 F
GS
[1 0 0 1 0 0] CT
-17 50 moveto 
1 -1 scale
(0) t 
GR
GR
GS
[0.75 0 0 0.75 424.34102 550.99998] CT
0.149 GC
/Helvetica 53 F
GS
[1 0 0 1 0 0] CT
-42.5 50 moveto 
1 -1 scale
(0.5) t 
GR
GR
GS
[0.75 0 0 0.75 667.93204 550.99998] CT
0.149 GC
/Helvetica 53 F
GS
[1 0 0 1 0 0] CT
-17 50 moveto 
1 -1 scale
(1) t 
GR
GR
GS
[0.75 0 0 0.75 911.5231 550.99998] CT
0.149 GC
/Helvetica 53 F
GS
[1 0 0 1 0 0] CT
-42.5 50 moveto 
1 -1 scale
(1.5) t 
GR
GR
GS
[0.75 0 0 0.75 1155.11407 550.99998] CT
0.149 GC
/Helvetica 53 F
GS
[1 0 0 1 0 0] CT
-17 50 moveto 
1 -1 scale
(2) t 
GR
GR
GS
[0 -0.75 0.75 0 104 281.87473] CT
0.149 GC
/Helvetica 59 F
GS
[1 0 0 1 0 0] CT
-247 -14 moveto 
1 -1 scale
(Knee angle \(rad\)) t 
GR
GR
GS
[0.75 0 0 0.75 0 0.25] CT
0.149 GC
2 setlinecap
10.0 ML
N
241 721 M
241 30 L
S
GR
GS
[0.75 0 0 0.75 0 0.25] CT
0.149 GC
2 setlinecap
10.0 ML
N
1679 721 M
1679 30 L
S
GR
GS
[0.75 0 0 0.75 0 0.25] CT
0.149 GC
2 setlinecap
10.0 ML
N
241 721 M
255.38 721 L
S
GR
GS
[0.75 0 0 0.75 0 0.25] CT
0.149 GC
2 setlinecap
10.0 ML
N
241 605.833 M
255.38 605.833 L
S
GR
GS
[0.75 0 0 0.75 0 0.25] CT
0.149 GC
2 setlinecap
10.0 ML
N
241 490.667 M
255.38 490.667 L
S
GR
GS
[0.75 0 0 0.75 0 0.25] CT
0.149 GC
2 setlinecap
10.0 ML
N
241 375.5 M
255.38 375.5 L
S
GR
GS
[0.75 0 0 0.75 0 0.25] CT
0.149 GC
2 setlinecap
10.0 ML
N
241 260.333 M
255.38 260.333 L
S
GR
GS
[0.75 0 0 0.75 0 0.25] CT
0.149 GC
2 setlinecap
10.0 ML
N
241 145.167 M
255.38 145.167 L
S
GR
GS
[0.75 0 0 0.75 0 0.25] CT
0.149 GC
2 setlinecap
10.0 ML
N
241 30 M
255.38 30 L
S
GR
GS
[0.75 0 0 0.75 0 0.25] CT
0.149 GC
2 setlinecap
10.0 ML
N
1679 721 M
1664.62 721 L
S
GR
GS
[0.75 0 0 0.75 0 0.25] CT
0.149 GC
2 setlinecap
10.0 ML
N
1679 605.833 M
1664.62 605.833 L
S
GR
GS
[0.75 0 0 0.75 0 0.25] CT
0.149 GC
2 setlinecap
10.0 ML
N
1679 490.667 M
1664.62 490.667 L
S
GR
GS
[0.75 0 0 0.75 0 0.25] CT
0.149 GC
2 setlinecap
10.0 ML
N
1679 375.5 M
1664.62 375.5 L
S
GR
GS
[0.75 0 0 0.75 0 0.25] CT
0.149 GC
2 setlinecap
10.0 ML
N
1679 260.333 M
1664.62 260.333 L
S
GR
GS
[0.75 0 0 0.75 0 0.25] CT
0.149 GC
2 setlinecap
10.0 ML
N
1679 145.167 M
1664.62 145.167 L
S
GR
GS
[0.75 0 0 0.75 0 0.25] CT
0.149 GC
2 setlinecap
10.0 ML
N
1679 30 M
1664.62 30 L
S
GR
GS
[0.75 0 0 0.75 170.75 541] CT
0.149 GC
/Helvetica 53 F
GS
[1 0 0 1 0 0] CT
-34 18.5 moveto 
1 -1 scale
(0) t 
GR
GR
GS
[0.75 0 0 0.75 170.75 454.62498] CT
0.149 GC
/Helvetica 53 F
GS
[1 0 0 1 0 0] CT
-85 18.5 moveto 
1 -1 scale
(0.2) t 
GR
GR
GS
[0.75 0 0 0.75 170.75 368.24999] CT
0.149 GC
/Helvetica 53 F
GS
[1 0 0 1 0 0] CT
-85 18.5 moveto 
1 -1 scale
(0.4) t 
GR
GR
GS
[0.75 0 0 0.75 170.75 281.875] CT
0.149 GC
/Helvetica 53 F
GS
[1 0 0 1 0 0] CT
-85 18.5 moveto 
1 -1 scale
(0.6) t 
GR
GR
GS
[0.75 0 0 0.75 170.75 195.49998] CT
0.149 GC
/Helvetica 53 F
GS
[1 0 0 1 0 0] CT
-85 18.5 moveto 
1 -1 scale
(0.8) t 
GR
GR
GS
[0.75 0 0 0.75 170.75 109.125] CT
0.149 GC
/Helvetica 53 F
GS
[1 0 0 1 0 0] CT
-34 18.5 moveto 
1 -1 scale
(1) t 
GR
GR
GS
[0.75 0 0 0.75 170.75 22.74998] CT
0.149 GC
/Helvetica 53 F
GS
[1 0 0 1 0 0] CT
-85 18.5 moveto 
1 -1 scale
(1.2) t 
GR
GR
GS
[0.75 0 0 0.75 0 0.25] CT
0 0 1 RC
2 LJ
6.667 LW
N
241 593.02 M
244.249 596.554 L
247.333 599.992 L
250.581 603.152 L
253.83 605.915 L
257.077 608.269 L
260.324 610.232 L
263.736 611.897 L
266.823 613.308 L
270.07 614.514 L
273.318 615.605 L
276.564 616.57 L
279.732 617.418 L
283.059 618.082 L
286.308 618.564 L
289.638 618.884 L
292.965 619.092 L
296.055 619.217 L
299.627 619.251 L
302.55 619.195 L
305.796 619.089 L
309.125 618.964 L
312.293 618.822 L
315.54 618.595 L
327.8 617.965 L
330.806 617.504 L
338.274 617.197 L
344.446 616.594 L
348.748 616.358 L
352.484 616.155 L
359.06 615.757 L
364.175 615.331 L
370.752 615.008 L
373.029 615.099 L
376.276 615.556 L
379.605 616.592 L
382.772 618.274 L
386.181 620.485 L
389.428 622.949 L
392.838 625.849 L
395.923 629.201 L
399.01 632.505 L
402.419 636.447 L
405.505 640.444 L
408.836 644.626 L
412.165 648.932 L
415.412 653.32 L
419.067 657.931 L
421.908 662.005 L
425.318 666.144 L
S
GR
GS
[0.75 0 0 0.75 0 0.25] CT
0 0 1 RC
2 LJ
6.667 LW
N
425.318 666.144 M
428.241 670.059 L
431.734 673.72 L
435.062 677.121 L
438.065 680.252 L
441.396 683.13 L
444.806 685.767 L
447.89 688.174 L
450.975 690.344 L
454.224 692.29 L
457.877 694.021 L
460.718 695.474 L
463.967 696.837 L
467.377 698.031 L
470.624 699.096 L
473.878 700.059 L
477.124 700.915 L
480.208 701.708 L
483.942 702.463 L
487.111 703.205 L
490.276 703.864 L
493.523 704.564 L
496.772 705.286 L
500.019 706.043 L
503.999 706.851 L
506.19 707.425 L
509.763 708.134 L
512.929 708.797 L
516.258 709.422 L
519.507 709.978 L
522.755 710.449 L
526.001 710.855 L
529.087 711.14 L
532.335 711.314 L
535.663 711.416 L
538.671 711.467 L
542.324 711.482 L
545.491 711.478 L
548.9 711.473 L
551.987 711.473 L
555.314 711.476 L
558.319 711.476 L
561.648 711.48 L
564.978 711.484 L
567.983 711.493 L
571.229 711.509 L
574.478 711.529 L
577.644 711.555 L
581.053 711.588 L
584.138 711.621 L
S
GR
GS
[0.75 0 0 0.75 0 0.25] CT
0 0 1 RC
2 LJ
6.667 LW
N
584.138 711.621 M
587.712 711.652 L
590.877 711.683 L
593.964 711.712 L
597.211 711.741 L
600.54 711.771 L
603.869 711.807 L
606.955 711.846 L
610.044 711.895 L
613.696 711.957 L
616.862 712.039 L
620.27 712.145 L
623.359 712.279 L
626.606 712.449 L
629.854 712.633 L
633.102 712.794 L
636.105 712.92 L
639.597 713.026 L
642.601 713.121 L
646.092 713.22 L
649.259 713.313 L
652.669 713.386 L
655.839 713.419 L
659.005 713.421 L
662.333 713.41 L
667.53 713.399 L
669.64 713.383 L
671.996 713.375 L
675.322 713.361 L
678.818 713.346 L
681.982 713.331 L
685.228 713.315 L
688.073 713.302 L
691.889 713.284 L
694.811 713.269 L
697.815 713.247 L
701.225 713.22 L
704.555 713.189 L
707.964 713.149 L
711.05 713.101 L
714.135 713.041 L
717.708 712.966 L
720.796 712.878 L
723.799 712.781 L
727.29 712.675 L
730.455 712.582 L
733.787 712.513 L
736.953 712.469 L
740.201 712.443 L
743.527 712.427 L
S
GR
GS
[0.75 0 0 0.75 0 0.25] CT
0 0 1 RC
2 LJ
6.667 LW
N
743.527 712.427 M
746.534 712.421 L
750.267 712.421 L
753.031 712.421 L
758.471 712.423 L
760.824 712.427 L
762.773 712.427 L
766.183 712.432 L
769.594 712.438 L
772.76 712.449 L
775.764 712.458 L
779.336 712.467 L
782.668 712.471 L
785.752 712.478 L
789.08 712.48 L
792.328 712.48 L
795.739 712.478 L
798.825 712.478 L
802.072 712.478 L
805.32 712.478 L
808.487 712.478 L
811.897 712.478 L
815.224 712.48 L
818.314 712.482 L
821.722 712.489 L
825.134 712.498 L
828.055 712.509 L
832.278 712.516 L
834.55 712.516 L
837.798 712.516 L
841.046 712.516 L
844.295 712.516 L
847.867 712.516 L
850.79 712.516 L
854.202 712.516 L
857.285 712.516 L
860.534 712.513 L
863.7 712.513 L
866.948 712.513 L
870.275 712.513 L
873.447 712.513 L
876.773 712.513 L
880.02 712.513 L
883.433 712.513 L
886.68 712.516 L
889.928 712.518 L
892.931 712.524 L
896.422 712.536 L
899.508 712.553 L
902.756 712.577 L
S
GR
GS
[0.75 0 0 0.75 0 0.25] CT
0 0 1 RC
2 LJ
6.667 LW
N
902.756 712.577 M
906.004 712.602 L
909.253 712.626 L
912.824 712.65 L
915.423 712.67 L
918.995 712.686 L
922.245 712.699 L
925.167 712.71 L
928.577 712.723 L
931.661 712.734 L
935.153 712.743 L
938.157 712.75 L
942.217 712.759 L
945.14 712.772 L
947.899 712.785 L
951.638 712.803 L
954.723 712.823 L
957.973 712.849 L
961.217 712.878 L
964.547 712.913 L
967.388 712.951 L
970.8 713.001 L
974.371 713.059 L
977.62 713.123 L
980.383 713.209 L
983.629 713.311 L
987.04 713.436 L
990.125 713.542 L
994.997 713.64 L
997.269 713.717 L
1000.031 713.768 L
1003.115 713.819 L
1007.176 713.885 L
1009.611 713.949 L
1013.186 714.039 L
1016.514 713.878 L
1019.52 711.922 L
1023.011 707.967 L
1025.85 703.459 L
1029.342 697.983 L
1032.347 692.564 L
1035.757 687.156 L
1039.166 681.668 L
1042.253 676.152 L
1045.502 669.575 L
1048.588 662.818 L
1052.159 655.65 L
1055.083 648.135 L
1058.654 640.285 L
1061.74 632.094 L
S
GR
GS
[0.75 0 0 0.75 0 0.25] CT
0 0 1 RC
2 LJ
6.667 LW
N
1061.74 632.094 M
1065.149 623.649 L
1068.235 615.059 L
1071.971 606.352 L
1074.568 597.47 L
1077.818 588.88 L
1081.472 579.289 L
1084.395 570.065 L
1087.805 561.117 L
1090.809 551.465 L
1094.218 541.671 L
1097.466 531.818 L
1100.554 521.889 L
1103.8 511.857 L
1107.21 501.811 L
1110.538 491.728 L
1113.544 481.625 L
1116.954 471.664 L
1120.282 461.905 L
1123.289 452.354 L
1126.78 442.907 L
1129.702 433.573 L
1133.112 424.413 L
1136.523 415.301 L
1139.851 406.274 L
1143.018 396.937 L
1146.186 388.667 L
1149.515 380.055 L
1152.763 370.665 L
1155.685 363.148 L
1161.125 350.936 L
1163.399 344.987 L
1165.834 338.247 L
1168.757 331.055 L
1172.331 323.112 L
1175.333 315.244 L
1178.433 307.435 L
1181.668 299.724 L
1184.916 292.077 L
1188.164 284.546 L
1191.422 277.146 L
1194.742 269.837 L
1197.988 262.633 L
1201.643 255.637 L
1204.566 248.878 L
1207.653 242.591 L
1211.062 238.117 L
1214.31 235.014 L
1217.407 232.541 L
1220.888 230.14 L
S
GR
GS
[0.75 0 0 0.75 0 0.25] CT
0 0 1 RC
2 LJ
6.667 LW
N
1220.888 230.14 M
1223.891 228.003 L
1227.22 225.79 L
1230.396 223.624 L
1234.283 221.323 L
1236.882 219.538 L
1240.535 217.447 L
1243.387 215.813 L
1246.625 214.049 L
1249.873 212.362 L
1253.204 210.809 L
1256.45 209.38 L
1259.616 208.013 L
1262.865 206.68 L
1266.112 205.416 L
1269.522 204.189 L
1272.609 203.016 L
1276.1 201.863 L
1279.186 200.755 L
1282.363 199.673 L
1285.845 198.588 L
1288.848 197.553 L
1292.097 196.526 L
1295.507 195.519 L
1298.754 194.532 L
1302.001 193.556 L
1305.493 192.562 L
1308.498 191.732 L
1311.663 190.873 L
1315.236 190.016 L
1318.081 189.289 L
1323.683 188.503 L
1325.955 187.578 L
1328.473 187.019 L
1331.638 186.363 L
1334.643 185.736 L
1337.647 185.109 L
1341.14 184.486 L
1344.386 183.89 L
1347.391 183.298 L
1351.208 182.662 L
1353.888 182.081 L
1357.297 181.487 L
1360.313 180.997 L
1363.712 180.507 L
1366.877 179.973 L
1370.369 179.401 L
1373.698 178.908 L
1376.703 178.449 L
1380.357 177.989 L
S
GR
GS
[0.75 0 0 0.75 0 0.25] CT
0 0 1 RC
2 LJ
6.667 LW
N
1380.357 177.989 M
1383.363 177.537 L
1386.528 177.086 L
1389.776 176.622 L
1393.023 176.165 L
1396.191 175.755 L
1399.682 175.359 L
1403.093 174.96 L
1406.34 174.525 L
1409.592 174.096 L
1412.513 173.661 L
1416.165 173.246 L
1419.089 172.884 L
1422.094 172.517 L
1425.586 172.124 L
1428.832 171.749 L
1432.162 171.402 L
1435.33 171.044 L
1438.902 170.673 L
1441.743 170.578 L
1444.992 172.144 L
1448.237 175.026 L
1451.486 178.458 L
1454.732 182.042 L
1458.063 185.668 L
1461.391 189.331 L
1464.882 193.293 L
1467.727 197.007 L
1470.894 201.062 L
1474.304 205.288 L
1477.876 209.924 L
1480.556 214.287 L
1483.802 218.852 L
1488.837 226.223 L
1491.028 229.977 L
1493.627 234.701 L
1496.955 240.807 L
1500.122 246.435 L
1503.371 252.727 L
1506.618 258.804 L
1509.784 264.926 L
1513.035 270.795 L
1516.282 277.38 L
1519.773 283.745 L
1522.858 290.199 L
1526.187 296.745 L
1529.841 303.694 L
1532.763 310.379 L
1535.85 316.745 L
1539.098 323.169 L
S
GR
GS
[0.75 0 0 0.75 0 0.25] CT
0 0 1 RC
2 LJ
6.667 LW
N
1539.098 323.169 M
1542.347 329.982 L
1545.836 337.289 L
1548.923 344.402 L
1552.495 351.93 L
1555.418 358.734 L
1558.666 365.849 L
1561.913 372.975 L
1565.242 380.09 L
1568.246 387.194 L
1571.576 394.301 L
1574.823 401.343 L
1578.154 408.328 L
1581.32 415.317 L
1584.65 422.324 L
1587.978 429.227 L
1591.144 436.028 L
1594.879 442.439 L
1597.802 449.497 L
1600.726 456.199 L
1604.056 462.95 L
1607.628 469.685 L
1610.551 475.999 L
1613.964 482.88 L
1616.965 489.293 L
1620.701 495.595 L
1623.541 501.8 L
1626.789 507.851 L
1630.202 513.718 L
1633.286 519.405 L
1636.615 524.939 L
1639.945 530.334 L
1643.272 535.554 L
1646.196 540.633 L
1651.23 545.628 L
1653.423 551.047 L
1656.021 555.161 L
1659.837 560.112 L
1662.682 564.706 L
1665.845 569.191 L
1668.931 573.557 L
1672.748 577.752 L
1675.508 581.581 L
1679 585.645 L
S
GR
GS
[0.75 0 0 0.75 0 0.25] CT
1 0 0 RC
[24 24] 0 setdash
2 LJ
6.667 LW
N
241 653.142 M
244.249 643.893 L
247.333 637.74 L
250.581 633.202 L
253.83 630.35 L
257.077 628.692 L
260.324 627.926 L
263.736 627.877 L
266.823 628.077 L
270.07 628.399 L
273.318 628.323 L
276.564 627.562 L
279.732 626.625 L
283.059 625.696 L
286.308 625.306 L
289.638 625.054 L
292.965 624.823 L
296.055 624.408 L
299.627 623.55 L
302.55 622.338 L
305.796 622.916 L
309.125 618.994 L
312.293 617.424 L
315.54 615.835 L
327.8 613.087 L
330.806 611.793 L
338.274 611.329 L
344.446 610.48 L
348.748 610.172 L
352.484 609.99 L
359.06 610.01 L
364.175 610.503 L
370.752 612.276 L
373.029 616.912 L
376.276 620.355 L
379.605 624.589 L
382.772 629.54 L
386.181 634.989 L
389.428 640.381 L
392.838 646.379 L
395.923 653.134 L
399.01 659.46 L
402.419 666.501 L
405.505 672.987 L
408.836 679.068 L
412.165 684.589 L
415.412 689.523 L
419.067 694.095 L
421.908 697.712 L
425.318 700.993 L
428.241 703.752 L
431.734 706.01 L
435.062 707.853 L
438.065 709.362 L
441.396 710.614 L
444.806 711.655 L
447.89 712.517 L
450.975 713.228 L
454.224 713.81 L
457.877 714.284 L
460.718 714.654 L
463.967 714.982 L
467.377 715.258 L
470.624 715.499 L
473.878 715.716 L
477.124 715.917 L
480.208 716.114 L
483.942 716.323 L
487.111 716.558 L
490.276 716.779 L
493.523 717.025 L
496.772 717.301 L
500.019 717.602 L
503.999 717.928 L
506.19 718.151 L
509.763 718.42 L
512.929 718.67 L
516.258 718.896 L
519.507 719.095 L
522.755 719.267 L
526.001 719.417 L
529.087 719.54 L
532.335 719.643 L
535.663 719.73 L
538.671 719.803 L
542.324 719.865 L
545.491 719.918 L
548.9 719.965 L
551.987 720.009 L
555.314 720.045 L
558.319 720.079 L
561.648 720.111 L
564.978 720.141 L
567.983 720.167 L
571.229 720.194 L
574.478 720.216 L
577.644 720.237 L
581.053 720.256 L
584.138 720.273 L
587.712 720.29 L
590.877 720.303 L
593.964 720.315 L
597.211 720.326 L
600.54 720.337 L
603.869 720.348 L
606.955 720.358 L
610.044 720.367 L
613.696 720.377 L
616.862 720.386 L
620.27 720.396 L
623.359 720.406 L
626.606 720.415 L
629.854 720.425 L
633.102 720.434 L
636.105 720.442 L
639.597 720.45 L
642.601 720.458 L
646.092 720.465 L
649.259 720.472 L
652.669 720.479 L
655.839 720.484 L
659.005 720.489 L
662.333 720.494 L
667.53 720.498 L
669.64 720.502 L
671.996 720.505 L
675.322 720.507 L
678.818 720.51 L
681.982 720.513 L
685.228 720.515 L
688.073 720.517 L
691.889 720.518 L
694.811 720.52 L
697.815 720.521 L
701.225 720.523 L
704.555 720.524 L
707.964 720.525 L
711.05 720.526 L
714.135 720.526 L
717.708 720.527 L
720.796 720.528 L
723.799 720.528 L
727.29 720.529 L
730.455 720.529 L
733.787 720.529 L
736.953 720.53 L
740.201 720.53 L
743.527 720.53 L
746.534 720.53 L
750.267 720.531 L
753.031 720.531 L
758.471 720.531 L
760.824 720.531 L
762.773 720.531 L
766.183 720.531 L
769.594 720.531 L
772.76 720.532 L
775.764 720.532 L
779.336 720.532 L
782.668 720.532 L
785.752 720.532 L
789.08 720.532 L
792.328 720.532 L
795.739 720.532 L
798.825 720.532 L
802.072 720.532 L
805.32 720.532 L
808.487 720.532 L
811.897 720.532 L
815.224 720.532 L
818.314 720.532 L
821.722 720.532 L
825.134 720.532 L
828.055 720.532 L
832.278 720.532 L
834.55 720.532 L
837.798 720.532 L
841.046 720.532 L
844.295 720.532 L
847.867 720.532 L
850.79 720.532 L
854.202 720.532 L
857.285 720.532 L
860.534 720.532 L
863.7 720.532 L
866.948 720.532 L
870.275 720.532 L
873.447 720.532 L
876.773 720.532 L
880.02 720.532 L
883.433 720.532 L
886.68 720.532 L
889.928 720.532 L
892.931 720.532 L
896.422 720.532 L
899.508 720.532 L
902.756 720.532 L
906.004 720.532 L
909.253 720.532 L
912.824 720.532 L
915.423 720.532 L
918.995 720.532 L
922.245 720.532 L
925.167 720.532 L
928.577 720.532 L
931.661 720.532 L
935.153 720.532 L
938.157 720.532 L
942.217 720.532 L
945.14 720.532 L
947.899 720.532 L
951.638 720.532 L
954.723 720.532 L
957.973 720.532 L
961.217 720.532 L
964.547 720.532 L
967.388 720.532 L
970.8 720.532 L
974.371 720.532 L
977.62 720.532 L
980.383 720.532 L
983.629 720.532 L
987.04 720.532 L
990.125 720.532 L
994.997 720.532 L
997.269 720.532 L
1000.031 720.532 L
1003.115 720.532 L
1007.176 720.532 L
1009.611 720.532 L
1013.186 695.906 L
1016.514 682.837 L
1019.52 668.551 L
1023.011 653.287 L
1025.85 636.408 L
1029.342 619.914 L
1032.347 603.129 L
1035.757 585.165 L
1039.166 566.113 L
1042.253 547.628 L
1045.502 532.268 L
1048.588 516.573 L
1052.159 500.88 L
1055.083 487.663 L
1058.654 476.115 L
1061.74 464.506 L
1065.149 451.345 L
1068.235 437.809 L
1071.971 426.73 L
1074.568 416.766 L
1077.818 401.664 L
1081.472 385.085 L
1084.395 370.096 L
1087.805 357.702 L
1090.809 346.126 L
1094.218 336.051 L
1097.466 324.524 L
1100.554 312.361 L
1103.8 301.654 L
1107.21 292.212 L
1110.538 292.212 L
1113.544 283.809 L
1116.954 283.809 L
1120.282 275.987 L
1123.289 268.329 L
1126.78 268.329 L
1129.702 254.698 L
1133.112 254.698 L
1136.523 246.966 L
1139.851 246.966 L
1143.018 239.495 L
1146.186 232.53 L
1149.515 232.53 L
1152.763 226.28 L
1155.685 226.28 L
1161.125 209.427 L
1163.399 204.259 L
1165.834 198.986 L
1168.757 194.226 L
1172.331 189.344 L
1175.333 185.512 L
1178.433 176.18 L
1181.668 172.373 L
1184.916 168.905 L
1188.164 164.54 L
1191.422 160.605 L
1194.742 156.054 L
1197.988 151.865 L
1201.643 148.407 L
1204.566 145.167 L
1207.653 145.167 L
1211.062 145.167 L
1214.31 145.167 L
1217.407 145.167 L
1220.888 145.167 L
1223.891 145.167 L
1227.22 145.167 L
1230.396 145.167 L
1234.283 145.167 L
1236.882 145.167 L
1240.535 145.167 L
1243.387 145.167 L
1246.625 145.167 L
1249.873 145.167 L
1253.204 145.167 L
1256.45 145.167 L
1259.616 145.167 L
1262.865 145.167 L
1266.112 145.167 L
1269.522 145.167 L
1272.609 145.167 L
1276.1 145.167 L
1279.186 145.167 L
1282.363 145.167 L
1285.845 145.167 L
1288.848 145.167 L
1292.097 145.167 L
1295.507 145.167 L
1298.754 145.167 L
1302.001 145.167 L
1305.493 145.167 L
1308.498 145.167 L
1311.663 145.167 L
1315.236 145.167 L
1318.081 145.167 L
1323.683 145.167 L
1325.955 145.167 L
1328.473 145.167 L
1331.638 145.167 L
1334.643 145.167 L
1337.647 145.167 L
1341.14 145.167 L
1344.386 145.167 L
1347.391 145.167 L
1351.208 145.167 L
1353.888 145.167 L
1357.297 145.167 L
1360.313 145.167 L
1363.712 145.167 L
1366.877 145.167 L
1370.369 145.167 L
1373.698 145.167 L
1376.703 145.167 L
1380.357 145.167 L
1383.363 145.167 L
1386.528 145.167 L
1389.776 145.167 L
1393.023 145.167 L
1396.191 145.167 L
1399.682 145.167 L
1403.093 145.167 L
1406.34 145.167 L
1409.592 145.167 L
1412.513 145.167 L
1416.165 145.167 L
1419.089 145.167 L
1422.094 145.167 L
1425.586 145.167 L
1428.832 145.167 L
1432.162 145.167 L
1435.33 145.167 L
1438.902 145.452 L
1441.743 150.736 L
1444.992 158.718 L
1448.237 164.086 L
1451.486 170.424 L
1454.732 177.381 L
1458.063 186.279 L
1461.391 194.424 L
1464.882 202.722 L
1467.727 212.148 L
1470.894 221.788 L
1474.304 233.416 L
1477.876 246.072 L
1480.556 256.913 L
1483.802 264.911 L
1488.837 277.806 L
1491.028 295.654 L
1493.627 295.654 L
1496.955 309.663 L
1500.122 316.655 L
1503.371 324.452 L
1506.618 332.975 L
1509.784 342.289 L
1513.035 351.033 L
1516.282 361.533 L
1519.773 371.162 L
1522.858 379.435 L
1526.187 387.203 L
1529.841 395.383 L
1532.763 404.87 L
1535.85 415.208 L
1539.098 425.421 L
1542.347 434.29 L
1545.836 442.305 L
1548.923 448.758 L
1552.495 455.874 L
1555.418 462.667 L
1558.666 469.436 L
1561.913 475.843 L
1565.242 482.75 L
1568.246 488.687 L
1571.576 494.388 L
1574.823 499.857 L
1578.154 504.564 L
1581.32 509.472 L
1584.65 514.154 L
1587.978 520.17 L
1591.144 525.895 L
1594.879 531.613 L
1597.802 543.731 L
1600.726 548.681 L
1604.056 552.902 L
1607.628 556.546 L
1610.551 559.858 L
1613.964 563.655 L
1616.965 567.625 L
1620.701 571.225 L
1623.541 575.066 L
1626.789 578.773 L
1630.202 581.697 L
1633.286 584.988 L
1636.615 588.2 L
1639.945 591.484 L
1643.272 595.457 L
1646.196 599.348 L
1651.23 603.349 L
1653.423 609.124 L
1656.021 612.8 L
1659.837 612.8 L
1662.682 617.697 L
1665.845 621.107 L
1668.931 624.261 L
1672.748 626.902 L
1675.508 626.967 L
1679 611.231 L
S
GR
GS
[0.75 0 0 0.75 378.5625 664.12502] CT
/Helvetica 48 F
GS
[1 0 0 1 0 0] CT
0 16.5 moveto 
1 -1 scale
(Actual) t 
GR
GR
GS
[0.75 0 0 0.75 0 0.25] CT
0 0 1 RC
2 setlinecap
10.0 ML
6.667 LW
N
460.962 885.167 M
500.769 885.167 L
S
GR
GS
[0.75 0 0 0.75 922.5 664.12502] CT
/Helvetica 48 F
GS
[1 0 0 1 0 0] CT
0 16.5 moveto 
1 -1 scale
(Desired) t 
GR
GR
GS
[0.75 0 0 0.75 0 0.25] CT
1 0 0 RC
[24 24] 0 setdash
2 LJ
6.667 LW
N
1186 885.167 M
1226 885.167 L
S
GR
%%Trailer
%%Pages: 1
%%EOF
