%!PS-Adobe-3.0 EPSF-3.0
%%Creator: (MATLAB, The Mathworks, Inc. Version 8.5.0.197613 \(R2015a\). Operating System: Linux)
%%Title: /home/victor/Documents/MATLAB/prosthetic_onedomain_gaitgeneration_ampro2/SplineFigures/Knee.eps
%%CreationDate: 2016-02-20T16:06:42
%%Pages: (atend)
%%BoundingBox: 0 0 1391 751
%%LanguageLevel: 2
%%EndComments
%%BeginProlog
%%BeginResource: procset (Apache XML Graphics Std ProcSet) 1.2 0
%%Version: 1.2 0
%%Copyright: (Copyright 2001-2003,2010 The Apache Software Foundation. License terms: http://www.apache.org/licenses/LICENSE-2.0)
/bd{bind def}bind def
/ld{load def}bd
/GR/grestore ld
/M/moveto ld
/LJ/setlinejoin ld
/C/curveto ld
/f/fill ld
/LW/setlinewidth ld
/GC/setgray ld
/t/show ld
/N/newpath ld
/CT/concat ld
/cp/closepath ld
/S/stroke ld
/L/lineto ld
/CC/setcmykcolor ld
/A/ashow ld
/GS/gsave ld
/RC/setrgbcolor ld
/RM/rmoveto ld
/ML/setmiterlimit ld
/re {4 2 roll M
1 index 0 rlineto
0 exch rlineto
neg 0 rlineto
cp } bd
/_ctm matrix def
/_tm matrix def
/BT { _ctm currentmatrix pop matrix _tm copy pop 0 0 moveto } bd
/ET { _ctm setmatrix } bd
/iTm { _ctm setmatrix _tm concat } bd
/Tm { _tm astore pop iTm 0 0 moveto } bd
/ux 0.0 def
/uy 0.0 def
/F {
  /Tp exch def
  /Tf exch def
  Tf findfont Tp scalefont setfont
  /cf Tf def  /cs Tp def
} bd
/ULS {currentpoint /uy exch def /ux exch def} bd
/ULE {
  /Tcx currentpoint pop def
  gsave
  newpath
  cf findfont cs scalefont dup
  /FontMatrix get 0 get /Ts exch def /FontInfo get dup
  /UnderlinePosition get Ts mul /To exch def
  /UnderlineThickness get Ts mul /Tt exch def
  ux uy To add moveto  Tcx uy To add lineto
  Tt setlinewidth stroke
  grestore
} bd
/OLE {
  /Tcx currentpoint pop def
  gsave
  newpath
  cf findfont cs scalefont dup
  /FontMatrix get 0 get /Ts exch def /FontInfo get dup
  /UnderlinePosition get Ts mul /To exch def
  /UnderlineThickness get Ts mul /Tt exch def
  ux uy To add cs add moveto Tcx uy To add cs add lineto
  Tt setlinewidth stroke
  grestore
} bd
/SOE {
  /Tcx currentpoint pop def
  gsave
  newpath
  cf findfont cs scalefont dup
  /FontMatrix get 0 get /Ts exch def /FontInfo get dup
  /UnderlinePosition get Ts mul /To exch def
  /UnderlineThickness get Ts mul /Tt exch def
  ux uy To add cs 10 mul 26 idiv add moveto Tcx uy To add cs 10 mul 26 idiv add lineto
  Tt setlinewidth stroke
  grestore
} bd
/QT {
/Y22 exch store
/X22 exch store
/Y21 exch store
/X21 exch store
currentpoint
/Y21 load 2 mul add 3 div exch
/X21 load 2 mul add 3 div exch
/X21 load 2 mul /X22 load add 3 div
/Y21 load 2 mul /Y22 load add 3 div
/X22 load /Y22 load curveto
} bd
/SSPD {
dup length /d exch dict def
{
/v exch def
/k exch def
currentpagedevice k known {
/cpdv currentpagedevice k get def
v cpdv ne {
/upd false def
/nullv v type /nulltype eq def
/nullcpdv cpdv type /nulltype eq def
nullv nullcpdv or
{
/upd true def
} {
/sametype v type cpdv type eq def
sametype {
v type /arraytype eq {
/vlen v length def
/cpdvlen cpdv length def
vlen cpdvlen eq {
0 1 vlen 1 sub {
/i exch def
/obj v i get def
/cpdobj cpdv i get def
obj cpdobj ne {
/upd true def
exit
} if
} for
} {
/upd true def
} ifelse
} {
v type /dicttype eq {
v {
/dv exch def
/dk exch def
/cpddv cpdv dk get def
dv cpddv ne {
/upd true def
exit
} if
} forall
} {
/upd true def
} ifelse
} ifelse
} if
} ifelse
upd true eq {
d k v put
} if
} if
} if
} forall
d length 0 gt {
d setpagedevice
} if
} bd
%%EndResource
%%BeginResource: procset (Apache XML Graphics EPS ProcSet) 1.0 0
%%Version: 1.0 0
%%Copyright: (Copyright 2002-2003 The Apache Software Foundation. License terms: http://www.apache.org/licenses/LICENSE-2.0)
/BeginEPSF { %def
/b4_Inc_state save def         % Save state for cleanup
/dict_count countdictstack def % Count objects on dict stack
/op_count count 1 sub def      % Count objects on operand stack
userdict begin                 % Push userdict on dict stack
/showpage { } def              % Redefine showpage, { } = null proc
0 setgray 0 setlinecap         % Prepare graphics state
1 setlinewidth 0 setlinejoin
10 setmiterlimit [ ] 0 setdash newpath
/languagelevel where           % If level not equal to 1 then
{pop languagelevel             % set strokeadjust and
1 ne                           % overprint to their defaults.
{false setstrokeadjust false setoverprint
} if
} if
} bd
/EndEPSF { %def
count op_count sub {pop} repeat            % Clean up stacks
countdictstack dict_count sub {end} repeat
b4_Inc_state restore
} bd
%%EndResource
%FOPBeginFontDict
%%IncludeResource: font Courier-Bold
%%IncludeResource: font Helvetica
%%IncludeResource: font Courier-BoldOblique
%%IncludeResource: font Courier-Oblique
%%IncludeResource: font Times-Roman
%%IncludeResource: font Helvetica-BoldOblique
%%IncludeResource: font Helvetica-Bold
%%IncludeResource: font Helvetica-Oblique
%%IncludeResource: font Times-BoldItalic
%%IncludeResource: font Courier
%%IncludeResource: font Times-Italic
%%IncludeResource: font Times-Bold
%%IncludeResource: font Symbol
%%IncludeResource: font ZapfDingbats
%FOPEndFontDict
%%BeginResource: encoding WinAnsiEncoding
/WinAnsiEncoding [
/.notdef /.notdef /.notdef /.notdef /.notdef
/.notdef /.notdef /.notdef /.notdef /.notdef
/.notdef /.notdef /.notdef /.notdef /.notdef
/.notdef /.notdef /.notdef /.notdef /.notdef
/.notdef /.notdef /.notdef /.notdef /.notdef
/.notdef /.notdef /.notdef /.notdef /.notdef
/.notdef /.notdef /space /exclam /quotedbl
/numbersign /dollar /percent /ampersand /quotesingle
/parenleft /parenright /asterisk /plus /comma
/hyphen /period /slash /zero /one
/two /three /four /five /six
/seven /eight /nine /colon /semicolon
/less /equal /greater /question /at
/A /B /C /D /E
/F /G /H /I /J
/K /L /M /N /O
/P /Q /R /S /T
/U /V /W /X /Y
/Z /bracketleft /backslash /bracketright /asciicircum
/underscore /quoteleft /a /b /c
/d /e /f /g /h
/i /j /k /l /m
/n /o /p /q /r
/s /t /u /v /w
/x /y /z /braceleft /bar
/braceright /asciitilde /bullet /Euro /bullet
/quotesinglbase /florin /quotedblbase /ellipsis /dagger
/daggerdbl /circumflex /perthousand /Scaron /guilsinglleft
/OE /bullet /Zcaron /bullet /bullet
/quoteleft /quoteright /quotedblleft /quotedblright /bullet
/endash /emdash /asciitilde /trademark /scaron
/guilsinglright /oe /bullet /zcaron /Ydieresis
/space /exclamdown /cent /sterling /currency
/yen /brokenbar /section /dieresis /copyright
/ordfeminine /guillemotleft /logicalnot /sfthyphen /registered
/macron /degree /plusminus /twosuperior /threesuperior
/acute /mu /paragraph /middot /cedilla
/onesuperior /ordmasculine /guillemotright /onequarter /onehalf
/threequarters /questiondown /Agrave /Aacute /Acircumflex
/Atilde /Adieresis /Aring /AE /Ccedilla
/Egrave /Eacute /Ecircumflex /Edieresis /Igrave
/Iacute /Icircumflex /Idieresis /Eth /Ntilde
/Ograve /Oacute /Ocircumflex /Otilde /Odieresis
/multiply /Oslash /Ugrave /Uacute /Ucircumflex
/Udieresis /Yacute /Thorn /germandbls /agrave
/aacute /acircumflex /atilde /adieresis /aring
/ae /ccedilla /egrave /eacute /ecircumflex
/edieresis /igrave /iacute /icircumflex /idieresis
/eth /ntilde /ograve /oacute /ocircumflex
/otilde /odieresis /divide /oslash /ugrave
/uacute /ucircumflex /udieresis /yacute /thorn
/ydieresis
] def
%%EndResource
%FOPBeginFontReencode
/Courier-Bold findfont
dup length dict begin
  {1 index /FID ne {def} {pop pop} ifelse} forall
  /Encoding WinAnsiEncoding def
  currentdict
end
/Courier-Bold exch definefont pop
/Helvetica findfont
dup length dict begin
  {1 index /FID ne {def} {pop pop} ifelse} forall
  /Encoding WinAnsiEncoding def
  currentdict
end
/Helvetica exch definefont pop
/Courier-BoldOblique findfont
dup length dict begin
  {1 index /FID ne {def} {pop pop} ifelse} forall
  /Encoding WinAnsiEncoding def
  currentdict
end
/Courier-BoldOblique exch definefont pop
/Courier-Oblique findfont
dup length dict begin
  {1 index /FID ne {def} {pop pop} ifelse} forall
  /Encoding WinAnsiEncoding def
  currentdict
end
/Courier-Oblique exch definefont pop
/Times-Roman findfont
dup length dict begin
  {1 index /FID ne {def} {pop pop} ifelse} forall
  /Encoding WinAnsiEncoding def
  currentdict
end
/Times-Roman exch definefont pop
/Helvetica-BoldOblique findfont
dup length dict begin
  {1 index /FID ne {def} {pop pop} ifelse} forall
  /Encoding WinAnsiEncoding def
  currentdict
end
/Helvetica-BoldOblique exch definefont pop
/Helvetica-Bold findfont
dup length dict begin
  {1 index /FID ne {def} {pop pop} ifelse} forall
  /Encoding WinAnsiEncoding def
  currentdict
end
/Helvetica-Bold exch definefont pop
/Helvetica-Oblique findfont
dup length dict begin
  {1 index /FID ne {def} {pop pop} ifelse} forall
  /Encoding WinAnsiEncoding def
  currentdict
end
/Helvetica-Oblique exch definefont pop
/Times-BoldItalic findfont
dup length dict begin
  {1 index /FID ne {def} {pop pop} ifelse} forall
  /Encoding WinAnsiEncoding def
  currentdict
end
/Times-BoldItalic exch definefont pop
/Courier findfont
dup length dict begin
  {1 index /FID ne {def} {pop pop} ifelse} forall
  /Encoding WinAnsiEncoding def
  currentdict
end
/Courier exch definefont pop
/Times-Italic findfont
dup length dict begin
  {1 index /FID ne {def} {pop pop} ifelse} forall
  /Encoding WinAnsiEncoding def
  currentdict
end
/Times-Italic exch definefont pop
/Times-Bold findfont
dup length dict begin
  {1 index /FID ne {def} {pop pop} ifelse} forall
  /Encoding WinAnsiEncoding def
  currentdict
end
/Times-Bold exch definefont pop
%FOPEndFontReencode
%%EndProlog
%%Page: 1 1
%%PageBoundingBox: 0 0 1391 751
%%BeginPageSetup
[1 0 0 -1 0 751] CT
%%EndPageSetup
GS
[0.75 0 0 0.75 0 0.25] CT
N
0 0 M
1855 0 L
1855 1001 L
0 1001 L
0 0 L
cp
clip
1 GC
N
0 0 1855 1001 re
f
GR
GS
[0.75 0 0 0.75 0 0.25] CT
1 GC
N
0 0 1855 1001 re
f
GR
GS
[0.75 0 0 0.75 0 0.25] CT
1 GC
N
241 721 M
1679 721 L
1679 30 L
241 30 L
cp
f
GR
GS
[0.75 0 0 0.75 0 0.25] CT
0.873 GC
2 setlinecap
10.0 ML
N
241 721 M
241 30 L
S
GR
GS
[0.75 0 0 0.75 0 0.25] CT
0.873 GC
2 setlinecap
10.0 ML
N
673.976 721 M
673.976 30 L
S
GR
GS
[0.75 0 0 0.75 0 0.25] CT
0.873 GC
2 setlinecap
10.0 ML
N
1106.952 721 M
1106.952 30 L
S
GR
GS
[0.75 0 0 0.75 0 0.25] CT
0.873 GC
2 setlinecap
10.0 ML
N
1539.928 721 M
1539.928 30 L
S
GR
GS
[0.75 0 0 0.75 0 0.25] CT
0.873 GC
2 setlinecap
10.0 ML
N
1679 721 M
241 721 L
S
GR
GS
[0.75 0 0 0.75 0 0.25] CT
0.873 GC
2 setlinecap
10.0 ML
N
1679 622.286 M
241 622.286 L
S
GR
GS
[0.75 0 0 0.75 0 0.25] CT
0.873 GC
2 setlinecap
10.0 ML
N
1679 523.571 M
241 523.571 L
S
GR
GS
[0.75 0 0 0.75 0 0.25] CT
0.873 GC
2 setlinecap
10.0 ML
N
1679 424.857 M
241 424.857 L
S
GR
GS
[0.75 0 0 0.75 0 0.25] CT
0.873 GC
2 setlinecap
10.0 ML
N
1679 326.143 M
241 326.143 L
S
GR
GS
[0.75 0 0 0.75 0 0.25] CT
0.873 GC
2 setlinecap
10.0 ML
N
1679 227.429 M
241 227.429 L
S
GR
GS
[0.75 0 0 0.75 0 0.25] CT
0.873 GC
2 setlinecap
10.0 ML
N
1679 128.714 M
241 128.714 L
S
GR
GS
[0.75 0 0 0.75 0 0.25] CT
0.873 GC
2 setlinecap
10.0 ML
N
1679 30 M
241 30 L
S
GR
GS
[0.75 0 0 0.75 720.0005 599.25002] CT
0.149 GC
/Helvetica 59 F
GS
[1 0 0 1 0 0] CT
-121 55 moveto 
1 -1 scale
(Time \(s\)) t 
GR
GR
GS
[0.75 0 0 0.75 0 0.25] CT
0.149 GC
2 setlinecap
10.0 ML
N
241 721 M
1679 721 L
S
GR
GS
[0.75 0 0 0.75 0 0.25] CT
0.149 GC
2 setlinecap
10.0 ML
N
241 30 M
1679 30 L
S
GR
GS
[0.75 0 0 0.75 0 0.25] CT
0.149 GC
2 setlinecap
10.0 ML
N
241 721 M
241 706.62 L
S
GR
GS
[0.75 0 0 0.75 0 0.25] CT
0.149 GC
2 setlinecap
10.0 ML
N
673.976 721 M
673.976 706.62 L
S
GR
GS
[0.75 0 0 0.75 0 0.25] CT
0.149 GC
2 setlinecap
10.0 ML
N
1106.952 721 M
1106.952 706.62 L
S
GR
GS
[0.75 0 0 0.75 0 0.25] CT
0.149 GC
2 setlinecap
10.0 ML
N
1539.928 721 M
1539.928 706.62 L
S
GR
GS
[0.75 0 0 0.75 0 0.25] CT
0.149 GC
2 setlinecap
10.0 ML
N
241 30 M
241 44.38 L
S
GR
GS
[0.75 0 0 0.75 0 0.25] CT
0.149 GC
2 setlinecap
10.0 ML
N
673.976 30 M
673.976 44.38 L
S
GR
GS
[0.75 0 0 0.75 0 0.25] CT
0.149 GC
2 setlinecap
10.0 ML
N
1106.952 30 M
1106.952 44.38 L
S
GR
GS
[0.75 0 0 0.75 0 0.25] CT
0.149 GC
2 setlinecap
10.0 ML
N
1539.928 30 M
1539.928 44.38 L
S
GR
GS
[0.75 0 0 0.75 180.75 550.99998] CT
0.149 GC
/Helvetica 53 F
GS
[1 0 0 1 0 0] CT
-17 50 moveto 
1 -1 scale
(0) t 
GR
GR
GS
[0.75 0 0 0.75 505.48201 550.99998] CT
0.149 GC
/Helvetica 53 F
GS
[1 0 0 1 0 0] CT
-42.5 50 moveto 
1 -1 scale
(0.5) t 
GR
GR
GS
[0.75 0 0 0.75 830.21402 550.99998] CT
0.149 GC
/Helvetica 53 F
GS
[1 0 0 1 0 0] CT
-17 50 moveto 
1 -1 scale
(1) t 
GR
GR
GS
[0.75 0 0 0.75 1154.94608 550.99998] CT
0.149 GC
/Helvetica 53 F
GS
[1 0 0 1 0 0] CT
-42.5 50 moveto 
1 -1 scale
(1.5) t 
GR
GR
GS
[0 -0.75 0.75 0 104 281.87477] CT
0.149 GC
/Helvetica 59 F
GS
[1 0 0 1 0 0] CT
-247 -14 moveto 
1 -1 scale
(Knee angle \(rad\)) t 
GR
GR
GS
[0.75 0 0 0.75 0 0.25] CT
0.149 GC
2 setlinecap
10.0 ML
N
241 721 M
241 30 L
S
GR
GS
[0.75 0 0 0.75 0 0.25] CT
0.149 GC
2 setlinecap
10.0 ML
N
1679 721 M
1679 30 L
S
GR
GS
[0.75 0 0 0.75 0 0.25] CT
0.149 GC
2 setlinecap
10.0 ML
N
241 721 M
255.38 721 L
S
GR
GS
[0.75 0 0 0.75 0 0.25] CT
0.149 GC
2 setlinecap
10.0 ML
N
241 622.286 M
255.38 622.286 L
S
GR
GS
[0.75 0 0 0.75 0 0.25] CT
0.149 GC
2 setlinecap
10.0 ML
N
241 523.571 M
255.38 523.571 L
S
GR
GS
[0.75 0 0 0.75 0 0.25] CT
0.149 GC
2 setlinecap
10.0 ML
N
241 424.857 M
255.38 424.857 L
S
GR
GS
[0.75 0 0 0.75 0 0.25] CT
0.149 GC
2 setlinecap
10.0 ML
N
241 326.143 M
255.38 326.143 L
S
GR
GS
[0.75 0 0 0.75 0 0.25] CT
0.149 GC
2 setlinecap
10.0 ML
N
241 227.429 M
255.38 227.429 L
S
GR
GS
[0.75 0 0 0.75 0 0.25] CT
0.149 GC
2 setlinecap
10.0 ML
N
241 128.714 M
255.38 128.714 L
S
GR
GS
[0.75 0 0 0.75 0 0.25] CT
0.149 GC
2 setlinecap
10.0 ML
N
241 30 M
255.38 30 L
S
GR
GS
[0.75 0 0 0.75 0 0.25] CT
0.149 GC
2 setlinecap
10.0 ML
N
1679 721 M
1664.62 721 L
S
GR
GS
[0.75 0 0 0.75 0 0.25] CT
0.149 GC
2 setlinecap
10.0 ML
N
1679 622.286 M
1664.62 622.286 L
S
GR
GS
[0.75 0 0 0.75 0 0.25] CT
0.149 GC
2 setlinecap
10.0 ML
N
1679 523.571 M
1664.62 523.571 L
S
GR
GS
[0.75 0 0 0.75 0 0.25] CT
0.149 GC
2 setlinecap
10.0 ML
N
1679 424.857 M
1664.62 424.857 L
S
GR
GS
[0.75 0 0 0.75 0 0.25] CT
0.149 GC
2 setlinecap
10.0 ML
N
1679 326.143 M
1664.62 326.143 L
S
GR
GS
[0.75 0 0 0.75 0 0.25] CT
0.149 GC
2 setlinecap
10.0 ML
N
1679 227.429 M
1664.62 227.429 L
S
GR
GS
[0.75 0 0 0.75 0 0.25] CT
0.149 GC
2 setlinecap
10.0 ML
N
1679 128.714 M
1664.62 128.714 L
S
GR
GS
[0.75 0 0 0.75 0 0.25] CT
0.149 GC
2 setlinecap
10.0 ML
N
1679 30 M
1664.62 30 L
S
GR
GS
[0.75 0 0 0.75 170.75 541] CT
0.149 GC
/Helvetica 53 F
GS
[1 0 0 1 0 0] CT
-34 18.5 moveto 
1 -1 scale
(0) t 
GR
GR
GS
[0.75 0 0 0.75 170.75 466.96428] CT
0.149 GC
/Helvetica 53 F
GS
[1 0 0 1 0 0] CT
-85 18.5 moveto 
1 -1 scale
(0.2) t 
GR
GR
GS
[0.75 0 0 0.75 170.75 392.92856] CT
0.149 GC
/Helvetica 53 F
GS
[1 0 0 1 0 0] CT
-85 18.5 moveto 
1 -1 scale
(0.4) t 
GR
GR
GS
[0.75 0 0 0.75 170.75 318.89284] CT
0.149 GC
/Helvetica 53 F
GS
[1 0 0 1 0 0] CT
-85 18.5 moveto 
1 -1 scale
(0.6) t 
GR
GR
GS
[0.75 0 0 0.75 170.75 244.85714] CT
0.149 GC
/Helvetica 53 F
GS
[1 0 0 1 0 0] CT
-85 18.5 moveto 
1 -1 scale
(0.8) t 
GR
GR
GS
[0.75 0 0 0.75 170.75 170.82143] CT
0.149 GC
/Helvetica 53 F
GS
[1 0 0 1 0 0] CT
-34 18.5 moveto 
1 -1 scale
(1) t 
GR
GR
GS
[0.75 0 0 0.75 170.75 96.7857] CT
0.149 GC
/Helvetica 53 F
GS
[1 0 0 1 0 0] CT
-85 18.5 moveto 
1 -1 scale
(1.2) t 
GR
GR
GS
[0.75 0 0 0.75 170.75 22.75001] CT
0.149 GC
/Helvetica 53 F
GS
[1 0 0 1 0 0] CT
-85 18.5 moveto 
1 -1 scale
(1.4) t 
GR
GR
GS
[0.75 0 0 0.75 0 0.25] CT
0 0.447 0.741 RC
2 LJ
6.667 LW
N
241 505.639 M
241.866 505.639 L
242.732 505.639 L
243.598 505.639 L
244.464 505.64 L
245.33 505.64 L
246.196 505.642 L
247.062 505.643 L
247.928 505.645 L
248.794 505.648 L
249.66 505.652 L
250.525 505.656 L
251.391 505.661 L
252.257 505.667 L
253.123 505.674 L
253.989 505.683 L
254.855 505.692 L
255.721 505.702 L
256.587 505.714 L
257.453 505.728 L
258.319 505.742 L
259.185 505.759 L
260.051 505.777 L
260.917 505.796 L
261.783 505.818 L
262.649 505.841 L
263.515 505.866 L
264.381 505.894 L
265.247 505.923 L
266.113 505.955 L
266.979 505.989 L
267.845 506.025 L
268.71 506.063 L
269.576 506.104 L
270.442 506.148 L
271.308 506.194 L
272.174 506.243 L
273.04 506.295 L
273.906 506.35 L
274.772 506.407 L
275.638 506.468 L
276.504 506.532 L
277.37 506.598 L
278.236 506.669 L
279.102 506.742 L
279.968 506.819 L
280.834 506.9 L
281.7 506.984 L
282.566 507.071 L
283.432 507.163 L
S
GR
GS
[0.75 0 0 0.75 0 0.25] CT
0 0.447 0.741 RC
2 LJ
6.667 LW
N
283.432 507.163 M
284.298 507.258 L
285.164 507.357 L
286.03 507.46 L
286.895 507.567 L
287.761 507.678 L
288.627 507.794 L
289.493 507.914 L
290.359 508.038 L
291.225 508.166 L
292.091 508.299 L
292.957 508.437 L
293.823 508.579 L
294.689 508.726 L
295.555 508.878 L
296.421 509.034 L
297.287 509.196 L
298.153 509.363 L
299.019 509.534 L
299.885 509.712 L
300.751 509.894 L
301.617 510.082 L
302.483 510.275 L
303.349 510.473 L
304.215 510.678 L
305.08 510.888 L
305.946 511.103 L
306.812 511.325 L
307.678 511.552 L
308.544 511.785 L
309.41 512.025 L
310.276 512.271 L
311.142 512.522 L
312.008 512.78 L
312.874 513.045 L
313.74 513.316 L
314.606 513.593 L
315.472 513.877 L
316.338 514.168 L
317.204 514.466 L
318.07 514.77 L
318.936 515.081 L
319.802 515.4 L
320.668 515.725 L
321.534 516.057 L
322.4 516.397 L
323.265 516.744 L
324.131 517.098 L
324.997 517.46 L
325.863 517.83 L
S
GR
GS
[0.75 0 0 0.75 0 0.25] CT
0 0.447 0.741 RC
2 LJ
6.667 LW
N
325.863 517.83 M
326.729 518.207 L
327.595 518.591 L
328.461 518.984 L
329.327 519.384 L
330.193 519.792 L
331.059 520.209 L
331.925 520.633 L
332.791 521.065 L
333.657 521.505 L
334.523 521.953 L
335.389 522.409 L
336.255 522.872 L
337.121 523.343 L
337.987 523.821 L
338.853 524.307 L
339.719 524.8 L
340.585 525.3 L
341.45 525.808 L
342.316 526.322 L
343.182 526.843 L
344.048 527.371 L
344.914 527.906 L
345.78 528.448 L
346.646 528.996 L
347.512 529.551 L
348.378 530.112 L
349.244 530.68 L
350.11 531.254 L
350.976 531.834 L
351.842 532.42 L
352.708 533.012 L
353.574 533.61 L
354.44 534.214 L
355.306 534.824 L
356.172 535.439 L
357.038 536.06 L
357.904 536.687 L
358.77 537.319 L
359.635 537.956 L
360.501 538.599 L
361.367 539.247 L
362.233 539.899 L
363.099 540.557 L
363.965 541.22 L
364.831 541.888 L
365.697 542.56 L
366.563 543.237 L
367.429 543.919 L
368.295 544.605 L
S
GR
GS
[0.75 0 0 0.75 0 0.25] CT
0 0.447 0.741 RC
2 LJ
6.667 LW
N
368.295 544.605 M
369.161 545.295 L
370.027 545.99 L
370.893 546.689 L
371.759 547.393 L
372.625 548.1 L
373.491 548.811 L
374.357 549.526 L
375.223 550.245 L
376.089 550.968 L
376.954 551.695 L
377.82 552.425 L
378.686 553.158 L
379.552 553.895 L
380.418 554.635 L
381.284 555.379 L
382.15 556.125 L
383.016 556.875 L
383.882 557.628 L
384.748 558.383 L
385.614 559.141 L
386.48 559.902 L
387.346 560.666 L
388.212 561.432 L
389.078 562.201 L
389.944 562.972 L
390.81 563.745 L
391.676 564.521 L
392.542 565.298 L
393.408 566.078 L
394.274 566.86 L
395.139 567.643 L
396.005 568.429 L
396.871 569.216 L
397.737 570.004 L
398.603 570.795 L
399.469 571.586 L
400.335 572.379 L
401.201 573.174 L
402.067 573.969 L
402.933 574.766 L
403.799 575.563 L
404.665 576.362 L
405.531 577.161 L
406.397 577.962 L
407.263 578.763 L
408.129 579.564 L
408.995 580.366 L
409.861 581.169 L
410.727 581.971 L
S
GR
GS
[0.75 0 0 0.75 0 0.25] CT
0 0.447 0.741 RC
2 LJ
6.667 LW
N
410.727 581.971 M
411.593 582.774 L
412.458 583.578 L
413.324 584.381 L
414.19 585.184 L
415.056 585.988 L
415.922 586.791 L
416.788 587.594 L
417.654 588.396 L
418.52 589.198 L
419.386 590 L
420.252 590.801 L
421.118 591.601 L
421.984 592.401 L
422.85 593.2 L
423.716 593.998 L
424.582 594.795 L
425.448 595.591 L
426.314 596.386 L
427.18 597.18 L
428.046 597.972 L
428.912 598.764 L
429.778 599.554 L
430.643 600.343 L
431.509 601.13 L
432.375 601.916 L
433.241 602.7 L
434.107 603.482 L
434.973 604.263 L
435.839 605.042 L
436.705 605.82 L
437.571 606.595 L
438.437 607.368 L
439.303 608.14 L
440.169 608.909 L
441.035 609.676 L
441.901 610.441 L
442.767 611.204 L
443.633 611.964 L
444.499 612.722 L
445.365 613.477 L
446.231 614.23 L
447.097 614.981 L
447.963 615.728 L
448.828 616.473 L
449.694 617.215 L
450.56 617.955 L
451.426 618.691 L
452.292 619.425 L
453.158 620.155 L
S
GR
GS
[0.75 0 0 0.75 0 0.25] CT
0 0.447 0.741 RC
2 LJ
6.667 LW
N
453.158 620.155 M
454.024 620.882 L
454.89 621.606 L
455.756 622.327 L
456.622 623.045 L
457.488 623.759 L
458.354 624.47 L
459.22 625.177 L
460.086 625.881 L
460.952 626.581 L
461.818 627.277 L
462.684 627.97 L
463.55 628.659 L
464.416 629.344 L
465.282 630.025 L
466.148 630.702 L
467.013 631.375 L
467.879 632.044 L
468.745 632.709 L
469.611 633.37 L
470.477 634.026 L
471.343 634.678 L
472.209 635.325 L
473.075 635.968 L
473.941 636.606 L
474.807 637.24 L
475.673 637.869 L
476.539 638.493 L
477.405 639.112 L
478.271 639.726 L
479.137 640.336 L
480.003 640.94 L
480.869 641.54 L
481.735 642.134 L
482.601 642.723 L
483.467 643.307 L
484.333 643.885 L
485.198 644.458 L
486.064 645.026 L
486.93 645.588 L
487.796 646.144 L
488.662 646.695 L
489.528 647.24 L
490.394 647.779 L
491.26 648.313 L
492.126 648.84 L
492.992 649.362 L
493.858 649.877 L
494.724 650.387 L
495.59 650.89 L
S
GR
GS
[0.75 0 0 0.75 0 0.25] CT
0 0.447 0.741 RC
2 LJ
6.667 LW
N
495.59 650.89 M
496.456 651.387 L
497.322 651.878 L
498.188 652.362 L
499.054 652.84 L
499.92 653.311 L
500.786 653.776 L
501.652 654.234 L
502.518 654.686 L
503.383 655.131 L
504.249 655.569 L
505.115 656 L
505.981 656.424 L
506.847 656.841 L
507.713 657.252 L
508.579 657.655 L
509.445 658.05 L
510.311 658.439 L
511.177 658.82 L
512.043 659.194 L
512.909 659.561 L
513.775 659.921 L
514.641 660.273 L
515.507 660.619 L
516.373 660.957 L
517.239 661.289 L
518.105 661.614 L
518.971 661.932 L
519.837 662.243 L
520.703 662.548 L
521.568 662.846 L
522.434 663.138 L
523.3 663.423 L
524.166 663.702 L
525.032 663.975 L
525.898 664.242 L
526.764 664.503 L
527.63 664.757 L
528.496 665.006 L
529.362 665.248 L
530.228 665.485 L
531.094 665.716 L
531.96 665.942 L
532.826 666.161 L
533.692 666.376 L
534.558 666.584 L
535.424 666.788 L
536.29 666.986 L
537.156 667.179 L
538.022 667.366 L
S
GR
GS
[0.75 0 0 0.75 0 0.25] CT
0 0.447 0.741 RC
2 LJ
6.667 LW
N
538.022 667.366 M
538.888 667.549 L
539.753 667.726 L
540.619 667.899 L
541.485 668.066 L
542.351 668.229 L
543.217 668.387 L
544.083 668.54 L
544.949 668.689 L
545.815 668.833 L
546.681 668.973 L
547.547 669.108 L
548.413 669.239 L
549.279 669.366 L
550.145 669.488 L
551.011 669.606 L
551.877 669.721 L
552.743 669.831 L
553.609 669.937 L
554.475 670.04 L
555.341 670.138 L
556.207 670.233 L
557.073 670.325 L
557.938 670.413 L
558.804 670.497 L
559.67 670.578 L
560.536 670.656 L
561.402 670.73 L
562.268 670.801 L
563.134 670.869 L
564 670.934 L
564.866 670.996 L
565.732 671.055 L
566.598 671.111 L
567.464 671.165 L
568.33 671.215 L
569.196 671.263 L
570.062 671.309 L
570.928 671.352 L
571.794 671.392 L
572.66 671.43 L
573.526 671.466 L
574.392 671.5 L
575.258 671.531 L
576.123 671.561 L
576.989 671.588 L
577.855 671.614 L
578.721 671.638 L
579.587 671.659 L
580.453 671.68 L
S
GR
GS
[0.75 0 0 0.75 0 0.25] CT
0 0.447 0.741 RC
2 LJ
6.667 LW
N
580.453 671.68 M
581.319 671.698 L
582.185 671.715 L
583.051 671.731 L
583.917 671.745 L
584.783 671.757 L
585.649 671.768 L
586.515 671.779 L
587.381 671.787 L
588.247 671.795 L
589.113 671.802 L
589.979 671.808 L
590.845 671.813 L
591.711 671.817 L
592.577 671.821 L
593.443 671.824 L
594.308 671.826 L
595.174 671.828 L
596.04 671.829 L
596.906 671.83 L
597.772 671.831 L
598.638 671.831 L
599.504 671.831 L
600.37 671.831 L
601.236 671.832 L
602.102 671.832 L
602.968 671.832 L
603.834 671.832 L
604.7 671.832 L
605.566 671.832 L
606.432 671.832 L
607.298 671.832 L
608.164 671.832 L
609.03 671.832 L
609.896 671.833 L
610.762 671.833 L
611.628 671.833 L
612.493 671.833 L
613.359 671.833 L
614.225 671.833 L
615.091 671.833 L
615.957 671.833 L
616.823 671.833 L
617.689 671.833 L
618.555 671.833 L
619.421 671.833 L
620.287 671.833 L
621.153 671.833 L
622.019 671.833 L
622.885 671.833 L
S
GR
GS
[0.75 0 0 0.75 0 0.25] CT
0 0.447 0.741 RC
2 LJ
6.667 LW
N
622.885 671.833 M
623.751 671.834 L
624.617 671.834 L
625.483 671.834 L
626.349 671.834 L
627.215 671.834 L
628.081 671.834 L
628.947 671.834 L
629.813 671.834 L
630.678 671.834 L
631.544 671.834 L
632.41 671.834 L
633.276 671.834 L
634.142 671.834 L
635.008 671.834 L
635.874 671.834 L
636.74 671.834 L
637.606 671.834 L
638.472 671.834 L
639.338 671.834 L
640.204 671.834 L
641.07 671.834 L
641.936 671.834 L
642.802 671.834 L
643.668 671.834 L
644.534 671.834 L
645.4 671.834 L
646.266 671.834 L
647.132 671.834 L
647.997 671.834 L
648.863 671.834 L
649.729 671.834 L
650.595 671.834 L
651.461 671.835 L
652.327 671.835 L
653.193 671.835 L
654.059 671.835 L
654.925 671.835 L
655.791 671.835 L
656.657 671.835 L
657.523 671.835 L
658.389 671.835 L
659.255 671.835 L
660.121 671.835 L
660.987 671.835 L
661.853 671.835 L
662.719 671.835 L
663.585 671.835 L
664.451 671.835 L
665.317 671.835 L
S
GR
GS
[0.75 0 0 0.75 0 0.25] CT
0 0.447 0.741 RC
2 LJ
6.667 LW
N
665.317 671.835 M
666.182 671.835 L
667.048 671.835 L
667.914 671.835 L
668.78 671.835 L
669.646 671.835 L
670.512 671.835 L
671.378 671.835 L
672.244 671.835 L
673.11 671.835 L
673.976 671.835 L
674.842 671.835 L
675.708 671.835 L
676.574 671.835 L
677.44 671.835 L
678.306 671.835 L
679.172 671.835 L
680.038 671.835 L
680.904 671.835 L
681.77 671.835 L
682.636 671.835 L
683.501 671.835 L
684.367 671.835 L
685.233 671.835 L
686.099 671.835 L
686.965 671.835 L
687.831 671.835 L
688.697 671.835 L
689.563 671.835 L
690.429 671.835 L
691.295 671.835 L
692.161 671.835 L
693.027 671.835 L
693.893 671.835 L
694.759 671.835 L
695.625 671.835 L
696.491 671.835 L
697.357 671.835 L
698.223 671.835 L
699.089 671.835 L
699.955 671.835 L
700.821 671.835 L
701.687 671.835 L
702.552 671.835 L
703.418 671.835 L
704.284 671.835 L
705.15 671.835 L
706.016 671.835 L
706.882 671.835 L
707.748 671.835 L
S
GR
GS
[0.75 0 0 0.75 0 0.25] CT
0 0.447 0.741 RC
2 LJ
6.667 LW
N
707.748 671.835 M
708.614 671.835 L
709.48 671.835 L
710.346 671.835 L
711.212 671.835 L
712.078 671.835 L
712.944 671.835 L
713.81 671.835 L
714.676 671.835 L
715.542 671.835 L
716.408 671.835 L
717.274 671.835 L
718.14 671.835 L
719.006 671.835 L
719.871 671.835 L
720.737 671.835 L
721.603 671.835 L
722.469 671.835 L
723.335 671.835 L
724.201 671.835 L
725.067 671.835 L
725.933 671.835 L
726.799 671.835 L
727.665 671.835 L
728.531 671.835 L
729.397 671.835 L
730.263 671.835 L
731.129 671.835 L
731.995 671.835 L
732.861 671.835 L
733.727 671.835 L
734.593 671.835 L
735.459 671.835 L
736.325 671.835 L
737.191 671.835 L
738.056 671.835 L
738.922 671.835 L
739.788 671.835 L
740.654 671.835 L
741.52 671.835 L
742.386 671.835 L
743.252 671.835 L
744.118 671.835 L
744.984 671.835 L
745.85 671.835 L
746.716 671.835 L
747.582 671.835 L
748.448 671.835 L
749.314 671.835 L
750.18 671.835 L
S
GR
GS
[0.75 0 0 0.75 0 0.25] CT
0 0.447 0.741 RC
2 LJ
6.667 LW
N
750.18 671.835 M
751.046 671.835 L
751.912 671.835 L
752.778 671.835 L
753.644 671.835 L
754.51 671.835 L
755.375 671.835 L
756.242 671.835 L
757.107 671.835 L
757.973 671.835 L
758.839 671.835 L
759.705 671.835 L
760.571 671.835 L
761.437 671.835 L
762.303 671.835 L
763.169 671.835 L
764.035 671.835 L
764.901 671.835 L
765.767 671.835 L
766.633 671.835 L
767.499 671.835 L
768.365 671.835 L
769.231 671.835 L
770.097 671.835 L
770.963 671.835 L
771.829 671.835 L
772.695 671.835 L
773.561 671.835 L
774.426 671.835 L
775.292 671.835 L
776.158 671.835 L
777.024 671.835 L
777.89 671.835 L
778.756 671.835 L
779.622 671.835 L
780.488 671.835 L
781.354 671.835 L
782.22 671.835 L
783.086 671.835 L
783.952 671.835 L
784.818 671.835 L
785.684 671.835 L
786.55 671.835 L
787.416 671.835 L
788.282 671.835 L
789.148 671.835 L
790.014 671.835 L
790.88 671.835 L
791.745 671.835 L
792.612 671.835 L
S
GR
GS
[0.75 0 0 0.75 0 0.25] CT
0 0.447 0.741 RC
2 LJ
6.667 LW
N
792.612 671.835 M
793.477 671.835 L
794.343 671.835 L
795.209 671.835 L
796.075 671.835 L
796.941 671.835 L
797.807 671.835 L
798.673 671.835 L
799.539 671.835 L
800.405 671.835 L
801.271 671.835 L
802.137 671.835 L
803.003 671.835 L
803.869 671.835 L
804.735 671.835 L
805.601 671.835 L
806.467 671.835 L
807.333 671.835 L
808.199 671.835 L
809.065 671.835 L
809.931 671.835 L
810.796 671.835 L
811.662 671.835 L
812.528 671.835 L
813.394 671.835 L
814.26 671.835 L
815.126 671.835 L
815.992 671.835 L
816.858 671.835 L
817.724 671.835 L
818.59 671.835 L
819.456 671.835 L
820.322 671.835 L
821.188 671.835 L
822.054 671.835 L
822.92 671.835 L
823.786 671.835 L
824.652 671.835 L
825.518 671.835 L
826.384 671.835 L
827.25 671.835 L
828.115 671.835 L
828.981 671.835 L
829.847 671.835 L
830.713 671.835 L
831.579 671.835 L
832.445 671.835 L
833.311 671.835 L
834.177 671.835 L
835.043 671.835 L
S
GR
GS
[0.75 0 0 0.75 0 0.25] CT
0 0.447 0.741 RC
2 LJ
6.667 LW
N
835.043 671.835 M
835.909 671.835 L
836.775 671.835 L
837.641 671.835 L
838.507 671.835 L
839.373 671.835 L
840.239 671.835 L
841.105 671.835 L
841.971 671.835 L
842.837 671.835 L
843.703 671.835 L
844.569 671.835 L
845.435 671.835 L
846.3 671.835 L
847.166 671.835 L
848.032 671.835 L
848.898 671.835 L
849.764 671.835 L
850.63 671.835 L
851.496 671.835 L
852.362 671.835 L
853.228 671.835 L
854.094 671.835 L
854.96 671.835 L
855.826 671.835 L
856.692 671.835 L
857.558 671.835 L
858.424 671.835 L
859.29 671.835 L
860.156 671.835 L
861.022 671.835 L
861.888 671.835 L
862.754 671.835 L
863.62 671.835 L
864.486 671.835 L
865.351 671.835 L
866.217 671.835 L
867.083 671.835 L
867.949 671.835 L
868.815 671.835 L
869.681 671.835 L
870.547 671.835 L
871.413 671.835 L
872.279 671.835 L
873.145 671.835 L
874.011 671.835 L
874.877 671.835 L
875.743 671.835 L
876.609 671.835 L
877.475 671.835 L
S
GR
GS
[0.75 0 0 0.75 0 0.25] CT
0 0.447 0.741 RC
2 LJ
6.667 LW
N
877.475 671.835 M
878.341 671.835 L
879.207 671.835 L
880.073 671.835 L
880.939 671.835 L
881.805 671.835 L
882.67 671.835 L
883.536 671.835 L
884.402 671.835 L
885.268 671.835 L
886.134 671.835 L
887 671.835 L
887.866 671.835 L
888.732 671.835 L
889.598 671.835 L
890.464 671.835 L
891.33 671.835 L
892.196 671.835 L
893.062 671.835 L
893.928 671.835 L
894.794 671.835 L
895.66 671.835 L
896.526 671.835 L
897.392 671.835 L
898.258 671.835 L
899.124 671.835 L
899.99 671.835 L
900.855 671.835 L
901.721 671.835 L
902.587 671.835 L
903.453 671.835 L
904.319 671.835 L
905.185 671.835 L
906.051 671.835 L
906.917 671.835 L
907.783 671.835 L
908.649 671.835 L
909.515 671.835 L
910.381 671.835 L
911.247 671.835 L
912.113 671.835 L
912.979 671.835 L
913.845 671.835 L
914.711 671.835 L
915.577 671.835 L
916.443 671.835 L
917.309 671.835 L
918.174 671.835 L
919.04 671.835 L
919.906 671.835 L
S
GR
GS
[0.75 0 0 0.75 0 0.25] CT
0 0.447 0.741 RC
2 LJ
6.667 LW
N
919.906 671.835 M
920.772 671.835 L
921.638 671.835 L
922.504 671.835 L
923.37 671.835 L
924.236 671.835 L
925.102 671.835 L
925.968 671.835 L
926.834 671.835 L
927.7 671.835 L
928.566 671.835 L
929.432 671.835 L
930.298 671.835 L
931.164 671.835 L
932.03 671.835 L
932.896 671.835 L
933.762 671.835 L
934.628 671.835 L
935.494 671.835 L
936.359 671.835 L
937.225 671.835 L
938.091 671.835 L
938.957 671.835 L
939.823 671.835 L
940.689 671.835 L
941.555 671.835 L
942.421 671.835 L
943.287 671.835 L
944.153 671.835 L
945.019 671.835 L
945.885 671.835 L
946.751 671.835 L
947.617 671.835 L
948.483 671.835 L
949.349 671.835 L
950.215 671.835 L
951.081 671.835 L
951.947 671.835 L
952.813 671.835 L
953.679 671.835 L
954.544 671.835 L
955.41 671.835 L
956.276 671.835 L
957.142 671.835 L
958.008 671.835 L
958.874 671.835 L
959.74 671.835 L
960.26 671.859 L
961.126 671.061 L
961.992 670.249 L
S
GR
GS
[0.75 0 0 0.75 0 0.25] CT
0 0.447 0.741 RC
2 LJ
6.667 LW
N
961.992 670.249 M
962.858 669.422 L
963.724 668.581 L
964.59 667.725 L
965.456 666.855 L
966.321 665.971 L
967.187 665.072 L
968.053 664.159 L
968.919 663.232 L
969.785 662.291 L
970.651 661.336 L
971.517 660.367 L
972.383 659.384 L
973.249 658.387 L
974.115 657.376 L
974.981 656.352 L
975.847 655.314 L
976.713 654.262 L
977.579 653.197 L
978.445 652.119 L
979.311 651.027 L
980.177 649.921 L
981.043 648.803 L
981.909 647.671 L
982.775 646.526 L
983.64 645.368 L
984.506 644.197 L
985.372 643.013 L
986.238 641.817 L
987.104 640.607 L
987.97 639.385 L
988.836 638.151 L
989.702 636.903 L
990.568 635.644 L
991.434 634.372 L
992.3 633.087 L
993.166 631.791 L
994.032 630.482 L
994.898 629.162 L
995.764 627.829 L
996.63 626.484 L
997.496 625.128 L
998.362 623.76 L
999.228 622.38 L
1000.094 620.989 L
1000.96 619.586 L
1001.826 618.172 L
1002.691 616.747 L
1003.557 615.31 L
1004.423 613.862 L
S
GR
GS
[0.75 0 0 0.75 0 0.25] CT
0 0.447 0.741 RC
2 LJ
6.667 LW
N
1004.423 613.862 M
1005.289 612.403 L
1006.155 610.934 L
1007.021 609.453 L
1007.887 607.962 L
1008.753 606.459 L
1009.619 604.947 L
1010.485 603.424 L
1011.351 601.89 L
1012.217 600.346 L
1013.083 598.792 L
1013.949 597.227 L
1014.815 595.653 L
1015.681 594.069 L
1016.547 592.475 L
1017.413 590.871 L
1018.279 589.257 L
1019.145 587.634 L
1020.01 586.001 L
1020.876 584.359 L
1021.742 582.708 L
1022.608 581.048 L
1023.474 579.378 L
1024.34 577.7 L
1025.206 576.013 L
1026.072 574.316 L
1026.938 572.612 L
1027.804 570.898 L
1028.67 569.176 L
1029.536 567.446 L
1030.402 565.708 L
1031.268 563.961 L
1032.134 562.206 L
1033 560.444 L
1033.866 558.673 L
1034.732 556.895 L
1035.598 555.109 L
1036.464 553.315 L
1037.329 551.514 L
1038.195 549.706 L
1039.061 547.891 L
1039.927 546.068 L
1040.793 544.238 L
1041.659 542.402 L
1042.525 540.559 L
1043.391 538.709 L
1044.257 536.852 L
1045.123 534.989 L
1045.989 533.119 L
1046.855 531.244 L
S
GR
GS
[0.75 0 0 0.75 0 0.25] CT
0 0.447 0.741 RC
2 LJ
6.667 LW
N
1046.855 531.244 M
1047.721 529.362 L
1048.587 527.474 L
1049.453 525.58 L
1050.319 523.681 L
1051.185 521.775 L
1052.051 519.865 L
1052.917 517.948 L
1053.783 516.026 L
1054.649 514.099 L
1055.515 512.167 L
1056.38 510.23 L
1057.246 508.288 L
1058.112 506.341 L
1058.978 504.389 L
1059.844 502.433 L
1060.71 500.472 L
1061.576 498.507 L
1062.442 496.538 L
1063.308 494.565 L
1064.174 492.587 L
1065.04 490.606 L
1065.906 488.621 L
1066.772 486.632 L
1067.638 484.64 L
1068.504 482.644 L
1069.37 480.645 L
1070.236 478.643 L
1071.102 476.637 L
1071.968 474.629 L
1072.834 472.617 L
1073.699 470.603 L
1074.565 468.587 L
1075.431 466.568 L
1076.297 464.546 L
1077.163 462.522 L
1078.029 460.496 L
1078.895 458.468 L
1079.761 456.438 L
1080.627 454.406 L
1081.493 452.373 L
1082.359 450.337 L
1083.225 448.301 L
1084.091 446.263 L
1084.957 444.224 L
1085.823 442.183 L
1086.689 440.142 L
1087.555 438.1 L
1088.421 436.056 L
1089.287 434.013 L
S
GR
GS
[0.75 0 0 0.75 0 0.25] CT
0 0.447 0.741 RC
2 LJ
6.667 LW
N
1089.287 434.013 M
1090.153 431.969 L
1091.019 429.924 L
1091.885 427.879 L
1092.75 425.834 L
1093.616 423.788 L
1094.482 421.743 L
1095.348 419.698 L
1096.214 417.653 L
1097.08 415.609 L
1097.946 413.565 L
1098.812 411.522 L
1099.678 409.479 L
1100.544 407.437 L
1101.41 405.397 L
1102.276 403.357 L
1103.142 401.319 L
1104.008 399.281 L
1104.874 397.246 L
1105.74 395.211 L
1106.606 393.179 L
1107.472 391.148 L
1108.338 389.119 L
1109.203 387.092 L
1110.069 385.068 L
1110.936 383.045 L
1111.801 381.025 L
1112.667 379.007 L
1113.533 376.992 L
1114.399 374.979 L
1115.265 372.969 L
1116.131 370.963 L
1116.997 368.959 L
1117.863 366.958 L
1118.729 364.961 L
1119.595 362.967 L
1120.461 360.976 L
1121.327 358.989 L
1122.193 357.006 L
1123.059 355.026 L
1123.925 353.05 L
1124.791 351.079 L
1125.657 349.111 L
1126.523 347.148 L
1127.389 345.189 L
1128.255 343.235 L
1129.12 341.285 L
1129.986 339.339 L
1130.852 337.399 L
1131.718 335.463 L
S
GR
GS
[0.75 0 0 0.75 0 0.25] CT
0 0.447 0.741 RC
2 LJ
6.667 LW
N
1131.718 335.463 M
1132.584 333.533 L
1133.45 331.607 L
1134.316 329.687 L
1135.182 327.772 L
1136.048 325.863 L
1136.914 323.959 L
1137.78 322.061 L
1138.646 320.168 L
1139.512 318.281 L
1140.378 316.4 L
1141.244 314.526 L
1142.11 312.657 L
1142.976 310.795 L
1143.842 308.939 L
1144.708 307.089 L
1145.573 305.247 L
1146.44 303.41 L
1147.305 301.581 L
1148.171 299.758 L
1149.037 297.943 L
1149.903 296.134 L
1150.769 294.333 L
1151.635 292.539 L
1152.501 290.752 L
1153.367 288.972 L
1154.233 287.201 L
1155.099 285.437 L
1155.965 283.68 L
1156.831 281.932 L
1157.697 280.191 L
1158.563 278.459 L
1159.429 276.734 L
1160.295 275.018 L
1161.161 273.311 L
1162.027 271.611 L
1162.893 269.92 L
1163.759 268.238 L
1164.624 266.565 L
1165.49 264.9 L
1166.356 263.244 L
1167.222 261.597 L
1168.088 259.959 L
1168.954 258.33 L
1169.82 256.711 L
1170.686 255.1 L
1171.552 253.5 L
1172.418 251.908 L
1173.284 250.327 L
1174.15 248.755 L
S
GR
GS
[0.75 0 0 0.75 0 0.25] CT
0 0.447 0.741 RC
2 LJ
6.667 LW
N
1174.15 248.755 M
1175.016 247.192 L
1175.882 245.64 L
1176.748 244.097 L
1177.614 242.564 L
1178.48 241.042 L
1179.346 239.53 L
1180.212 238.027 L
1181.078 236.536 L
1181.943 235.054 L
1182.809 233.583 L
1183.675 232.123 L
1184.541 230.673 L
1185.407 229.234 L
1186.273 227.806 L
1187.139 226.389 L
1188.005 224.982 L
1188.871 223.587 L
1189.737 222.202 L
1190.603 220.829 L
1191.469 219.467 L
1192.335 218.117 L
1193.201 216.777 L
1194.067 215.45 L
1194.933 214.133 L
1195.799 212.829 L
1196.665 211.536 L
1197.531 210.254 L
1198.397 208.985 L
1199.263 207.727 L
1200.129 206.481 L
1200.995 205.248 L
1201.86 204.026 L
1202.726 202.816 L
1203.592 201.619 L
1204.458 200.434 L
1205.324 199.261 L
1206.19 198.1 L
1207.056 196.952 L
1207.922 195.817 L
1208.788 194.694 L
1209.654 193.583 L
1210.52 192.485 L
1211.386 191.4 L
1212.252 190.328 L
1213.118 189.268 L
1213.984 188.222 L
1214.85 187.188 L
1215.716 186.167 L
1216.582 185.159 L
S
GR
GS
[0.75 0 0 0.75 0 0.25] CT
0 0.447 0.741 RC
2 LJ
6.667 LW
N
1216.582 185.159 M
1217.448 184.165 L
1218.313 183.183 L
1219.179 182.215 L
1220.045 181.26 L
1220.911 180.318 L
1221.777 179.39 L
1222.643 178.475 L
1223.509 177.573 L
1224.375 176.685 L
1225.241 175.81 L
1226.107 174.949 L
1226.973 174.101 L
1227.839 173.267 L
1228.705 172.447 L
1229.571 171.64 L
1230.437 170.848 L
1231.303 170.069 L
1232.169 169.303 L
1233.035 168.552 L
1233.901 167.815 L
1234.767 167.091 L
1235.633 166.382 L
1236.499 165.686 L
1237.364 165.005 L
1238.23 164.337 L
1239.096 163.684 L
1239.962 163.045 L
1240.828 162.42 L
1241.694 161.809 L
1242.56 161.212 L
1243.426 160.63 L
1244.292 160.062 L
1245.158 159.508 L
1246.024 158.969 L
1246.89 158.444 L
1247.756 157.933 L
1248.622 157.437 L
1249.488 156.955 L
1250.354 156.487 L
1251.22 156.034 L
1252.086 155.595 L
1252.952 155.171 L
1253.818 154.762 L
1254.684 154.366 L
1255.549 153.986 L
1256.415 153.62 L
1257.281 153.268 L
1258.147 152.931 L
1259.013 152.609 L
S
GR
GS
[0.75 0 0 0.75 0 0.25] CT
0 0.447 0.741 RC
2 LJ
6.667 LW
N
1259.013 152.609 M
1259.879 152.301 L
1260.745 152.008 L
1261.611 151.73 L
1262.477 151.466 L
1263.343 151.217 L
1264.209 150.982 L
1265.075 150.762 L
1265.941 150.557 L
1266.807 150.367 L
1267.673 150.191 L
1268.539 150.029 L
1269.405 149.883 L
1270.271 149.751 L
1271.137 149.634 L
1272.003 149.531 L
1272.868 149.443 L
1273.734 149.37 L
1274.6 149.311 L
1275.466 149.267 L
1276.332 149.238 L
1277.198 149.223 L
1278.064 149.223 L
1278.93 149.238 L
1279.796 149.267 L
1280.662 149.311 L
1281.528 149.37 L
1282.394 149.443 L
1283.26 149.53 L
1284.126 149.633 L
1284.992 149.75 L
1285.858 149.881 L
1286.724 150.027 L
1287.59 150.187 L
1288.456 150.362 L
1289.322 150.552 L
1290.188 150.756 L
1291.053 150.974 L
1291.919 151.207 L
1292.785 151.454 L
1293.651 151.715 L
1294.517 151.991 L
1295.383 152.282 L
1296.249 152.586 L
1297.115 152.905 L
1297.981 153.238 L
1298.847 153.586 L
1299.713 153.947 L
1300.579 154.323 L
1301.445 154.713 L
S
GR
GS
[0.75 0 0 0.75 0 0.25] CT
0 0.447 0.741 RC
2 LJ
6.667 LW
N
1301.445 154.713 M
1302.311 155.117 L
1303.177 155.536 L
1304.043 155.968 L
1304.909 156.414 L
1305.775 156.875 L
1306.641 157.349 L
1307.507 157.837 L
1308.372 158.34 L
1309.239 158.856 L
1310.104 159.386 L
1310.97 159.929 L
1311.836 160.487 L
1312.702 161.058 L
1313.568 161.643 L
1314.434 162.242 L
1315.3 162.854 L
1316.166 163.48 L
1317.032 164.119 L
1317.898 164.772 L
1318.764 165.438 L
1319.63 166.117 L
1320.496 166.588 L
1321.362 167.261 L
1322.228 167.934 L
1323.094 168.608 L
1323.96 169.281 L
1324.826 169.955 L
1325.692 170.63 L
1326.557 171.305 L
1327.423 171.981 L
1328.289 172.657 L
1329.155 173.334 L
1330.021 174.012 L
1330.887 174.691 L
1331.753 175.371 L
1332.619 176.053 L
1333.485 176.735 L
1334.351 177.419 L
1335.217 178.104 L
1336.083 178.791 L
1336.949 179.479 L
1337.815 180.168 L
1338.681 180.86 L
1339.547 181.553 L
1340.413 182.248 L
1341.279 182.946 L
1342.145 183.645 L
1343.011 184.346 L
1343.877 185.05 L
S
GR
GS
[0.75 0 0 0.75 0 0.25] CT
0 0.447 0.741 RC
2 LJ
6.667 LW
N
1343.877 185.05 M
1344.743 185.755 L
1345.608 186.463 L
1346.474 187.174 L
1347.34 187.887 L
1348.206 188.603 L
1349.072 189.322 L
1349.938 190.043 L
1350.804 190.767 L
1351.67 191.494 L
1352.536 192.224 L
1353.402 192.958 L
1354.268 193.694 L
1355.134 194.434 L
1356 195.177 L
1356.866 195.923 L
1357.732 196.674 L
1358.598 197.427 L
1359.464 198.185 L
1360.33 198.946 L
1361.196 199.711 L
1362.062 200.48 L
1362.927 201.253 L
1363.793 202.03 L
1364.659 202.812 L
1365.525 203.597 L
1366.391 204.387 L
1367.257 205.182 L
1368.123 205.98 L
1368.989 206.784 L
1369.855 207.592 L
1370.721 208.405 L
1371.587 209.223 L
1372.453 210.046 L
1373.319 210.874 L
1374.185 211.707 L
1375.051 212.545 L
1375.917 213.388 L
1376.783 214.237 L
1377.649 215.091 L
1378.515 215.951 L
1379.381 216.816 L
1380.247 217.688 L
1381.112 218.564 L
1381.978 219.447 L
1382.844 220.335 L
1383.71 221.23 L
1384.576 222.131 L
1385.442 223.038 L
1386.308 223.951 L
S
GR
GS
[0.75 0 0 0.75 0 0.25] CT
0 0.447 0.741 RC
2 LJ
6.667 LW
N
1386.308 223.951 M
1387.174 224.87 L
1388.04 225.796 L
1388.906 226.729 L
1389.772 227.668 L
1390.638 228.613 L
1391.504 229.566 L
1392.37 230.525 L
1393.236 231.491 L
1394.102 232.464 L
1394.968 233.445 L
1395.834 234.432 L
1396.7 235.427 L
1397.566 236.429 L
1398.432 237.439 L
1399.297 238.456 L
1400.163 239.48 L
1401.029 240.512 L
1401.895 241.552 L
1402.761 242.6 L
1403.627 243.656 L
1404.493 244.72 L
1405.359 245.792 L
1406.225 246.872 L
1407.091 247.96 L
1407.957 249.057 L
1408.823 250.162 L
1409.689 251.275 L
1410.555 252.397 L
1411.421 253.528 L
1412.287 254.667 L
1413.153 255.815 L
1414.019 256.972 L
1414.885 258.137 L
1415.751 259.31 L
1416.616 260.493 L
1417.483 261.683 L
1418.348 262.883 L
1419.214 264.091 L
1420.08 265.307 L
1420.946 266.533 L
1421.812 267.766 L
1422.678 269.009 L
1423.544 270.26 L
1424.41 271.519 L
1425.276 272.787 L
1426.142 274.064 L
1427.008 275.35 L
1427.874 276.643 L
1428.74 277.946 L
S
GR
GS
[0.75 0 0 0.75 0 0.25] CT
0 0.447 0.741 RC
2 LJ
6.667 LW
N
1428.74 277.946 M
1429.606 279.257 L
1430.472 280.577 L
1431.338 281.905 L
1432.204 283.242 L
1433.07 284.587 L
1433.936 285.941 L
1434.802 287.304 L
1435.667 288.675 L
1436.533 290.055 L
1437.399 291.444 L
1438.265 292.841 L
1439.131 294.246 L
1439.997 295.66 L
1440.863 297.083 L
1441.729 298.515 L
1442.595 299.955 L
1443.461 301.403 L
1444.327 302.86 L
1445.193 304.326 L
1446.059 305.8 L
1446.925 307.283 L
1447.791 308.775 L
1448.657 310.275 L
1449.523 311.784 L
1450.389 313.301 L
1451.255 314.827 L
1452.12 316.361 L
1452.987 317.904 L
1453.852 319.456 L
1454.718 321.016 L
1455.584 322.585 L
1456.45 324.163 L
1457.316 325.749 L
1458.182 327.343 L
1459.048 328.947 L
1459.914 330.558 L
1460.78 332.179 L
1461.646 333.808 L
1462.512 335.445 L
1463.378 337.091 L
1464.244 338.746 L
1465.11 340.409 L
1465.976 342.081 L
1466.842 343.762 L
1467.708 345.451 L
1468.574 347.149 L
1469.44 348.855 L
1470.306 350.57 L
1471.172 352.293 L
S
GR
GS
[0.75 0 0 0.75 0 0.25] CT
0 0.447 0.741 RC
2 LJ
6.667 LW
N
1471.172 352.293 M
1472.037 354.026 L
1472.903 355.766 L
1473.769 357.515 L
1474.635 359.273 L
1475.501 361.04 L
1476.367 362.815 L
1477.233 364.598 L
1478.099 366.391 L
1478.965 368.191 L
1479.831 370.001 L
1480.697 371.819 L
1481.563 373.645 L
1482.429 375.481 L
1483.295 377.324 L
1484.161 379.177 L
1485.027 381.038 L
1485.893 382.907 L
1486.759 384.785 L
1487.625 386.672 L
1488.491 388.567 L
1489.356 390.471 L
1490.222 392.384 L
1491.089 394.305 L
1491.954 396.234 L
1492.82 398.173 L
1493.686 400.12 L
1494.552 402.075 L
1495.418 404.039 L
1496.284 406.012 L
1497.15 407.993 L
1498.016 409.983 L
1498.882 411.981 L
1499.748 413.988 L
1500.614 416.004 L
1501.48 418.027 L
1502.346 420.059 L
1503.212 422.098 L
1504.078 424.144 L
1504.944 426.197 L
1505.81 428.256 L
1506.676 430.322 L
1507.542 432.392 L
1508.407 434.469 L
1509.273 436.55 L
1510.139 438.635 L
1511.005 440.725 L
1511.871 442.819 L
1512.737 444.916 L
1513.603 447.016 L
S
GR
GS
[0.75 0 0 0.75 0 0.25] CT
0 0.447 0.741 RC
2 LJ
6.667 LW
N
1513.603 447.016 M
1514.469 449.119 L
1515.335 451.225 L
1516.201 453.332 L
1517.067 455.441 L
1517.933 457.551 L
1518.799 459.662 L
1519.665 461.773 L
1520.531 463.885 L
1521.397 465.997 L
1522.263 468.108 L
1523.129 470.218 L
1523.995 472.326 L
1524.86 474.433 L
1525.727 476.538 L
1526.592 478.641 L
1527.458 480.741 L
1528.324 482.837 L
1529.19 484.931 L
1530.056 487.02 L
1530.922 489.105 L
1531.788 491.186 L
1532.654 493.261 L
1533.52 495.331 L
1534.386 497.396 L
1535.252 499.454 L
1536.118 501.506 L
1536.984 503.551 L
1537.85 505.589 L
1538.716 507.62 L
1539.582 509.643 L
1540.448 511.657 L
1541.314 513.663 L
1542.18 515.66 L
1543.046 517.647 L
1543.911 519.625 L
1544.777 521.592 L
1545.643 523.55 L
1546.509 525.496 L
1547.375 527.431 L
1548.241 529.355 L
1549.107 531.266 L
1549.973 533.166 L
1550.839 535.053 L
1551.705 536.927 L
1552.571 538.787 L
1553.437 540.634 L
1554.303 542.466 L
1555.169 544.284 L
1556.035 546.087 L
S
GR
GS
[0.75 0 0 0.75 0 0.25] CT
0 0.447 0.741 RC
2 LJ
6.667 LW
N
1556.035 546.087 M
1556.901 547.875 L
1557.767 549.648 L
1558.633 551.404 L
1559.499 553.145 L
1560.365 554.868 L
1561.231 556.575 L
1562.096 558.264 L
1562.962 559.935 L
1563.828 561.588 L
1564.694 563.223 L
1565.56 564.839 L
1566.426 566.436 L
1567.292 568.013 L
1568.158 569.57 L
1569.024 571.106 L
1569.89 572.622 L
1570.756 574.117 L
1571.622 575.591 L
1572.488 577.043 L
1573.354 578.472 L
1574.22 579.879 L
1575.086 581.263 L
1575.952 582.624 L
1576.818 583.962 L
1577.684 585.275 L
1578.55 586.564 L
1579.416 587.828 L
1580.281 589.067 L
1581.147 590.281 L
1582.013 591.469 L
1582.879 592.631 L
1583.745 593.766 L
1584.611 594.874 L
1585.477 595.955 L
1586.343 597.009 L
1587.209 598.034 L
1588.075 599.031 L
1588.941 599.999 L
1589.807 600.938 L
1590.673 601.848 L
1591.539 602.729 L
1592.405 603.581 L
1593.271 604.404 L
1594.137 605.2 L
1595.003 605.967 L
1595.869 606.707 L
1596.735 607.419 L
1597.6 608.105 L
1598.466 608.763 L
S
GR
GS
[0.75 0 0 0.75 0 0.25] CT
0 0.447 0.741 RC
2 LJ
6.667 LW
N
1598.466 608.763 M
1599.333 609.395 L
1600.198 610.001 L
1601.064 610.581 L
1601.93 611.135 L
1602.796 611.664 L
1603.662 612.168 L
1604.528 612.647 L
1605.394 613.102 L
1606.26 613.532 L
1607.126 613.939 L
1607.992 614.321 L
1608.858 614.681 L
1609.724 615.017 L
1610.59 615.33 L
1611.456 615.621 L
1612.322 615.89 L
1613.188 616.136 L
1614.054 616.361 L
1614.92 616.565 L
1615.786 616.747 L
1616.651 616.909 L
1617.517 617.05 L
1618.383 617.171 L
1619.249 617.272 L
1620.115 617.353 L
1620.981 617.414 L
1621.847 617.457 L
1622.713 617.481 L
1623.579 617.486 L
1624.445 617.473 L
1625.311 617.441 L
1626.177 617.392 L
1627.043 617.326 L
1627.909 617.243 L
1628.775 617.142 L
1629.641 617.025 L
1630.507 616.892 L
1631.373 616.743 L
1632.239 616.578 L
1633.104 616.397 L
1633.97 616.202 L
1634.836 615.991 L
1635.702 615.766 L
1636.568 615.526 L
1637.434 615.273 L
1638.3 615.006 L
1639.166 614.725 L
1640.032 614.431 L
1640.898 614.124 L
S
GR
GS
[0.75 0 0 0.75 0 0.25] CT
0 0.447 0.741 RC
2 LJ
6.667 LW
N
1640.898 614.124 M
1641.764 613.805 L
1642.63 613.473 L
1643.496 613.129 L
1644.362 612.773 L
1645.228 612.406 L
1646.094 612.028 L
1646.96 611.638 L
1647.826 611.239 L
1648.692 610.828 L
1649.558 610.408 L
1650.424 609.978 L
1651.29 609.538 L
1652.156 609.089 L
1653.021 608.631 L
1653.887 608.165 L
1654.753 607.69 L
1655.619 607.207 L
1656.485 606.716 L
1657.351 606.218 L
1658.217 605.712 L
1659.083 605.2 L
1659.949 604.68 L
1660.815 604.155 L
1661.681 603.623 L
1662.547 603.086 L
1663.413 602.542 L
1664.279 601.994 L
1665.145 601.441 L
1666.011 600.883 L
1666.877 600.32 L
1667.743 599.753 L
1668.609 599.183 L
1669.475 598.609 L
1670.34 598.032 L
1671.206 597.451 L
1672.072 596.868 L
1672.938 596.283 L
1673.804 595.695 L
1674.67 595.106 L
1675.536 594.515 L
1676.402 593.922 L
1677.268 593.329 L
1678.134 592.735 L
1679 592.14 L
S
GR
GS
[0.75 0 0 0.75 0 0.25] CT
0.851 0.325 0.098 RC
2 LJ
6.667 LW
N
241 618.988 M
241.866 616.36 L
242.732 613.928 L
243.598 611.684 L
244.464 609.619 L
245.33 607.724 L
246.196 605.993 L
247.062 604.416 L
247.928 602.986 L
248.794 601.697 L
249.66 600.541 L
250.525 599.512 L
251.391 598.603 L
252.257 597.809 L
253.123 597.124 L
253.989 596.541 L
254.855 596.056 L
255.721 595.664 L
256.587 595.359 L
257.453 595.137 L
258.319 594.993 L
259.185 594.924 L
260.051 594.924 L
260.917 594.991 L
261.783 595.119 L
262.649 595.306 L
263.515 595.548 L
264.381 595.841 L
265.247 596.183 L
266.113 596.571 L
266.979 597.001 L
267.845 597.471 L
268.71 597.977 L
269.576 598.519 L
270.442 599.092 L
271.308 599.695 L
272.174 600.326 L
273.04 600.982 L
273.906 601.662 L
274.772 602.363 L
275.638 603.084 L
276.504 603.823 L
277.37 604.579 L
278.236 605.349 L
279.102 606.132 L
279.968 606.927 L
280.834 607.733 L
281.7 608.547 L
282.566 609.37 L
283.432 610.2 L
S
GR
GS
[0.75 0 0 0.75 0 0.25] CT
0.851 0.325 0.098 RC
2 LJ
6.667 LW
N
283.432 610.2 M
284.298 611.035 L
285.164 611.875 L
286.03 612.719 L
286.895 613.565 L
287.761 614.413 L
288.627 615.263 L
289.493 616.112 L
290.359 616.961 L
291.225 617.809 L
292.091 618.655 L
292.957 619.499 L
293.823 620.339 L
294.689 621.176 L
295.555 622.009 L
296.421 622.837 L
297.287 623.66 L
298.153 624.478 L
299.019 625.29 L
299.885 626.096 L
300.751 626.895 L
301.617 627.687 L
302.483 628.472 L
303.349 629.25 L
304.215 630.019 L
305.08 630.782 L
305.946 631.536 L
306.812 632.281 L
307.678 633.018 L
308.544 633.747 L
309.41 634.467 L
310.276 635.178 L
311.142 635.88 L
312.008 636.573 L
312.874 637.257 L
313.74 637.932 L
314.606 638.597 L
315.472 639.253 L
316.338 639.9 L
317.204 640.537 L
318.07 641.165 L
318.936 641.784 L
319.802 642.393 L
320.668 642.993 L
321.534 643.583 L
322.4 644.164 L
323.265 644.736 L
324.131 645.299 L
324.997 645.852 L
325.863 646.397 L
S
GR
GS
[0.75 0 0 0.75 0 0.25] CT
0.851 0.325 0.098 RC
2 LJ
6.667 LW
N
325.863 646.397 M
326.729 646.932 L
327.595 647.458 L
328.461 647.975 L
329.327 648.483 L
330.193 648.983 L
331.059 649.473 L
331.925 649.955 L
332.791 650.428 L
333.657 650.893 L
334.523 651.349 L
335.389 651.797 L
336.255 652.237 L
337.121 652.668 L
337.987 653.092 L
338.853 653.507 L
339.719 653.914 L
340.585 654.314 L
341.45 654.706 L
342.316 655.091 L
343.182 655.468 L
344.048 655.837 L
344.914 656.2 L
345.78 656.555 L
346.646 656.903 L
347.512 657.244 L
348.378 657.578 L
349.244 657.905 L
350.11 658.226 L
350.976 658.54 L
351.842 658.848 L
352.708 659.15 L
353.574 659.445 L
354.44 659.734 L
355.306 660.017 L
356.172 660.294 L
357.038 660.565 L
357.904 660.83 L
358.77 661.09 L
359.635 661.344 L
360.501 661.593 L
361.367 661.837 L
362.233 662.075 L
363.099 662.308 L
363.965 662.536 L
364.831 662.759 L
365.697 662.977 L
366.563 663.19 L
367.429 663.399 L
368.295 663.603 L
S
GR
GS
[0.75 0 0 0.75 0 0.25] CT
0.851 0.325 0.098 RC
2 LJ
6.667 LW
N
368.295 663.603 M
369.161 663.802 L
370.027 663.997 L
370.893 664.188 L
371.759 664.374 L
372.625 664.556 L
373.491 664.734 L
374.357 664.909 L
375.223 665.079 L
376.089 665.245 L
376.954 665.407 L
377.82 665.566 L
378.686 665.721 L
379.552 665.872 L
380.418 666.02 L
381.284 666.165 L
382.15 666.306 L
383.016 666.444 L
383.882 666.579 L
384.748 666.711 L
385.614 666.839 L
386.48 666.964 L
387.346 667.087 L
388.212 667.207 L
389.078 667.323 L
389.944 667.438 L
390.81 667.549 L
391.676 667.657 L
392.542 667.764 L
393.408 667.867 L
394.274 667.968 L
395.139 668.067 L
396.005 668.163 L
396.871 668.257 L
397.737 668.349 L
398.603 668.438 L
399.469 668.525 L
400.335 668.611 L
401.201 668.694 L
402.067 668.775 L
402.933 668.854 L
403.799 668.931 L
404.665 669.006 L
405.531 669.08 L
406.397 669.151 L
407.263 669.221 L
408.129 669.289 L
408.995 669.356 L
409.861 669.42 L
410.727 669.484 L
S
GR
GS
[0.75 0 0 0.75 0 0.25] CT
0.851 0.325 0.098 RC
2 LJ
6.667 LW
N
410.727 669.484 M
411.593 669.545 L
412.458 669.605 L
413.324 669.664 L
414.19 669.721 L
415.056 669.776 L
415.922 669.831 L
416.788 669.884 L
417.654 669.935 L
418.52 669.985 L
419.386 670.034 L
420.252 670.082 L
421.118 670.129 L
421.984 670.174 L
422.85 670.218 L
423.716 670.261 L
424.582 670.303 L
425.448 670.344 L
426.314 670.384 L
427.18 670.423 L
428.046 670.461 L
428.912 670.498 L
429.778 670.534 L
430.643 670.569 L
431.509 670.603 L
432.375 670.636 L
433.241 670.668 L
434.107 670.7 L
434.973 670.731 L
435.839 670.76 L
436.705 670.79 L
437.571 670.818 L
438.437 670.846 L
439.303 670.872 L
440.169 670.899 L
441.035 670.924 L
441.901 670.949 L
442.767 670.973 L
443.633 670.997 L
444.499 671.02 L
445.365 671.042 L
446.231 671.064 L
447.097 671.085 L
447.963 671.106 L
448.828 671.126 L
449.694 671.145 L
450.56 671.164 L
451.426 671.183 L
452.292 671.201 L
453.158 671.218 L
S
GR
GS
[0.75 0 0 0.75 0 0.25] CT
0.851 0.325 0.098 RC
2 LJ
6.667 LW
N
453.158 671.218 M
454.024 671.235 L
454.89 671.252 L
455.756 671.268 L
456.622 671.284 L
457.488 671.299 L
458.354 671.314 L
459.22 671.329 L
460.086 671.343 L
460.952 671.356 L
461.818 671.37 L
462.684 671.383 L
463.55 671.396 L
464.416 671.408 L
465.282 671.42 L
466.148 671.431 L
467.013 671.443 L
467.879 671.454 L
468.745 671.465 L
469.611 671.475 L
470.477 671.485 L
471.343 671.495 L
472.209 671.505 L
473.075 671.514 L
473.941 671.523 L
474.807 671.532 L
475.673 671.54 L
476.539 671.549 L
477.405 671.557 L
478.271 671.565 L
479.137 671.573 L
480.003 671.58 L
480.869 671.587 L
481.735 671.594 L
482.601 671.601 L
483.467 671.608 L
484.333 671.614 L
485.198 671.621 L
486.064 671.627 L
486.93 671.633 L
487.796 671.639 L
488.662 671.644 L
489.528 671.65 L
490.394 671.655 L
491.26 671.66 L
492.126 671.665 L
492.992 671.67 L
493.858 671.675 L
494.724 671.68 L
495.59 671.684 L
S
GR
GS
[0.75 0 0 0.75 0 0.25] CT
0.851 0.325 0.098 RC
2 LJ
6.667 LW
N
495.59 671.684 M
496.456 671.689 L
497.322 671.693 L
498.188 671.697 L
499.054 671.701 L
499.92 671.705 L
500.786 671.709 L
501.652 671.712 L
502.518 671.716 L
503.383 671.719 L
504.249 671.723 L
505.115 671.726 L
505.981 671.729 L
506.847 671.732 L
507.713 671.735 L
508.579 671.738 L
509.445 671.741 L
510.311 671.744 L
511.177 671.747 L
512.043 671.749 L
512.909 671.752 L
513.775 671.754 L
514.641 671.757 L
515.507 671.759 L
516.373 671.761 L
517.239 671.763 L
518.105 671.765 L
518.971 671.768 L
519.837 671.77 L
520.703 671.771 L
521.568 671.773 L
522.434 671.775 L
523.3 671.777 L
524.166 671.779 L
525.032 671.78 L
525.898 671.782 L
526.764 671.784 L
527.63 671.785 L
528.496 671.787 L
529.362 671.788 L
530.228 671.789 L
531.094 671.791 L
531.96 671.792 L
532.826 671.793 L
533.692 671.795 L
534.558 671.796 L
535.424 671.797 L
536.29 671.798 L
537.156 671.799 L
538.022 671.8 L
S
GR
GS
[0.75 0 0 0.75 0 0.25] CT
0.851 0.325 0.098 RC
2 LJ
6.667 LW
N
538.022 671.8 M
538.888 671.802 L
539.753 671.803 L
540.619 671.804 L
541.485 671.804 L
542.351 671.805 L
543.217 671.806 L
544.083 671.807 L
544.949 671.808 L
545.815 671.809 L
546.681 671.81 L
547.547 671.81 L
548.413 671.811 L
549.279 671.812 L
550.145 671.813 L
551.011 671.813 L
551.877 671.814 L
552.743 671.815 L
553.609 671.815 L
554.475 671.816 L
555.341 671.816 L
556.207 671.817 L
557.073 671.818 L
557.938 671.818 L
558.804 671.819 L
559.67 671.819 L
560.536 671.82 L
561.402 671.82 L
562.268 671.821 L
563.134 671.821 L
564 671.821 L
564.866 671.822 L
565.732 671.822 L
566.598 671.823 L
567.464 671.823 L
568.33 671.823 L
569.196 671.824 L
570.062 671.824 L
570.928 671.824 L
571.794 671.825 L
572.66 671.825 L
573.526 671.825 L
574.392 671.826 L
575.258 671.826 L
576.123 671.826 L
576.989 671.827 L
577.855 671.827 L
578.721 671.827 L
579.587 671.827 L
580.453 671.828 L
S
GR
GS
[0.75 0 0 0.75 0 0.25] CT
0.851 0.325 0.098 RC
2 LJ
6.667 LW
N
580.453 671.828 M
581.319 671.828 L
582.185 671.828 L
583.051 671.828 L
583.917 671.828 L
584.783 671.829 L
585.649 671.829 L
586.515 671.829 L
587.381 671.829 L
588.247 671.829 L
589.113 671.83 L
589.979 671.83 L
590.845 671.83 L
591.711 671.83 L
592.577 671.83 L
593.443 671.83 L
594.308 671.831 L
595.174 671.831 L
596.04 671.831 L
596.906 671.831 L
597.772 671.831 L
598.638 671.831 L
599.504 671.831 L
600.37 671.831 L
601.236 671.832 L
602.102 671.832 L
602.968 671.832 L
603.834 671.832 L
604.7 671.832 L
605.566 671.832 L
606.432 671.832 L
607.298 671.832 L
608.164 671.832 L
609.03 671.832 L
609.896 671.833 L
610.762 671.833 L
611.628 671.833 L
612.493 671.833 L
613.359 671.833 L
614.225 671.833 L
615.091 671.833 L
615.957 671.833 L
616.823 671.833 L
617.689 671.833 L
618.555 671.833 L
619.421 671.833 L
620.287 671.833 L
621.153 671.833 L
622.019 671.833 L
622.885 671.833 L
S
GR
GS
[0.75 0 0 0.75 0 0.25] CT
0.851 0.325 0.098 RC
2 LJ
6.667 LW
N
622.885 671.833 M
623.751 671.834 L
624.617 671.834 L
625.483 671.834 L
626.349 671.834 L
627.215 671.834 L
628.081 671.834 L
628.947 671.834 L
629.813 671.834 L
630.678 671.834 L
631.544 671.834 L
632.41 671.834 L
633.276 671.834 L
634.142 671.834 L
635.008 671.834 L
635.874 671.834 L
636.74 671.834 L
637.606 671.834 L
638.472 671.834 L
639.338 671.834 L
640.204 671.834 L
641.07 671.834 L
641.936 671.834 L
642.802 671.834 L
643.668 671.834 L
644.534 671.834 L
645.4 671.834 L
646.266 671.834 L
647.132 671.834 L
647.997 671.834 L
648.863 671.834 L
649.729 671.834 L
650.595 671.834 L
651.461 671.835 L
652.327 671.835 L
653.193 671.835 L
654.059 671.835 L
654.925 671.835 L
655.791 671.835 L
656.657 671.835 L
657.523 671.835 L
658.389 671.835 L
659.255 671.835 L
660.121 671.835 L
660.987 671.835 L
661.853 671.835 L
662.719 671.835 L
663.585 671.835 L
664.451 671.835 L
665.317 671.835 L
S
GR
GS
[0.75 0 0 0.75 0 0.25] CT
0.851 0.325 0.098 RC
2 LJ
6.667 LW
N
665.317 671.835 M
666.182 671.835 L
667.048 671.835 L
667.914 671.835 L
668.78 671.835 L
669.646 671.835 L
670.512 671.835 L
671.378 671.835 L
672.244 671.835 L
673.11 671.835 L
673.976 671.835 L
674.842 671.835 L
675.708 671.835 L
676.574 671.835 L
677.44 671.835 L
678.306 671.835 L
679.172 671.835 L
680.038 671.835 L
680.904 671.835 L
681.77 671.835 L
682.636 671.835 L
683.501 671.835 L
684.367 671.835 L
685.233 671.835 L
686.099 671.835 L
686.965 671.835 L
687.831 671.835 L
688.697 671.835 L
689.563 671.835 L
690.429 671.835 L
691.295 671.835 L
692.161 671.835 L
693.027 671.835 L
693.893 671.835 L
694.759 671.835 L
695.625 671.835 L
696.491 671.835 L
697.357 671.835 L
698.223 671.835 L
699.089 671.835 L
699.955 671.835 L
700.821 671.835 L
701.687 671.835 L
702.552 671.835 L
703.418 671.835 L
704.284 671.835 L
705.15 671.835 L
706.016 671.835 L
706.882 671.835 L
707.748 671.835 L
S
GR
GS
[0.75 0 0 0.75 0 0.25] CT
0.851 0.325 0.098 RC
2 LJ
6.667 LW
N
707.748 671.835 M
708.614 671.835 L
709.48 671.835 L
710.346 671.835 L
711.212 671.835 L
712.078 671.835 L
712.944 671.835 L
713.81 671.835 L
714.676 671.835 L
715.542 671.835 L
716.408 671.835 L
717.274 671.835 L
718.14 671.835 L
719.006 671.835 L
719.871 671.835 L
720.737 671.835 L
721.603 671.835 L
722.469 671.835 L
723.335 671.835 L
724.201 671.835 L
725.067 671.835 L
725.933 671.835 L
726.799 671.835 L
727.665 671.835 L
728.531 671.835 L
729.397 671.835 L
730.263 671.835 L
731.129 671.835 L
731.995 671.835 L
732.861 671.835 L
733.727 671.835 L
734.593 671.835 L
735.459 671.835 L
736.325 671.835 L
737.191 671.835 L
738.056 671.835 L
738.922 671.835 L
739.788 671.835 L
740.654 671.835 L
741.52 671.835 L
742.386 671.835 L
743.252 671.835 L
744.118 671.835 L
744.984 671.835 L
745.85 671.835 L
746.716 671.835 L
747.582 671.835 L
748.448 671.835 L
749.314 671.835 L
750.18 671.835 L
S
GR
GS
[0.75 0 0 0.75 0 0.25] CT
0.851 0.325 0.098 RC
2 LJ
6.667 LW
N
750.18 671.835 M
751.046 671.835 L
751.912 671.835 L
752.778 671.835 L
753.644 671.835 L
754.51 671.835 L
755.375 671.835 L
756.242 671.835 L
757.107 671.835 L
757.973 671.835 L
758.839 671.835 L
759.705 671.835 L
760.571 671.835 L
761.437 671.835 L
762.303 671.835 L
763.169 671.835 L
764.035 671.835 L
764.901 671.835 L
765.767 671.835 L
766.633 671.835 L
767.499 671.835 L
768.365 671.835 L
769.231 671.835 L
770.097 671.835 L
770.963 671.835 L
771.829 671.835 L
772.695 671.835 L
773.561 671.835 L
774.426 671.835 L
775.292 671.835 L
776.158 671.835 L
777.024 671.835 L
777.89 671.835 L
778.756 671.835 L
779.622 671.835 L
780.488 671.835 L
781.354 671.835 L
782.22 671.835 L
783.086 671.835 L
783.952 671.835 L
784.818 671.835 L
785.684 671.835 L
786.55 671.835 L
787.416 671.835 L
788.282 671.835 L
789.148 671.835 L
790.014 671.835 L
790.88 671.835 L
791.745 671.835 L
792.612 671.835 L
S
GR
GS
[0.75 0 0 0.75 0 0.25] CT
0.851 0.325 0.098 RC
2 LJ
6.667 LW
N
792.612 671.835 M
793.477 671.835 L
794.343 671.835 L
795.209 671.835 L
796.075 671.835 L
796.941 671.835 L
797.807 671.835 L
798.673 671.835 L
799.539 671.835 L
800.405 671.835 L
801.271 671.835 L
802.137 671.835 L
803.003 671.835 L
803.869 671.835 L
804.735 671.835 L
805.601 671.835 L
806.467 671.835 L
807.333 671.835 L
808.199 671.835 L
809.065 671.835 L
809.931 671.835 L
810.796 671.835 L
811.662 671.835 L
812.528 671.835 L
813.394 671.835 L
814.26 671.835 L
815.126 671.835 L
815.992 671.835 L
816.858 671.835 L
817.724 671.835 L
818.59 671.835 L
819.456 671.835 L
820.322 671.835 L
821.188 671.835 L
822.054 671.835 L
822.92 671.835 L
823.786 671.835 L
824.652 671.835 L
825.518 671.835 L
826.384 671.835 L
827.25 671.835 L
828.115 671.835 L
828.981 671.835 L
829.847 671.835 L
830.713 671.835 L
831.579 671.835 L
832.445 671.835 L
833.311 671.835 L
834.177 671.835 L
835.043 671.835 L
S
GR
GS
[0.75 0 0 0.75 0 0.25] CT
0.851 0.325 0.098 RC
2 LJ
6.667 LW
N
835.043 671.835 M
835.909 671.835 L
836.775 671.835 L
837.641 671.835 L
838.507 671.835 L
839.373 671.835 L
840.239 671.835 L
841.105 671.835 L
841.971 671.835 L
842.837 671.835 L
843.703 671.835 L
844.569 671.835 L
845.435 671.835 L
846.3 671.835 L
847.166 671.835 L
848.032 671.835 L
848.898 671.835 L
849.764 671.835 L
850.63 671.835 L
851.496 671.835 L
852.362 671.835 L
853.228 671.835 L
854.094 671.835 L
854.96 671.835 L
855.826 671.835 L
856.692 671.835 L
857.558 671.835 L
858.424 671.835 L
859.29 671.835 L
860.156 671.835 L
861.022 671.835 L
861.888 671.835 L
862.754 671.835 L
863.62 671.835 L
864.486 671.835 L
865.351 671.835 L
866.217 671.835 L
867.083 671.835 L
867.949 671.835 L
868.815 671.835 L
869.681 671.835 L
870.547 671.835 L
871.413 671.835 L
872.279 671.835 L
873.145 671.835 L
874.011 671.835 L
874.877 671.835 L
875.743 671.835 L
876.609 671.835 L
877.475 671.835 L
S
GR
GS
[0.75 0 0 0.75 0 0.25] CT
0.851 0.325 0.098 RC
2 LJ
6.667 LW
N
877.475 671.835 M
878.341 671.835 L
879.207 671.835 L
880.073 671.835 L
880.939 671.835 L
881.805 671.835 L
882.67 671.835 L
883.536 671.835 L
884.402 671.835 L
885.268 671.835 L
886.134 671.835 L
887 671.835 L
887.866 671.835 L
888.732 671.835 L
889.598 671.835 L
890.464 671.835 L
891.33 671.835 L
892.196 671.835 L
893.062 671.835 L
893.928 671.835 L
894.794 671.835 L
895.66 671.835 L
896.526 671.835 L
897.392 671.835 L
898.258 671.835 L
899.124 671.835 L
899.99 671.835 L
900.855 671.835 L
901.721 671.835 L
902.587 671.835 L
903.453 671.835 L
904.319 671.835 L
905.185 671.835 L
906.051 671.835 L
906.917 671.835 L
907.783 671.835 L
908.649 671.835 L
909.515 671.835 L
910.381 671.835 L
911.247 671.835 L
912.113 671.835 L
912.979 671.835 L
913.845 671.835 L
914.711 671.835 L
915.577 671.835 L
916.443 671.835 L
917.309 671.835 L
918.174 671.835 L
919.04 671.835 L
919.906 671.835 L
S
GR
GS
[0.75 0 0 0.75 0 0.25] CT
0.851 0.325 0.098 RC
2 LJ
6.667 LW
N
919.906 671.835 M
920.772 671.835 L
921.638 671.835 L
922.504 671.835 L
923.37 671.835 L
924.236 671.835 L
925.102 671.835 L
925.968 671.835 L
926.834 671.835 L
927.7 671.835 L
928.566 671.835 L
929.432 671.835 L
930.298 671.835 L
931.164 671.835 L
932.03 671.835 L
932.896 671.835 L
933.762 671.835 L
934.628 671.835 L
935.494 671.835 L
936.359 671.835 L
937.225 671.835 L
938.091 671.835 L
938.957 671.835 L
939.823 671.835 L
940.689 671.835 L
941.555 671.835 L
942.421 671.835 L
943.287 671.835 L
944.153 671.835 L
945.019 671.835 L
945.885 671.835 L
946.751 671.835 L
947.617 671.835 L
948.483 671.835 L
949.349 671.835 L
950.215 671.835 L
951.081 671.835 L
951.947 671.835 L
952.813 671.835 L
953.679 671.835 L
954.544 671.835 L
955.41 671.835 L
956.276 671.835 L
957.142 671.835 L
958.008 671.835 L
958.874 671.835 L
959.74 671.835 L
960.26 671.859 L
961.126 671.061 L
961.992 670.249 L
S
GR
GS
[0.75 0 0 0.75 0 0.25] CT
0.851 0.325 0.098 RC
2 LJ
6.667 LW
N
961.992 670.249 M
962.858 669.422 L
963.724 668.581 L
964.59 667.725 L
965.456 666.855 L
966.321 665.971 L
967.187 665.072 L
968.053 664.159 L
968.919 663.232 L
969.785 662.291 L
970.651 661.336 L
971.517 660.367 L
972.383 659.384 L
973.249 658.387 L
974.115 657.376 L
974.981 656.352 L
975.847 655.314 L
976.713 654.262 L
977.579 653.197 L
978.445 652.119 L
979.311 651.027 L
980.177 649.921 L
981.043 648.803 L
981.909 647.671 L
982.775 646.526 L
983.64 645.368 L
984.506 644.197 L
985.372 643.013 L
986.238 641.817 L
987.104 640.607 L
987.97 639.385 L
988.836 638.151 L
989.702 636.903 L
990.568 635.644 L
991.434 634.372 L
992.3 633.087 L
993.166 631.791 L
994.032 630.482 L
994.898 629.162 L
995.764 627.829 L
996.63 626.484 L
997.496 625.128 L
998.362 623.76 L
999.228 622.38 L
1000.094 620.989 L
1000.96 619.586 L
1001.826 618.172 L
1002.691 616.747 L
1003.557 615.31 L
1004.423 613.862 L
S
GR
GS
[0.75 0 0 0.75 0 0.25] CT
0.851 0.325 0.098 RC
2 LJ
6.667 LW
N
1004.423 613.862 M
1005.289 612.403 L
1006.155 610.934 L
1007.021 609.453 L
1007.887 607.962 L
1008.753 606.459 L
1009.619 604.947 L
1010.485 603.424 L
1011.351 601.89 L
1012.217 600.346 L
1013.083 598.792 L
1013.949 597.227 L
1014.815 595.653 L
1015.681 594.069 L
1016.547 592.475 L
1017.413 590.871 L
1018.279 589.257 L
1019.145 587.634 L
1020.01 586.001 L
1020.876 584.359 L
1021.742 582.708 L
1022.608 581.048 L
1023.474 579.378 L
1024.34 577.7 L
1025.206 576.013 L
1026.072 574.316 L
1026.938 572.612 L
1027.804 570.898 L
1028.67 569.176 L
1029.536 567.446 L
1030.402 565.708 L
1031.268 563.961 L
1032.134 562.206 L
1033 560.444 L
1033.866 558.673 L
1034.732 556.895 L
1035.598 555.109 L
1036.464 553.315 L
1037.329 551.514 L
1038.195 549.706 L
1039.061 547.891 L
1039.927 546.068 L
1040.793 544.238 L
1041.659 542.402 L
1042.525 540.559 L
1043.391 538.709 L
1044.257 536.852 L
1045.123 534.989 L
1045.989 533.119 L
1046.855 531.244 L
S
GR
GS
[0.75 0 0 0.75 0 0.25] CT
0.851 0.325 0.098 RC
2 LJ
6.667 LW
N
1046.855 531.244 M
1047.721 529.362 L
1048.587 527.474 L
1049.453 525.58 L
1050.319 523.681 L
1051.185 521.775 L
1052.051 519.865 L
1052.917 517.948 L
1053.783 516.026 L
1054.649 514.099 L
1055.515 512.167 L
1056.38 510.23 L
1057.246 508.288 L
1058.112 506.341 L
1058.978 504.389 L
1059.844 502.433 L
1060.71 500.472 L
1061.576 498.507 L
1062.442 496.538 L
1063.308 494.565 L
1064.174 492.587 L
1065.04 490.606 L
1065.906 488.621 L
1066.772 486.632 L
1067.638 484.64 L
1068.504 482.644 L
1069.37 480.645 L
1070.236 478.643 L
1071.102 476.637 L
1071.968 474.629 L
1072.834 472.617 L
1073.699 470.603 L
1074.565 468.587 L
1075.431 466.568 L
1076.297 464.546 L
1077.163 462.522 L
1078.029 460.496 L
1078.895 458.468 L
1079.761 456.438 L
1080.627 454.406 L
1081.493 452.373 L
1082.359 450.337 L
1083.225 448.301 L
1084.091 446.263 L
1084.957 444.224 L
1085.823 442.183 L
1086.689 440.142 L
1087.555 438.1 L
1088.421 436.056 L
1089.287 434.013 L
S
GR
GS
[0.75 0 0 0.75 0 0.25] CT
0.851 0.325 0.098 RC
2 LJ
6.667 LW
N
1089.287 434.013 M
1090.153 431.969 L
1091.019 429.924 L
1091.885 427.879 L
1092.75 425.834 L
1093.616 423.788 L
1094.482 421.743 L
1095.348 419.698 L
1096.214 417.653 L
1097.08 415.609 L
1097.946 413.565 L
1098.812 411.522 L
1099.678 409.479 L
1100.544 407.437 L
1101.41 405.397 L
1102.276 403.357 L
1103.142 401.319 L
1104.008 399.281 L
1104.874 397.246 L
1105.74 395.211 L
1106.606 393.179 L
1107.472 391.148 L
1108.338 389.119 L
1109.203 387.092 L
1110.069 385.068 L
1110.936 383.045 L
1111.801 381.025 L
1112.667 379.007 L
1113.533 376.992 L
1114.399 374.979 L
1115.265 372.969 L
1116.131 370.963 L
1116.997 368.959 L
1117.863 366.958 L
1118.729 364.961 L
1119.595 362.967 L
1120.461 360.976 L
1121.327 358.989 L
1122.193 357.006 L
1123.059 355.026 L
1123.925 353.05 L
1124.791 351.079 L
1125.657 349.111 L
1126.523 347.148 L
1127.389 345.189 L
1128.255 343.235 L
1129.12 341.285 L
1129.986 339.339 L
1130.852 337.399 L
1131.718 335.463 L
S
GR
GS
[0.75 0 0 0.75 0 0.25] CT
0.851 0.325 0.098 RC
2 LJ
6.667 LW
N
1131.718 335.463 M
1132.584 333.533 L
1133.45 331.607 L
1134.316 329.687 L
1135.182 327.772 L
1136.048 325.863 L
1136.914 323.959 L
1137.78 322.061 L
1138.646 320.168 L
1139.512 318.281 L
1140.378 316.4 L
1141.244 314.526 L
1142.11 312.657 L
1142.976 310.795 L
1143.842 308.939 L
1144.708 307.089 L
1145.573 305.247 L
1146.44 303.41 L
1147.305 301.581 L
1148.171 299.758 L
1149.037 297.943 L
1149.903 296.134 L
1150.769 294.333 L
1151.635 292.539 L
1152.501 290.752 L
1153.367 288.972 L
1154.233 287.201 L
1155.099 285.437 L
1155.965 283.68 L
1156.831 281.932 L
1157.697 280.191 L
1158.563 278.459 L
1159.429 276.734 L
1160.295 275.018 L
1161.161 273.311 L
1162.027 271.611 L
1162.893 269.92 L
1163.759 268.238 L
1164.624 266.565 L
1165.49 264.9 L
1166.356 263.244 L
1167.222 261.597 L
1168.088 259.959 L
1168.954 258.33 L
1169.82 256.711 L
1170.686 255.1 L
1171.552 253.5 L
1172.418 251.908 L
1173.284 250.327 L
1174.15 248.755 L
S
GR
GS
[0.75 0 0 0.75 0 0.25] CT
0.851 0.325 0.098 RC
2 LJ
6.667 LW
N
1174.15 248.755 M
1175.016 247.192 L
1175.882 245.64 L
1176.748 244.097 L
1177.614 242.564 L
1178.48 241.042 L
1179.346 239.53 L
1180.212 238.027 L
1181.078 236.536 L
1181.943 235.054 L
1182.809 233.583 L
1183.675 232.123 L
1184.541 230.673 L
1185.407 229.234 L
1186.273 227.806 L
1187.139 226.389 L
1188.005 224.982 L
1188.871 223.587 L
1189.737 222.202 L
1190.603 220.829 L
1191.469 219.467 L
1192.335 218.117 L
1193.201 216.777 L
1194.067 215.45 L
1194.933 214.133 L
1195.799 212.829 L
1196.665 211.536 L
1197.531 210.254 L
1198.397 208.985 L
1199.263 207.727 L
1200.129 206.481 L
1200.995 205.248 L
1201.86 204.026 L
1202.726 202.816 L
1203.592 201.619 L
1204.458 200.434 L
1205.324 199.261 L
1206.19 198.1 L
1207.056 196.952 L
1207.922 195.817 L
1208.788 194.694 L
1209.654 193.583 L
1210.52 192.485 L
1211.386 191.4 L
1212.252 190.328 L
1213.118 189.268 L
1213.984 188.222 L
1214.85 187.188 L
1215.716 186.167 L
1216.582 185.159 L
S
GR
GS
[0.75 0 0 0.75 0 0.25] CT
0.851 0.325 0.098 RC
2 LJ
6.667 LW
N
1216.582 185.159 M
1217.448 184.165 L
1218.313 183.183 L
1219.179 182.215 L
1220.045 181.26 L
1220.911 180.318 L
1221.777 179.39 L
1222.643 178.475 L
1223.509 177.573 L
1224.375 176.685 L
1225.241 175.81 L
1226.107 174.949 L
1226.973 174.101 L
1227.839 173.267 L
1228.705 172.447 L
1229.571 171.64 L
1230.437 170.848 L
1231.303 170.069 L
1232.169 169.303 L
1233.035 168.552 L
1233.901 167.815 L
1234.767 167.091 L
1235.633 166.382 L
1236.499 165.686 L
1237.364 165.005 L
1238.23 164.337 L
1239.096 163.684 L
1239.962 163.045 L
1240.828 162.42 L
1241.694 161.809 L
1242.56 161.212 L
1243.426 160.63 L
1244.292 160.062 L
1245.158 159.508 L
1246.024 158.969 L
1246.89 158.444 L
1247.756 157.933 L
1248.622 157.437 L
1249.488 156.955 L
1250.354 156.487 L
1251.22 156.034 L
1252.086 155.595 L
1252.952 155.171 L
1253.818 154.762 L
1254.684 154.366 L
1255.549 153.986 L
1256.415 153.62 L
1257.281 153.268 L
1258.147 152.931 L
1259.013 152.609 L
S
GR
GS
[0.75 0 0 0.75 0 0.25] CT
0.851 0.325 0.098 RC
2 LJ
6.667 LW
N
1259.013 152.609 M
1259.879 152.301 L
1260.745 152.008 L
1261.611 151.73 L
1262.477 151.466 L
1263.343 151.217 L
1264.209 150.982 L
1265.075 150.762 L
1265.941 150.557 L
1266.807 150.367 L
1267.673 150.191 L
1268.539 150.029 L
1269.405 149.883 L
1270.271 149.751 L
1271.137 149.634 L
1272.003 149.531 L
1272.868 149.443 L
1273.734 149.37 L
1274.6 149.311 L
1275.466 149.267 L
1276.332 149.238 L
1277.198 149.223 L
1278.064 149.223 L
1278.93 149.238 L
1279.796 149.267 L
1280.662 149.311 L
1281.528 149.37 L
1282.394 149.443 L
1283.26 149.53 L
1284.126 149.633 L
1284.992 149.75 L
1285.858 149.881 L
1286.724 150.027 L
1287.59 150.187 L
1288.456 150.362 L
1289.322 150.552 L
1290.188 150.756 L
1291.053 150.974 L
1291.919 151.207 L
1292.785 151.454 L
1293.651 151.715 L
1294.517 151.991 L
1295.383 152.282 L
1296.249 152.586 L
1297.115 152.905 L
1297.981 153.238 L
1298.847 153.586 L
1299.713 153.947 L
1300.579 154.323 L
1301.445 154.713 L
S
GR
GS
[0.75 0 0 0.75 0 0.25] CT
0.851 0.325 0.098 RC
2 LJ
6.667 LW
N
1301.445 154.713 M
1302.311 155.117 L
1303.177 155.536 L
1304.043 155.968 L
1304.909 156.414 L
1305.775 156.875 L
1306.641 157.349 L
1307.507 157.837 L
1308.372 158.34 L
1309.239 158.856 L
1310.104 159.386 L
1310.97 159.929 L
1311.836 160.487 L
1312.702 161.058 L
1313.568 161.643 L
1314.434 162.242 L
1315.3 162.854 L
1316.166 163.48 L
1317.032 164.119 L
1317.898 164.772 L
1318.764 165.438 L
1319.63 166.117 L
1320.496 166.81 L
1321.362 167.517 L
1322.228 168.236 L
1323.094 168.969 L
1323.96 169.715 L
1324.826 170.474 L
1325.692 171.246 L
1326.557 172.031 L
1327.423 172.829 L
1328.289 173.64 L
1329.155 174.463 L
1330.021 175.3 L
1330.887 176.149 L
1331.753 177.011 L
1332.619 177.886 L
1333.485 178.773 L
1334.351 179.673 L
1335.217 180.585 L
1336.083 181.51 L
1336.949 182.447 L
1337.815 183.396 L
1338.681 184.358 L
1339.547 185.332 L
1340.413 186.317 L
1341.279 187.315 L
1342.145 188.325 L
1343.011 189.347 L
1343.877 190.381 L
S
GR
GS
[0.75 0 0 0.75 0 0.25] CT
0.851 0.325 0.098 RC
2 LJ
6.667 LW
N
1343.877 190.381 M
1344.743 191.426 L
1345.608 192.484 L
1346.474 193.552 L
1347.34 194.633 L
1348.206 195.725 L
1349.072 196.828 L
1349.938 197.943 L
1350.804 199.07 L
1351.67 200.207 L
1352.536 201.356 L
1353.402 202.516 L
1354.268 203.687 L
1355.134 204.868 L
1356 206.061 L
1356.866 207.265 L
1357.732 208.479 L
1358.598 209.704 L
1359.464 210.94 L
1360.33 212.186 L
1361.196 213.443 L
1362.062 214.71 L
1362.927 215.987 L
1363.793 217.274 L
1364.659 218.572 L
1365.525 219.88 L
1366.391 221.198 L
1367.257 222.525 L
1368.123 223.863 L
1368.989 225.21 L
1369.855 226.567 L
1370.721 227.934 L
1371.587 229.31 L
1372.453 230.695 L
1373.319 232.09 L
1374.185 233.494 L
1375.051 234.907 L
1375.917 236.33 L
1376.783 237.761 L
1377.649 239.201 L
1378.515 240.65 L
1379.381 242.108 L
1380.247 243.575 L
1381.112 245.05 L
1381.978 246.533 L
1382.844 248.025 L
1383.71 249.525 L
1384.576 251.034 L
1385.442 252.55 L
1386.308 254.075 L
S
GR
GS
[0.75 0 0 0.75 0 0.25] CT
0.851 0.325 0.098 RC
2 LJ
6.667 LW
N
1386.308 254.075 M
1387.174 255.608 L
1388.04 257.148 L
1388.906 258.696 L
1389.772 260.252 L
1390.638 261.816 L
1391.504 263.387 L
1392.37 264.965 L
1393.236 266.551 L
1394.102 268.143 L
1394.968 269.743 L
1395.834 271.35 L
1396.7 272.964 L
1397.566 274.585 L
1398.432 276.212 L
1399.297 277.847 L
1400.163 279.487 L
1401.029 281.134 L
1401.895 282.788 L
1402.761 284.448 L
1403.627 286.113 L
1404.493 287.785 L
1405.359 289.463 L
1406.225 291.147 L
1407.091 292.837 L
1407.957 294.532 L
1408.823 296.233 L
1409.689 297.939 L
1410.555 299.65 L
1411.421 301.367 L
1412.287 303.089 L
1413.153 304.816 L
1414.019 306.548 L
1414.885 308.285 L
1415.751 310.027 L
1416.616 311.774 L
1417.483 313.524 L
1418.348 315.28 L
1419.214 317.04 L
1420.08 318.804 L
1420.946 320.572 L
1421.812 322.344 L
1422.678 324.12 L
1423.544 325.9 L
1424.41 327.684 L
1425.276 329.472 L
1426.142 331.263 L
1427.008 333.057 L
1427.874 334.855 L
1428.74 336.656 L
S
GR
GS
[0.75 0 0 0.75 0 0.25] CT
0.851 0.325 0.098 RC
2 LJ
6.667 LW
N
1428.74 336.656 M
1429.606 338.46 L
1430.472 340.267 L
1431.338 342.077 L
1432.204 343.89 L
1433.07 345.705 L
1433.936 347.524 L
1434.802 349.344 L
1435.667 351.167 L
1436.533 352.993 L
1437.399 354.82 L
1438.265 356.65 L
1439.131 358.481 L
1439.997 360.315 L
1440.863 362.15 L
1441.729 363.987 L
1442.595 365.825 L
1443.461 367.665 L
1444.327 369.507 L
1445.193 371.349 L
1446.059 373.193 L
1446.925 375.037 L
1447.791 376.883 L
1448.657 378.729 L
1449.523 380.577 L
1450.389 382.424 L
1451.255 384.272 L
1452.12 386.121 L
1452.987 387.97 L
1453.852 389.819 L
1454.718 391.668 L
1455.584 393.518 L
1456.45 395.367 L
1457.316 397.215 L
1458.182 399.064 L
1459.048 400.912 L
1459.914 402.76 L
1460.78 404.606 L
1461.646 406.452 L
1462.512 408.298 L
1463.378 410.142 L
1464.244 411.985 L
1465.11 413.827 L
1465.976 415.668 L
1466.842 417.507 L
1467.708 419.345 L
1468.574 421.182 L
1469.44 423.016 L
1470.306 424.849 L
1471.172 426.68 L
S
GR
GS
[0.75 0 0 0.75 0 0.25] CT
0.851 0.325 0.098 RC
2 LJ
6.667 LW
N
1471.172 426.68 M
1472.037 428.509 L
1472.903 430.336 L
1473.769 432.161 L
1474.635 433.983 L
1475.501 435.803 L
1476.367 437.62 L
1477.233 439.435 L
1478.099 441.247 L
1478.965 443.056 L
1479.831 444.863 L
1480.697 446.666 L
1481.563 448.466 L
1482.429 450.263 L
1483.295 452.057 L
1484.161 453.847 L
1485.027 455.634 L
1485.893 457.417 L
1486.759 459.196 L
1487.625 460.972 L
1488.491 462.743 L
1489.356 464.511 L
1490.222 466.275 L
1491.089 468.034 L
1491.954 469.789 L
1492.82 471.539 L
1493.686 473.285 L
1494.552 475.027 L
1495.418 476.764 L
1496.284 478.496 L
1497.15 480.223 L
1498.016 481.945 L
1498.882 483.662 L
1499.748 485.373 L
1500.614 487.08 L
1501.48 488.781 L
1502.346 490.477 L
1503.212 492.167 L
1504.078 493.852 L
1504.944 495.53 L
1505.81 497.203 L
1506.676 498.87 L
1507.542 500.531 L
1508.407 502.186 L
1509.273 503.835 L
1510.139 505.477 L
1511.005 507.113 L
1511.871 508.743 L
1512.737 510.366 L
1513.603 511.982 L
S
GR
GS
[0.75 0 0 0.75 0 0.25] CT
0.851 0.325 0.098 RC
2 LJ
6.667 LW
N
1513.603 511.982 M
1514.469 513.591 L
1515.335 515.194 L
1516.201 516.79 L
1517.067 518.379 L
1517.933 519.961 L
1518.799 521.535 L
1519.665 523.102 L
1520.531 524.662 L
1521.397 526.215 L
1522.263 527.76 L
1523.129 529.297 L
1523.995 530.827 L
1524.86 532.349 L
1525.727 533.863 L
1526.592 535.369 L
1527.458 536.868 L
1528.324 538.358 L
1529.19 539.84 L
1530.056 541.313 L
1530.922 542.779 L
1531.788 544.235 L
1532.654 545.684 L
1533.52 547.124 L
1534.386 548.555 L
1535.252 549.977 L
1536.118 551.391 L
1536.984 552.796 L
1537.85 554.192 L
1538.716 555.578 L
1539.582 556.956 L
1540.448 558.325 L
1541.314 559.684 L
1542.18 561.034 L
1543.046 562.375 L
1543.911 563.706 L
1544.777 565.027 L
1545.643 566.339 L
1546.509 567.641 L
1547.375 568.934 L
1548.241 570.217 L
1549.107 571.49 L
1549.973 572.752 L
1550.839 574.005 L
1551.705 575.248 L
1552.571 576.481 L
1553.437 577.703 L
1554.303 578.915 L
1555.169 580.117 L
1556.035 581.308 L
S
GR
GS
[0.75 0 0 0.75 0 0.25] CT
0.851 0.325 0.098 RC
2 LJ
6.667 LW
N
1556.035 581.308 M
1556.901 582.489 L
1557.767 583.66 L
1558.633 584.82 L
1559.499 585.969 L
1560.365 587.107 L
1561.231 588.235 L
1562.096 589.352 L
1562.962 590.458 L
1563.828 591.552 L
1564.694 592.637 L
1565.56 593.709 L
1566.426 594.771 L
1567.292 595.822 L
1568.158 596.861 L
1569.024 597.889 L
1569.89 598.906 L
1570.756 599.912 L
1571.622 600.906 L
1572.488 601.888 L
1573.354 602.859 L
1574.22 603.819 L
1575.086 604.766 L
1575.952 605.702 L
1576.818 606.627 L
1577.684 607.539 L
1578.55 608.44 L
1579.416 609.329 L
1580.281 610.206 L
1581.147 611.071 L
1582.013 611.924 L
1582.879 612.765 L
1583.745 613.594 L
1584.611 614.41 L
1585.477 615.215 L
1586.343 616.007 L
1587.209 616.788 L
1588.075 617.555 L
1588.941 618.311 L
1589.807 619.054 L
1590.673 619.785 L
1591.539 620.503 L
1592.405 621.209 L
1593.271 621.902 L
1594.137 622.583 L
1595.003 623.252 L
1595.869 623.907 L
1596.735 624.55 L
1597.6 625.181 L
1598.466 625.798 L
S
GR
GS
[0.75 0 0 0.75 0 0.25] CT
0.851 0.325 0.098 RC
2 LJ
6.667 LW
N
1598.466 625.798 M
1599.333 626.403 L
1600.198 626.996 L
1601.064 627.575 L
1601.93 628.142 L
1602.796 628.696 L
1603.662 629.237 L
1604.528 629.765 L
1605.394 630.28 L
1606.26 630.782 L
1607.126 631.272 L
1607.992 631.748 L
1608.858 632.211 L
1609.724 632.662 L
1610.59 633.099 L
1611.456 633.523 L
1612.322 633.935 L
1613.188 634.333 L
1614.054 634.718 L
1614.92 635.09 L
1615.786 635.449 L
1616.651 635.794 L
1617.517 636.127 L
1618.383 636.446 L
1619.249 636.753 L
1620.115 637.046 L
1620.981 637.326 L
1621.847 637.592 L
1622.713 637.846 L
1623.579 638.086 L
1624.445 638.313 L
1625.311 638.526 L
1626.177 638.727 L
1627.043 638.914 L
1627.909 639.088 L
1628.775 639.249 L
1629.641 639.396 L
1630.507 639.53 L
1631.373 639.651 L
1632.239 639.759 L
1633.104 639.853 L
1633.97 639.934 L
1634.836 640.002 L
1635.702 640.057 L
1636.568 640.098 L
1637.434 640.126 L
1638.3 640.141 L
1639.166 640.143 L
1640.032 640.131 L
1640.898 640.106 L
S
GR
GS
[0.75 0 0 0.75 0 0.25] CT
0.851 0.325 0.098 RC
2 LJ
6.667 LW
N
1640.898 640.106 M
1641.764 640.068 L
1642.63 640.017 L
1643.496 639.952 L
1644.362 639.875 L
1645.228 639.784 L
1646.094 639.68 L
1646.96 639.563 L
1647.826 639.432 L
1648.692 639.289 L
1649.558 639.132 L
1650.424 638.963 L
1651.29 638.78 L
1652.156 638.584 L
1653.021 638.375 L
1653.887 638.153 L
1654.753 637.919 L
1655.619 637.671 L
1656.485 637.41 L
1657.351 637.136 L
1658.217 636.849 L
1659.083 636.55 L
1659.949 636.237 L
1660.815 635.912 L
1661.681 635.573 L
1662.547 635.222 L
1663.413 634.858 L
1664.279 634.482 L
1665.145 634.093 L
1666.011 633.69 L
1666.877 633.276 L
1667.743 632.848 L
1668.609 632.409 L
1669.475 631.956 L
1670.34 631.491 L
1671.206 631.013 L
1672.072 630.523 L
1672.938 630.021 L
1673.804 629.506 L
1674.67 628.978 L
1675.536 628.439 L
1676.402 627.887 L
1677.268 627.322 L
1678.134 626.746 L
1679 626.157 L
S
GR
GS
[0.75 0 0 0.75 914.25 50.625] CT
/Helvetica 48 F
GS
[1 0 0 1 0 0] CT
0 16.5 moveto 
1 -1 scale
(Imposed condition) t 
GR
GR
GS
[0.75 0 0 0.75 0 0.25] CT
0 0.447 0.741 RC
2 setlinecap
10.0 ML
6.667 LW
N
1175 67.167 M
1215 67.167 L
S
GR
GS
[0.75 0 0 0.75 914.25 93.875] CT
/Helvetica 48 F
GS
[1 0 0 1 0 0] CT
0 16.5 moveto 
1 -1 scale
(Flat ground) t 
GR
GR
GS
[0.75 0 0 0.75 0 0.25] CT
0.851 0.325 0.098 RC
2 setlinecap
10.0 ML
6.667 LW
N
1175 124.833 M
1215 124.833 L
S
GR
%%Trailer
%%Pages: 1
%%EOF
