%!PS-Adobe-3.0 EPSF-3.0
%%Creator: (MATLAB, The Mathworks, Inc. Version 8.5.0.197613 \(R2015a\). Operating System: Linux)
%%Title: (/home/victor/ampro/AMPRO II/Upslope Walking/figures/Thesis/CrossFlat/Ankle.eps)
%%CreationDate: 2016-02-19T15:24:40
%%Pages: (atend)
%%BoundingBox: 0 0 1391 751
%%LanguageLevel: 2
%%EndComments
%%BeginProlog
%%BeginResource: procset (Apache XML Graphics Std ProcSet) 1.2 0
%%Version: 1.2 0
%%Copyright: (Copyright 2001-2003,2010 The Apache Software Foundation. License terms: http://www.apache.org/licenses/LICENSE-2.0)
/bd{bind def}bind def
/ld{load def}bd
/GR/grestore ld
/M/moveto ld
/LJ/setlinejoin ld
/C/curveto ld
/f/fill ld
/LW/setlinewidth ld
/GC/setgray ld
/t/show ld
/N/newpath ld
/CT/concat ld
/cp/closepath ld
/S/stroke ld
/L/lineto ld
/CC/setcmykcolor ld
/A/ashow ld
/GS/gsave ld
/RC/setrgbcolor ld
/RM/rmoveto ld
/ML/setmiterlimit ld
/re {4 2 roll M
1 index 0 rlineto
0 exch rlineto
neg 0 rlineto
cp } bd
/_ctm matrix def
/_tm matrix def
/BT { _ctm currentmatrix pop matrix _tm copy pop 0 0 moveto } bd
/ET { _ctm setmatrix } bd
/iTm { _ctm setmatrix _tm concat } bd
/Tm { _tm astore pop iTm 0 0 moveto } bd
/ux 0.0 def
/uy 0.0 def
/F {
  /Tp exch def
  /Tf exch def
  Tf findfont Tp scalefont setfont
  /cf Tf def  /cs Tp def
} bd
/ULS {currentpoint /uy exch def /ux exch def} bd
/ULE {
  /Tcx currentpoint pop def
  gsave
  newpath
  cf findfont cs scalefont dup
  /FontMatrix get 0 get /Ts exch def /FontInfo get dup
  /UnderlinePosition get Ts mul /To exch def
  /UnderlineThickness get Ts mul /Tt exch def
  ux uy To add moveto  Tcx uy To add lineto
  Tt setlinewidth stroke
  grestore
} bd
/OLE {
  /Tcx currentpoint pop def
  gsave
  newpath
  cf findfont cs scalefont dup
  /FontMatrix get 0 get /Ts exch def /FontInfo get dup
  /UnderlinePosition get Ts mul /To exch def
  /UnderlineThickness get Ts mul /Tt exch def
  ux uy To add cs add moveto Tcx uy To add cs add lineto
  Tt setlinewidth stroke
  grestore
} bd
/SOE {
  /Tcx currentpoint pop def
  gsave
  newpath
  cf findfont cs scalefont dup
  /FontMatrix get 0 get /Ts exch def /FontInfo get dup
  /UnderlinePosition get Ts mul /To exch def
  /UnderlineThickness get Ts mul /Tt exch def
  ux uy To add cs 10 mul 26 idiv add moveto Tcx uy To add cs 10 mul 26 idiv add lineto
  Tt setlinewidth stroke
  grestore
} bd
/QT {
/Y22 exch store
/X22 exch store
/Y21 exch store
/X21 exch store
currentpoint
/Y21 load 2 mul add 3 div exch
/X21 load 2 mul add 3 div exch
/X21 load 2 mul /X22 load add 3 div
/Y21 load 2 mul /Y22 load add 3 div
/X22 load /Y22 load curveto
} bd
/SSPD {
dup length /d exch dict def
{
/v exch def
/k exch def
currentpagedevice k known {
/cpdv currentpagedevice k get def
v cpdv ne {
/upd false def
/nullv v type /nulltype eq def
/nullcpdv cpdv type /nulltype eq def
nullv nullcpdv or
{
/upd true def
} {
/sametype v type cpdv type eq def
sametype {
v type /arraytype eq {
/vlen v length def
/cpdvlen cpdv length def
vlen cpdvlen eq {
0 1 vlen 1 sub {
/i exch def
/obj v i get def
/cpdobj cpdv i get def
obj cpdobj ne {
/upd true def
exit
} if
} for
} {
/upd true def
} ifelse
} {
v type /dicttype eq {
v {
/dv exch def
/dk exch def
/cpddv cpdv dk get def
dv cpddv ne {
/upd true def
exit
} if
} forall
} {
/upd true def
} ifelse
} ifelse
} if
} ifelse
upd true eq {
d k v put
} if
} if
} if
} forall
d length 0 gt {
d setpagedevice
} if
} bd
%%EndResource
%%BeginResource: procset (Apache XML Graphics EPS ProcSet) 1.0 0
%%Version: 1.0 0
%%Copyright: (Copyright 2002-2003 The Apache Software Foundation. License terms: http://www.apache.org/licenses/LICENSE-2.0)
/BeginEPSF { %def
/b4_Inc_state save def         % Save state for cleanup
/dict_count countdictstack def % Count objects on dict stack
/op_count count 1 sub def      % Count objects on operand stack
userdict begin                 % Push userdict on dict stack
/showpage { } def              % Redefine showpage, { } = null proc
0 setgray 0 setlinecap         % Prepare graphics state
1 setlinewidth 0 setlinejoin
10 setmiterlimit [ ] 0 setdash newpath
/languagelevel where           % If level not equal to 1 then
{pop languagelevel             % set strokeadjust and
1 ne                           % overprint to their defaults.
{false setstrokeadjust false setoverprint
} if
} if
} bd
/EndEPSF { %def
count op_count sub {pop} repeat            % Clean up stacks
countdictstack dict_count sub {end} repeat
b4_Inc_state restore
} bd
%%EndResource
%FOPBeginFontDict
%%IncludeResource: font Courier-Bold
%%IncludeResource: font Helvetica
%%IncludeResource: font Courier-BoldOblique
%%IncludeResource: font Courier-Oblique
%%IncludeResource: font Times-Roman
%%IncludeResource: font Helvetica-BoldOblique
%%IncludeResource: font Helvetica-Bold
%%IncludeResource: font Helvetica-Oblique
%%IncludeResource: font Times-BoldItalic
%%IncludeResource: font Courier
%%IncludeResource: font Times-Italic
%%IncludeResource: font Times-Bold
%%IncludeResource: font Symbol
%%IncludeResource: font ZapfDingbats
%FOPEndFontDict
%%BeginResource: encoding WinAnsiEncoding
/WinAnsiEncoding [
/.notdef /.notdef /.notdef /.notdef /.notdef
/.notdef /.notdef /.notdef /.notdef /.notdef
/.notdef /.notdef /.notdef /.notdef /.notdef
/.notdef /.notdef /.notdef /.notdef /.notdef
/.notdef /.notdef /.notdef /.notdef /.notdef
/.notdef /.notdef /.notdef /.notdef /.notdef
/.notdef /.notdef /space /exclam /quotedbl
/numbersign /dollar /percent /ampersand /quotesingle
/parenleft /parenright /asterisk /plus /comma
/hyphen /period /slash /zero /one
/two /three /four /five /six
/seven /eight /nine /colon /semicolon
/less /equal /greater /question /at
/A /B /C /D /E
/F /G /H /I /J
/K /L /M /N /O
/P /Q /R /S /T
/U /V /W /X /Y
/Z /bracketleft /backslash /bracketright /asciicircum
/underscore /quoteleft /a /b /c
/d /e /f /g /h
/i /j /k /l /m
/n /o /p /q /r
/s /t /u /v /w
/x /y /z /braceleft /bar
/braceright /asciitilde /bullet /Euro /bullet
/quotesinglbase /florin /quotedblbase /ellipsis /dagger
/daggerdbl /circumflex /perthousand /Scaron /guilsinglleft
/OE /bullet /Zcaron /bullet /bullet
/quoteleft /quoteright /quotedblleft /quotedblright /bullet
/endash /emdash /asciitilde /trademark /scaron
/guilsinglright /oe /bullet /zcaron /Ydieresis
/space /exclamdown /cent /sterling /currency
/yen /brokenbar /section /dieresis /copyright
/ordfeminine /guillemotleft /logicalnot /sfthyphen /registered
/macron /degree /plusminus /twosuperior /threesuperior
/acute /mu /paragraph /middot /cedilla
/onesuperior /ordmasculine /guillemotright /onequarter /onehalf
/threequarters /questiondown /Agrave /Aacute /Acircumflex
/Atilde /Adieresis /Aring /AE /Ccedilla
/Egrave /Eacute /Ecircumflex /Edieresis /Igrave
/Iacute /Icircumflex /Idieresis /Eth /Ntilde
/Ograve /Oacute /Ocircumflex /Otilde /Odieresis
/multiply /Oslash /Ugrave /Uacute /Ucircumflex
/Udieresis /Yacute /Thorn /germandbls /agrave
/aacute /acircumflex /atilde /adieresis /aring
/ae /ccedilla /egrave /eacute /ecircumflex
/edieresis /igrave /iacute /icircumflex /idieresis
/eth /ntilde /ograve /oacute /ocircumflex
/otilde /odieresis /divide /oslash /ugrave
/uacute /ucircumflex /udieresis /yacute /thorn
/ydieresis
] def
%%EndResource
%FOPBeginFontReencode
/Courier-Bold findfont
dup length dict begin
  {1 index /FID ne {def} {pop pop} ifelse} forall
  /Encoding WinAnsiEncoding def
  currentdict
end
/Courier-Bold exch definefont pop
/Helvetica findfont
dup length dict begin
  {1 index /FID ne {def} {pop pop} ifelse} forall
  /Encoding WinAnsiEncoding def
  currentdict
end
/Helvetica exch definefont pop
/Courier-BoldOblique findfont
dup length dict begin
  {1 index /FID ne {def} {pop pop} ifelse} forall
  /Encoding WinAnsiEncoding def
  currentdict
end
/Courier-BoldOblique exch definefont pop
/Courier-Oblique findfont
dup length dict begin
  {1 index /FID ne {def} {pop pop} ifelse} forall
  /Encoding WinAnsiEncoding def
  currentdict
end
/Courier-Oblique exch definefont pop
/Times-Roman findfont
dup length dict begin
  {1 index /FID ne {def} {pop pop} ifelse} forall
  /Encoding WinAnsiEncoding def
  currentdict
end
/Times-Roman exch definefont pop
/Helvetica-BoldOblique findfont
dup length dict begin
  {1 index /FID ne {def} {pop pop} ifelse} forall
  /Encoding WinAnsiEncoding def
  currentdict
end
/Helvetica-BoldOblique exch definefont pop
/Helvetica-Bold findfont
dup length dict begin
  {1 index /FID ne {def} {pop pop} ifelse} forall
  /Encoding WinAnsiEncoding def
  currentdict
end
/Helvetica-Bold exch definefont pop
/Helvetica-Oblique findfont
dup length dict begin
  {1 index /FID ne {def} {pop pop} ifelse} forall
  /Encoding WinAnsiEncoding def
  currentdict
end
/Helvetica-Oblique exch definefont pop
/Times-BoldItalic findfont
dup length dict begin
  {1 index /FID ne {def} {pop pop} ifelse} forall
  /Encoding WinAnsiEncoding def
  currentdict
end
/Times-BoldItalic exch definefont pop
/Courier findfont
dup length dict begin
  {1 index /FID ne {def} {pop pop} ifelse} forall
  /Encoding WinAnsiEncoding def
  currentdict
end
/Courier exch definefont pop
/Times-Italic findfont
dup length dict begin
  {1 index /FID ne {def} {pop pop} ifelse} forall
  /Encoding WinAnsiEncoding def
  currentdict
end
/Times-Italic exch definefont pop
/Times-Bold findfont
dup length dict begin
  {1 index /FID ne {def} {pop pop} ifelse} forall
  /Encoding WinAnsiEncoding def
  currentdict
end
/Times-Bold exch definefont pop
%FOPEndFontReencode
%%EndProlog
%%Page: 1 1
%%PageBoundingBox: 0 0 1391 751
%%BeginPageSetup
[1 0 0 -1 0 751] CT
%%EndPageSetup
GS
[0.75 0 0 0.75 0 0.25] CT
N
0 0 M
1855 0 L
1855 1001 L
0 1001 L
0 0 L
cp
clip
1 GC
N
0 0 1855 1001 re
f
GR
GS
[0.75 0 0 0.75 0 0.25] CT
1 GC
N
0 0 1855 1001 re
f
GR
GS
[0.75 0 0 0.75 0 0.25] CT
1 GC
N
241 721 M
1679 721 L
1679 30 L
241 30 L
cp
f
GR
GS
[0.75 0 0 0.75 0 0.25] CT
0.873 GC
2 setlinecap
10.0 ML
N
241 721 M
241 30 L
S
GR
GS
[0.75 0 0 0.75 0 0.25] CT
0.873 GC
2 setlinecap
10.0 ML
N
528.6 721 M
528.6 30 L
S
GR
GS
[0.75 0 0 0.75 0 0.25] CT
0.873 GC
2 setlinecap
10.0 ML
N
816.2 721 M
816.2 30 L
S
GR
GS
[0.75 0 0 0.75 0 0.25] CT
0.873 GC
2 setlinecap
10.0 ML
N
1103.8 721 M
1103.8 30 L
S
GR
GS
[0.75 0 0 0.75 0 0.25] CT
0.873 GC
2 setlinecap
10.0 ML
N
1391.4 721 M
1391.4 30 L
S
GR
GS
[0.75 0 0 0.75 0 0.25] CT
0.873 GC
2 setlinecap
10.0 ML
N
1679 721 M
1679 30 L
S
GR
GS
[0.75 0 0 0.75 0 0.25] CT
0.873 GC
2 setlinecap
10.0 ML
N
1679 721 M
241 721 L
S
GR
GS
[0.75 0 0 0.75 0 0.25] CT
0.873 GC
2 setlinecap
10.0 ML
N
1679 622.286 M
241 622.286 L
S
GR
GS
[0.75 0 0 0.75 0 0.25] CT
0.873 GC
2 setlinecap
10.0 ML
N
1679 523.571 M
241 523.571 L
S
GR
GS
[0.75 0 0 0.75 0 0.25] CT
0.873 GC
2 setlinecap
10.0 ML
N
1679 424.857 M
241 424.857 L
S
GR
GS
[0.75 0 0 0.75 0 0.25] CT
0.873 GC
2 setlinecap
10.0 ML
N
1679 326.143 M
241 326.143 L
S
GR
GS
[0.75 0 0 0.75 0 0.25] CT
0.873 GC
2 setlinecap
10.0 ML
N
1679 227.429 M
241 227.429 L
S
GR
GS
[0.75 0 0 0.75 0 0.25] CT
0.873 GC
2 setlinecap
10.0 ML
N
1679 128.714 M
241 128.714 L
S
GR
GS
[0.75 0 0 0.75 0 0.25] CT
0.873 GC
2 setlinecap
10.0 ML
N
1679 30 M
241 30 L
S
GR
GS
[0.75 0 0 0.75 720.00055 599.25002] CT
0.149 GC
/Helvetica 59 F
GS
[1 0 0 1 0 0] CT
-301.5 55 moveto 
1 -1 scale
(Step progression\(%\)) t 
GR
GR
GS
[0.75 0 0 0.75 0 0.25] CT
0.149 GC
2 setlinecap
10.0 ML
N
241 721 M
1679 721 L
S
GR
GS
[0.75 0 0 0.75 0 0.25] CT
0.149 GC
2 setlinecap
10.0 ML
N
241 30 M
1679 30 L
S
GR
GS
[0.75 0 0 0.75 0 0.25] CT
0.149 GC
2 setlinecap
10.0 ML
N
241 721 M
241 706.62 L
S
GR
GS
[0.75 0 0 0.75 0 0.25] CT
0.149 GC
2 setlinecap
10.0 ML
N
528.6 721 M
528.6 706.62 L
S
GR
GS
[0.75 0 0 0.75 0 0.25] CT
0.149 GC
2 setlinecap
10.0 ML
N
816.2 721 M
816.2 706.62 L
S
GR
GS
[0.75 0 0 0.75 0 0.25] CT
0.149 GC
2 setlinecap
10.0 ML
N
1103.8 721 M
1103.8 706.62 L
S
GR
GS
[0.75 0 0 0.75 0 0.25] CT
0.149 GC
2 setlinecap
10.0 ML
N
1391.4 721 M
1391.4 706.62 L
S
GR
GS
[0.75 0 0 0.75 0 0.25] CT
0.149 GC
2 setlinecap
10.0 ML
N
1679 721 M
1679 706.62 L
S
GR
GS
[0.75 0 0 0.75 0 0.25] CT
0.149 GC
2 setlinecap
10.0 ML
N
241 30 M
241 44.38 L
S
GR
GS
[0.75 0 0 0.75 0 0.25] CT
0.149 GC
2 setlinecap
10.0 ML
N
528.6 30 M
528.6 44.38 L
S
GR
GS
[0.75 0 0 0.75 0 0.25] CT
0.149 GC
2 setlinecap
10.0 ML
N
816.2 30 M
816.2 44.38 L
S
GR
GS
[0.75 0 0 0.75 0 0.25] CT
0.149 GC
2 setlinecap
10.0 ML
N
1103.8 30 M
1103.8 44.38 L
S
GR
GS
[0.75 0 0 0.75 0 0.25] CT
0.149 GC
2 setlinecap
10.0 ML
N
1391.4 30 M
1391.4 44.38 L
S
GR
GS
[0.75 0 0 0.75 0 0.25] CT
0.149 GC
2 setlinecap
10.0 ML
N
1679 30 M
1679 44.38 L
S
GR
GS
[0.75 0 0 0.75 180.75 550.99998] CT
0.149 GC
/Helvetica 53 F
GS
[1 0 0 1 0 0] CT
-17 50 moveto 
1 -1 scale
(0) t 
GR
GR
GS
[0.75 0 0 0.75 396.44998 550.99998] CT
0.149 GC
/Helvetica 53 F
GS
[1 0 0 1 0 0] CT
-34 50 moveto 
1 -1 scale
(20) t 
GR
GR
GS
[0.75 0 0 0.75 612.15001 550.99998] CT
0.149 GC
/Helvetica 53 F
GS
[1 0 0 1 0 0] CT
-34 50 moveto 
1 -1 scale
(40) t 
GR
GR
GS
[0.75 0 0 0.75 827.85004 550.99998] CT
0.149 GC
/Helvetica 53 F
GS
[1 0 0 1 0 0] CT
-34 50 moveto 
1 -1 scale
(60) t 
GR
GR
GS
[0.75 0 0 0.75 1043.55002 550.99998] CT
0.149 GC
/Helvetica 53 F
GS
[1 0 0 1 0 0] CT
-34 50 moveto 
1 -1 scale
(80) t 
GR
GR
GS
[0.75 0 0 0.75 1259.25 550.99998] CT
0.149 GC
/Helvetica 53 F
GS
[1 0 0 1 0 0] CT
-51 50 moveto 
1 -1 scale
(100) t 
GR
GR
GS
[0 -0.75 0.75 0 89.75 281.87473] CT
0.149 GC
/Helvetica 59 F
GS
[1 0 0 1 0 0] CT
-255 -14 moveto 
1 -1 scale
(Ankle angle \(rad\)) t 
GR
GR
GS
[0.75 0 0 0.75 0 0.25] CT
0.149 GC
2 setlinecap
10.0 ML
N
241 721 M
241 30 L
S
GR
GS
[0.75 0 0 0.75 0 0.25] CT
0.149 GC
2 setlinecap
10.0 ML
N
1679 721 M
1679 30 L
S
GR
GS
[0.75 0 0 0.75 0 0.25] CT
0.149 GC
2 setlinecap
10.0 ML
N
241 721 M
255.38 721 L
S
GR
GS
[0.75 0 0 0.75 0 0.25] CT
0.149 GC
2 setlinecap
10.0 ML
N
241 622.286 M
255.38 622.286 L
S
GR
GS
[0.75 0 0 0.75 0 0.25] CT
0.149 GC
2 setlinecap
10.0 ML
N
241 523.571 M
255.38 523.571 L
S
GR
GS
[0.75 0 0 0.75 0 0.25] CT
0.149 GC
2 setlinecap
10.0 ML
N
241 424.857 M
255.38 424.857 L
S
GR
GS
[0.75 0 0 0.75 0 0.25] CT
0.149 GC
2 setlinecap
10.0 ML
N
241 326.143 M
255.38 326.143 L
S
GR
GS
[0.75 0 0 0.75 0 0.25] CT
0.149 GC
2 setlinecap
10.0 ML
N
241 227.429 M
255.38 227.429 L
S
GR
GS
[0.75 0 0 0.75 0 0.25] CT
0.149 GC
2 setlinecap
10.0 ML
N
241 128.714 M
255.38 128.714 L
S
GR
GS
[0.75 0 0 0.75 0 0.25] CT
0.149 GC
2 setlinecap
10.0 ML
N
241 30 M
255.38 30 L
S
GR
GS
[0.75 0 0 0.75 0 0.25] CT
0.149 GC
2 setlinecap
10.0 ML
N
1679 721 M
1664.62 721 L
S
GR
GS
[0.75 0 0 0.75 0 0.25] CT
0.149 GC
2 setlinecap
10.0 ML
N
1679 622.286 M
1664.62 622.286 L
S
GR
GS
[0.75 0 0 0.75 0 0.25] CT
0.149 GC
2 setlinecap
10.0 ML
N
1679 523.571 M
1664.62 523.571 L
S
GR
GS
[0.75 0 0 0.75 0 0.25] CT
0.149 GC
2 setlinecap
10.0 ML
N
1679 424.857 M
1664.62 424.857 L
S
GR
GS
[0.75 0 0 0.75 0 0.25] CT
0.149 GC
2 setlinecap
10.0 ML
N
1679 326.143 M
1664.62 326.143 L
S
GR
GS
[0.75 0 0 0.75 0 0.25] CT
0.149 GC
2 setlinecap
10.0 ML
N
1679 227.429 M
1664.62 227.429 L
S
GR
GS
[0.75 0 0 0.75 0 0.25] CT
0.149 GC
2 setlinecap
10.0 ML
N
1679 128.714 M
1664.62 128.714 L
S
GR
GS
[0.75 0 0 0.75 0 0.25] CT
0.149 GC
2 setlinecap
10.0 ML
N
1679 30 M
1664.62 30 L
S
GR
GS
[0.75 0 0 0.75 170.75 541] CT
0.149 GC
/Helvetica 53 F
GS
[1 0 0 1 0 0] CT
-104 18.5 moveto 
1 -1 scale
(-0.1) t 
GR
GR
GS
[0.75 0 0 0.75 170.75 466.96428] CT
0.149 GC
/Helvetica 53 F
GS
[1 0 0 1 0 0] CT
-34 18.5 moveto 
1 -1 scale
(0) t 
GR
GR
GS
[0.75 0 0 0.75 170.75 392.92856] CT
0.149 GC
/Helvetica 53 F
GS
[1 0 0 1 0 0] CT
-85 18.5 moveto 
1 -1 scale
(0.1) t 
GR
GR
GS
[0.75 0 0 0.75 170.75 318.89286] CT
0.149 GC
/Helvetica 53 F
GS
[1 0 0 1 0 0] CT
-85 18.5 moveto 
1 -1 scale
(0.2) t 
GR
GR
GS
[0.75 0 0 0.75 170.75 244.85714] CT
0.149 GC
/Helvetica 53 F
GS
[1 0 0 1 0 0] CT
-85 18.5 moveto 
1 -1 scale
(0.3) t 
GR
GR
GS
[0.75 0 0 0.75 170.75 170.82142] CT
0.149 GC
/Helvetica 53 F
GS
[1 0 0 1 0 0] CT
-85 18.5 moveto 
1 -1 scale
(0.4) t 
GR
GR
GS
[0.75 0 0 0.75 170.75 96.78571] CT
0.149 GC
/Helvetica 53 F
GS
[1 0 0 1 0 0] CT
-85 18.5 moveto 
1 -1 scale
(0.5) t 
GR
GR
GS
[0.75 0 0 0.75 170.75 22.74998] CT
0.149 GC
/Helvetica 53 F
GS
[1 0 0 1 0 0] CT
-85 18.5 moveto 
1 -1 scale
(0.6) t 
GR
GR
GS
[0.75 0 0 0.75 0 0.25] CT
1 0 0 RC
2 LJ
6.667 LW
N
241 631.882 M
244.239 625.103 L
247.477 633.594 L
250.716 640.034 L
253.955 645.625 L
257.194 649.988 L
260.432 653.365 L
263.671 655.886 L
266.91 657.64 L
270.149 658.982 L
273.387 659.862 L
276.626 660.725 L
279.865 661.918 L
283.104 663.176 L
286.342 664.421 L
289.581 665.143 L
292.82 665.602 L
296.059 665.88 L
299.297 666.105 L
302.536 666.462 L
305.775 667.019 L
309.014 666.01 L
312.252 668.184 L
315.491 668.822 L
318.73 669.263 L
321.968 670.392 L
325.207 670.856 L
328.446 670.867 L
331.685 670.864 L
334.923 670.84 L
338.162 670.687 L
341.401 670.24 L
344.64 669.389 L
347.878 667.837 L
351.117 665.845 L
354.356 664.736 L
357.595 663.882 L
360.833 663.344 L
364.072 663.084 L
367.311 663.033 L
370.55 663.08 L
373.788 663.118 L
377.027 663.163 L
380.266 663.228 L
383.505 663.332 L
386.743 663.188 L
389.982 663.28 L
393.221 663.451 L
396.459 663.713 L
399.698 664.064 L
S
GR
GS
[0.75 0 0 0.75 0 0.25] CT
1 0 0 RC
2 LJ
6.667 LW
N
399.698 664.064 M
402.937 664.274 L
406.176 664.409 L
409.414 664.402 L
412.653 664.395 L
415.892 664.379 L
419.131 664.337 L
422.369 664.275 L
425.608 664.206 L
428.847 664.138 L
432.086 664.084 L
435.324 664.053 L
438.563 664.04 L
441.802 664.033 L
445.041 664.019 L
448.279 663.988 L
451.518 663.931 L
454.757 663.831 L
457.995 663.667 L
461.234 663.403 L
464.473 662.989 L
467.712 662.446 L
470.95 661.795 L
474.189 660.945 L
477.428 659.836 L
480.667 658.434 L
483.905 656.923 L
487.144 655.518 L
490.383 653.739 L
493.622 651.831 L
496.86 649.847 L
500.099 647.809 L
503.338 645.757 L
506.577 643.702 L
509.815 641.712 L
513.054 639.782 L
516.293 637.928 L
519.532 636.166 L
522.77 634.497 L
526.009 632.922 L
529.248 631.424 L
532.486 629.892 L
535.725 628.561 L
538.964 627.194 L
542.203 625.842 L
545.441 624.475 L
548.68 623.148 L
551.919 621.77 L
555.158 620.506 L
558.396 619.257 L
S
GR
GS
[0.75 0 0 0.75 0 0.25] CT
1 0 0 RC
2 LJ
6.667 LW
N
558.396 619.257 M
561.635 618.036 L
564.874 616.848 L
568.113 615.653 L
571.351 614.59 L
574.59 613.595 L
577.829 612.617 L
581.068 611.639 L
584.306 610.654 L
587.545 609.673 L
590.784 608.698 L
594.023 607.653 L
597.261 606.548 L
600.5 605.411 L
603.739 604.213 L
606.977 602.983 L
610.216 601.649 L
613.455 600.185 L
616.694 598.686 L
619.932 597.095 L
623.171 595.418 L
626.41 593.661 L
629.649 591.829 L
632.887 589.931 L
636.126 587.982 L
639.365 585.99 L
642.604 583.999 L
645.842 582.039 L
649.081 579.854 L
652.32 577.449 L
655.559 575.978 L
658.797 573.975 L
662.036 571.948 L
665.275 569.809 L
668.514 567.858 L
671.752 565.756 L
674.991 563.524 L
678.23 561.442 L
681.468 559.221 L
684.707 556.958 L
687.946 554.7 L
691.185 552.45 L
694.423 550.232 L
697.662 548.038 L
700.901 545.881 L
704.14 543.778 L
707.378 541.739 L
710.617 539.784 L
713.856 537.879 L
717.095 536.034 L
S
GR
GS
[0.75 0 0 0.75 0 0.25] CT
1 0 0 RC
2 LJ
6.667 LW
N
717.095 536.034 M
720.333 534.205 L
723.572 532.386 L
726.811 530.579 L
730.05 528.755 L
733.288 526.903 L
736.527 525.043 L
739.766 523.164 L
743.004 520.918 L
746.243 518.997 L
749.482 517.413 L
752.721 515.478 L
755.959 513.512 L
759.198 511.544 L
762.437 509.52 L
765.676 507.356 L
768.914 505.191 L
772.153 502.932 L
775.392 500.576 L
778.631 498.115 L
781.869 495.582 L
785.108 492.987 L
788.347 490.395 L
791.586 487.776 L
794.824 485.201 L
798.063 482.578 L
801.302 480.173 L
804.541 477.639 L
807.779 475.109 L
811.018 472.539 L
814.257 469.9 L
817.496 466.222 L
820.734 464.26 L
823.973 461.64 L
827.212 458.865 L
830.45 456.079 L
833.689 453.303 L
836.928 450.531 L
840.167 447.75 L
843.405 444.927 L
846.644 442.052 L
849.883 439.119 L
853.122 436.258 L
856.36 433.205 L
859.599 430.209 L
862.838 427.285 L
866.077 424.404 L
869.315 421.569 L
872.554 418.79 L
875.793 416.057 L
S
GR
GS
[0.75 0 0 0.75 0 0.25] CT
1 0 0 RC
2 LJ
6.667 LW
N
875.793 416.057 M
879.032 413.321 L
882.27 410.465 L
885.509 407.645 L
888.748 404.827 L
891.987 401.877 L
895.225 398.864 L
898.464 395.789 L
901.703 392.731 L
904.941 389.625 L
908.18 386.383 L
911.419 383.274 L
914.658 380.169 L
917.896 376.884 L
921.135 373.535 L
924.374 370.116 L
927.613 366.554 L
930.851 362.769 L
934.09 359.567 L
937.329 356.509 L
940.568 353.212 L
943.806 349.855 L
947.045 346.286 L
950.284 342.85 L
953.523 339.529 L
956.761 336.006 L
960 332.476 L
963.239 328.698 L
966.477 326.084 L
969.716 323.645 L
972.955 321.576 L
976.194 319.745 L
979.432 318.079 L
982.671 316.5 L
985.91 314.763 L
989.149 313.429 L
992.387 312.099 L
995.626 310.679 L
998.865 309.605 L
1002.104 308.546 L
1005.342 307.372 L
1008.581 304.193 L
1011.82 298.631 L
1015.059 291.768 L
1018.297 284.533 L
1021.536 277.301 L
1024.775 270.208 L
1028.014 263.345 L
1031.252 256.872 L
1034.491 250.958 L
S
GR
GS
[0.75 0 0 0.75 0 0.25] CT
1 0 0 RC
2 LJ
6.667 LW
N
1034.491 250.958 M
1037.73 245.692 L
1040.969 241.119 L
1044.207 237.216 L
1047.446 233.916 L
1050.685 231.159 L
1053.923 228.862 L
1057.162 226.968 L
1060.401 225.493 L
1063.64 224.307 L
1066.878 223.474 L
1070.117 223.017 L
1073.356 222.865 L
1076.595 222.995 L
1079.833 223.456 L
1083.072 224.23 L
1086.311 225.31 L
1089.55 226.751 L
1092.788 228.557 L
1096.027 230.701 L
1099.266 233.156 L
1102.505 236.071 L
1105.743 233.247 L
1108.982 236.124 L
1112.221 239.109 L
1115.459 242.24 L
1118.698 245.303 L
1121.937 248.342 L
1125.176 251.351 L
1128.414 254.266 L
1131.653 257.355 L
1134.892 260.427 L
1138.131 263.445 L
1141.369 266.351 L
1144.608 269.144 L
1147.847 272.507 L
1151.086 273.996 L
1154.324 279.65 L
1157.563 281.531 L
1160.802 283.694 L
1164.041 286.358 L
1167.279 289.364 L
1170.518 292.435 L
1173.757 295.57 L
1176.995 298.89 L
1180.234 302.415 L
1183.473 305.599 L
1186.712 309.382 L
1189.95 312.919 L
1193.189 316.468 L
S
GR
GS
[0.75 0 0 0.75 0 0.25] CT
1 0 0 RC
2 LJ
6.667 LW
N
1193.189 316.468 M
1196.428 320.056 L
1199.667 323.569 L
1202.905 327.057 L
1206.144 330.444 L
1209.383 333.705 L
1212.622 336.862 L
1215.86 340.212 L
1219.099 343.081 L
1222.338 346.06 L
1225.577 348.889 L
1228.815 351.808 L
1232.054 354.239 L
1235.293 356.781 L
1238.531 358.938 L
1241.77 361.056 L
1245.009 363.473 L
1248.248 361.234 L
1251.486 363.642 L
1254.725 365.886 L
1257.964 368.238 L
1261.203 370.244 L
1264.442 372.885 L
1267.68 375.302 L
1270.919 377.833 L
1274.158 379.902 L
1277.396 382.115 L
1280.635 384.489 L
1283.874 386.553 L
1287.113 388.616 L
1290.351 390.571 L
1293.59 392.585 L
1296.829 394.659 L
1300.068 396.39 L
1303.306 398.385 L
1306.545 400.148 L
1309.784 401.784 L
1313.023 403.342 L
1316.261 404.594 L
1319.5 405.679 L
1322.739 407.328 L
1325.977 408.168 L
1329.216 409.2 L
1332.455 409.916 L
1335.694 410.664 L
1338.932 411.416 L
1342.171 412.114 L
1345.41 412.747 L
1348.649 413.223 L
1351.887 413.766 L
S
GR
GS
[0.75 0 0 0.75 0 0.25] CT
1 0 0 RC
2 LJ
6.667 LW
N
1351.887 413.766 M
1355.126 414.404 L
1358.365 415.002 L
1361.604 415.608 L
1364.842 416.247 L
1368.081 416.847 L
1371.32 417.531 L
1374.558 418.226 L
1377.797 418.942 L
1381.036 419.578 L
1384.275 420.19 L
1387.514 420.941 L
1390.752 421.719 L
1393.991 421.034 L
1397.23 421.921 L
1400.469 422.544 L
1403.707 422.947 L
1406.946 423.443 L
1410.185 423.998 L
1413.423 424.363 L
1416.662 424.704 L
1419.901 424.946 L
1423.14 425.207 L
1426.378 425.485 L
1429.617 425.588 L
1432.856 425.592 L
1436.095 425.586 L
1439.333 425.563 L
1442.572 425.517 L
1445.811 425.454 L
1449.05 425.358 L
1452.288 425.226 L
1455.527 425.069 L
1458.766 424.884 L
1462.005 424.633 L
1465.243 424.318 L
1468.482 423.957 L
1471.721 423.573 L
1474.959 423.235 L
1478.198 422.935 L
1481.437 422.607 L
1484.676 422.234 L
1487.914 421.964 L
1491.153 421.921 L
1494.392 421.911 L
1497.631 421.976 L
1500.869 422.055 L
1504.108 422.177 L
1507.347 422.349 L
1510.586 422.548 L
S
GR
GS
[0.75 0 0 0.75 0 0.25] CT
1 0 0 RC
2 LJ
6.667 LW
N
1510.586 422.548 M
1513.824 422.795 L
1517.063 423.173 L
1520.302 423.786 L
1523.541 424.622 L
1526.779 425.658 L
1530.018 426.863 L
1533.257 428.049 L
1536.495 426.765 L
1539.734 427.8 L
1542.973 429.218 L
1546.212 430.983 L
1549.45 432.853 L
1552.689 434.918 L
1555.928 438.121 L
1559.167 440.125 L
1562.405 443.085 L
1565.644 445.988 L
1568.883 449.151 L
1572.122 452.048 L
1575.36 455.368 L
1578.599 458.856 L
1581.838 462.473 L
1585.077 466.166 L
1588.315 469.702 L
1591.554 473.805 L
1594.793 477.935 L
1598.031 481.781 L
1601.27 486.813 L
1604.509 491.364 L
1607.748 496.797 L
1610.986 503.397 L
1614.225 509.235 L
1617.464 515.629 L
1620.703 521.818 L
1623.942 528.668 L
1627.18 534.506 L
1630.419 540.592 L
1633.658 547.299 L
1636.896 553.118 L
1640.135 559.245 L
1643.374 565.95 L
1646.613 571.741 L
1649.851 577.787 L
1653.09 584.17 L
1656.329 591.191 L
1659.568 596.392 L
1662.806 602.779 L
1666.045 609.77 L
1669.284 616.06 L
S
GR
GS
[0.75 0 0 0.75 0 0.25] CT
1 0 0 RC
2 LJ
6.667 LW
N
1669.284 616.06 M
1672.523 622.79 L
1675.761 629.637 L
1679 623.039 L
S
GR
GS
[0.75 0 0 0.75 0 0.25] CT
0 1 0 RC
2 LJ
6.667 LW
N
241 592.791 M
244.239 582.732 L
247.477 595.915 L
250.716 602.008 L
253.955 602.62 L
257.194 606.498 L
260.432 610.99 L
263.671 614.517 L
266.91 618.131 L
270.149 621.612 L
273.387 624.595 L
276.626 627.004 L
279.865 629.166 L
283.104 631.517 L
286.342 633.535 L
289.581 635.117 L
292.82 636.678 L
296.059 638.14 L
299.297 639.395 L
302.536 640.509 L
305.775 641.544 L
309.014 642.372 L
312.252 643.232 L
315.491 643.997 L
318.73 644.558 L
321.968 644.796 L
325.207 644.578 L
328.446 644.291 L
331.685 643.918 L
334.923 643.378 L
338.162 642.749 L
341.401 642.064 L
344.64 641.388 L
347.878 640.598 L
351.117 639.816 L
354.356 638.835 L
357.595 637.654 L
360.833 636.836 L
364.072 635.958 L
367.311 634.844 L
370.55 633.722 L
373.788 632.598 L
377.027 631.436 L
380.266 630.246 L
383.505 629.001 L
386.743 627.657 L
389.982 626.228 L
393.221 624.733 L
396.459 623.187 L
399.698 621.539 L
S
GR
GS
[0.75 0 0 0.75 0 0.25] CT
0 1 0 RC
2 LJ
6.667 LW
N
399.698 621.539 M
402.937 619.858 L
406.176 618.19 L
409.414 616.498 L
412.653 614.791 L
415.892 613.128 L
419.131 611.601 L
422.369 610.187 L
425.608 608.878 L
428.847 607.742 L
432.086 606.734 L
435.324 605.835 L
438.563 605.02 L
441.802 604.195 L
445.041 603.382 L
448.279 602.592 L
451.518 601.762 L
454.757 600.887 L
457.995 599.907 L
461.234 598.785 L
464.473 597.518 L
467.712 596.077 L
470.95 594.491 L
474.189 592.579 L
477.428 590.194 L
480.667 587.521 L
483.905 584.424 L
487.144 580.764 L
490.383 576.954 L
493.622 573.376 L
496.86 570.472 L
500.099 568.706 L
503.338 567.925 L
506.577 568.186 L
509.815 569.538 L
513.054 571.344 L
516.293 573.267 L
519.532 575.062 L
522.77 576.567 L
526.009 577.708 L
529.248 578.559 L
532.486 579.208 L
535.725 579.55 L
538.964 579.657 L
542.203 579.669 L
545.441 579.685 L
548.68 579.698 L
551.919 579.706 L
555.158 579.725 L
558.396 579.764 L
S
GR
GS
[0.75 0 0 0.75 0 0.25] CT
0 1 0 RC
2 LJ
6.667 LW
N
558.396 579.764 M
561.635 579.858 L
564.874 580.008 L
568.113 580.211 L
571.351 580.444 L
574.59 580.648 L
577.829 580.8 L
581.068 580.872 L
584.306 580.871 L
587.545 580.85 L
590.784 580.8 L
594.023 580.728 L
597.261 580.599 L
600.5 580.401 L
603.739 580.201 L
606.977 579.964 L
610.216 579.679 L
613.455 579.319 L
616.694 578.828 L
619.932 578.247 L
623.171 577.574 L
626.41 576.741 L
629.649 575.762 L
632.887 574.698 L
636.126 573.569 L
639.365 572.362 L
642.604 571.074 L
645.842 569.706 L
649.081 568.318 L
652.32 566.873 L
655.559 565.367 L
658.797 563.869 L
662.036 562.234 L
665.275 560.452 L
668.514 558.627 L
671.752 556.718 L
674.991 554.769 L
678.23 552.818 L
681.468 550.668 L
684.707 548.479 L
687.946 546.378 L
691.185 544.23 L
694.423 542.108 L
697.662 539.831 L
700.901 537.627 L
704.14 535.591 L
707.378 533.41 L
710.617 531.078 L
713.856 528.808 L
717.095 526.362 L
S
GR
GS
[0.75 0 0 0.75 0 0.25] CT
0 1 0 RC
2 LJ
6.667 LW
N
717.095 526.362 M
720.333 523.867 L
723.572 521.265 L
726.811 518.067 L
730.05 515.511 L
733.288 513.344 L
736.527 510.697 L
739.766 507.983 L
743.004 505.185 L
746.243 502.305 L
749.482 499.486 L
752.721 496.643 L
755.959 493.738 L
759.198 490.795 L
762.437 487.719 L
765.676 484.642 L
768.914 481.724 L
772.153 478.805 L
775.392 475.838 L
778.631 472.896 L
781.869 469.987 L
785.108 467.166 L
788.347 464.283 L
791.586 461.358 L
794.824 458.366 L
798.063 455.333 L
801.302 452.37 L
804.541 449.386 L
807.779 446.435 L
811.018 443.586 L
814.257 440.807 L
817.496 438.006 L
820.734 435.068 L
823.973 432.102 L
827.212 429.168 L
830.45 426.135 L
833.689 423.006 L
836.928 419.5 L
840.167 416.691 L
843.405 415.438 L
846.644 414.106 L
849.883 412.71 L
853.122 411.62 L
856.36 410.492 L
859.599 409.462 L
862.838 408.471 L
866.077 407.491 L
869.315 406.526 L
872.554 405.65 L
875.793 404.938 L
S
GR
GS
[0.75 0 0 0.75 0 0.25] CT
0 1 0 RC
2 LJ
6.667 LW
N
875.793 404.938 M
879.032 404.288 L
882.27 403.763 L
885.509 403.39 L
888.748 403.059 L
891.987 402.722 L
895.225 402.401 L
898.464 402.152 L
901.703 401.983 L
904.941 402.012 L
908.18 402.055 L
911.419 402.072 L
914.658 402.051 L
917.896 401.186 L
921.135 398.273 L
924.374 393.688 L
927.613 388.088 L
930.851 382.122 L
934.09 376.663 L
937.329 370.88 L
940.568 364.866 L
943.806 358.852 L
947.045 352.917 L
950.284 347.375 L
953.523 342.211 L
956.761 337.588 L
960 333.458 L
963.239 329.858 L
966.477 326.744 L
969.716 323.919 L
972.955 321.458 L
976.194 319.392 L
979.432 317.678 L
982.671 316.385 L
985.91 315.451 L
989.149 314.776 L
992.387 314.428 L
995.626 314.467 L
998.865 314.456 L
1002.104 314.255 L
1005.342 314.381 L
1008.581 314.686 L
1011.82 315.394 L
1015.059 316.421 L
1018.297 317.891 L
1021.536 320.07 L
1024.775 322.273 L
1028.014 325.465 L
1031.252 329.251 L
1034.491 332.692 L
S
GR
GS
[0.75 0 0 0.75 0 0.25] CT
0 1 0 RC
2 LJ
6.667 LW
N
1034.491 332.692 M
1037.73 336.526 L
1040.969 340.836 L
1044.207 345.252 L
1047.446 349.887 L
1050.685 354.627 L
1053.923 359.665 L
1057.162 364.935 L
1060.401 369.868 L
1063.64 375.765 L
1066.878 381.212 L
1070.117 386.128 L
1073.356 391.62 L
1076.595 396.896 L
1079.833 402.274 L
1083.072 407.575 L
1086.311 412.827 L
1089.55 417.638 L
1092.788 422.734 L
1096.027 426.32 L
1099.266 432.265 L
1102.505 437.456 L
1105.743 439.225 L
1108.982 443.354 L
1112.221 446.75 L
1115.459 450.034 L
1118.698 453.214 L
1121.937 455.892 L
1125.176 458.48 L
1128.414 460.729 L
1131.653 462.78 L
1134.892 464.549 L
1138.131 466.074 L
1141.369 467.308 L
1144.608 468.716 L
1147.847 469.977 L
1151.086 471.041 L
1154.324 471.811 L
1157.563 472.446 L
1160.802 473.186 L
1164.041 473.797 L
1167.279 474.334 L
1170.518 474.948 L
1173.757 475.725 L
1176.995 476.566 L
1180.234 477.403 L
1183.473 478.417 L
1186.712 479.641 L
1189.95 480.761 L
1193.189 482.156 L
S
GR
GS
[0.75 0 0 0.75 0 0.25] CT
0 1 0 RC
2 LJ
6.667 LW
N
1193.189 482.156 M
1196.428 483.689 L
1199.667 484.825 L
1202.905 486.016 L
1206.144 487.118 L
1209.383 488.005 L
1212.622 488.883 L
1215.86 489.668 L
1219.099 490.322 L
1222.338 490.885 L
1225.577 491.385 L
1228.815 491.836 L
1232.054 492.301 L
1235.293 492.844 L
1238.531 493.312 L
1241.77 493.732 L
1245.009 494.024 L
1248.248 494.183 L
1251.486 494.3 L
1254.725 494.371 L
1257.964 494.42 L
1261.203 494.482 L
1264.442 494.63 L
1267.68 494.807 L
1270.919 494.962 L
1274.158 495.086 L
1277.396 495.177 L
1280.635 495.212 L
1283.874 495.199 L
1287.113 495.164 L
1290.351 495.12 L
1293.59 495.122 L
1296.829 495.165 L
1300.068 495.199 L
1303.306 495.22 L
1306.545 495.228 L
1309.784 495.223 L
1313.023 495.205 L
1316.261 495.174 L
1319.5 495.133 L
1322.739 495.109 L
1325.977 495.154 L
1329.216 495.191 L
1332.455 495.215 L
1335.694 495.227 L
1338.932 495.226 L
1342.171 495.211 L
1345.41 495.183 L
1348.649 495.145 L
1351.887 495.098 L
S
GR
GS
[0.75 0 0 0.75 0 0.25] CT
0 1 0 RC
2 LJ
6.667 LW
N
1351.887 495.098 M
1355.126 495.143 L
1358.365 495.182 L
1361.604 495.21 L
1364.842 495.225 L
1368.081 495.227 L
1371.32 495.216 L
1374.558 495.192 L
1377.797 495.156 L
1381.036 495.111 L
1384.275 495.131 L
1387.514 495.17 L
1390.752 495.2 L
1393.991 495.219 L
1397.23 495.224 L
1400.469 495.217 L
1403.707 495.195 L
1406.946 495.16 L
1410.185 495.117 L
1413.423 495.111 L
1416.662 495.154 L
1419.901 495.189 L
1423.14 495.211 L
1426.378 495.22 L
1429.617 495.216 L
1432.856 495.199 L
1436.095 495.169 L
1439.333 495.129 L
1442.572 495.097 L
1445.811 495.143 L
1449.05 495.18 L
1452.288 495.206 L
1455.527 495.219 L
1458.766 495.219 L
1462.005 495.205 L
1465.243 495.178 L
1468.482 495.141 L
1471.721 495.094 L
1474.959 495.132 L
1478.198 495.171 L
1481.437 495.201 L
1484.676 495.217 L
1487.914 495.22 L
1491.153 495.21 L
1494.392 495.187 L
1497.631 495.152 L
1500.869 495.106 L
1504.108 495.119 L
1507.347 495.164 L
1510.586 495.21 L
S
GR
GS
[0.75 0 0 0.75 0 0.25] CT
0 1 0 RC
2 LJ
6.667 LW
N
1510.586 495.21 M
1513.824 495.242 L
1517.063 495.256 L
1520.302 495.264 L
1523.541 495.265 L
1526.779 495.255 L
1530.018 495.236 L
1533.257 495.256 L
1536.495 495.344 L
1539.734 495.443 L
1542.973 495.559 L
1546.212 495.701 L
1549.45 495.928 L
1552.689 496.236 L
1555.928 496.682 L
1559.167 497.216 L
1562.405 497.765 L
1565.644 498.598 L
1568.883 499.461 L
1572.122 500.206 L
1575.36 501.118 L
1578.599 502.043 L
1581.838 503.162 L
1585.077 504.371 L
1588.315 505.356 L
1591.554 506.606 L
1594.793 508.126 L
1598.031 509.671 L
1601.27 511.193 L
1604.509 512.856 L
1607.748 514.66 L
1610.986 516.515 L
1614.225 518.479 L
1617.464 520.522 L
1620.703 522.702 L
1623.942 524.999 L
1627.18 527.424 L
1630.419 530.038 L
1633.658 532.8 L
1636.896 535.314 L
1640.135 538.323 L
1643.374 540.859 L
1646.613 543.922 L
1649.851 547.018 L
1653.09 550.53 L
1656.329 558.351 L
1659.568 564.196 L
1662.806 567.476 L
1666.045 573.944 L
1669.284 575.438 L
S
GR
GS
[0.75 0 0 0.75 0 0.25] CT
0 1 0 RC
2 LJ
6.667 LW
N
1669.284 575.438 M
1672.523 582.846 L
1675.761 583.787 L
1679 591.767 L
S
GR
GS
[0.75 0 0 0.75 290.25 664.12502] CT
/Helvetica 48 F
GS
[1 0 0 1 0 0] CT
0 16.5 moveto 
1 -1 scale
(Not using spline) t 
GR
GR
GS
[0.75 0 0 0.75 0 0.25] CT
1 0 0 RC
2 setlinecap
10.0 ML
6.667 LW
N
343 885.167 M
383 885.167 L
S
GR
GS
[0.75 0 0 0.75 873 664.12502] CT
/Helvetica 48 F
GS
[1 0 0 1 0 0] CT
0 16.5 moveto 
1 -1 scale
(Using splines) t 
GR
GR
GS
[0.75 0 0 0.75 0 0.25] CT
0 1 0 RC
2 setlinecap
10.0 ML
6.667 LW
N
1120 885.167 M
1160 885.167 L
S
GR
%%Trailer
%%Pages: 1
%%EOF
