%!PS-Adobe-3.0 EPSF-3.0
%%Creator: (MATLAB, The Mathworks, Inc. Version 8.5.0.197613 \(R2015a\). Operating System: Linux)
%%Title: (/home/victor/ampro/AMPRO II/Upslope Walking/figures/Thesis/CrossFlat/Knee.eps)
%%CreationDate: 2016-02-19T15:24:30
%%Pages: (atend)
%%BoundingBox: 0 0 1391 751
%%LanguageLevel: 2
%%EndComments
%%BeginProlog
%%BeginResource: procset (Apache XML Graphics Std ProcSet) 1.2 0
%%Version: 1.2 0
%%Copyright: (Copyright 2001-2003,2010 The Apache Software Foundation. License terms: http://www.apache.org/licenses/LICENSE-2.0)
/bd{bind def}bind def
/ld{load def}bd
/GR/grestore ld
/M/moveto ld
/LJ/setlinejoin ld
/C/curveto ld
/f/fill ld
/LW/setlinewidth ld
/GC/setgray ld
/t/show ld
/N/newpath ld
/CT/concat ld
/cp/closepath ld
/S/stroke ld
/L/lineto ld
/CC/setcmykcolor ld
/A/ashow ld
/GS/gsave ld
/RC/setrgbcolor ld
/RM/rmoveto ld
/ML/setmiterlimit ld
/re {4 2 roll M
1 index 0 rlineto
0 exch rlineto
neg 0 rlineto
cp } bd
/_ctm matrix def
/_tm matrix def
/BT { _ctm currentmatrix pop matrix _tm copy pop 0 0 moveto } bd
/ET { _ctm setmatrix } bd
/iTm { _ctm setmatrix _tm concat } bd
/Tm { _tm astore pop iTm 0 0 moveto } bd
/ux 0.0 def
/uy 0.0 def
/F {
  /Tp exch def
  /Tf exch def
  Tf findfont Tp scalefont setfont
  /cf Tf def  /cs Tp def
} bd
/ULS {currentpoint /uy exch def /ux exch def} bd
/ULE {
  /Tcx currentpoint pop def
  gsave
  newpath
  cf findfont cs scalefont dup
  /FontMatrix get 0 get /Ts exch def /FontInfo get dup
  /UnderlinePosition get Ts mul /To exch def
  /UnderlineThickness get Ts mul /Tt exch def
  ux uy To add moveto  Tcx uy To add lineto
  Tt setlinewidth stroke
  grestore
} bd
/OLE {
  /Tcx currentpoint pop def
  gsave
  newpath
  cf findfont cs scalefont dup
  /FontMatrix get 0 get /Ts exch def /FontInfo get dup
  /UnderlinePosition get Ts mul /To exch def
  /UnderlineThickness get Ts mul /Tt exch def
  ux uy To add cs add moveto Tcx uy To add cs add lineto
  Tt setlinewidth stroke
  grestore
} bd
/SOE {
  /Tcx currentpoint pop def
  gsave
  newpath
  cf findfont cs scalefont dup
  /FontMatrix get 0 get /Ts exch def /FontInfo get dup
  /UnderlinePosition get Ts mul /To exch def
  /UnderlineThickness get Ts mul /Tt exch def
  ux uy To add cs 10 mul 26 idiv add moveto Tcx uy To add cs 10 mul 26 idiv add lineto
  Tt setlinewidth stroke
  grestore
} bd
/QT {
/Y22 exch store
/X22 exch store
/Y21 exch store
/X21 exch store
currentpoint
/Y21 load 2 mul add 3 div exch
/X21 load 2 mul add 3 div exch
/X21 load 2 mul /X22 load add 3 div
/Y21 load 2 mul /Y22 load add 3 div
/X22 load /Y22 load curveto
} bd
/SSPD {
dup length /d exch dict def
{
/v exch def
/k exch def
currentpagedevice k known {
/cpdv currentpagedevice k get def
v cpdv ne {
/upd false def
/nullv v type /nulltype eq def
/nullcpdv cpdv type /nulltype eq def
nullv nullcpdv or
{
/upd true def
} {
/sametype v type cpdv type eq def
sametype {
v type /arraytype eq {
/vlen v length def
/cpdvlen cpdv length def
vlen cpdvlen eq {
0 1 vlen 1 sub {
/i exch def
/obj v i get def
/cpdobj cpdv i get def
obj cpdobj ne {
/upd true def
exit
} if
} for
} {
/upd true def
} ifelse
} {
v type /dicttype eq {
v {
/dv exch def
/dk exch def
/cpddv cpdv dk get def
dv cpddv ne {
/upd true def
exit
} if
} forall
} {
/upd true def
} ifelse
} ifelse
} if
} ifelse
upd true eq {
d k v put
} if
} if
} if
} forall
d length 0 gt {
d setpagedevice
} if
} bd
%%EndResource
%%BeginResource: procset (Apache XML Graphics EPS ProcSet) 1.0 0
%%Version: 1.0 0
%%Copyright: (Copyright 2002-2003 The Apache Software Foundation. License terms: http://www.apache.org/licenses/LICENSE-2.0)
/BeginEPSF { %def
/b4_Inc_state save def         % Save state for cleanup
/dict_count countdictstack def % Count objects on dict stack
/op_count count 1 sub def      % Count objects on operand stack
userdict begin                 % Push userdict on dict stack
/showpage { } def              % Redefine showpage, { } = null proc
0 setgray 0 setlinecap         % Prepare graphics state
1 setlinewidth 0 setlinejoin
10 setmiterlimit [ ] 0 setdash newpath
/languagelevel where           % If level not equal to 1 then
{pop languagelevel             % set strokeadjust and
1 ne                           % overprint to their defaults.
{false setstrokeadjust false setoverprint
} if
} if
} bd
/EndEPSF { %def
count op_count sub {pop} repeat            % Clean up stacks
countdictstack dict_count sub {end} repeat
b4_Inc_state restore
} bd
%%EndResource
%FOPBeginFontDict
%%IncludeResource: font Courier-Bold
%%IncludeResource: font Helvetica
%%IncludeResource: font Courier-BoldOblique
%%IncludeResource: font Courier-Oblique
%%IncludeResource: font Times-Roman
%%IncludeResource: font Helvetica-BoldOblique
%%IncludeResource: font Helvetica-Bold
%%IncludeResource: font Helvetica-Oblique
%%IncludeResource: font Times-BoldItalic
%%IncludeResource: font Courier
%%IncludeResource: font Times-Italic
%%IncludeResource: font Times-Bold
%%IncludeResource: font Symbol
%%IncludeResource: font ZapfDingbats
%FOPEndFontDict
%%BeginResource: encoding WinAnsiEncoding
/WinAnsiEncoding [
/.notdef /.notdef /.notdef /.notdef /.notdef
/.notdef /.notdef /.notdef /.notdef /.notdef
/.notdef /.notdef /.notdef /.notdef /.notdef
/.notdef /.notdef /.notdef /.notdef /.notdef
/.notdef /.notdef /.notdef /.notdef /.notdef
/.notdef /.notdef /.notdef /.notdef /.notdef
/.notdef /.notdef /space /exclam /quotedbl
/numbersign /dollar /percent /ampersand /quotesingle
/parenleft /parenright /asterisk /plus /comma
/hyphen /period /slash /zero /one
/two /three /four /five /six
/seven /eight /nine /colon /semicolon
/less /equal /greater /question /at
/A /B /C /D /E
/F /G /H /I /J
/K /L /M /N /O
/P /Q /R /S /T
/U /V /W /X /Y
/Z /bracketleft /backslash /bracketright /asciicircum
/underscore /quoteleft /a /b /c
/d /e /f /g /h
/i /j /k /l /m
/n /o /p /q /r
/s /t /u /v /w
/x /y /z /braceleft /bar
/braceright /asciitilde /bullet /Euro /bullet
/quotesinglbase /florin /quotedblbase /ellipsis /dagger
/daggerdbl /circumflex /perthousand /Scaron /guilsinglleft
/OE /bullet /Zcaron /bullet /bullet
/quoteleft /quoteright /quotedblleft /quotedblright /bullet
/endash /emdash /asciitilde /trademark /scaron
/guilsinglright /oe /bullet /zcaron /Ydieresis
/space /exclamdown /cent /sterling /currency
/yen /brokenbar /section /dieresis /copyright
/ordfeminine /guillemotleft /logicalnot /sfthyphen /registered
/macron /degree /plusminus /twosuperior /threesuperior
/acute /mu /paragraph /middot /cedilla
/onesuperior /ordmasculine /guillemotright /onequarter /onehalf
/threequarters /questiondown /Agrave /Aacute /Acircumflex
/Atilde /Adieresis /Aring /AE /Ccedilla
/Egrave /Eacute /Ecircumflex /Edieresis /Igrave
/Iacute /Icircumflex /Idieresis /Eth /Ntilde
/Ograve /Oacute /Ocircumflex /Otilde /Odieresis
/multiply /Oslash /Ugrave /Uacute /Ucircumflex
/Udieresis /Yacute /Thorn /germandbls /agrave
/aacute /acircumflex /atilde /adieresis /aring
/ae /ccedilla /egrave /eacute /ecircumflex
/edieresis /igrave /iacute /icircumflex /idieresis
/eth /ntilde /ograve /oacute /ocircumflex
/otilde /odieresis /divide /oslash /ugrave
/uacute /ucircumflex /udieresis /yacute /thorn
/ydieresis
] def
%%EndResource
%FOPBeginFontReencode
/Courier-Bold findfont
dup length dict begin
  {1 index /FID ne {def} {pop pop} ifelse} forall
  /Encoding WinAnsiEncoding def
  currentdict
end
/Courier-Bold exch definefont pop
/Helvetica findfont
dup length dict begin
  {1 index /FID ne {def} {pop pop} ifelse} forall
  /Encoding WinAnsiEncoding def
  currentdict
end
/Helvetica exch definefont pop
/Courier-BoldOblique findfont
dup length dict begin
  {1 index /FID ne {def} {pop pop} ifelse} forall
  /Encoding WinAnsiEncoding def
  currentdict
end
/Courier-BoldOblique exch definefont pop
/Courier-Oblique findfont
dup length dict begin
  {1 index /FID ne {def} {pop pop} ifelse} forall
  /Encoding WinAnsiEncoding def
  currentdict
end
/Courier-Oblique exch definefont pop
/Times-Roman findfont
dup length dict begin
  {1 index /FID ne {def} {pop pop} ifelse} forall
  /Encoding WinAnsiEncoding def
  currentdict
end
/Times-Roman exch definefont pop
/Helvetica-BoldOblique findfont
dup length dict begin
  {1 index /FID ne {def} {pop pop} ifelse} forall
  /Encoding WinAnsiEncoding def
  currentdict
end
/Helvetica-BoldOblique exch definefont pop
/Helvetica-Bold findfont
dup length dict begin
  {1 index /FID ne {def} {pop pop} ifelse} forall
  /Encoding WinAnsiEncoding def
  currentdict
end
/Helvetica-Bold exch definefont pop
/Helvetica-Oblique findfont
dup length dict begin
  {1 index /FID ne {def} {pop pop} ifelse} forall
  /Encoding WinAnsiEncoding def
  currentdict
end
/Helvetica-Oblique exch definefont pop
/Times-BoldItalic findfont
dup length dict begin
  {1 index /FID ne {def} {pop pop} ifelse} forall
  /Encoding WinAnsiEncoding def
  currentdict
end
/Times-BoldItalic exch definefont pop
/Courier findfont
dup length dict begin
  {1 index /FID ne {def} {pop pop} ifelse} forall
  /Encoding WinAnsiEncoding def
  currentdict
end
/Courier exch definefont pop
/Times-Italic findfont
dup length dict begin
  {1 index /FID ne {def} {pop pop} ifelse} forall
  /Encoding WinAnsiEncoding def
  currentdict
end
/Times-Italic exch definefont pop
/Times-Bold findfont
dup length dict begin
  {1 index /FID ne {def} {pop pop} ifelse} forall
  /Encoding WinAnsiEncoding def
  currentdict
end
/Times-Bold exch definefont pop
%FOPEndFontReencode
%%EndProlog
%%Page: 1 1
%%PageBoundingBox: 0 0 1391 751
%%BeginPageSetup
[1 0 0 -1 0 751] CT
%%EndPageSetup
GS
[0.75 0 0 0.75 0 0.25] CT
N
0 0 M
1855 0 L
1855 1001 L
0 1001 L
0 0 L
cp
clip
1 GC
N
0 0 1855 1001 re
f
GR
GS
[0.75 0 0 0.75 0 0.25] CT
1 GC
N
0 0 1855 1001 re
f
GR
GS
[0.75 0 0 0.75 0 0.25] CT
1 GC
N
241 721 M
1679 721 L
1679 30 L
241 30 L
cp
f
GR
GS
[0.75 0 0 0.75 0 0.25] CT
0.873 GC
2 setlinecap
10.0 ML
N
241 721 M
241 30 L
S
GR
GS
[0.75 0 0 0.75 0 0.25] CT
0.873 GC
2 setlinecap
10.0 ML
N
528.6 721 M
528.6 30 L
S
GR
GS
[0.75 0 0 0.75 0 0.25] CT
0.873 GC
2 setlinecap
10.0 ML
N
816.2 721 M
816.2 30 L
S
GR
GS
[0.75 0 0 0.75 0 0.25] CT
0.873 GC
2 setlinecap
10.0 ML
N
1103.8 721 M
1103.8 30 L
S
GR
GS
[0.75 0 0 0.75 0 0.25] CT
0.873 GC
2 setlinecap
10.0 ML
N
1391.4 721 M
1391.4 30 L
S
GR
GS
[0.75 0 0 0.75 0 0.25] CT
0.873 GC
2 setlinecap
10.0 ML
N
1679 721 M
1679 30 L
S
GR
GS
[0.75 0 0 0.75 0 0.25] CT
0.873 GC
2 setlinecap
10.0 ML
N
1679 721 M
241 721 L
S
GR
GS
[0.75 0 0 0.75 0 0.25] CT
0.873 GC
2 setlinecap
10.0 ML
N
1679 605.833 M
241 605.833 L
S
GR
GS
[0.75 0 0 0.75 0 0.25] CT
0.873 GC
2 setlinecap
10.0 ML
N
1679 490.667 M
241 490.667 L
S
GR
GS
[0.75 0 0 0.75 0 0.25] CT
0.873 GC
2 setlinecap
10.0 ML
N
1679 375.5 M
241 375.5 L
S
GR
GS
[0.75 0 0 0.75 0 0.25] CT
0.873 GC
2 setlinecap
10.0 ML
N
1679 260.333 M
241 260.333 L
S
GR
GS
[0.75 0 0 0.75 0 0.25] CT
0.873 GC
2 setlinecap
10.0 ML
N
1679 145.167 M
241 145.167 L
S
GR
GS
[0.75 0 0 0.75 0 0.25] CT
0.873 GC
2 setlinecap
10.0 ML
N
1679 30 M
241 30 L
S
GR
GS
[0.75 0 0 0.75 720.0005 599.25002] CT
0.149 GC
/Helvetica 59 F
GS
[1 0 0 1 0 0] CT
-301.5 55 moveto 
1 -1 scale
(Step progression\(%\)) t 
GR
GR
GS
[0.75 0 0 0.75 0 0.25] CT
0.149 GC
2 setlinecap
10.0 ML
N
241 721 M
1679 721 L
S
GR
GS
[0.75 0 0 0.75 0 0.25] CT
0.149 GC
2 setlinecap
10.0 ML
N
241 30 M
1679 30 L
S
GR
GS
[0.75 0 0 0.75 0 0.25] CT
0.149 GC
2 setlinecap
10.0 ML
N
241 721 M
241 706.62 L
S
GR
GS
[0.75 0 0 0.75 0 0.25] CT
0.149 GC
2 setlinecap
10.0 ML
N
528.6 721 M
528.6 706.62 L
S
GR
GS
[0.75 0 0 0.75 0 0.25] CT
0.149 GC
2 setlinecap
10.0 ML
N
816.2 721 M
816.2 706.62 L
S
GR
GS
[0.75 0 0 0.75 0 0.25] CT
0.149 GC
2 setlinecap
10.0 ML
N
1103.8 721 M
1103.8 706.62 L
S
GR
GS
[0.75 0 0 0.75 0 0.25] CT
0.149 GC
2 setlinecap
10.0 ML
N
1391.4 721 M
1391.4 706.62 L
S
GR
GS
[0.75 0 0 0.75 0 0.25] CT
0.149 GC
2 setlinecap
10.0 ML
N
1679 721 M
1679 706.62 L
S
GR
GS
[0.75 0 0 0.75 0 0.25] CT
0.149 GC
2 setlinecap
10.0 ML
N
241 30 M
241 44.38 L
S
GR
GS
[0.75 0 0 0.75 0 0.25] CT
0.149 GC
2 setlinecap
10.0 ML
N
528.6 30 M
528.6 44.38 L
S
GR
GS
[0.75 0 0 0.75 0 0.25] CT
0.149 GC
2 setlinecap
10.0 ML
N
816.2 30 M
816.2 44.38 L
S
GR
GS
[0.75 0 0 0.75 0 0.25] CT
0.149 GC
2 setlinecap
10.0 ML
N
1103.8 30 M
1103.8 44.38 L
S
GR
GS
[0.75 0 0 0.75 0 0.25] CT
0.149 GC
2 setlinecap
10.0 ML
N
1391.4 30 M
1391.4 44.38 L
S
GR
GS
[0.75 0 0 0.75 0 0.25] CT
0.149 GC
2 setlinecap
10.0 ML
N
1679 30 M
1679 44.38 L
S
GR
GS
[0.75 0 0 0.75 180.75 550.99998] CT
0.149 GC
/Helvetica 53 F
GS
[1 0 0 1 0 0] CT
-17 50 moveto 
1 -1 scale
(0) t 
GR
GR
GS
[0.75 0 0 0.75 396.44998 550.99998] CT
0.149 GC
/Helvetica 53 F
GS
[1 0 0 1 0 0] CT
-34 50 moveto 
1 -1 scale
(20) t 
GR
GR
GS
[0.75 0 0 0.75 612.15001 550.99998] CT
0.149 GC
/Helvetica 53 F
GS
[1 0 0 1 0 0] CT
-34 50 moveto 
1 -1 scale
(40) t 
GR
GR
GS
[0.75 0 0 0.75 827.85004 550.99998] CT
0.149 GC
/Helvetica 53 F
GS
[1 0 0 1 0 0] CT
-34 50 moveto 
1 -1 scale
(60) t 
GR
GR
GS
[0.75 0 0 0.75 1043.55002 550.99998] CT
0.149 GC
/Helvetica 53 F
GS
[1 0 0 1 0 0] CT
-34 50 moveto 
1 -1 scale
(80) t 
GR
GR
GS
[0.75 0 0 0.75 1259.25 550.99998] CT
0.149 GC
/Helvetica 53 F
GS
[1 0 0 1 0 0] CT
-51 50 moveto 
1 -1 scale
(100) t 
GR
GR
GS
[0 -0.75 0.75 0 104 281.87473] CT
0.149 GC
/Helvetica 59 F
GS
[1 0 0 1 0 0] CT
-247 -14 moveto 
1 -1 scale
(Knee angle \(rad\)) t 
GR
GR
GS
[0.75 0 0 0.75 0 0.25] CT
0.149 GC
2 setlinecap
10.0 ML
N
241 721 M
241 30 L
S
GR
GS
[0.75 0 0 0.75 0 0.25] CT
0.149 GC
2 setlinecap
10.0 ML
N
1679 721 M
1679 30 L
S
GR
GS
[0.75 0 0 0.75 0 0.25] CT
0.149 GC
2 setlinecap
10.0 ML
N
241 721 M
255.38 721 L
S
GR
GS
[0.75 0 0 0.75 0 0.25] CT
0.149 GC
2 setlinecap
10.0 ML
N
241 605.833 M
255.38 605.833 L
S
GR
GS
[0.75 0 0 0.75 0 0.25] CT
0.149 GC
2 setlinecap
10.0 ML
N
241 490.667 M
255.38 490.667 L
S
GR
GS
[0.75 0 0 0.75 0 0.25] CT
0.149 GC
2 setlinecap
10.0 ML
N
241 375.5 M
255.38 375.5 L
S
GR
GS
[0.75 0 0 0.75 0 0.25] CT
0.149 GC
2 setlinecap
10.0 ML
N
241 260.333 M
255.38 260.333 L
S
GR
GS
[0.75 0 0 0.75 0 0.25] CT
0.149 GC
2 setlinecap
10.0 ML
N
241 145.167 M
255.38 145.167 L
S
GR
GS
[0.75 0 0 0.75 0 0.25] CT
0.149 GC
2 setlinecap
10.0 ML
N
241 30 M
255.38 30 L
S
GR
GS
[0.75 0 0 0.75 0 0.25] CT
0.149 GC
2 setlinecap
10.0 ML
N
1679 721 M
1664.62 721 L
S
GR
GS
[0.75 0 0 0.75 0 0.25] CT
0.149 GC
2 setlinecap
10.0 ML
N
1679 605.833 M
1664.62 605.833 L
S
GR
GS
[0.75 0 0 0.75 0 0.25] CT
0.149 GC
2 setlinecap
10.0 ML
N
1679 490.667 M
1664.62 490.667 L
S
GR
GS
[0.75 0 0 0.75 0 0.25] CT
0.149 GC
2 setlinecap
10.0 ML
N
1679 375.5 M
1664.62 375.5 L
S
GR
GS
[0.75 0 0 0.75 0 0.25] CT
0.149 GC
2 setlinecap
10.0 ML
N
1679 260.333 M
1664.62 260.333 L
S
GR
GS
[0.75 0 0 0.75 0 0.25] CT
0.149 GC
2 setlinecap
10.0 ML
N
1679 145.167 M
1664.62 145.167 L
S
GR
GS
[0.75 0 0 0.75 0 0.25] CT
0.149 GC
2 setlinecap
10.0 ML
N
1679 30 M
1664.62 30 L
S
GR
GS
[0.75 0 0 0.75 170.75 541] CT
0.149 GC
/Helvetica 53 F
GS
[1 0 0 1 0 0] CT
-34 18.5 moveto 
1 -1 scale
(0) t 
GR
GR
GS
[0.75 0 0 0.75 170.75 454.62498] CT
0.149 GC
/Helvetica 53 F
GS
[1 0 0 1 0 0] CT
-85 18.5 moveto 
1 -1 scale
(0.2) t 
GR
GR
GS
[0.75 0 0 0.75 170.75 368.24999] CT
0.149 GC
/Helvetica 53 F
GS
[1 0 0 1 0 0] CT
-85 18.5 moveto 
1 -1 scale
(0.4) t 
GR
GR
GS
[0.75 0 0 0.75 170.75 281.875] CT
0.149 GC
/Helvetica 53 F
GS
[1 0 0 1 0 0] CT
-85 18.5 moveto 
1 -1 scale
(0.6) t 
GR
GR
GS
[0.75 0 0 0.75 170.75 195.49998] CT
0.149 GC
/Helvetica 53 F
GS
[1 0 0 1 0 0] CT
-85 18.5 moveto 
1 -1 scale
(0.8) t 
GR
GR
GS
[0.75 0 0 0.75 170.75 109.125] CT
0.149 GC
/Helvetica 53 F
GS
[1 0 0 1 0 0] CT
-34 18.5 moveto 
1 -1 scale
(1) t 
GR
GR
GS
[0.75 0 0 0.75 170.75 22.74998] CT
0.149 GC
/Helvetica 53 F
GS
[1 0 0 1 0 0] CT
-85 18.5 moveto 
1 -1 scale
(1.2) t 
GR
GR
GS
[0.75 0 0 0.75 0 0.25] CT
1 0 0 RC
2 LJ
6.667 LW
N
241 593.02 M
244.239 589.567 L
247.477 593.27 L
250.716 597.045 L
253.955 600.638 L
257.194 603.826 L
260.432 606.571 L
263.671 608.829 L
266.91 610.74 L
270.149 612.347 L
273.387 613.669 L
276.626 614.879 L
279.865 615.951 L
283.104 616.948 L
286.342 617.753 L
289.581 618.352 L
292.82 618.751 L
296.059 619.014 L
299.297 619.198 L
302.536 619.219 L
305.775 619.137 L
309.014 619.023 L
312.252 618.892 L
315.491 618.713 L
318.73 618.306 L
321.968 617.764 L
325.207 617.377 L
328.446 616.961 L
331.685 616.507 L
334.923 616.287 L
338.162 616.026 L
341.401 615.628 L
344.64 615.241 L
347.878 614.985 L
351.117 614.992 L
354.356 615.337 L
357.595 616.273 L
360.833 617.906 L
364.072 620.13 L
367.311 622.597 L
370.55 625.517 L
373.788 628.948 L
377.027 632.292 L
380.266 636.32 L
383.505 640.406 L
386.743 636.318 L
389.982 640.475 L
393.221 644.801 L
396.459 649.083 L
399.698 654.279 L
S
GR
GS
[0.75 0 0 0.75 0 0.25] CT
1 0 0 RC
2 LJ
6.667 LW
N
399.698 654.279 M
402.937 658.389 L
406.176 662.81 L
409.414 667.024 L
412.653 670.978 L
415.892 674.667 L
419.131 678.062 L
422.369 681.182 L
425.608 684.043 L
428.847 686.668 L
432.086 689.039 L
435.324 691.167 L
438.563 693.111 L
441.802 694.652 L
445.041 696.143 L
448.279 697.437 L
451.518 698.58 L
454.757 699.619 L
457.995 700.526 L
461.234 701.354 L
464.473 702.133 L
467.712 702.927 L
470.95 703.583 L
474.189 704.29 L
477.428 705.016 L
480.667 705.774 L
483.905 706.673 L
487.144 707.221 L
490.383 707.958 L
493.622 708.645 L
496.86 709.299 L
500.099 709.885 L
503.338 710.377 L
506.577 710.811 L
509.815 711.117 L
513.054 711.303 L
516.293 711.412 L
519.532 711.466 L
522.77 711.482 L
526.009 711.478 L
529.248 711.473 L
532.486 711.473 L
535.725 711.471 L
538.964 711.476 L
542.203 711.471 L
545.441 711.476 L
548.68 711.477 L
551.919 711.48 L
555.158 711.492 L
558.396 711.508 L
S
GR
GS
[0.75 0 0 0.75 0 0.25] CT
1 0 0 RC
2 LJ
6.667 LW
N
558.396 711.508 M
561.635 711.529 L
564.874 711.563 L
568.113 711.599 L
571.351 711.63 L
574.59 711.664 L
577.829 711.693 L
581.068 711.721 L
584.306 711.75 L
587.545 711.783 L
590.784 711.819 L
594.023 711.861 L
597.261 711.914 L
600.5 711.986 L
603.739 712.08 L
606.977 712.202 L
610.216 712.37 L
613.455 712.567 L
616.694 712.745 L
619.932 712.881 L
623.171 712.993 L
626.41 713.089 L
629.649 713.193 L
632.887 713.293 L
636.126 713.377 L
639.365 713.418 L
642.604 713.419 L
645.842 713.408 L
649.081 713.396 L
652.32 713.382 L
655.559 713.373 L
658.797 713.36 L
662.036 713.345 L
665.275 713.33 L
668.514 713.315 L
671.752 713.302 L
674.991 713.284 L
678.23 713.269 L
681.468 713.248 L
684.707 713.222 L
687.946 713.193 L
691.185 713.155 L
694.423 713.108 L
697.662 713.052 L
700.901 712.981 L
704.14 712.897 L
707.378 712.804 L
710.617 712.703 L
713.856 712.609 L
717.095 712.535 L
S
GR
GS
[0.75 0 0 0.75 0 0.25] CT
1 0 0 RC
2 LJ
6.667 LW
N
717.095 712.535 M
720.333 712.484 L
723.572 712.452 L
726.811 712.433 L
730.05 712.423 L
733.288 712.421 L
736.527 712.421 L
739.766 712.419 L
743.004 712.421 L
746.243 712.427 L
749.482 712.425 L
752.721 712.429 L
755.959 712.434 L
759.198 712.446 L
762.437 712.455 L
765.676 712.465 L
768.914 712.469 L
772.153 712.477 L
775.392 712.48 L
778.631 712.48 L
781.869 712.478 L
785.108 712.478 L
788.347 712.478 L
791.586 712.478 L
794.824 712.478 L
798.063 712.478 L
801.302 712.48 L
804.541 712.482 L
807.779 712.489 L
811.018 712.498 L
814.257 712.509 L
817.496 712.502 L
820.734 712.516 L
823.973 712.516 L
827.212 712.516 L
830.45 712.516 L
833.689 712.516 L
836.928 712.516 L
840.167 712.516 L
843.405 712.516 L
846.644 712.514 L
849.883 712.513 L
853.122 712.513 L
856.36 712.513 L
859.599 712.513 L
862.838 712.513 L
866.077 712.513 L
869.315 712.513 L
872.554 712.512 L
875.793 712.514 L
S
GR
GS
[0.75 0 0 0.75 0 0.25] CT
1 0 0 RC
2 LJ
6.667 LW
N
875.793 712.514 M
879.032 712.514 L
882.27 712.518 L
885.509 712.526 L
888.748 712.541 L
891.987 712.566 L
895.225 712.591 L
898.464 712.616 L
901.703 712.642 L
904.941 712.664 L
908.18 712.681 L
911.419 712.695 L
914.658 712.706 L
917.896 712.72 L
921.135 712.732 L
924.374 712.741 L
927.613 712.748 L
930.851 712.756 L
934.09 712.769 L
937.329 712.782 L
940.568 712.8 L
943.806 712.82 L
947.045 712.846 L
950.284 712.875 L
953.523 712.911 L
956.761 712.95 L
960 712.9 L
963.239 712.945 L
966.477 712.998 L
969.716 713.043 L
972.955 713.117 L
976.194 713.199 L
979.432 713.345 L
982.671 713.461 L
985.91 713.576 L
989.149 713.676 L
992.387 713.728 L
995.626 713.769 L
998.865 713.838 L
1002.104 713.885 L
1005.342 713.929 L
1008.581 712.583 L
1011.82 709.392 L
1015.059 705.185 L
1018.297 700.203 L
1021.536 694.883 L
1024.775 689.592 L
1028.014 684.263 L
1031.252 678.885 L
1034.491 672.982 L
S
GR
GS
[0.75 0 0 0.75 0 0.25] CT
1 0 0 RC
2 LJ
6.667 LW
N
1034.491 672.982 M
1037.73 666.471 L
1040.969 659.686 L
1044.207 652.536 L
1047.446 645.058 L
1050.685 637.259 L
1053.923 629.165 L
1057.162 620.863 L
1060.401 612.431 L
1063.64 603.871 L
1066.878 595.265 L
1070.117 586.633 L
1073.356 577.336 L
1076.595 568.372 L
1079.833 559.508 L
1083.072 550.053 L
1086.311 540.473 L
1089.55 530.834 L
1092.788 521.121 L
1096.027 511.314 L
1099.266 501.493 L
1102.505 491.637 L
1105.743 481.762 L
1108.982 472.023 L
1112.221 462.477 L
1115.459 453.129 L
1118.698 443.886 L
1121.937 434.75 L
1125.176 425.775 L
1128.414 416.861 L
1131.653 408.022 L
1134.892 398.956 L
1138.131 390.642 L
1141.369 382.305 L
1144.608 373.33 L
1147.847 365.451 L
1151.086 354.952 L
1154.324 347.077 L
1157.563 340.767 L
1160.802 333.906 L
1164.041 326.439 L
1167.279 318.717 L
1170.518 311.058 L
1173.757 303.475 L
1176.995 295.969 L
1180.234 288.549 L
1183.473 281.246 L
1186.712 274.051 L
1189.95 266.949 L
1193.189 259.986 L
S
GR
GS
[0.75 0 0 0.75 0 0.25] CT
1 0 0 RC
2 LJ
6.667 LW
N
1193.189 259.986 M
1196.428 253.232 L
1199.667 246.782 L
1202.905 241.2 L
1206.144 237.222 L
1209.383 234.357 L
1212.622 231.957 L
1215.86 229.669 L
1219.099 227.564 L
1222.338 225.41 L
1225.577 223.271 L
1228.815 221.09 L
1232.054 219.312 L
1235.293 217.307 L
1238.531 215.702 L
1241.77 213.98 L
1245.009 212.334 L
1248.248 210.816 L
1251.486 209.419 L
1254.725 208.081 L
1257.964 206.776 L
1261.203 205.536 L
1264.442 204.332 L
1267.68 203.18 L
1270.919 202.05 L
1274.158 200.959 L
1277.396 199.897 L
1280.635 198.838 L
1283.874 197.814 L
1287.113 196.808 L
1290.351 195.818 L
1293.59 194.847 L
1296.829 193.89 L
1300.068 192.925 L
1303.306 192.053 L
1306.545 191.225 L
1309.784 190.386 L
1313.023 189.62 L
1316.261 188.878 L
1319.5 188.04 L
1322.739 187.311 L
1325.977 186.721 L
1329.216 186.092 L
1332.455 185.479 L
1335.694 184.868 L
1338.932 184.269 L
1342.171 183.687 L
1345.41 183.095 L
1348.649 182.49 L
1351.887 181.918 L
S
GR
GS
[0.75 0 0 0.75 0 0.25] CT
1 0 0 RC
2 LJ
6.667 LW
N
1351.887 181.918 M
1355.126 181.364 L
1358.365 180.885 L
1361.604 180.396 L
1364.842 179.867 L
1368.081 179.321 L
1371.32 178.844 L
1374.558 178.395 L
1377.797 177.947 L
1381.036 177.504 L
1384.275 177.063 L
1387.514 176.61 L
1390.752 176.164 L
1393.991 175.762 L
1397.23 175.375 L
1400.469 174.985 L
1403.707 174.562 L
1406.946 174.143 L
1410.185 173.718 L
1413.423 173.31 L
1416.662 172.947 L
1419.901 172.59 L
1423.14 172.211 L
1426.378 171.84 L
1429.617 171.494 L
1432.856 171.147 L
1436.095 170.789 L
1439.333 170.61 L
1442.572 169.57 L
1445.811 170.353 L
1449.05 172.97 L
1452.288 176.391 L
1455.527 180.033 L
1458.766 183.72 L
1462.005 187.315 L
1465.243 191.486 L
1468.482 195.126 L
1471.721 199.196 L
1474.959 203.347 L
1478.198 208.194 L
1481.437 212.581 L
1484.676 216.262 L
1487.914 224.989 L
1491.153 228.53 L
1494.392 232.968 L
1497.631 239.336 L
1500.869 244.933 L
1504.108 251.413 L
1507.347 257.618 L
1510.586 263.921 L
S
GR
GS
[0.75 0 0 0.75 0 0.25] CT
1 0 0 RC
2 LJ
6.667 LW
N
1510.586 263.921 M
1513.824 269.816 L
1517.063 276.578 L
1520.302 283.076 L
1523.541 289.669 L
1526.779 296.338 L
1530.018 303.453 L
1533.257 310.293 L
1536.495 304.07 L
1539.734 310.524 L
1542.973 316.725 L
1546.212 323.234 L
1549.45 330.881 L
1552.689 337.79 L
1555.928 346.107 L
1559.167 352.805 L
1562.405 360.071 L
1565.644 367.366 L
1568.883 374.65 L
1572.122 381.913 L
1575.36 389.225 L
1578.599 396.466 L
1581.838 403.605 L
1585.077 410.74 L
1588.315 417.97 L
1591.554 425.091 L
1594.793 432.275 L
1598.031 438.465 L
1601.27 445.874 L
1604.509 452.702 L
1607.748 459.612 L
1610.986 466.699 L
1614.225 472.899 L
1617.464 480.135 L
1620.703 486.737 L
1623.942 493.219 L
1627.18 499.62 L
1630.419 505.869 L
1633.658 511.925 L
1636.896 517.784 L
1640.135 523.481 L
1643.374 529.04 L
1646.613 534.41 L
1649.851 539.621 L
1653.09 544.652 L
1656.329 550.399 L
1659.568 554.492 L
1662.806 559.595 L
1666.045 564.302 L
1669.284 568.896 L
S
GR
GS
[0.75 0 0 0.75 0 0.25] CT
1 0 0 RC
2 LJ
6.667 LW
N
1669.284 568.896 M
1672.523 573.368 L
1675.761 577.666 L
1679 573.923 L
S
GR
GS
[0.75 0 0 0.75 0 0.25] CT
0 1 0 RC
2 LJ
6.667 LW
N
241 558.556 M
244.239 549.503 L
247.477 565.668 L
250.716 557.686 L
253.955 566.599 L
257.194 561.329 L
260.432 566.708 L
263.671 565.311 L
266.91 567.176 L
270.149 567.69 L
273.387 568.328 L
276.626 568.975 L
279.865 569.536 L
283.104 570.13 L
286.342 570.657 L
289.581 571.102 L
292.82 571.442 L
296.059 571.693 L
299.297 572.042 L
302.536 572.368 L
305.775 572.751 L
309.014 573.094 L
312.252 573.357 L
315.491 573.554 L
318.73 573.653 L
321.968 573.73 L
325.207 573.768 L
328.446 573.815 L
331.685 573.942 L
334.923 574.096 L
338.162 574.264 L
341.401 574.505 L
344.64 574.759 L
347.878 575.011 L
351.117 575.319 L
354.356 575.496 L
357.595 575.805 L
360.833 576.271 L
364.072 576.411 L
367.311 576.644 L
370.55 576.96 L
373.788 577.134 L
377.027 577.291 L
380.266 577.417 L
383.505 577.609 L
386.743 577.853 L
389.982 578.094 L
393.221 578.403 L
396.459 578.761 L
399.698 579.057 L
S
GR
GS
[0.75 0 0 0.75 0 0.25] CT
0 1 0 RC
2 LJ
6.667 LW
N
399.698 579.057 M
402.937 579.338 L
406.176 579.606 L
409.414 579.876 L
412.653 580.1 L
415.892 580.286 L
419.131 580.517 L
422.369 580.765 L
425.608 581.105 L
428.847 581.411 L
432.086 581.71 L
435.324 582.044 L
438.563 582.339 L
441.802 582.649 L
445.041 583 L
448.279 583.397 L
451.518 583.906 L
454.757 584.547 L
457.995 585.213 L
461.234 585.947 L
464.473 586.672 L
467.712 587.59 L
470.95 588.562 L
474.189 589.514 L
477.428 590.711 L
480.667 592.021 L
483.905 593.606 L
487.144 595.473 L
490.383 597.609 L
493.622 600.081 L
496.86 602.952 L
500.099 606.218 L
503.338 609.725 L
506.577 613.157 L
509.815 617.072 L
513.054 621.475 L
516.293 625.456 L
519.532 629.752 L
522.77 634.009 L
526.009 638.472 L
529.248 642.634 L
532.486 646.359 L
535.725 650.446 L
538.964 653.588 L
542.203 656.735 L
545.441 660.287 L
548.68 662.625 L
551.919 664.866 L
555.158 667.262 L
558.396 669.174 L
S
GR
GS
[0.75 0 0 0.75 0 0.25] CT
0 1 0 RC
2 LJ
6.667 LW
N
558.396 669.174 M
561.635 671.053 L
564.874 672.65 L
568.113 673.97 L
571.351 675.095 L
574.59 676.034 L
577.829 676.848 L
581.068 677.645 L
584.306 678.229 L
587.545 678.987 L
590.784 679.431 L
594.023 680.361 L
597.261 680.755 L
600.5 679.889 L
603.739 680.731 L
606.977 681.574 L
610.216 682.336 L
613.455 683.426 L
616.694 684.313 L
619.932 685.441 L
623.171 686.387 L
626.41 687.409 L
629.649 688.463 L
632.887 689.251 L
636.126 690.135 L
639.365 691 L
642.604 691.64 L
645.842 692.253 L
649.081 692.774 L
652.32 693.254 L
655.559 693.714 L
658.797 694.106 L
662.036 694.511 L
665.275 694.864 L
668.514 695.212 L
671.752 695.53 L
674.991 695.713 L
678.23 695.906 L
681.468 695.849 L
684.707 695.939 L
687.946 696.531 L
691.185 696.944 L
694.423 697.17 L
697.662 697.279 L
700.901 697.336 L
704.14 697.2 L
707.378 697.295 L
710.617 697.657 L
713.856 697.782 L
717.095 697.816 L
S
GR
GS
[0.75 0 0 0.75 0 0.25] CT
0 1 0 RC
2 LJ
6.667 LW
N
717.095 697.816 M
720.333 697.802 L
723.572 697.809 L
726.811 697.823 L
730.05 697.842 L
733.288 697.854 L
736.527 697.857 L
739.766 697.866 L
743.004 697.879 L
746.243 697.899 L
749.482 697.927 L
752.721 697.974 L
755.959 698.047 L
759.198 698.148 L
762.437 698.268 L
765.676 698.423 L
768.914 698.556 L
772.153 698.648 L
775.392 698.756 L
778.631 698.85 L
781.869 698.958 L
785.108 699.127 L
788.347 699.314 L
791.586 699.513 L
794.824 699.655 L
798.063 699.84 L
801.302 700.048 L
804.541 700.254 L
807.779 700.495 L
811.018 700.667 L
814.257 700.882 L
817.496 701.142 L
820.734 701.424 L
823.973 701.686 L
827.212 701.929 L
830.45 702.289 L
833.689 702.58 L
836.928 703.022 L
840.167 703.578 L
843.405 703.72 L
846.644 703.958 L
849.883 704.335 L
853.122 704.7 L
856.36 705.13 L
859.599 705.533 L
862.838 706.047 L
866.077 706.56 L
869.315 707.002 L
872.554 707.524 L
875.793 708.015 L
S
GR
GS
[0.75 0 0 0.75 0 0.25] CT
0 1 0 RC
2 LJ
6.667 LW
N
875.793 708.015 M
879.032 708.535 L
882.27 709.095 L
885.509 709.511 L
888.748 709.8 L
891.987 710.007 L
895.225 710.165 L
898.464 710.355 L
901.703 710.556 L
904.941 710.802 L
908.18 711.027 L
911.419 711.154 L
914.658 711.398 L
917.896 711.078 L
921.135 709.355 L
924.374 706.555 L
927.613 703 L
930.851 699.245 L
934.09 695.746 L
937.329 691.908 L
940.568 687.744 L
943.806 683.378 L
947.045 678.742 L
950.284 673.911 L
953.523 668.807 L
956.761 663.445 L
960 657.849 L
963.239 652.089 L
966.477 646.163 L
969.716 640.011 L
972.955 633.69 L
976.194 627.16 L
979.432 620.5 L
982.671 613.522 L
985.91 606.386 L
989.149 598.894 L
992.387 590.599 L
995.626 583.126 L
998.865 576.294 L
1002.104 568.168 L
1005.342 560.062 L
1008.581 551.941 L
1011.82 543.404 L
1015.059 534.513 L
1018.297 525.205 L
1021.536 516.442 L
1024.775 507.092 L
1028.014 497.624 L
1031.252 488.629 L
1034.491 479.354 L
S
GR
GS
[0.75 0 0 0.75 0 0.25] CT
0 1 0 RC
2 LJ
6.667 LW
N
1034.491 479.354 M
1037.73 469.796 L
1040.969 460.117 L
1044.207 450.311 L
1047.446 440.487 L
1050.685 430.575 L
1053.923 420.757 L
1057.162 411.033 L
1060.401 400.886 L
1063.64 391.045 L
1066.878 381.538 L
1070.117 372.111 L
1073.356 364.058 L
1076.595 357.696 L
1079.833 352.028 L
1083.072 346.758 L
1086.311 341.81 L
1089.55 336.823 L
1092.788 332.013 L
1096.027 326.337 L
1099.266 321.081 L
1102.505 317.26 L
1105.743 313.102 L
1108.982 308.621 L
1112.221 304.331 L
1115.459 300.412 L
1118.698 296.573 L
1121.937 292.826 L
1125.176 289.046 L
1128.414 285.314 L
1131.653 281.787 L
1134.892 278.337 L
1138.131 274.914 L
1141.369 271.612 L
1144.608 268.732 L
1147.847 266.017 L
1151.086 263.412 L
1154.324 260.875 L
1157.563 258.341 L
1160.802 255.791 L
1164.041 253.334 L
1167.279 250.92 L
1170.518 248.447 L
1173.757 246.187 L
1176.995 244.117 L
1180.234 242.161 L
1183.473 240.179 L
1186.712 238.15 L
1189.95 236.133 L
1193.189 234.063 L
S
GR
GS
[0.75 0 0 0.75 0 0.25] CT
0 1 0 RC
2 LJ
6.667 LW
N
1193.189 234.063 M
1196.428 232.072 L
1199.667 230.172 L
1202.905 228.353 L
1206.144 226.793 L
1209.383 225.213 L
1212.622 223.594 L
1215.86 221.962 L
1219.099 220.303 L
1222.338 218.65 L
1225.577 216.988 L
1228.815 215.38 L
1232.054 213.867 L
1235.293 212.711 L
1238.531 211.638 L
1241.77 210.581 L
1245.009 209.541 L
1248.248 208.422 L
1251.486 207.236 L
1254.725 206.068 L
1257.964 204.881 L
1261.203 203.722 L
1264.442 202.816 L
1267.68 202.03 L
1270.919 201.274 L
1274.158 200.484 L
1277.396 199.601 L
1280.635 198.791 L
1283.874 197.724 L
1287.113 196.477 L
1290.351 195.554 L
1293.59 194.801 L
1296.829 194.288 L
1300.068 193.766 L
1303.306 193.305 L
1306.545 192.755 L
1309.784 192.004 L
1313.023 191.28 L
1316.261 190.488 L
1319.5 189.691 L
1322.739 188.974 L
1325.977 188.501 L
1329.216 188.075 L
1332.455 187.583 L
1335.694 187.06 L
1338.932 186.501 L
1342.171 185.868 L
1345.41 185.229 L
1348.649 184.56 L
1351.887 183.945 L
S
GR
GS
[0.75 0 0 0.75 0 0.25] CT
0 1 0 RC
2 LJ
6.667 LW
N
1351.887 183.945 M
1355.126 183.576 L
1358.365 183.393 L
1361.604 184.335 L
1364.842 185.951 L
1368.081 187.808 L
1371.32 189.822 L
1374.558 191.448 L
1377.797 192.948 L
1381.036 194.764 L
1384.275 197.182 L
1387.514 200.018 L
1390.752 203.07 L
1393.991 206.18 L
1397.23 209.282 L
1400.469 212.263 L
1403.707 215.288 L
1406.946 218.183 L
1410.185 221.114 L
1413.423 224.246 L
1416.662 227.054 L
1419.901 230.441 L
1423.14 234.023 L
1426.378 237.21 L
1429.617 240.223 L
1432.856 243.786 L
1436.095 247.441 L
1439.333 250.296 L
1442.572 253.817 L
1445.811 257.809 L
1449.05 261.246 L
1452.288 264.491 L
1455.527 267.877 L
1458.766 271.579 L
1462.005 275.602 L
1465.243 278.292 L
1468.482 281.752 L
1471.721 288.629 L
1474.959 293.702 L
1478.198 295.97 L
1481.437 300.006 L
1484.676 304.126 L
1487.914 307.931 L
1491.153 312.101 L
1494.392 316.197 L
1497.631 320.773 L
1500.869 324.924 L
1504.108 328.91 L
1507.347 333.127 L
1510.586 338.031 L
S
GR
GS
[0.75 0 0 0.75 0 0.25] CT
0 1 0 RC
2 LJ
6.667 LW
N
1510.586 338.031 M
1513.824 342.341 L
1517.063 346.57 L
1520.302 351.01 L
1523.541 355.479 L
1526.779 359.679 L
1530.018 363.896 L
1533.257 369.028 L
1536.495 372.97 L
1539.734 377.25 L
1542.973 382.025 L
1546.212 386.383 L
1549.45 391.184 L
1552.689 396.152 L
1555.928 401.139 L
1559.167 405.851 L
1562.405 410.428 L
1565.644 415.598 L
1568.883 420.633 L
1572.122 425.168 L
1575.36 429.969 L
1578.599 434.682 L
1581.838 439.516 L
1585.077 444.524 L
1588.315 448.786 L
1591.554 453.549 L
1594.793 458.881 L
1598.031 463.516 L
1601.27 468.735 L
1604.509 473.957 L
1607.748 478.886 L
1610.986 483.987 L
1614.225 488.686 L
1617.464 493.505 L
1620.703 498.337 L
1623.942 503.288 L
1627.18 508.742 L
1630.419 513.918 L
1633.658 519.028 L
1636.896 523.946 L
1640.135 529.141 L
1643.374 533.887 L
1646.613 538.748 L
1649.851 543.333 L
1653.09 547.16 L
1656.329 553.458 L
1659.568 559.114 L
1662.806 557.865 L
1666.045 567.337 L
1669.284 559.448 L
S
GR
GS
[0.75 0 0 0.75 0 0.25] CT
0 1 0 RC
2 LJ
6.667 LW
N
1669.284 559.448 M
1672.523 575.817 L
1675.761 560.299 L
1679 584.279 L
S
GR
GS
[0.75 0 0 0.75 290.25 664.12502] CT
/Helvetica 48 F
GS
[1 0 0 1 0 0] CT
0 16.5 moveto 
1 -1 scale
(Not using spline) t 
GR
GR
GS
[0.75 0 0 0.75 0 0.25] CT
1 0 0 RC
2 setlinecap
10.0 ML
6.667 LW
N
343 885.167 M
383 885.167 L
S
GR
GS
[0.75 0 0 0.75 873 664.12502] CT
/Helvetica 48 F
GS
[1 0 0 1 0 0] CT
0 16.5 moveto 
1 -1 scale
(Using splines) t 
GR
GR
GS
[0.75 0 0 0.75 0 0.25] CT
0 1 0 RC
2 setlinecap
10.0 ML
6.667 LW
N
1120 885.167 M
1160 885.167 L
S
GR
%%Trailer
%%Pages: 1
%%EOF
